0.013196800000000002 0.0114985 0.0086014
0.013263400000000002 0.0145954 0.0095671
0.014761900000000001 0.0167266 0.0112654
0.0164269 0.0173593 0.0141958
0.0163603 0.0188911 0.0155278
0.0171262 0.0203563 0.0157942
0.0181918 0.0212554 0.0180586
0.0172261 0.0202564 0.0190576
0.0181918 0.0211888 0.0215551
0.0196903 0.0237862 0.0232534
0.0213553 0.0257509 0.0256843
0.0226873 0.0264835 0.0275158
0.0234865 0.0261505 0.0279487
0.023986 0.0276823 0.0281818
0.026317 0.0275824 0.0300799
0.0273826 0.0294139 0.0292141
0.0280486 0.029647 0.0303463
0.0299134 0.0322111 0.0311122
0.0302131 0.0322444 0.0326107
0.0319114 0.0331768 0.0347086
0.0336763 0.0355078 0.0361738
0.0330769 0.036307 0.0372061
0.0338095 0.0353746 0.0372061
0.0328771 0.0378721 0.0372727
0.0341758 0.0399367 0.0388378
0.0369064 0.0412354 0.0395371
0.0376723 0.0416683 0.0394039
0.0384049 0.0420013 0.0399367
0.038971 0.042301 0.0401698
0.0418681 0.0415351 0.0415684
0.0433 0.0414685 0.0413686
0.0441658 0.0436996 0.042301
0.0458974 0.0458974 0.0437329
0.0456976 0.0469297 0.0458641
0.0447652 0.04663 0.0451315
0.0449317 0.0486613 0.0470962
0.0447652 0.0497935 0.0487279
0.0447319 0.0492607 0.050293
0.0441325 0.0501931 0.05329
0.0464302 0.0505594 0.0525241
0.0469963 0.0528904 0.05329
0.0456976 0.0548884 0.0520246
0.0467965 0.0575524 0.0538561
0.0470296 0.060116499999999996 0.053623
0.0465634 0.062380899999999996 0.0537895
0.047629 0.0633133 0.0538894
0.0483616 0.0621811 0.0529237
0.0479953 0.0631468 0.0540226
0.0490609 0.0622477 0.0554545
0.0513253 0.0623476 0.0564535
0.0535231 0.065278 0.0564868
0.0540892 0.0658441 0.059250699999999996
0.0556876 0.0648118 0.059317299999999996
0.0548218 0.0652447 0.058751199999999996
0.0544555 0.0663436 0.058418199999999997
0.0565534 0.0673759 0.058318299999999997
0.057619 0.0692074 0.059750199999999996
0.059483799999999996 0.0718048 0.061082199999999996
0.061248699999999996 0.0732034 0.060449499999999996
0.061581699999999996 0.074269 0.061714899999999996
0.061215399999999996 0.0736363 0.062480799999999996
0.061848099999999996 0.0721711 0.0650449
0.0648784 0.0746353 0.067942
0.0654778 0.0776989 0.0701398
0.0678088 0.0777988 0.0712054
0.0692407 0.0783316 0.0701731
0.0718048 0.0788644 0.0726706
0.071272 0.0797302 0.0727372
0.0715717 0.0782983 0.0728704
0.0717382 0.0778321 0.0738694
0.0739027 0.0795304 0.0752347
0.0734698 0.0801298 0.0741358
0.0748684 0.0817282 0.0729037
0.0755677 0.0817948 0.0733033
0.0750016 0.0832933 0.0724708
0.0766666 0.0817615 0.0727705
0.0767998 0.0830269 0.0725374
0.078598 0.0835597 0.0737695
0.0799633 0.0856576 0.0748351
0.0813619 0.0843256 0.0763336
0.0806293 0.0850915 0.0783982
0.0828271 0.0874558 0.0792307
0.0834598 0.0887878 0.080929
0.0833599 0.0892207 0.0838261
0.0844255 0.0899533 0.0851248
0.084259 0.0925174 0.0871228
0.0846253 0.091918 0.0891541
0.0848584 0.0936829 0.0881551
0.0866899 0.0942157 0.0888877
0.0869896 0.0954478 0.0884215
0.088255 0.0951481 0.0897868
0.0891874 0.0966466 0.091585
0.0901198 0.0994771 0.0915184
0.0893539 0.1013419 0.0938494
0.0908857 0.1028737 0.0941491
0.0914185 0.1031401 0.095581
0.0905527 0.1021078 0.0977788
0.0899533 0.1042723 0.0994438
0.0917182 0.1050382 0.0997768
0.0923176 0.1044721 0.102574
0.0950815 0.1052713 0.1041724
0.0947152 0.1046386 0.1042057
0.0967798 0.1061704 0.1044388
0.0970462 0.1060039 0.106237
0.0989443 0.1060705 0.1074025
0.0973792 0.1063369 0.1083016
0.0984115 0.1090675 0.1103995
0.0996103 0.1109323 0.110566
0.100243 0.1114984 0.1134631
0.0993106 0.1111321 0.1157608
0.1007425 0.1124308 0.1166266
0.1006093 0.1125973 0.1185913
0.1034398 0.1131301 0.1192573
0.1050382 0.1154944 0.1202563
0.1061038 0.116227 0.1197901
0.1067032 0.1177588 0.1224208
0.1081684 0.1203895 0.1252513
0.1080352 0.1221211 0.1252513
0.1099333 0.1227871 0.12458530000000001
0.1116982 0.1216216 0.12721600000000002
0.1132633 0.1239193 0.1270495
0.1126639 0.1231867 0.1267498
0.1130635 0.1221211 0.1272493
0.1147285 0.1237861 0.1280485
0.1143955 0.1264834 0.12814840000000002
0.1153945 0.1286479 0.12814840000000002
0.1143622 0.1317115 0.12824830000000004
0.1167265 0.1331767 0.12881440000000005
0.1184581 0.132877 0.13101220000000005
0.1197901 0.1328104 0.13307680000000005
0.1189243 0.1344421 0.13584070000000006
0.1183915 0.13480840000000002 0.13827160000000008
0.1196569 0.13544110000000004 0.13817170000000006
0.1201564 0.13604050000000004 0.14046940000000008
0.1206226 0.13833820000000005 0.13977010000000006
0.1210888 0.13823830000000004 0.14216770000000006
0.1221877 0.13770550000000004 0.14413240000000008
0.1245187 0.13883770000000004 0.1454977000000001
0.1266832 0.14036950000000004 0.1456309000000001
0.128881 0.14123530000000004 0.14546440000000008
0.130546 0.14166820000000005 0.1457641000000001
0.1321444 0.14486500000000005 0.1462303000000001
0.1336429 0.14639680000000005 0.1488943000000001
0.13607380000000002 0.14676310000000006 0.1498600000000001
0.1357741 0.14816170000000006 0.1487611000000001
0.1356076 0.14849470000000006 0.1514251000000001
0.1383382 0.14899420000000008 0.1514917000000001
0.1391374 0.15045940000000008 0.1504261000000001
0.13857129999999998 0.15105880000000008 0.1517581000000001
0.13990329999999998 0.1534897000000001 0.15152500000000008
0.14143509999999998 0.1556209000000001 0.1526905000000001
0.14263389999999998 0.1578520000000001 0.1522243000000001
0.1436662 0.16008310000000012 0.1547218000000001
0.1460305 0.16271380000000013 0.15628690000000012
0.1446985 0.16354630000000014 0.15918400000000013
0.1440658 0.16611040000000016 0.16114870000000014
0.14389929999999998 0.16777540000000016 0.16241410000000014
0.1449982 0.16814170000000017 0.16288030000000014
0.1474624 0.16860790000000017 0.16311340000000016
0.1495603 0.16944040000000019 0.16304680000000016
0.15145840000000002 0.16874110000000017 0.16374610000000017
0.15428890000000003 0.17023960000000019 0.16541110000000017
0.15535450000000003 0.1708057000000002 0.16807510000000017
0.15568750000000003 0.1713718000000002 0.16904080000000019
0.15652000000000005 0.1702729000000002 0.17143840000000019
0.15618700000000005 0.1723375000000002 0.1720045000000002
0.15691960000000005 0.1755676000000002 0.1742023000000002
0.15658660000000005 0.1758340000000002 0.1761670000000002
0.15751900000000005 0.1759672000000002 0.1761670000000002
0.15695290000000003 0.17733250000000023 0.1772326000000002
0.15925060000000005 0.17640010000000023 0.1792306000000002
0.16038280000000005 0.17706610000000023 0.17939710000000023
0.16278040000000005 0.1764334000000002 0.17986330000000023
0.16541110000000006 0.1765666000000002 0.18059590000000023
0.16544440000000007 0.17686630000000023 0.18082900000000024
0.1668097000000001 0.17689960000000024 0.18039610000000023
0.1684081000000001 0.17883100000000024 0.17999650000000023
0.1696069000000001 0.18046270000000025 0.17939710000000023
0.1698400000000001 0.18286030000000025 0.1791640000000002
0.17187130000000012 0.18332650000000025 0.1796302000000002
0.17243740000000013 0.18339310000000025 0.1787311000000002
0.17433550000000014 0.18429220000000027 0.17816500000000018
0.17663320000000016 0.18352630000000025 0.17889760000000018
0.17606710000000014 0.18475840000000027 0.18009640000000018
0.17656660000000016 0.18459190000000025 0.1826605000000002
0.17763220000000016 0.18698950000000025 0.1858240000000002
0.18039610000000017 0.18569080000000024 0.18665650000000023
0.18102880000000018 0.18818830000000025 0.1862236000000002
0.1823941000000002 0.18975340000000027 0.18838810000000022
0.1820611000000002 0.19268380000000027 0.1879552000000002
0.1822942000000002 0.19444870000000028 0.1875223000000002
0.1816948000000002 0.19638010000000028 0.18682300000000018
0.1825606000000002 0.1964134000000003 0.18622360000000018
0.1851580000000002 0.1972792000000003 0.18612370000000017
0.1847251000000002 0.1983448000000003 0.18682300000000018
0.1861570000000002 0.2011087000000003 0.18968680000000018
0.1858240000000002 0.2024407000000003 0.18922060000000018
0.1878220000000002 0.20327320000000032 0.1894537000000002
0.19031950000000022 0.20593720000000032 0.1913185000000002
0.1896868000000002 0.20783530000000033 0.1918180000000002
0.1912852000000002 0.20670310000000033 0.1917514000000002
0.1914184000000002 0.20643670000000033 0.19258390000000022
0.1936828000000002 0.20676970000000033 0.19318330000000022
0.19451530000000022 0.20597050000000033 0.1930834000000002
0.19661320000000024 0.20533780000000032 0.1941490000000002
0.19791190000000025 0.20600380000000032 0.1945486000000002
0.19987660000000027 0.20653660000000032 0.1943821000000002
0.19967680000000027 0.20903410000000033 0.1961803000000002
0.19931050000000025 0.20806840000000032 0.19528120000000018
0.20017630000000025 0.20836810000000033 0.19581400000000018
0.20037610000000025 0.20926720000000035 0.19734580000000018
0.20137510000000025 0.20953360000000035 0.19704610000000017
0.20127520000000024 0.21019960000000035 0.19707940000000018
0.20080900000000024 0.21059920000000035 0.1998433000000002
0.20174140000000024 0.21089890000000036 0.2011087000000002
0.20280700000000024 0.21059920000000035 0.2007757000000002
0.20350630000000025 0.21173140000000035 0.2036062000000002
0.20560420000000026 0.21256390000000036 0.2046718000000002
0.20673640000000026 0.21542770000000036 0.2044387000000002
0.20850130000000028 0.21799180000000037 0.2062369000000002
0.20793520000000026 0.21695950000000036 0.2057707000000002
0.20663650000000025 0.21662650000000036 0.2059039000000002
0.20580400000000024 0.21782530000000036 0.2088676000000002
0.20533780000000024 0.21795850000000036 0.2092006000000002
0.20653660000000024 0.21902410000000036 0.20930050000000022
0.20673640000000024 0.21815830000000036 0.2092672000000002
0.20637010000000022 0.21929050000000036 0.2091007000000002
0.20530450000000022 0.22025620000000037 0.20906740000000018
0.2050714000000002 0.2214883000000004 0.21139840000000018
0.20510470000000022 0.2228536000000004 0.2114317000000002
0.20437210000000022 0.2243188000000004 0.2121643000000002
0.20680300000000024 0.22495150000000042 0.2118313000000002
0.20840140000000024 0.22571740000000043 0.2104327000000002
0.20866780000000024 0.22558420000000043 0.2109988000000002
0.20856790000000022 0.22635010000000044 0.2101330000000002
0.20903410000000022 0.22664980000000046 0.2103328000000002
0.20946700000000024 0.22691620000000046 0.2117314000000002
0.21083230000000025 0.22888090000000047 0.21303010000000022
0.21173140000000026 0.23081230000000047 0.2123974000000002
0.21392920000000026 0.23244400000000048 0.2136628000000002
0.21556090000000028 0.2350747000000005 0.2151946000000002
0.21516130000000028 0.2363068000000005 0.21649330000000022
0.2157274000000003 0.23634010000000052 0.21655990000000022
0.2166598000000003 0.23663980000000054 0.21782530000000022
0.2179585000000003 0.23790520000000054 0.21899080000000024
0.2189575000000003 0.23880430000000055 0.22098880000000024
0.21985660000000032 0.23996980000000057 0.22292020000000023
0.22158820000000032 0.24136840000000057 0.22428550000000025
0.22391920000000032 0.24186790000000058 0.22635010000000025
0.22508470000000033 0.24170140000000057 0.22814830000000025
0.22611700000000035 0.24449860000000057 0.22964680000000026
0.22768210000000036 0.24456520000000057 0.22964680000000026
0.22944700000000037 0.24389920000000057 0.23131180000000026
0.2312785000000004 0.24559750000000058 0.23137840000000026
0.2317114000000004 0.2470294000000006 0.23024620000000026
0.2322442000000004 0.2491606000000006 0.23071240000000026
0.23281030000000041 0.2491606000000006 0.22924720000000026
0.2321110000000004 0.2509921000000006 0.23081230000000028
0.2320444000000004 0.2512585000000006 0.23234410000000028
0.23221090000000041 0.2534896000000006 0.2331766000000003
0.23227750000000041 0.2537560000000006 0.2347750000000003
0.23347630000000041 0.25289020000000056 0.2352412000000003
0.23394250000000041 0.2546884000000006 0.2367397000000003
0.23490820000000043 0.2565532000000006 0.2392705000000003
0.23780530000000044 0.2562868000000006 0.2390374000000003
0.23963680000000046 0.2588509000000006 0.2405359000000003
0.24150160000000045 0.2601496000000006 0.24096880000000032
0.24369940000000045 0.2622142000000006 0.24116860000000032
0.24509800000000045 0.2635462000000006 0.24003640000000032
0.24553090000000047 0.26211430000000063 0.24273370000000033
0.24559750000000047 0.26238070000000063 0.24536440000000034
0.24566410000000047 0.2622142000000006 0.24506470000000033
0.24619690000000047 0.26264710000000063 0.24523120000000034
0.24709600000000048 0.26507800000000065 0.24766210000000036
0.24816160000000048 0.2676754000000007 0.24829480000000037
0.24699610000000047 0.2673091000000007 0.24829480000000037
0.24729580000000048 0.2662102000000007 0.24829480000000037
0.2484613000000005 0.2676088000000007 0.24992650000000038
0.2507257000000005 0.2702728000000007 0.25215760000000037
0.2500597000000005 0.2713051000000007 0.25388920000000037
0.2517247000000005 0.2704726000000007 0.2560537000000004
0.2511586000000005 0.2717380000000007 0.2581849000000004
0.2532565000000005 0.2733031000000007 0.2588842000000004
0.2543221000000005 0.2745019000000007 0.2594503000000004
0.2562202000000005 0.2761669000000007 0.2604160000000004
0.25655320000000054 0.27646660000000073 0.2605492000000004
0.25845130000000055 0.2761669000000007 0.2609488000000004
0.2578519000000005 0.2761669000000007 0.2634463000000004
0.2568862000000005 0.27729910000000074 0.2646784000000004
0.2583514000000005 0.2772325000000007 0.26591050000000044
0.2577853000000005 0.27889750000000074 0.2682748000000004
0.2573857000000005 0.27956350000000074 0.2704060000000004
0.2564533000000005 0.27926380000000073 0.2697067000000004
0.2585179000000005 0.2800297000000007 0.2713051000000004
0.2608822000000005 0.2810953000000007 0.2705059000000004
0.2621809000000005 0.2823940000000007 0.27270370000000044
0.2639125000000005 0.2836261000000007 0.27390250000000044
0.2661769000000005 0.2826271000000007 0.27326980000000045
0.2668762000000005 0.28176130000000066 0.27463510000000046
0.2681083000000005 0.28269370000000066 0.27540100000000045
0.2710054000000005 0.28332640000000064 0.2770660000000005
0.2705725000000005 0.28479160000000064 0.2783980000000005
0.27010630000000047 0.2843254000000006 0.2770660000000005
0.2716048000000005 0.28475830000000063 0.27836470000000046
0.2742688000000005 0.28575730000000066 0.2783980000000005
0.2765332000000005 0.28818820000000067 0.2787976000000005
0.27593380000000045 0.2886211000000007 0.28022950000000046
0.27689950000000046 0.2890873000000007 0.2805625000000005
0.27913060000000045 0.2889874000000007 0.2814283000000005
0.28166140000000045 0.2897866000000007 0.2840923000000005
0.28369270000000046 0.2904193000000007 0.28509130000000055
0.28475830000000046 0.2895202000000007 0.28549090000000055
0.2860237000000005 0.2896534000000007 0.28499140000000056
0.2863567000000005 0.29171800000000075 0.28432540000000056
0.28695610000000055 0.29354950000000074 0.2867896000000006
0.28642330000000055 0.2929834000000007 0.2860237000000006
0.28812160000000053 0.29448190000000074 0.2870893000000006
0.29031940000000056 0.29647990000000074 0.2855242000000006
0.29098540000000056 0.29721250000000077 0.28772200000000064
0.29065240000000053 0.29841130000000077 0.28985320000000064
0.2907523000000005 0.2996434000000008 0.29115190000000063
0.2920843000000005 0.3024739000000008 0.29168470000000063
0.29215090000000055 0.3033064000000008 0.2917846000000006
0.29268370000000055 0.3045385000000008 0.29434870000000063
0.29331640000000053 0.30710260000000084 0.29501470000000063
0.29454850000000055 0.30860110000000085 0.29761210000000066
0.29707930000000055 0.3117313000000009 0.29791180000000067
0.29934370000000055 0.31369600000000086 0.29897740000000067
0.30137500000000056 0.31552750000000085 0.2994103000000007
0.30147490000000055 0.3161269000000009 0.3014416000000007
0.30040930000000055 0.3185245000000009 0.3035728000000007
0.3014083000000006 0.31792510000000085 0.3056707000000007
0.3009088000000006 0.31782520000000086 0.3072691000000007
0.3006424000000006 0.3181582000000009 0.30720250000000066
0.3014416000000006 0.3179917000000009 0.30760210000000066
0.3038725000000006 0.3196234000000009 0.30963340000000067
0.3053044000000006 0.3215215000000009 0.31069900000000067
0.3055042000000006 0.3238192000000009 0.3116647000000007
0.3077686000000006 0.32641660000000094 0.3140623000000007
0.30753550000000063 0.32764870000000096 0.3148948000000007
0.30700270000000063 0.32694940000000094 0.3154942000000007
0.30983320000000064 0.329413600000001 0.3154276000000007
0.30960010000000066 0.329613400000001 0.3151279000000007
0.31029940000000067 0.331544800000001 0.31616020000000067
0.3119311000000007 0.33281020000000106 0.3155275000000007
0.3144952000000007 0.33271030000000107 0.3166597000000007
0.3144952000000007 0.33470830000000107 0.31978990000000074
0.3166597000000007 0.3344752000000011 0.31998970000000077
0.3195568000000007 0.33630670000000107 0.3221542000000008
0.3195235000000007 0.3376720000000011 0.32358610000000076
0.3198565000000007 0.3389041000000011 0.32475160000000075
0.3210553000000007 0.3409021000000011 0.32611690000000076
0.3203227000000007 0.3416014000000011 0.32608360000000075
0.3204559000000007 0.34326640000000114 0.32555080000000075
0.3217213000000007 0.3442987000000011 0.32498470000000074
0.3242854000000007 0.34593040000000114 0.3248182000000007
0.3266830000000007 0.34772860000000116 0.32688280000000075
0.32551750000000074 0.3497599000000012 0.3270826000000008
0.32618350000000074 0.3506257000000012 0.3286144000000008
0.3252178000000007 0.35295670000000123 0.3305791000000008
0.32741560000000075 0.35328970000000126 0.3316447000000008
0.32758210000000076 0.3540223000000013 0.3324772000000008
0.32711590000000074 0.3544552000000013 0.3335095000000008
0.3286810000000007 0.35478820000000133 0.3339757000000008
0.32941360000000075 0.3560869000000013 0.33454180000000083
0.33127840000000075 0.35745220000000133 0.3350413000000008
0.33271030000000074 0.35761870000000134 0.33710590000000085
0.3336094000000007 0.35758540000000133 0.33627340000000083
0.3349414000000007 0.35811820000000133 0.33590710000000085
0.33444190000000074 0.35868430000000134 0.33817150000000085
0.33420880000000075 0.36024940000000133 0.33727240000000086
0.33530770000000076 0.36188110000000134 0.3373057000000009
0.33793840000000075 0.36284680000000136 0.33687280000000086
0.33837130000000076 0.36494470000000134 0.3369394000000009
0.3399031000000008 0.36397900000000133 0.3396367000000009
0.3389707000000008 0.36401230000000134 0.3398032000000009
0.3406357000000008 0.36391240000000136 0.3402028000000009
0.3412684000000008 0.36431200000000136 0.3414016000000009
0.3440656000000008 0.3657106000000014 0.3439324000000009
0.3443320000000008 0.3665764000000014 0.34609690000000093
0.34599700000000083 0.3668095000000014 0.34746220000000094
0.34616350000000085 0.3680083000000014 0.3468628000000009
0.34852780000000083 0.3680749000000014 0.34769530000000093
0.34816150000000085 0.3688408000000014 0.3472624000000009
0.3484945000000009 0.3684745000000014 0.34879420000000094
0.34739560000000086 0.37103860000000144 0.34926040000000097
0.3479950000000009 0.37053910000000145 0.35152480000000097
0.3502594000000009 0.37170460000000144 0.35312320000000097
0.3518578000000009 0.3715048000000014 0.35472160000000097
0.3523240000000009 0.3706057000000014 0.35432200000000097
0.35249050000000093 0.37063900000000144 0.35398900000000094
0.3521575000000009 0.3704392000000014 0.35412220000000094
0.3525904000000009 0.3710053000000014 0.35462170000000093
0.3544552000000009 0.37213750000000145 0.3541888000000009
0.35598700000000094 0.37343620000000144 0.35382250000000093
0.35758540000000094 0.37423540000000144 0.35528770000000093
0.3592837000000009 0.3737692000000014 0.35602030000000096
0.3611485000000009 0.3756340000000014 0.35602030000000096
0.3615148000000009 0.3758005000000014 0.357418900000001
0.36158140000000094 0.37543420000000144 0.359816500000001
0.36371260000000094 0.37543420000000144 0.361215100000001
0.36451180000000094 0.37676620000000144 0.361148500000001
0.3667429000000009 0.37706590000000145 0.361814500000001
0.36850780000000094 0.3787309000000015 0.364645000000001
0.37017280000000097 0.37759870000000145 0.366010300000001
0.37000630000000095 0.37799830000000145 0.366110200000001
0.37157140000000094 0.37706590000000145 0.368008300000001
0.37323640000000097 0.37816480000000147 0.368641000000001
0.375001300000001 0.37879750000000145 0.371837800000001
0.373935700000001 0.37856440000000147 0.372070900000001
0.375067900000001 0.3800629000000015 0.37093870000000095
0.374934700000001 0.3807289000000015 0.36990640000000097
0.374701600000001 0.3804958000000015 0.37053910000000095
0.374834800000001 0.37963000000000147 0.37297000000000097
0.375334300000001 0.37923040000000147 0.37403560000000097
0.37686610000000104 0.38189440000000147 0.37333630000000095
0.378830800000001 0.38469160000000147 0.37330300000000094
0.37992970000000104 0.38732230000000145 0.37303660000000094
0.38112850000000104 0.38708920000000147 0.3723373000000009
0.38022940000000105 0.38882080000000147 0.3747349000000009
0.3806956000000011 0.3892537000000015 0.3763333000000009
0.3828268000000011 0.3902527000000015 0.3777652000000009
0.3833596000000011 0.3903526000000015 0.37849780000000094
0.3859237000000011 0.3924505000000015 0.37879750000000095
0.3879550000000011 0.3931498000000015 0.37889740000000094
0.3903859000000011 0.3950479000000015 0.3780649000000009
0.39191770000000115 0.3966130000000015 0.3804625000000009
0.3922507000000012 0.3969460000000015 0.3834928000000009
0.3938824000000012 0.3974455000000015 0.3843919000000009
0.3943819000000012 0.3986443000000015 0.38365930000000087
0.3937492000000012 0.3978451000000015 0.38299330000000087
0.3940822000000012 0.3993103000000015 0.38365930000000087
0.3937825000000012 0.4013083000000015 0.38349280000000086
0.3964798000000012 0.4035394000000015 0.38472490000000087
0.39544750000000123 0.4045717000000015 0.3854242000000009
0.39628000000000124 0.40613680000000146 0.3876220000000009
0.39628000000000124 0.40676950000000145 0.3889540000000009
0.39751210000000126 0.4081681000000015 0.3901528000000009
0.39744550000000123 0.41079880000000146 0.3907855000000009
0.3964798000000012 0.41046580000000144 0.3915514000000009
0.3970126000000012 0.41099860000000144 0.39205090000000087
0.39827800000000124 0.41033260000000144 0.39351610000000087
0.3978118000000012 0.40940020000000144 0.39205090000000087
0.3980782000000012 0.41103190000000145 0.39391570000000087
0.39784510000000123 0.41196430000000145 0.39444850000000087
0.3992770000000012 0.41293000000000146 0.3938158000000009
0.3996433000000012 0.41462830000000145 0.3958471000000009
0.40117510000000123 0.41579380000000143 0.3978451000000009
0.4026070000000012 0.4146949000000014 0.3994768000000009
0.4047382000000012 0.4169593000000014 0.3984112000000009
0.4053043000000012 0.4180249000000014 0.3981115000000009
0.4062034000000012 0.4182580000000014 0.4007422000000009
0.4085677000000012 0.4202227000000014 0.40097530000000087
0.40836790000000117 0.4204558000000014 0.4008754000000009
0.40913380000000116 0.4227202000000014 0.40150810000000087
0.40996630000000117 0.4236526000000014 0.40177450000000087
0.4130632000000012 0.42535090000000136 0.4019410000000009
0.4150945000000012 0.4256839000000014 0.4025071000000009
0.4166929000000012 0.4257172000000014 0.4025071000000009
0.4184578000000012 0.4246516000000014 0.4041721000000009
0.4211218000000012 0.4258504000000014 0.4048048000000009
0.4226203000000012 0.4249180000000014 0.4036393000000009
0.42548410000000125 0.4269493000000014 0.40367260000000094
0.42718240000000124 0.4260835000000014 0.40437190000000095
0.4286143000000012 0.4277485000000014 0.406436500000001
0.42851440000000124 0.42821470000000145 0.40587040000000096
0.4306123000000012 0.43031260000000143 0.405937000000001
0.4292803000000012 0.43221070000000145 0.408700900000001
0.4290805000000012 0.43231060000000143 0.411298300000001
0.4313782000000012 0.43101190000000145 0.413129800000001
0.4333429000000012 0.4313449000000015 0.413296300000001
0.4334095000000012 0.4320109000000015 0.413196400000001
0.4346083000000012 0.4336093000000015 0.41482810000000103
0.43677280000000124 0.4350745000000015 0.41442850000000103
0.4372723000000012 0.4358737000000015 0.41735890000000103
0.43867090000000125 0.4360402000000015 0.417858400000001
0.44130160000000124 0.4359403000000015 0.418124800000001
0.4403026000000012 0.43680610000000153 0.418491100000001
0.4402693000000012 0.4395700000000015 0.419057200000001
0.4402693000000012 0.43960330000000153 0.41869090000000103
0.4405690000000012 0.44110180000000154 0.41779180000000105
0.44303320000000124 0.44083540000000154 0.41725900000000105
0.44476480000000124 0.44060230000000156 0.4174588000000011
0.44386570000000125 0.44220070000000156 0.4188241000000011
0.44386570000000125 0.44363260000000154 0.4216546000000011
0.44293330000000125 0.44280010000000153 0.4211884000000011
0.44403220000000126 0.44389900000000154 0.4206889000000011
0.4427335000000013 0.44529760000000157 0.4212883000000011
0.44469820000000126 0.44649640000000157 0.4210219000000011
0.4460635000000013 0.44589700000000154 0.4224538000000011
0.4471624000000013 0.44599690000000153 0.4237858000000011
0.4484611000000013 0.44493130000000153 0.4261501000000011
0.4502260000000013 0.4450312000000015 0.42568390000000106
0.4506256000000013 0.44509780000000154 0.42648310000000106
0.4502593000000013 0.4438324000000015 0.4274488000000011
0.4510252000000013 0.4431331000000015 0.4269160000000011
0.4505923000000013 0.4423339000000015 0.4266829000000011
0.4517245000000013 0.4418011000000015 0.4293802000000011
0.4526902000000013 0.4417678000000015 0.4291471000000011
0.4546549000000013 0.4428334000000015 0.4306123000000011
0.4546216000000013 0.4451644000000015 0.4294801000000011
0.4556872000000013 0.4467628000000015 0.4288474000000011
0.45548740000000126 0.4469959000000015 0.4301794000000011
0.4559536000000013 0.4469293000000015 0.4317778000000011
0.4575853000000013 0.4477618000000015 0.4331098000000011
0.4597165000000013 0.4481947000000015 0.4343752000000011
0.4609153000000013 0.44932690000000153 0.43480810000000114
0.46258030000000133 0.45255700000000154 0.4373056000000011
0.46511110000000133 0.45295660000000154 0.43640650000000114
0.46407880000000135 0.45488800000000157 0.43657300000000115
0.46314640000000135 0.4572190000000016 0.43833790000000117
0.46431190000000133 0.4584511000000016 0.43753870000000117
0.46597690000000136 0.4603159000000016 0.4375720000000012
0.46474480000000135 0.46091530000000164 0.4374388000000012
0.46744210000000136 0.4631464000000016 0.4389706000000012
0.46767520000000135 0.46561060000000165 0.4392370000000012
0.46830790000000133 0.46521100000000165 0.4384378000000012
0.46764190000000133 0.4676752000000017 0.4392037000000012
0.46864090000000136 0.46870750000000166 0.4409020000000012
0.4700395000000014 0.47003950000000166 0.4426669000000012
0.4696399000000014 0.47177110000000166 0.4427335000000012
0.4703059000000014 0.4740688000000017 0.44373250000000125
0.46957330000000136 0.4753342000000017 0.44359930000000125
0.46940680000000135 0.4743352000000017 0.44496460000000126
0.4708054000000014 0.47376910000000166 0.4471291000000013
0.47010610000000136 0.47303650000000164 0.4475953000000013
0.46937350000000133 0.47373580000000165 0.4491604000000013
0.46910710000000133 0.4738024000000017 0.4510918000000013
0.47020600000000135 0.47536750000000166 0.4505590000000013
0.47170450000000136 0.4755673000000017 0.4510585000000013
0.47473480000000134 0.4784644000000017 0.4513582000000013
0.47396890000000136 0.47976310000000166 0.4512916000000013
0.47516770000000136 0.48189430000000166 0.4507588000000013
0.4756339000000014 0.4836925000000017 0.4502260000000013
0.4767328000000014 0.4827268000000017 0.4520242000000013
0.4790305000000014 0.4857904000000017 0.45352270000000133
0.4813282000000014 0.4870558000000017 0.45259030000000133
0.48375910000000144 0.4886542000000017 0.45298990000000133
0.48509110000000144 0.48912040000000173 0.45272350000000133
0.48722230000000144 0.48898720000000173 0.45338950000000133
0.48642310000000144 0.4889206000000017 0.45512110000000133
0.48522430000000144 0.4913182000000017 0.45502120000000135
0.48472480000000145 0.4924171000000017 0.45605350000000133
0.48635650000000147 0.4941154000000017 0.45741880000000135
0.4876219000000015 0.49564720000000173 0.45691930000000136
0.4877884000000015 0.49594690000000174 0.45878410000000136
0.4881547000000015 0.4956139000000017 0.45871750000000133
0.4886209000000015 0.4980115000000017 0.45795160000000135
0.4892869000000015 0.4985443000000017 0.4608154000000014
0.48961990000000155 0.49994290000000174 0.4631131000000014
0.49071880000000156 0.4994767000000017 0.4639456000000014
0.4921174000000016 0.49954330000000174 0.4668760000000014
0.4941487000000016 0.5017411000000017 0.4696399000000014
0.4965796000000016 0.5024404000000017 0.46930690000000136
0.4961134000000016 0.5043052000000017 0.47127160000000134
0.4955473000000016 0.5072023000000017 0.4721374000000014
0.4950478000000016 0.5092336000000016 0.4737358000000014
0.4961800000000016 0.5103325000000016 0.47383570000000136
0.4948147000000016 0.5102992000000016 0.47436850000000136
0.4957804000000016 0.5095999000000017 0.47516770000000136
0.49581370000000163 0.5107987000000017 0.4764331000000014
0.4961800000000016 0.5118976000000017 0.4777651000000014
0.49891060000000165 0.5121973000000017 0.47719900000000137
0.5000761000000017 0.5134627000000017 0.47703250000000136
0.4997764000000017 0.5157271000000018 0.47933020000000137
0.4998430000000017 0.5171590000000018 0.48116170000000136
0.5000095000000017 0.5174254000000018 0.48369250000000136
0.5019076000000017 0.5178916000000018 0.4840255000000014
0.5048047000000017 0.5176585000000018 0.4855240000000014
0.5063698000000016 0.5170258000000018 0.4854241000000014
0.5084344000000016 0.5168260000000018 0.4867561000000014
0.5083012000000016 0.5188906000000018 0.4884544000000014
0.5078017000000016 0.5191570000000018 0.4905856000000014
0.5076685000000015 0.5197897000000018 0.4912183000000014
0.5070025000000015 0.5199229000000019 0.49145140000000137
0.5077684000000015 0.5202559000000019 0.49071880000000134
0.5092669000000014 0.5190904000000018 0.49308310000000133
0.5087008000000014 0.5208553000000018 0.49484800000000134
0.5093002000000014 0.5239522000000018 0.49667950000000133
0.5098663000000014 0.5243185000000018 0.4983778000000013
0.5102992000000014 0.5251510000000018 0.4983778000000013
0.5131963000000014 0.5253841000000018 0.5001094000000014
0.5146615000000014 0.5274487000000018 0.5026069000000014
0.5156938000000014 0.5297797000000017 0.5027068000000015
0.5157604000000015 0.5304790000000017 0.5052376000000015
0.5145949000000014 0.5322106000000018 0.5065363000000015
0.5140288000000014 0.5321440000000017 0.5081347000000015
0.5160934000000014 0.5339089000000017 0.5086009000000015
0.5150944000000014 0.5344417000000017 0.5098663000000014
0.5142286000000014 0.5361400000000017 0.5118643000000015
0.5152276000000013 0.5384044000000018 0.5119642000000015
0.5169592000000014 0.5406355000000018 0.5113648000000015
0.5180914000000014 0.5410351000000019 0.5107987000000015
0.5180581000000014 0.5403358000000019 0.5120974000000015
0.5185576000000014 0.5400028000000019 0.5132296000000015
0.5202559000000014 0.5410351000000019 0.5144284000000016
0.5226868000000015 0.5404357000000019 0.5152276000000016
0.5236858000000014 0.5402692000000019 0.5153941000000015
0.5243851000000014 0.5418676000000019 0.5170924000000016
0.5265163000000014 0.5423671000000019 0.5191237000000015
0.5275819000000014 0.5415679000000019 0.5200228000000016
0.5265163000000014 0.5425003000000019 0.5187574000000016
0.5285143000000014 0.5416012000000019 0.5186908000000016
0.5305123000000015 0.5411017000000019 0.5184244000000016
0.5312116000000014 0.5408686000000019 0.5201227000000016
0.5326435000000015 0.5395699000000019 0.5222206000000016
0.5338756000000014 0.5394367000000019 0.5228866000000016
0.5335426000000014 0.5413015000000019 0.5216545000000017
0.5358403000000014 0.5430331000000019 0.5215879000000017
0.5355406000000014 0.5432662000000019 0.5232196000000017
0.5378383000000013 0.5434327000000019 0.5253175000000017
0.5377717000000013 0.5433328000000018 0.5273821000000016
0.5372056000000013 0.5423671000000019 0.5291137000000017
0.5389372000000013 0.5456638000000019 0.5301793000000017
0.5399029000000013 0.546796000000002 0.5292469000000016
0.5399362000000013 0.546263200000002 0.5284477000000016
0.5414347000000013 0.5453974000000019 0.5298130000000016
0.5418676000000012 0.5477284000000019 0.5320108000000017
0.5427667000000013 0.5481946000000019 0.5306455000000017
0.5448646000000013 0.5483278000000019 0.5311117000000016
0.5472289000000012 0.5503591000000019 0.5301127000000017
0.5479615000000012 0.5525902000000019 0.5322439000000017
0.5493268000000012 0.5534227000000019 0.5337757000000016
0.5504923000000013 0.5552875000000019 0.5365063000000017
0.5513914000000013 0.557718400000002 0.5362066000000016
0.5513914000000013 0.5592502000000019 0.5379715000000016
0.5533894000000014 0.5612815000000019 0.5374387000000016
0.5560867000000014 0.5611483000000018 0.5360734000000016
0.5570857000000013 0.5599495000000018 0.5373721000000016
0.5577517000000014 0.5607154000000018 0.5376052000000016
0.5583844000000014 0.5605822000000017 0.5385376000000016
0.5609152000000015 0.5599828000000017 0.5393701000000016
0.5620474000000015 0.5594833000000017 0.5384710000000016
0.5634793000000016 0.5609485000000017 0.5392036000000016
0.5630797000000015 0.5640454000000017 0.5414014000000016
0.5658769000000016 0.5639788000000017 0.5426002000000016
0.5674753000000016 0.5647114000000016 0.5441320000000016
0.5690071000000015 0.5659435000000016 0.5459302000000016
0.5690071000000015 0.5656771000000016 0.5459635000000016
0.5715379000000016 0.5666095000000017 0.5474620000000016
0.5728033000000016 0.5675752000000016 0.5499262000000016
0.5741020000000016 0.5702725000000016 0.5508586000000016
0.5744683000000016 0.5694067000000016 0.5496598000000016
0.5762332000000016 0.5720707000000016 0.5492269000000016
0.5782645000000015 0.5738023000000017 0.5497930000000016
0.5789305000000016 0.5744350000000017 0.5485276000000017
0.5809618000000015 0.5750011000000017 0.5501260000000017
0.5827933000000015 0.5746348000000017 0.5517244000000017
0.5833261000000015 0.5764330000000016 0.5536891000000017
0.5840587000000015 0.5782645000000016 0.5556871000000018
0.5845582000000015 0.5786974000000016 0.5579848000000017
0.5845582000000015 0.5811949000000016 0.5568859000000017
0.5865229000000015 0.5834260000000017 0.5575852000000017
0.5885542000000015 0.5850577000000017 0.5571523000000017
0.5882878000000015 0.5838589000000016 0.5595499000000017
0.5884543000000014 0.5829265000000016 0.5615479000000018
0.5902525000000014 0.5835925000000016 0.5644450000000018
0.5908186000000014 0.5833261000000016 0.5642452000000018
0.5905855000000014 0.5848579000000016 0.5666428000000018
0.5903191000000014 0.5845915000000016 0.5691403000000018
0.5903524000000014 0.5864896000000016 0.5681080000000018
0.5904190000000015 0.5878882000000016 0.5679082000000019
0.5904856000000015 0.5878882000000016 0.5685742000000019
0.5925835000000015 0.5879548000000017 0.5675086000000019
0.5945149000000015 0.5882545000000017 0.569739700000002
0.5951809000000016 0.5880214000000017 0.571105000000002
0.5963131000000016 0.5888206000000017 0.571071700000002
0.5961133000000016 0.5879548000000017 0.569773000000002
0.5973121000000017 0.5890537000000017 0.5685742000000019
0.5971123000000017 0.5907853000000017 0.5679082000000019
0.5987773000000017 0.5906854000000017 0.5691736000000018
0.5998762000000017 0.5912515000000017 0.5703058000000019
0.6023737000000018 0.5931163000000017 0.5716378000000019
0.6014413000000017 0.5933161000000017 0.5732029000000018
0.6040054000000017 0.5953474000000016 0.5725036000000019
0.6035392000000017 0.5972455000000017 0.5735026000000019
0.6043717000000017 0.5963131000000016 0.5746681000000019
0.6065362000000017 0.5968126000000016 0.5743684000000019
0.6054373000000017 0.5981779000000016 0.5759335000000019
0.6082012000000018 0.5990104000000016 0.5787307000000019
0.6093334000000018 0.5997097000000016 0.5786974000000019
0.6105988000000018 0.6013414000000016 0.578830600000002
0.6103657000000018 0.6015745000000016 0.578331100000002
0.6094666000000017 0.6041719000000015 0.579629800000002
0.6097330000000017 0.6048379000000016 0.581727700000002
0.6103990000000018 0.6040387000000016 0.581494600000002
0.6095998000000018 0.6049045000000016 0.582826600000002
0.6125302000000018 0.6060034000000016 0.583126300000002
0.6121306000000017 0.6085675000000016 0.584758000000002
0.6115645000000017 0.6096331000000016 0.584957800000002
0.6125302000000017 0.6108319000000016 0.5878216000000019
0.6124636000000017 0.6109318000000017 0.590518900000002
0.6143284000000017 0.6132961000000017 0.591351400000002
0.6145282000000016 0.6133627000000017 0.5902192000000019
0.6165262000000017 0.6140287000000018 0.5930497000000019
0.6158602000000016 0.6144949000000017 0.5941819000000019
0.6170257000000017 0.6151609000000018 0.5930497000000019
0.6176584000000017 0.6154273000000018 0.5950810000000019
0.6185242000000017 0.6177916000000018 0.5969458000000019
0.6197896000000017 0.6195565000000017 0.5987440000000018
0.6186574000000017 0.6192235000000017 0.6007420000000019
0.6186907000000017 0.6190903000000016 0.6019075000000019
0.6186574000000017 0.6199894000000017 0.6018076000000019
0.6211882000000017 0.6212215000000016 0.6020074000000019
0.6209218000000017 0.6206221000000016 0.6024070000000019
0.6219208000000017 0.6197896000000016 0.6028732000000019
0.6214879000000018 0.6211216000000016 0.6049045000000018
0.6217876000000018 0.6231862000000016 0.6052042000000019
0.6204223000000018 0.6242518000000016 0.6060367000000019
0.6218542000000018 0.6266494000000016 0.6057370000000019
0.6240187000000018 0.6270157000000016 0.6053374000000018
0.6248845000000018 0.6290470000000016 0.6075019000000018
0.6272821000000018 0.6295798000000016 0.6078016000000018
0.6275152000000018 0.6310450000000016 0.6070357000000018
0.6300793000000018 0.6328099000000016 0.6088006000000018
0.6303790000000018 0.6332761000000016 0.6080014000000018
0.6295798000000018 0.6346747000000016 0.6073687000000018
0.6307120000000018 0.6359401000000016 0.6084676000000018
0.6318109000000018 0.6373720000000016 0.6088672000000018
0.6342085000000018 0.6367060000000015 0.6105655000000019
0.6360067000000018 0.6391369000000016 0.6113980000000019
0.6357070000000018 0.6415012000000015 0.6117643000000019
0.6375718000000018 0.6427333000000015 0.613495900000002
0.6387040000000018 0.6422671000000015 0.612397000000002
0.6385042000000019 0.6423004000000015 0.6152275000000019
0.6400693000000018 0.6444982000000016 0.614261800000002
0.6421339000000018 0.6458635000000016 0.614028700000002
0.6436657000000018 0.6462964000000015 0.614827900000002
0.6437656000000018 0.6486274000000015 0.617292100000002
0.6429331000000018 0.6500260000000015 0.618457600000002
0.6425335000000018 0.6514912000000016 0.6204556000000021
0.6441652000000018 0.6503257000000016 0.6202225000000021
0.6458635000000018 0.6506254000000016 0.6216877000000022
0.6458302000000018 0.6508918000000016 0.6236524000000022
0.6478948000000018 0.6507586000000015 0.6249511000000022
0.6465628000000018 0.6495931000000015 0.6260833000000022
0.6466960000000018 0.6514579000000015 0.6274819000000023
0.6459301000000018 0.6508585000000014 0.6285142000000022
0.6471955000000018 0.6527566000000015 0.6298795000000023
0.6482611000000018 0.6525235000000015 0.6311116000000022
0.6492934000000018 0.6528565000000015 0.6334093000000022
0.6489604000000018 0.6533560000000015 0.6358069000000022
0.6512581000000017 0.6544549000000015 0.6369724000000022
0.6502591000000018 0.6567193000000016 0.6371056000000023
0.6507253000000017 0.6578515000000016 0.6365062000000022
0.6532228000000018 0.6570190000000016 0.6381712000000023
0.6543550000000018 0.6559534000000016 0.6388372000000023
0.6558202000000019 0.6567193000000016 0.6415678000000024
0.6577849000000019 0.6562531000000016 0.6432328000000024
0.6586174000000019 0.6584509000000016 0.6444649000000023
0.6603823000000019 0.6596164000000017 0.6445648000000024
0.6599161000000019 0.6600160000000017 0.6445648000000024
0.6594499000000019 0.6610483000000017 0.6465961000000023
0.6602158000000019 0.6615145000000017 0.6457969000000023
0.661681000000002 0.6639121000000017 0.6465628000000023
0.663279400000002 0.6648112000000017 0.6485275000000024
0.663112900000002 0.6641452000000017 0.6504922000000024
0.6645781000000021 0.6638455000000016 0.6502258000000024
0.665577100000002 0.6633460000000017 0.6513247000000024
0.667208800000002 0.6654106000000016 0.6538222000000025
0.6694066000000021 0.6674086000000017 0.6553873000000024
0.669273400000002 0.6665095000000016 0.6546547000000025
0.670638700000002 0.6683743000000016 0.6538555000000025
0.673469200000002 0.6694399000000016 0.6532228000000024
0.672137200000002 0.6714379000000017 0.6533560000000025
0.674434900000002 0.6727033000000017 0.6534892000000025
0.675633700000002 0.6722704000000017 0.6530230000000026
0.674834500000002 0.6735025000000017 0.6527899000000026
0.6773653000000021 0.6753340000000017 0.6526900000000025
0.677065600000002 0.6762664000000017 0.6527899000000026
0.6790303000000021 0.6752008000000017 0.6521905000000026
0.6792967000000021 0.6759667000000017 0.6515245000000025
0.679196800000002 0.6770656000000017 0.6515911000000025
0.680795200000002 0.6775651000000017 0.6519241000000026
0.679896100000002 0.6792634000000017 0.6526567000000025
0.679463200000002 0.6795298000000017 0.6545215000000025
0.6801292000000021 0.6801292000000018 0.6558202000000025
0.6799294000000021 0.6794299000000018 0.6568192000000025
0.6798961000000021 0.6799294000000018 0.6589837000000025
0.6816610000000021 0.6826600000000018 0.6602491000000025
0.682393600000002 0.6842917000000018 0.6629797000000025
0.684991000000002 0.6865894000000018 0.6617476000000025
0.685024300000002 0.6882877000000018 0.6621139000000026
0.686855800000002 0.6879547000000018 0.6627799000000026
0.687188800000002 0.6877549000000018 0.6643450000000026
0.686589400000002 0.6888538000000018 0.6646114000000026
0.6885874000000021 0.6905188000000019 0.6632461000000026
0.6896197000000021 0.6911515000000019 0.6624136000000026
0.689020300000002 0.692050600000002 0.6630796000000027
0.690352300000002 0.693349300000002 0.6632794000000026
0.6912514000000021 0.693715600000002 0.6628132000000027
0.6937489000000021 0.694481500000002 0.6613147000000027
0.6934492000000021 0.6946480000000019 0.6617476000000027
0.6932161000000021 0.6958801000000019 0.6617809000000027
0.6954472000000022 0.6967126000000019 0.6629464000000027
0.6959800000000022 0.6970456000000019 0.6631795000000027
0.6966793000000021 0.698477500000002 0.6633127000000028
0.6981778000000021 0.6997429000000019 0.6632128000000027
0.697811500000002 0.701407900000002 0.6661432000000027
0.697811500000002 0.704171800000002 0.6659434000000027
0.698877100000002 0.705037600000002 0.6654772000000028
0.697878100000002 0.706835800000002 0.6655105000000028
0.699210100000002 0.706336300000002 0.6681745000000028
0.698610700000002 0.707934700000002 0.6669757000000027
0.699076900000002 0.711064900000002 0.6679414000000027
0.6986773000000019 0.712530100000002 0.6705055000000026
0.699010300000002 0.7134292000000021 0.6712381000000026
0.6986440000000019 0.7150942000000021 0.6724036000000027
0.6993433000000019 0.7148278000000021 0.6735025000000027
0.6984109000000018 0.7162930000000022 0.6753673000000027
0.6995098000000018 0.7181578000000022 0.6764329000000027
0.7011415000000019 0.7183243000000021 0.6782311000000026
0.7036057000000019 0.7193899000000021 0.6791635000000027
0.7044382000000019 0.7210882000000022 0.6796297000000027
0.7058368000000019 0.7225534000000022 0.6785308000000027
0.706203100000002 0.7253839000000022 0.6790969000000027
0.707002300000002 0.7266493000000022 0.6797629000000027
0.709999300000002 0.7291135000000022 0.6811948000000028
0.710798500000002 0.7305121000000022 0.6818941000000027
0.711131500000002 0.7306786000000022 0.6823603000000027
0.7109650000000021 0.7320439000000022 0.6853240000000027
0.713062900000002 0.7328431000000022 0.6856237000000027
0.7136623000000021 0.7331428000000022 0.6873220000000028
0.712463500000002 0.7349410000000022 0.6892201000000028
0.7125634000000021 0.7355404000000022 0.6917509000000028
0.7139287000000021 0.7382710000000022 0.6939820000000029
0.7159267000000021 0.7381045000000023 0.6944815000000029
0.7155937000000021 0.7407685000000023 0.6953140000000029
0.7178581000000022 0.7393033000000022 0.6952807000000029
0.7186906000000022 0.7407352000000023 0.6967792000000028
0.7207885000000022 0.7407685000000023 0.6990103000000029
0.7214545000000022 0.7431661000000023 0.6998428000000029
0.7224202000000022 0.7447978000000023 0.6998428000000029
0.7222204000000022 0.7468957000000023 0.7022404000000029
0.7243183000000022 0.7461298000000023 0.7037056000000029
0.7261498000000022 0.7475950000000023 0.704371600000003
0.7262830000000022 0.7471621000000024 0.704971000000003
0.7288471000000022 0.7489936000000024 0.706869100000003
0.7282810000000022 0.7512913000000023 0.707635000000003
0.7299127000000022 0.7529230000000023 0.710232400000003
0.7328098000000022 0.7544548000000023 0.710965000000003
0.7337422000000022 0.7541218000000023 0.7113979000000029
0.7364728000000023 0.7542883000000022 0.7111315000000029
0.7383709000000023 0.7543882000000023 0.712030600000003
0.7402690000000023 0.7556203000000022 0.711597700000003
0.7392700000000023 0.7566526000000022 0.711930700000003
0.7416676000000023 0.7589836000000022 0.712230400000003
0.7441984000000024 0.7608151000000022 0.713562400000003
0.7457635000000024 0.7617808000000021 0.714894400000003
0.7448977000000023 0.7640119000000022 0.715993300000003
0.7457968000000024 0.7652440000000021 0.7174585000000031
0.7447978000000024 0.7663762000000022 0.7178914000000031
0.7459300000000024 0.7678747000000021 0.718057900000003
0.7462630000000025 0.7678747000000021 0.718790500000003
0.7459966000000025 0.7682743000000022 0.719056900000003
0.7450642000000024 0.7679080000000021 0.717824800000003
0.7453972000000024 0.7702057000000021 0.719689600000003
0.7457302000000025 0.7727698000000021 0.720422200000003
0.7485274000000025 0.773735500000002 0.720289000000003
0.7500592000000025 0.772903000000002 0.7193566000000029
0.7516909000000025 0.773902000000002 0.7186573000000029
0.7522903000000025 0.7754005000000019 0.720022600000003
0.7523569000000025 0.7782976000000019 0.7218208000000029
0.7525567000000025 0.778697200000002 0.7223869000000029
0.7548544000000025 0.779329900000002 0.724817800000003
0.7562197000000025 0.780828400000002 0.724584700000003
0.7581511000000025 0.781228000000002 0.723619000000003
0.7592500000000025 0.7821271000000021 0.7256170000000031
0.7617475000000026 0.7824934000000021 0.7268158000000031
0.7638121000000025 0.7831261000000022 0.7284142000000031
0.7645447000000025 0.7840585000000022 0.7274152000000031
0.7637122000000025 0.7863229000000023 0.7300792000000031
0.7645447000000025 0.7848910000000022 0.7293466000000032
0.7670422000000026 0.7838587000000022 0.7296796000000032
0.7672753000000025 0.7847911000000023 0.7324102000000032
0.7675750000000026 0.7860565000000023 0.7327099000000032
0.7698394000000026 0.7891867000000022 0.7356736000000033
0.7703056000000026 0.7883209000000022 0.7348078000000032
0.7701391000000026 0.7881877000000022 0.7342417000000032
0.7688071000000026 0.7905187000000021 0.7344082000000032
0.7685074000000026 0.7923502000000021 0.7344082000000032
0.7702057000000027 0.7912180000000021 0.7359400000000031
0.7715044000000026 0.7939819000000021 0.7345414000000031
0.7717042000000026 0.7942150000000021 0.7360066000000032
0.7715377000000027 0.7945147000000021 0.7378381000000032
0.7721704000000027 0.7951474000000022 0.7396696000000031
0.7722370000000027 0.7962796000000022 0.7416676000000032
0.7737022000000028 0.7985773000000022 0.7436656000000033
0.7752673000000028 0.7990102000000021 0.7447645000000033
0.7746013000000027 0.7992100000000021 0.7459633000000033
0.7758001000000028 0.8016076000000021 0.7452973000000033
0.7769656000000028 0.8034391000000021 0.7472953000000033
0.7785307000000028 0.803305900000002 0.7465960000000034
0.7810948000000028 0.803772100000002 0.7466293000000034
0.7813279000000027 0.806136400000002 0.7488271000000034
0.7820605000000027 0.807468400000002 0.7498261000000034
0.7830928000000027 0.809333200000002 0.7501258000000034
0.7849909000000027 0.808833700000002 0.7503589000000034
0.7850908000000028 0.810432100000002 0.7498261000000034
0.7856236000000028 0.809899300000002 0.7508584000000034
0.7858900000000028 0.811198000000002 0.7519240000000034
0.7876882000000027 0.810498700000002 0.7515577000000033
0.7868224000000027 0.809666200000002 0.7502257000000033
0.7867558000000027 0.810731800000002 0.7518907000000034
0.7883875000000027 0.810432100000002 0.7530895000000034
0.7875550000000027 0.810165700000002 0.7547878000000035
0.7905187000000027 0.808767100000002 0.7572520000000035
0.7898527000000026 0.810631900000002 0.7597162000000035
0.7906852000000026 0.8116309000000019 0.7615477000000035
0.7935823000000026 0.8106985000000019 0.7608484000000035
0.7931827000000026 0.8123302000000019 0.7598827000000036
0.7934158000000026 0.8117641000000019 0.7608817000000035
0.7953805000000026 0.8133625000000019 0.7632460000000035
0.7958134000000026 0.8142616000000019 0.7636123000000036
0.7961464000000026 0.815460400000002 0.7647778000000036
0.7983775000000026 0.815293900000002 0.7659766000000037
0.7990768000000026 0.815993200000002 0.7664428000000036
0.8014411000000026 0.817724800000002 0.7678081000000037
0.8047045000000026 0.8167591000000021 0.7680412000000036
0.8039719000000026 0.8191567000000021 0.7680745000000037
0.8055703000000026 0.8203555000000021 0.7678081000000037
0.8054038000000027 0.8213212000000021 0.7682410000000036
0.8069356000000026 0.8232193000000021 0.7678081000000037
0.8067691000000027 0.8263828000000021 0.7693066000000036
0.8054371000000027 0.8266159000000021 0.7690735000000036
0.8065027000000027 0.826482700000002 0.7701058000000036
0.8060698000000027 0.827848000000002 0.7718374000000037
0.8049376000000027 0.8292799000000021 0.7729696000000037
0.8058034000000027 0.8314777000000021 0.7729363000000037
0.8075017000000028 0.8313112000000021 0.7753006000000037
0.8076349000000028 0.8321770000000022 0.7779646000000037
0.8074351000000028 0.8324434000000022 0.7801624000000037
0.8090002000000028 0.8342416000000021 0.7824268000000038
0.8107984000000028 0.8365726000000021 0.7830262000000038
0.8118307000000028 0.8367058000000022 0.7844581000000038
0.8107651000000028 0.8364061000000022 0.7852240000000038
0.8129629000000028 0.8374717000000022 0.7867558000000038
0.8130295000000028 0.8388703000000022 0.7885873000000038
0.8136622000000029 0.8404687000000022 0.7894198000000038
0.8135623000000028 0.8398027000000021 0.7891201000000038
0.8136955000000029 0.8420338000000022 0.7920172000000038
0.8123635000000029 0.8428996000000022 0.7928497000000038
0.813828700000003 0.8454304000000022 0.7958800000000038
0.816892300000003 0.8446312000000022 0.7971121000000038
0.818324200000003 0.8438653000000023 0.7988104000000038
0.8181244000000031 0.8442649000000023 0.8002423000000038
0.8187571000000031 0.8445313000000023 0.8001424000000038
0.8194231000000032 0.8467624000000024 0.8007418000000038
0.8221204000000032 0.8486938000000024 0.8029729000000039
0.8238187000000032 0.8481943000000024 0.8052373000000039
0.8255170000000033 0.8496262000000024 0.8039053000000039
0.8271154000000033 0.8512246000000024 0.8043715000000039
0.8265160000000032 0.8519239000000024 0.8054704000000039
0.8267491000000032 0.8517907000000023 0.8071021000000039
0.8272486000000032 0.8524234000000024 0.808001200000004
0.8285806000000032 0.8535556000000024 0.810765100000004
0.8276482000000032 0.8534224000000024 0.810398800000004
0.8294464000000031 0.8554870000000023 0.811297900000004
0.8289136000000031 0.8560198000000023 0.810964900000004
0.8303122000000032 0.8589502000000023 0.812230300000004
0.8313112000000031 0.8584507000000023 0.8110315000000039
0.8306119000000032 0.8588170000000024 0.8124634000000039
0.8310115000000032 0.8580844000000024 0.813029500000004
0.8308783000000032 0.8591500000000024 0.812596600000004
0.8324767000000032 0.8597827000000025 0.814661200000004
0.8316775000000032 0.8617807000000025 0.817358500000004
0.8318440000000031 0.8642782000000025 0.819589600000004
0.8315443000000031 0.8659765000000026 0.820155700000004
0.8326099000000031 0.8658766000000025 0.821754100000004
0.8343082000000032 0.8649775000000025 0.8231860000000041
0.8359399000000032 0.8658433000000025 0.8231527000000041
0.8382376000000031 0.8682409000000025 0.8240185000000041
0.8410015000000032 0.8694730000000025 0.8248843000000041
0.8424334000000032 0.8691400000000025 0.8265826000000042
0.8427997000000033 0.8680411000000025 0.8282809000000042
0.8442649000000033 0.8705719000000025 0.8282809000000042
0.8467957000000034 0.8701390000000025 0.8282809000000042
0.8467624000000034 0.8712379000000026 0.8304121000000042
0.8477281000000033 0.8707384000000026 0.8319106000000042
0.8466625000000033 0.8709715000000026 0.8316109000000041
0.8457967000000033 0.8722369000000025 0.8318773000000041
0.8457301000000033 0.8718040000000026 0.8322436000000042
0.8453305000000032 0.8706052000000025 0.8326432000000042
0.8465293000000033 0.8713711000000025 0.8339752000000042
0.8464627000000032 0.8727364000000025 0.8339419000000042
0.8471287000000033 0.8742349000000025 0.8358400000000042
0.8470288000000032 0.8754337000000025 0.8372386000000043
0.8468290000000033 0.8758333000000026 0.8367724000000043
0.8463295000000033 0.8779645000000026 0.8365726000000043
0.8480944000000032 0.8779978000000026 0.8375050000000044
0.8469622000000032 0.8781310000000027 0.8374384000000044
0.8482942000000032 0.8793298000000027 0.8371720000000044
0.8505253000000033 0.8803621000000027 0.8390701000000044
0.8513578000000033 0.8820937000000028 0.8386705000000043
0.8536555000000032 0.8824933000000028 0.8397028000000043
0.8550541000000033 0.8851573000000028 0.8412013000000043
0.8555869000000033 0.8846578000000028 0.8415343000000043
0.8547211000000032 0.8859232000000028 0.8421670000000043
0.8550874000000033 0.8858566000000028 0.8412679000000043
0.8566858000000033 0.8859898000000028 0.8436322000000043
0.8571853000000033 0.8882875000000028 0.8443315000000042
0.8601157000000033 0.8887870000000028 0.8438653000000043
