0.0092674 0.0104329 0.0107326
0.0089677 0.01333 0.0121978
0.0076690000000000005 0.0131635 0.0131635
0.006237100000000001 0.01333 0.0125308
0.0079687 0.0142957 0.0141958
0.0087679 0.0156943 0.0161272
0.011665 0.0156277 0.0156943
0.0138628 0.0164269 0.015994
0.0135964 0.0173926 0.0158608
0.0146953 0.0190576 0.0158275
0.0144622 0.0206893 0.0174592
0.0161938 0.0219547 0.016993
0.0158941 0.0227539 0.0190576
0.018658 0.0248518 0.0210223
0.018658 0.025984 0.0207559
0.0202564 0.0274825 0.0230203
0.0207559 0.0284482 0.0231202
0.0218881 0.0298135 0.0226207
0.0208225 0.0314452 0.0239194
0.0229204 0.0331102 0.0257842
0.0233866 0.0331435 0.0251848
0.0251182 0.0361405 0.0265168
0.0242191 0.0366067 0.0265834
0.025984 0.0387046 0.0268831
0.027982 0.0397702 0.0259174
0.0275824 0.0423676 0.0273826
0.0300799 0.0439327 0.0281818
0.0298468 0.044965 0.0285148
0.032977 0.0437329 0.0287146
0.034975 0.0450316 0.0304795
0.0356077 0.0463969 0.0300799
0.0378388 0.0457309 0.0313453
0.0392374 0.0481951 0.0323443
0.0405028 0.0481285 0.0339427
0.0434998 0.0476956 0.0327439
0.0454978 0.0486613 0.0340093
0.0460972 0.0499933 0.0341092
0.0483949 0.0500599 0.0340093
0.0506926 0.0487945 0.0355744
0.0500932 0.0515584 0.0385381
0.0502264 0.051958 0.0397702
0.0497269 0.0523243 0.041635
0.0487945 0.0537562 0.0417682
0.0495271 0.0554212 0.0428005
0.0495937 0.0568864 0.0427339
0.0516916 0.0574525 0.0433999
0.0528904 0.0573859 0.0457642
0.0540892 0.0581851 0.0445321
0.0547552 0.0581185 0.0434332
0.0550216 0.059317299999999996 0.0423676
0.0557209 0.060549399999999996 0.0434998
0.0562204 0.059616999999999996 0.0459307
0.0564535 0.060482799999999996 0.0480952
0.0577855 0.062147799999999996 0.0485281
0.059283999999999996 0.0642457 0.0512254
0.061048899999999996 0.0645787 0.0530569
0.061048899999999996 0.0670096 0.0521911
0.061681599999999996 0.0695071 0.0547219
0.062480799999999996 0.0693073 0.0577855
0.0628471 0.068941 0.058851099999999996
0.0651448 0.0689077 0.060715899999999996
0.0650116 0.0683083 0.060249699999999996
0.0640459 0.0710389 0.059949999999999996
0.065611 0.0737362 0.062047899999999996
0.0665101 0.0737695 0.0632134
0.0675091 0.0758341 0.0632467
0.0680752 0.0773326 0.062614
0.0696403 0.0786313 0.0635797
0.0713386 0.0799966 0.0653446
0.0710722 0.0822943 0.0652447
0.0727705 0.0823609 0.0678421
0.0734365 0.0826939 0.0694072
0.0762004 0.0821278 0.0706393
0.0773992 0.0839926 0.072937
0.0800965 0.0829603 0.0731368
0.0790975 0.082261 0.0745021
0.0794638 0.0825274 0.0742357
0.0815617 0.0840592 0.0731368
0.0822277 0.0844255 0.0730702
0.0821944 0.0838594 0.0737029
0.0835264 0.0831268 0.0753013
0.0857242 0.0821944 0.0768664
0.0856243 0.0820612 0.0757675
0.0869896 0.0819613 0.0774991
0.0877555 0.0840592 0.0771994
0.0901198 0.0835264 0.0784981
0.0927172 0.0850249 0.0804628
0.09325 0.0855577 0.0824608
0.095581 0.0856909 0.0810955
0.0958474 0.0848917 0.0829603
0.0976123 0.0851914 0.0843589
0.0982783 0.085924 0.0846919
0.0981784 0.0876556 0.084925
0.0989443 0.0895204 0.0845254
0.0983116 0.0920179 0.0844921
0.100243 0.0907192 0.0840592
0.1005427 0.0933832 0.086257
0.1007758 0.0956809 0.0884215
0.1006759 0.0961804 0.0887212
0.1025074 0.0990109 0.0892207
0.1031734 0.0999433 0.0895537
0.1025074 0.100576 0.0900532
0.1041058 0.0996436 0.0902197
0.1030735 0.1014085 0.0906526
0.1053046 0.1011421 0.0914185
0.1074691 0.1036396 0.0914185
0.108568 0.1047385 0.0936163
0.1106659 0.1041391 0.0943822
0.1096336 0.1048717 0.0956809
0.1091008 0.1058707 0.0947152
0.1117981 0.1044721 0.0963802
0.1111987 0.1049383 0.0956476
0.1126972 0.1068697 0.0973459
0.1117315 0.1066699 0.098578
0.1115983 0.1053046 0.098578
0.1124974 0.1071028 0.0986113
0.1141624 0.1091341 0.1014085
0.114229 0.1105327 0.1005427
0.114895 0.1110988 0.1002097
0.1159606 0.1107325 0.0999766
0.1169929 0.1110988 0.1029403
0.1177255 0.1106659 0.1024741
0.117559 0.1109989 0.1044055
0.1187245 0.1125307 0.1061704
0.1203562 0.1120645 0.1063702
0.1203229 0.1113652 0.1079686
0.1224874 0.1130635 0.1079686
0.1249849 0.1144621 0.1097668
0.1264168 0.1161604 0.1097002
0.1282483 0.1189243 0.1110988
0.12841480000000002 0.1201897 0.1127638
0.13107880000000002 0.1202563 0.114895
0.13127860000000002 0.1189909 0.115228
0.13364290000000004 0.1181917 0.1167265
0.13624030000000004 0.1176589 0.1184248
0.13697290000000004 0.1184248 0.1200898
0.13713940000000005 0.1197901 0.1208557
0.13910410000000006 0.1207225 0.1224541
0.13953700000000008 0.120556 0.1213219
0.1409689000000001 0.1194904 0.1213885
0.14046940000000008 0.1200565 0.1228204
0.14093560000000008 0.1191241 0.1253512
0.14146840000000008 0.1210555 0.1274491
0.1435663000000001 0.1212553 0.1277155
0.1456309000000001 0.1222876 0.1265833
0.1456309000000001 0.1239193 0.1259506
0.1456309000000001 0.1254511 0.1275157
0.1467298000000001 0.12548440000000002 0.1268164
0.1489942000000001 0.12501820000000002 0.1269496
0.14909410000000012 0.12518470000000004 0.1297801
0.14972680000000013 0.12545110000000004 0.1300465
0.14919400000000013 0.12748240000000005 0.13101220000000002
0.14876110000000012 0.12834820000000005 0.13307680000000002
0.14972680000000013 0.12904750000000006 0.13600720000000002
0.14942710000000012 0.13024630000000006 0.13680640000000002
0.15009310000000012 0.13081240000000008 0.13730590000000004
0.15189130000000012 0.13307680000000008 0.13650670000000004
0.15229090000000012 0.1357075000000001 0.13923730000000004
0.15265720000000013 0.1381384000000001 0.14033620000000005
0.15302350000000015 0.1397368000000001 0.14156830000000006
0.15362290000000015 0.1409356000000001 0.14236750000000006
0.15358960000000013 0.14150170000000012 0.14476510000000006
0.15655330000000015 0.14313340000000013 0.14519800000000008
0.15602050000000015 0.14593060000000013 0.1475623000000001
0.15478840000000013 0.14579740000000013 0.1483615000000001
0.15665320000000013 0.14719600000000013 0.1488277000000001
0.15858460000000013 0.14702950000000012 0.14852800000000008
0.16001650000000014 0.14879440000000013 0.14926060000000008
0.15988330000000014 0.15009310000000015 0.14959360000000008
0.15931720000000013 0.14962690000000015 0.14896090000000006
0.15848470000000012 0.14876110000000015 0.15119200000000008
0.15815170000000012 0.15005980000000016 0.15325660000000008
0.15921730000000012 0.15162490000000017 0.1535563000000001
0.16068250000000012 0.1519912000000002 0.1543555000000001
0.15981670000000012 0.1531900000000002 0.1547551000000001
0.16141510000000012 0.1545220000000002 0.1564534000000001
0.16174810000000012 0.1540558000000002 0.1561204000000001
0.16437880000000013 0.1538560000000002 0.1577188000000001
0.16321330000000012 0.1549882000000002 0.16028290000000012
0.16351300000000013 0.1545220000000002 0.16021630000000012
0.16454530000000014 0.1548550000000002 0.16014970000000012
0.16507810000000014 0.1571860000000002 0.16228090000000012
0.16571080000000016 0.15648670000000017 0.16327990000000012
0.16737580000000016 0.15868450000000017 0.16581070000000012
0.16967350000000017 0.1595170000000002 0.1657774000000001
0.17117200000000019 0.1620811000000002 0.16740910000000012
0.1717381000000002 0.1617814000000002 0.16924060000000013
0.1714717000000002 0.1634131000000002 0.17080570000000014
0.1735363000000002 0.1621810000000002 0.17183800000000016
0.17330320000000018 0.1621144000000002 0.17220430000000017
0.1750681000000002 0.16417900000000019 0.17223760000000018
0.1762003000000002 0.16414570000000017 0.17130520000000019
0.1783648000000002 0.16631020000000019 0.1732699000000002
0.1798300000000002 0.16850800000000019 0.1721377000000002
0.1807624000000002 0.16924060000000019 0.1751680000000002
0.18166150000000023 0.17077240000000019 0.1757674000000002
0.18399250000000023 0.17060590000000017 0.17580070000000023
0.18499150000000023 0.17143840000000019 0.17786530000000023
0.18492490000000023 0.17197120000000019 0.17849800000000024
0.18545770000000023 0.17143840000000019 0.17856460000000024
0.18655660000000024 0.1740691000000002 0.17709940000000024
0.18778870000000025 0.1740691000000002 0.17839810000000025
0.18858790000000025 0.1740691000000002 0.17763220000000024
0.18898750000000025 0.1744021000000002 0.17886430000000025
0.18902080000000027 0.1773991000000002 0.18159490000000025
0.18922060000000027 0.1785313000000002 0.18259390000000025
0.19018630000000028 0.17769880000000018 0.18525790000000025
0.1903528000000003 0.1785979000000002 0.18698950000000025
0.1926838000000003 0.1797967000000002 0.18722260000000027
0.1944154000000003 0.1821610000000002 0.18692290000000025
0.1954144000000003 0.18292690000000023 0.18765550000000025
0.1971460000000003 0.18349300000000024 0.19061920000000027
0.1989775000000003 0.18232750000000023 0.19128520000000027
0.1995769000000003 0.1820278000000002 0.19315000000000027
0.2012419000000003 0.1817947000000002 0.19295020000000027
0.20160820000000032 0.1817947000000002 0.19205110000000025
0.20353960000000032 0.1818613000000002 0.19185130000000025
0.20430550000000033 0.1822609000000002 0.19275040000000027
0.20447200000000035 0.1829269000000002 0.19414900000000027
0.20683630000000036 0.1825273000000002 0.19588060000000027
0.20573740000000035 0.18222760000000018 0.19621360000000027
0.20563750000000033 0.18162820000000018 0.19731250000000028
0.20796850000000033 0.18039610000000017 0.1980118000000003
0.20766880000000032 0.18069580000000018 0.1988443000000003
0.20923390000000033 0.18046270000000017 0.1991773000000003
0.20933380000000035 0.18086230000000017 0.20020960000000032
0.20973340000000035 0.18232750000000017 0.20147500000000032
0.20996650000000036 0.18296020000000018 0.20174140000000032
0.21199780000000037 0.18246070000000017 0.20470510000000033
0.21246400000000037 0.18266050000000017 0.20510470000000033
0.2137627000000004 0.18282700000000018 0.20676970000000033
0.2158606000000004 0.1831267000000002 0.20653660000000032
0.2182582000000004 0.1848583000000002 0.20766880000000032
0.21922390000000042 0.1852579000000002 0.20860120000000032
0.22082230000000042 0.1865899000000002 0.20950030000000033
0.2191906000000004 0.1878886000000002 0.21099880000000035
0.2207890000000004 0.1874890000000002 0.21216430000000036
0.2225872000000004 0.1864234000000002 0.21299680000000037
0.2222542000000004 0.18885430000000022 0.21399580000000037
0.22368610000000042 0.19071910000000022 0.21519460000000037
0.22391920000000043 0.19308340000000024 0.21502810000000036
0.22518460000000043 0.19438210000000025 0.21489490000000036
0.22555090000000044 0.19558090000000025 0.21566080000000037
0.22748230000000044 0.19508140000000024 0.21462850000000036
0.22645000000000043 0.19484830000000022 0.21572740000000037
0.22768210000000044 0.19691290000000022 0.21579400000000037
0.22851460000000046 0.19721260000000024 0.21759220000000037
0.22848130000000044 0.19648000000000024 0.21925720000000037
0.22878100000000046 0.19941040000000024 0.21805840000000037
0.23111200000000046 0.20134180000000024 0.21959020000000037
0.23254390000000047 0.20387260000000024 0.2209555000000004
0.23504140000000048 0.20367280000000024 0.2224873000000004
0.2362735000000005 0.20523790000000025 0.22205440000000037
0.2370061000000005 0.20590390000000025 0.22225420000000037
0.2392372000000005 0.20750230000000025 0.22212100000000037
0.2395036000000005 0.20916730000000025 0.2246185000000004
0.24093550000000052 0.21043270000000025 0.2266831000000004
0.24143500000000054 0.21056590000000025 0.2278486000000004
0.24336640000000054 0.21193120000000026 0.23007970000000041
0.24519790000000055 0.21239740000000026 0.22961350000000041
0.24762880000000057 0.21263050000000028 0.22948030000000041
0.24756220000000057 0.21396250000000028 0.23037940000000043
0.24872770000000058 0.21402910000000028 0.23094550000000044
0.24739570000000058 0.21602710000000028 0.23124520000000046
0.24616360000000057 0.21506140000000026 0.23217760000000046
0.24579730000000055 0.21695950000000028 0.23397580000000046
0.24613030000000055 0.21682630000000028 0.23287690000000044
0.24659650000000055 0.21562750000000028 0.23344300000000046
0.24836140000000057 0.21722590000000028 0.23424220000000046
0.24949360000000056 0.21922390000000028 0.23370940000000046
0.24836140000000057 0.2197234000000003 0.23477500000000046
0.24752890000000055 0.2200231000000003 0.23427550000000044
0.24762880000000057 0.2211553000000003 0.23417560000000043
0.24902740000000056 0.2224873000000003 0.23407570000000041
0.24992650000000058 0.22318660000000032 0.2338426000000004
0.2520577000000006 0.2229535000000003 0.2365399000000004
0.2540224000000006 0.2246185000000003 0.2374723000000004
0.2559205000000006 0.2265499000000003 0.23957020000000043
0.25625350000000063 0.2280151000000003 0.24183460000000043
0.25628680000000065 0.2302795000000003 0.24263380000000043
0.25658650000000066 0.23111200000000032 0.24386590000000044
0.25565410000000066 0.23251060000000032 0.24293350000000044
0.25532110000000063 0.23284360000000032 0.24246730000000044
0.25535440000000065 0.23440870000000033 0.24533110000000044
0.25598710000000063 0.23620690000000033 0.24616360000000045
0.25668640000000065 0.23743900000000034 0.24493150000000044
0.25681960000000065 0.24003640000000034 0.24799510000000044
0.25691950000000063 0.24036940000000034 0.24966010000000044
0.2579518000000006 0.24206770000000036 0.2522908000000004
0.2591173000000006 0.24293350000000036 0.25165810000000044
0.2595502000000006 0.24589720000000037 0.25152490000000044
0.2601829000000006 0.24666310000000038 0.25219090000000044
0.26171470000000063 0.2472958000000004 0.25289020000000045
0.26184790000000063 0.2473624000000004 0.25498810000000044
0.26437870000000063 0.2487610000000004 0.25608700000000045
0.26511130000000066 0.2500597000000004 0.25645330000000044
0.26534440000000065 0.2502595000000004 0.25805170000000044
0.2670094000000007 0.25325650000000044 0.2600164000000004
0.26697610000000066 0.2553544000000004 0.2596168000000004
0.26800840000000065 0.2565532000000004 0.2581516000000004
0.27027280000000065 0.2565532000000004 0.2597167000000004
0.26924050000000066 0.25688620000000045 0.2605492000000004
0.2695402000000007 0.25891750000000047 0.2632132000000004
0.2720710000000007 0.2578852000000005 0.2639791000000004
0.27363610000000066 0.2580184000000005 0.2642455000000004
0.2764999000000007 0.2588176000000005 0.2655442000000004
0.2786311000000007 0.2598166000000005 0.2676088000000004
0.2803294000000007 0.2623141000000005 0.26914060000000045
0.28149490000000066 0.2631133000000005 0.2693404000000005
0.2819611000000007 0.2657440000000005 0.2709721000000005
0.2843587000000007 0.26624350000000047 0.27037270000000047
0.28402570000000066 0.2667097000000005 0.27197110000000047
0.28658980000000067 0.2681749000000005 0.2736361000000005
0.28698940000000067 0.2695735000000005 0.2734030000000005
0.28632340000000067 0.2694403000000005 0.2738359000000005
0.28599040000000064 0.2710387000000005 0.2755342000000005
0.28658980000000067 0.2724706000000005 0.27586720000000053
0.28818820000000067 0.2743354000000005 0.2767663000000005
0.2874223000000007 0.2754343000000005 0.2772991000000005
0.28805500000000067 0.27413560000000053 0.2769661000000005
0.2895535000000007 0.2757007000000005 0.2791972000000005
0.2902861000000007 0.27520120000000053 0.28116190000000046
0.2908522000000007 0.27546760000000053 0.2813617000000005
0.2912518000000007 0.27713260000000056 0.28062910000000046
0.29381590000000074 0.2786644000000006 0.2818612000000005
0.29414890000000077 0.2800630000000006 0.2834929000000005
0.29358280000000075 0.28289350000000063 0.2833264000000005
0.29314990000000074 0.28182790000000063 0.2828269000000005
0.2949814000000007 0.28415890000000066 0.2828935000000005
0.2960470000000007 0.28339300000000067 0.2842255000000005
0.2983114000000007 0.2828935000000007 0.2855575000000005
0.2984446000000007 0.28419220000000067 0.2860570000000005
0.29891080000000075 0.2858239000000007 0.2873890000000005
0.29914390000000074 0.2847583000000007 0.28865440000000053
0.30130840000000075 0.28445860000000067 0.2880883000000005
0.3033730000000008 0.2860903000000007 0.2878219000000005
0.30187450000000077 0.2870560000000007 0.28785520000000053
0.3031066000000008 0.2863900000000007 0.28882090000000055
0.3045052000000008 0.2867896000000007 0.28922050000000055
0.3063367000000008 0.2872891000000007 0.28868770000000055
0.3049714000000008 0.2871892000000007 0.28905400000000053
0.3067696000000008 0.2873890000000007 0.29065240000000053
0.3070027000000008 0.2862901000000007 0.29215090000000055
0.3070693000000008 0.2869228000000007 0.29218420000000056
0.3080017000000008 0.2877886000000007 0.29338300000000056
0.30816820000000084 0.28635670000000074 0.2948815000000006
0.30856780000000084 0.28748890000000077 0.2947816000000006
0.30896740000000084 0.2892538000000008 0.2968795000000006
0.30886750000000085 0.28865440000000075 0.29817820000000056
0.30950020000000084 0.29025280000000075 0.29801170000000055
0.31049920000000086 0.29025280000000075 0.2983447000000006
0.3130966000000009 0.29314990000000074 0.3004759000000006
0.3135295000000009 0.29474830000000074 0.3006091000000006
0.31546090000000093 0.29621350000000074 0.3014083000000006
0.3154276000000009 0.29741230000000074 0.3011419000000006
0.3153943000000009 0.29931040000000075 0.30004300000000056
0.31599370000000093 0.29881090000000077 0.3012751000000006
0.3180916000000009 0.29997640000000075 0.3018745000000006
0.3192904000000009 0.30050920000000075 0.3035062000000006
0.3184912000000009 0.30080890000000077 0.3031732000000006
0.3179251000000009 0.3014083000000008 0.30270700000000056
0.3193570000000009 0.3003094000000008 0.3038392000000006
0.3201229000000009 0.30147490000000077 0.3046384000000006
0.3201562000000009 0.30360610000000077 0.3059038000000006
0.3221209000000009 0.30307330000000077 0.3068362000000006
0.32448520000000086 0.30480490000000077 0.3076021000000006
0.32605030000000085 0.30453850000000077 0.3082015000000006
0.3269161000000009 0.3046051000000008 0.30673630000000063
0.32608360000000086 0.3074689000000008 0.3077686000000006
0.3274489000000009 0.30766870000000085 0.30916720000000064
0.32861440000000086 0.30713590000000085 0.31069900000000067
0.32848120000000086 0.3081349000000009 0.3115648000000007
0.3286477000000009 0.3087010000000009 0.3112651000000007
0.32914720000000086 0.3099997000000009 0.3104659000000007
0.3290473000000009 0.3117646000000009 0.3105991000000007
0.33154480000000086 0.3120643000000009 0.30989980000000067
0.3322774000000009 0.3114649000000009 0.31146490000000066
0.33181120000000086 0.31342960000000086 0.31136500000000067
0.33221080000000086 0.31309660000000084 0.31176460000000067
0.33380920000000086 0.31486150000000085 0.31283020000000067
0.33564070000000085 0.31755880000000086 0.3143287000000007
0.33687280000000086 0.31662640000000086 0.3146617000000007
0.33803830000000085 0.3188242000000009 0.3165598000000007
0.33870430000000085 0.3188575000000009 0.3170593000000007
0.33760540000000083 0.3208555000000009 0.31752550000000074
0.3391705000000008 0.3234196000000009 0.31795840000000075
0.3407689000000008 0.3244519000000009 0.3190906000000008
0.34323310000000085 0.32571730000000093 0.31839130000000077
0.34246720000000086 0.3244519000000009 0.3182914000000008
0.34473160000000086 0.3244186000000009 0.3185578000000008
0.34346620000000083 0.3228202000000009 0.31809160000000075
0.34443190000000085 0.3250846000000009 0.31969000000000075
0.3454309000000009 0.3263500000000009 0.31978990000000074
0.3444985000000009 0.32944690000000093 0.3224206000000007
0.34473160000000086 0.33091210000000093 0.32248720000000075
0.34563070000000085 0.33041260000000094 0.32368600000000075
0.34736230000000085 0.33064570000000093 0.32551750000000074
0.3482281000000009 0.33064570000000093 0.32821480000000075
0.3502594000000009 0.3304459000000009 0.33051250000000076
0.3527569000000009 0.33224410000000093 0.33207760000000075
0.3543886000000009 0.3315448000000009 0.33194440000000075
0.3551212000000009 0.3331099000000009 0.33314320000000075
0.3547882000000009 0.33490810000000093 0.3340090000000008
0.3552544000000009 0.33604030000000096 0.33291010000000076
0.35678620000000094 0.33620680000000097 0.33487480000000075
0.35791840000000097 0.33673960000000097 0.33687280000000075
0.35745220000000094 0.33793840000000097 0.3381382000000008
0.3572857000000009 0.33750550000000096 0.3398698000000008
0.3562867000000009 0.33960340000000094 0.3408022000000008
0.3577519000000009 0.33853780000000094 0.34046920000000075
0.3582847000000009 0.33813820000000094 0.34233400000000075
0.3580516000000009 0.33773860000000094 0.34489810000000076
0.3578185000000009 0.33720580000000094 0.34702930000000076
0.3571525000000009 0.33950350000000096 0.3480283000000008
0.3568528000000009 0.34033600000000097 0.3481615000000008
0.3592504000000009 0.34203430000000096 0.34782850000000076
0.3611485000000009 0.34190110000000096 0.3492271000000008
0.3599497000000009 0.343166500000001 0.3500596000000008
0.36158140000000094 0.34286680000000097 0.3488941000000008
0.36357940000000094 0.343832500000001 0.34799500000000083
0.36417880000000097 0.344498500000001 0.34856110000000085
0.365843800000001 0.344498500000001 0.34959340000000083
0.365743900000001 0.34646320000000097 0.3519577000000008
0.365044600000001 0.34779520000000097 0.3537892000000008
0.365044600000001 0.34766200000000097 0.3538225000000008
0.366076900000001 0.348094900000001 0.3560869000000008
0.367542100000001 0.34979320000000097 0.3577852000000008
0.369806500000001 0.35179120000000097 0.3602161000000008
0.370738900000001 0.35322310000000096 0.3612484000000008
0.37283680000000097 0.35465500000000094 0.3629467000000008
0.374102200000001 0.3560869000000009 0.3639124000000008
0.373069900000001 0.3563533000000009 0.36411220000000083
0.37433530000000104 0.3565864000000009 0.3633796000000008
0.374168800000001 0.3572857000000009 0.36491140000000083
0.373835800000001 0.3565864000000009 0.3648781000000008
0.375301000000001 0.3577852000000009 0.36534430000000084
0.376699600000001 0.35905060000000094 0.36521110000000084
0.37606690000000104 0.36018280000000097 0.36484480000000086
0.37746550000000106 0.361281700000001 0.36604360000000086
0.37893070000000106 0.36151480000000097 0.36697600000000086
0.3817945000000011 0.361947700000001 0.36800830000000084
0.3844918000000011 0.36191440000000097 0.36880750000000084
0.3851578000000011 0.362913400000001 0.36930700000000083
0.3858238000000011 0.363013300000001 0.37173790000000084
0.3855574000000011 0.364378600000001 0.37130500000000083
0.3846250000000011 0.365977000000001 0.3709720000000008
0.3867895000000011 0.365577400000001 0.3723040000000008
0.3852910000000011 0.366509800000001 0.3752011000000008
0.3848248000000011 0.366010300000001 0.3746350000000008
0.3867562000000011 0.368108200000001 0.3772324000000008
0.3890539000000011 0.367309000000001 0.37876420000000083
0.3901195000000011 0.36710920000000097 0.38036260000000083
0.39081880000000113 0.367175800000001 0.37946350000000084
0.39334960000000113 0.368008300000001 0.38072890000000087
0.39444850000000115 0.368707600000001 0.3819943000000009
0.39561400000000113 0.370039600000001 0.3826270000000009
0.39614680000000113 0.37050580000000105 0.3848248000000009
0.39471490000000115 0.37117180000000105 0.3850912000000009
0.39697930000000115 0.37147150000000106 0.3863233000000009
0.39807820000000116 0.37073890000000104 0.3873889000000009
0.39884410000000114 0.37090540000000105 0.38928700000000094
0.40057570000000114 0.37127170000000104 0.39035260000000094
0.40054240000000113 0.37386910000000106 0.3893869000000009
0.40307320000000113 0.3744352000000011 0.39251710000000095
0.40433860000000116 0.3750346000000011 0.39388240000000097
0.40593700000000116 0.37669960000000113 0.39588040000000096
0.40756870000000117 0.37536760000000113 0.395247700000001
0.40860100000000116 0.37659970000000115 0.39801160000000096
0.41069890000000114 0.3770659000000012 0.400975300000001
0.41189770000000114 0.37686610000000115 0.401008600000001
0.41253040000000113 0.37643320000000113 0.402640300000001
0.4115647000000011 0.3795967000000011 0.40483810000000103
0.4105990000000011 0.38002960000000113 0.405337600000001
0.4109986000000011 0.38102860000000116 0.407735200000001
0.41119840000000113 0.38369260000000116 0.40883410000000103
0.41166460000000116 0.38422540000000116 0.40830130000000103
0.41166460000000116 0.38605690000000115 0.40843450000000103
0.41066560000000113 0.38609020000000116 0.41019940000000105
0.4102327000000011 0.3877219000000012 0.41189770000000103
0.4119643000000011 0.38995300000000116 0.41416210000000103
0.41256370000000114 0.3915847000000012 0.417192400000001
0.41279680000000113 0.3929833000000012 0.41735890000000103
0.41412880000000113 0.3924505000000012 0.41925700000000105
0.41619340000000116 0.3925837000000012 0.42242050000000103
0.41762530000000114 0.3946816000000012 0.421854400000001
0.41839120000000113 0.3977452000000012 0.42218740000000105
0.41872420000000116 0.3988108000000012 0.42498460000000104
0.41885740000000116 0.4014415000000012 0.424784800000001
0.42042250000000114 0.4024072000000012 0.42605020000000104
0.42158800000000113 0.4038058000000012 0.42768190000000106
0.4218211000000011 0.4045717000000012 0.42768190000000106
0.42172120000000113 0.4040056000000012 0.4297465000000011
0.42321970000000114 0.4027069000000012 0.43131160000000107
0.42431860000000116 0.4033729000000012 0.43167790000000106
0.42565060000000116 0.4035394000000012 0.43444180000000104
0.42781510000000117 0.4039390000000012 0.43447510000000106
0.42964660000000116 0.4045051000000012 0.43590700000000104
0.43174450000000114 0.4059703000000012 0.43667290000000103
0.43214410000000114 0.4056706000000012 0.43590700000000104
0.43354270000000117 0.40826800000000124 0.43653970000000103
0.43297660000000115 0.40870090000000125 0.43630660000000104
0.43470820000000115 0.40870090000000125 0.435574000000001
0.43620670000000117 0.4103659000000013 0.435507400000001
0.4373056000000012 0.4110985000000013 0.435873700000001
0.4385710000000012 0.41342950000000134 0.43650640000000096
0.4386043000000012 0.4151278000000013 0.43690600000000096
0.4385710000000012 0.4161601000000013 0.438171400000001
0.4391038000000012 0.4149613000000013 0.437805100000001
0.4396033000000012 0.4159270000000013 0.438970600000001
0.4390705000000012 0.41556070000000134 0.439070500000001
0.4390705000000012 0.41705920000000135 0.43900390000000095
0.4412683000000012 0.4156606000000013 0.4381381000000009
0.4432330000000012 0.4176253000000013 0.4377385000000009
0.4449646000000012 0.4170925000000013 0.4378717000000009
0.4444651000000012 0.4168927000000013 0.43883740000000093
0.4433995000000012 0.4167928000000013 0.44060230000000095
0.44449840000000124 0.4154941000000013 0.440668900000001
0.44599690000000125 0.41675950000000134 0.442567000000001
0.44652970000000125 0.4177918000000013 0.443799100000001
0.44656300000000126 0.41945680000000135 0.442800100000001
0.44852770000000125 0.4196566000000014 0.44396560000000096
0.44869420000000126 0.41975650000000136 0.445197700000001
0.4504924000000013 0.4203559000000014 0.445097800000001
0.4508254000000013 0.4223872000000014 0.446096800000001
0.4522573000000013 0.4233196000000014 0.445830400000001
0.4515913000000013 0.4259836000000014 0.447129100000001
0.4536226000000013 0.4284811000000014 0.448228000000001
0.45578710000000133 0.4309786000000014 0.44936020000000104
0.45728560000000135 0.4338091000000014 0.45049240000000107
0.45808480000000135 0.4367062000000014 0.45005950000000106
0.45808480000000135 0.4373056000000014 0.4514581000000011
0.45835120000000135 0.4374055000000014 0.4510918000000011
0.45818470000000133 0.4374388000000014 0.4524571000000011
0.45945010000000136 0.43937020000000143 0.4517578000000011
0.46024930000000136 0.44196760000000146 0.45129160000000107
0.46141480000000135 0.44246710000000145 0.45102520000000107
0.46248040000000135 0.44393230000000145 0.45045910000000106
0.46278010000000136 0.4438657000000014 0.45115840000000107
0.46421200000000135 0.4466629000000014 0.4519909000000011
0.46421200000000135 0.44762860000000143 0.4524571000000011
0.46464490000000136 0.44899390000000144 0.4518910000000011
0.4653442000000014 0.44952670000000144 0.4526569000000011
0.4647115000000014 0.45159130000000147 0.45355600000000107
0.4663099000000014 0.45318970000000147 0.4538557000000011
0.4659436000000014 0.4537891000000015 0.4530898000000011
0.4666429000000014 0.4557538000000015 0.4530898000000011
0.4686409000000014 0.4555207000000015 0.4533229000000011
0.4685077000000014 0.4559869000000015 0.4548547000000011
0.4703725000000014 0.45655300000000154 0.4554208000000011
0.47293660000000143 0.45605350000000155 0.45761860000000115
0.47443510000000144 0.4578517000000016 0.4568860000000011
0.47683270000000144 0.4573189000000016 0.4572523000000011
0.4767661000000014 0.4589839000000016 0.4594168000000011
0.4762666000000014 0.4583845000000016 0.4612816000000011
0.47550070000000144 0.4597831000000016 0.46118170000000114
0.4770658000000014 0.4596832000000016 0.4623472000000011
0.4779982000000014 0.4620808000000016 0.4613815000000011
0.47909710000000144 0.4638124000000016 0.4608487000000011
0.48189430000000144 0.46387900000000165 0.4624804000000011
0.48322630000000144 0.4656772000000017 0.4652443000000011
0.48349270000000144 0.4668760000000017 0.4655107000000011
0.48472480000000145 0.4690072000000017 0.4666096000000011
0.48735550000000144 0.4714381000000017 0.46973980000000115
0.4881214000000014 0.4739023000000017 0.46960660000000115
0.48682270000000144 0.47300320000000173 0.46947340000000115
0.48752200000000145 0.47520100000000176 0.47147140000000115
0.48658960000000145 0.47453500000000176 0.47160460000000115
0.48775510000000144 0.4756672000000018 0.47290330000000114
0.4889206000000014 0.4772323000000018 0.47436850000000114
0.48908710000000144 0.4762999000000018 0.47543410000000114
0.4913182000000014 0.4765663000000018 0.4783312000000011
0.49334950000000144 0.4773988000000018 0.47809810000000114
0.49508110000000144 0.4765663000000018 0.4793968000000011
0.49608010000000147 0.47693260000000176 0.48062890000000114
0.49484800000000145 0.4776652000000018 0.47956330000000114
0.49681270000000144 0.4780981000000018 0.4792303000000011
0.49847770000000147 0.4807954000000018 0.4815280000000011
0.4996099000000015 0.48029590000000183 0.48292660000000115
0.5000095000000015 0.4809286000000018 0.48359260000000115
0.5017744000000015 0.48042910000000183 0.48655630000000116
0.5029399000000015 0.4802626000000018 0.4872889000000012
0.5022406000000016 0.4799629000000018 0.4877218000000012
0.5032729000000016 0.4817278000000018 0.4887541000000012
0.5035726000000016 0.4837258000000018 0.4907854000000012
0.5051044000000016 0.4839589000000018 0.4911517000000012
0.5054041000000016 0.4862566000000018 0.4930498000000012
0.5055040000000016 0.4860568000000018 0.49311640000000123
0.5074021000000016 0.48585700000000176 0.4937491000000012
0.5083678000000016 0.48825460000000176 0.4932163000000012
0.5085676000000016 0.49065220000000176 0.49484800000000123
0.5083345000000016 0.4917511000000018 0.49621330000000125
0.5088673000000016 0.4938157000000018 0.49637980000000126
0.5115313000000016 0.4947148000000018 0.49631320000000123
0.5135293000000016 0.4947814000000018 0.49821130000000124
0.5156938000000016 0.49498120000000184 0.5006089000000012
0.5169259000000016 0.49511440000000184 0.49951000000000123
0.5185909000000016 0.49794490000000186 0.49970980000000126
0.5182912000000016 0.49874410000000186 0.5006089000000012
0.5195899000000016 0.5004091000000018 0.5002426000000012
0.5204224000000016 0.5005423000000019 0.5014414000000013
0.5208220000000017 0.5024737000000019 0.5034394000000013
0.5205556000000017 0.5031730000000019 0.5054707000000013
0.5210551000000017 0.5042053000000019 0.5080681000000012
0.5232529000000017 0.5056705000000019 0.5087008000000013
0.5242186000000016 0.507901600000002 0.5088340000000013
0.5246848000000016 0.5097331000000019 0.5103991000000013
0.5275486000000016 0.510665500000002 0.5117311000000013
0.5289805000000016 0.510665500000002 0.5133295000000013
0.5287141000000016 0.512463700000002 0.5142619000000014
0.5307454000000016 0.513029800000002 0.5155606000000014
0.5333761000000016 0.513496000000002 0.5150944000000014
0.5335093000000016 0.514395100000002 0.5145283000000014
0.5345083000000016 0.515394100000002 0.5146948000000013
0.5344750000000016 0.516426400000002 0.5139955000000014
0.5354074000000016 0.5163598000000019 0.5143618000000014
0.5358403000000016 0.517825000000002 0.5134960000000014
0.5367727000000017 0.519123700000002 0.5143285000000014
0.5358403000000016 0.519789700000002 0.5173588000000015
0.5380048000000016 0.520822000000002 0.5170924000000015
0.5380048000000016 0.521687800000002 0.5182579000000015
0.5402026000000016 0.5225536000000021 0.5206888000000015
0.5399029000000016 0.5242186000000021 0.5234527000000015
0.5409685000000016 0.5240188000000021 0.5258170000000015
0.5428333000000016 0.5257837000000021 0.5258170000000015
0.5458969000000017 0.5265496000000021 0.5267161000000016
0.5463964000000017 0.5297464000000021 0.5280148000000016
0.5468293000000016 0.5300794000000021 0.5276485000000015
0.5487274000000016 0.5323105000000021 0.5286808000000015
0.5492269000000016 0.5319775000000021 0.5296798000000015
0.5484943000000017 0.5314447000000021 0.5312449000000015
0.5509252000000017 0.5322106000000021 0.5332096000000015
0.5526568000000017 0.5338756000000021 0.5321440000000015
0.5546215000000018 0.5351743000000021 0.5337424000000015
0.5552542000000018 0.5368060000000021 0.5350411000000015
0.5570191000000018 0.5374720000000022 0.5357071000000015
0.5596498000000018 0.5360401000000021 0.5353408000000015
0.5603824000000017 0.5372389000000022 0.5373055000000015
0.5619142000000017 0.5373721000000022 0.5384377000000016
0.5632462000000017 0.5381380000000022 0.5377717000000015
0.5650444000000017 0.5383378000000022 0.5380714000000015
0.5670091000000017 0.5395366000000023 0.5377051000000015
0.5664097000000017 0.5393035000000023 0.5379382000000015
0.5666761000000017 0.5398696000000023 0.5382379000000015
0.5690404000000017 0.5410684000000023 0.5377717000000015
0.5685742000000017 0.5411017000000024 0.5390371000000015
0.5693401000000017 0.5422672000000024 0.5386042000000015
0.5697397000000017 0.5452309000000024 0.5401693000000015
0.5685076000000018 0.5469292000000024 0.5409685000000015
0.5675086000000018 0.5473954000000024 0.5416345000000016
0.5678083000000018 0.5464963000000024 0.5414347000000016
0.5693401000000018 0.5457637000000024 0.5435992000000016
0.5690737000000018 0.5473954000000024 0.5440987000000016
0.5680414000000018 0.5477284000000024 0.5436658000000016
0.5678083000000018 0.5487940000000024 0.5431663000000017
0.5687074000000019 0.5499928000000025 0.5436991000000017
0.5698729000000019 0.5507920000000025 0.5445982000000017
0.570006100000002 0.5506921000000025 0.5451643000000017
0.572004100000002 0.5538556000000024 0.5458969000000017
0.573902200000002 0.5538889000000025 0.5479948000000017
0.573702400000002 0.5555539000000025 0.5497264000000017
0.573968800000002 0.5556871000000025 0.5505256000000017
0.576033400000002 0.5545549000000025 0.5534560000000017
0.574768000000002 0.5544217000000025 0.5556538000000018
0.5761666000000021 0.5541220000000024 0.5579515000000017
0.5770324000000021 0.5535892000000024 0.5590171000000017
0.5784976000000022 0.5555539000000025 0.5614480000000017
0.5792635000000022 0.5570524000000024 0.5612482000000018
0.5804623000000022 0.5563531000000025 0.5634793000000018
0.5815945000000022 0.5550544000000025 0.5635792000000018
0.5823271000000022 0.5564197000000025 0.5643451000000018
0.5834260000000022 0.5567527000000025 0.5666095000000019
0.5825935000000022 0.5589172000000026 0.5665762000000019
0.5834593000000022 0.5618143000000025 0.5680081000000019
0.5838256000000023 0.5632462000000026 0.5689738000000019
0.5836924000000022 0.5650444000000026 0.5679082000000019
0.5861566000000022 0.5643118000000026 0.5686408000000018
0.5875885000000023 0.5651776000000026 0.5703724000000019
0.5881879000000023 0.5655106000000026 0.5702059000000019
0.5865562000000023 0.5666761000000027 0.5699395000000019
0.5866228000000023 0.5685409000000027 0.571404700000002
0.5887207000000023 0.5695399000000027 0.571504600000002
0.5887207000000023 0.5713714000000026 0.5729365000000021
0.5894533000000023 0.5724370000000026 0.573169600000002
0.5910184000000023 0.5714047000000027 0.5730031000000021
0.5908186000000023 0.5721040000000026 0.5759668000000021
0.5921839000000023 0.5732362000000026 0.5757337000000021
0.5923504000000023 0.5736025000000027 0.5762998000000021
0.5940820000000023 0.5748346000000026 0.5757337000000021
0.5962465000000023 0.5760334000000027 0.5751676000000021
0.5975785000000023 0.5764996000000027 0.5766328000000022
0.5979448000000024 0.5776651000000027 0.5779648000000022
0.5996098000000024 0.5764996000000027 0.5786974000000021
0.6018742000000025 0.5785309000000026 0.5795299000000022
0.6047713000000025 0.5795299000000026 0.5814946000000022
0.6052708000000024 0.5813947000000026 0.5805622000000021
0.6069358000000025 0.5822605000000026 0.5811616000000022
0.6067027000000025 0.5838922000000026 0.5821273000000021
0.6076684000000024 0.5859235000000026 0.5842252000000021
0.6081346000000024 0.5887207000000027 0.5852575000000021
0.6079681000000025 0.5912182000000027 0.587022400000002
0.6094000000000025 0.5938822000000027 0.5873887000000021
0.6107653000000025 0.5953474000000027 0.5865562000000021
0.6097996000000026 0.5964130000000027 0.5887207000000021
0.6111316000000026 0.5954806000000027 0.588587500000002
0.6122638000000026 0.5954473000000027 0.5907853000000021
0.6128632000000026 0.5951143000000026 0.5933161000000021
0.6125635000000026 0.5972455000000026 0.5960134000000021
0.6139954000000026 0.5993101000000026 0.5967793000000021
0.6165928000000026 0.6020074000000026 0.5977450000000021
0.6165595000000026 0.6040054000000027 0.5972455000000021
0.6169258000000026 0.6028066000000026 0.5997430000000021
0.6183577000000027 0.6039721000000027 0.6018742000000021
0.6184243000000027 0.6038389000000026 0.6023737000000021
0.6196564000000027 0.6037723000000026 0.6023737000000021
0.6225202000000026 0.6041386000000026 0.6038722000000021
0.6240853000000026 0.6057037000000026 0.6044050000000021
0.6262498000000026 0.6071023000000026 0.604038700000002
0.6273154000000026 0.6078016000000026 0.603772300000002
0.6269824000000026 0.6107320000000026 0.606203200000002
0.6276484000000027 0.6119974000000026 0.607168900000002
0.6301459000000027 0.6134959000000025 0.606003400000002
0.6322771000000027 0.6137290000000025 0.605570500000002
0.6334426000000027 0.6138622000000026 0.605470600000002
0.6328099000000027 0.6146281000000026 0.605770300000002
0.6338422000000027 0.6174919000000025 0.606403000000002
0.6352408000000027 0.6197896000000025 0.605903500000002
0.6382378000000027 0.6206887000000025 0.606736000000002
0.6395032000000027 0.6203224000000025 0.6071023000000021
0.6390370000000027 0.6192901000000025 0.6063697000000021
0.6417343000000028 0.6195232000000025 0.6086341000000022
0.6422005000000027 0.6215878000000025 0.6095998000000021
0.6442984000000027 0.6234526000000025 0.6093667000000021
0.6444316000000028 0.6237523000000025 0.6108652000000021
0.6456637000000027 0.6237190000000025 0.6107986000000021
0.6453640000000027 0.6261832000000025 0.611497900000002
0.6465961000000027 0.6274486000000025 0.613629100000002
0.6473287000000026 0.6297796000000024 0.6134626000000021
0.6484609000000027 0.6292801000000025 0.616559500000002
0.6497929000000027 0.6291469000000024 0.618624100000002
0.6485608000000027 0.6293134000000024 0.619989400000002
0.6508585000000027 0.6306121000000023 0.620522200000002
0.6514579000000027 0.6292135000000023 0.622553500000002
0.6515911000000028 0.6302125000000023 0.623119600000002
0.6529897000000028 0.6300793000000022 0.622120600000002
0.6520240000000028 0.6309784000000023 0.623119600000002
0.6532228000000029 0.6321439000000023 0.622953100000002
0.6539887000000029 0.6326434000000023 0.623119600000002
0.6558202000000029 0.6336757000000023 0.625084300000002
0.6567859000000028 0.6324769000000022 0.625350700000002
0.6566194000000029 0.6342751000000022 0.6256837000000021
0.6569857000000029 0.6337423000000022 0.6283477000000021
0.6586174000000029 0.6353407000000022 0.6287140000000021
0.6576184000000029 0.6349411000000021 0.6301126000000021
0.658018000000003 0.6365728000000022 0.6321439000000021
0.659116900000003 0.6368059000000021 0.6337756000000021
0.660415600000003 0.6363397000000022 0.6348079000000021
0.659982700000003 0.6375052000000022 0.6365395000000021
0.660482200000003 0.6379048000000023 0.6380713000000021
0.659649700000003 0.6368059000000023 0.6384043000000021
0.660715300000003 0.6384043000000023 0.6387706000000022
0.660615400000003 0.6397030000000022 0.6405688000000022
0.6607819000000029 0.6418009000000022 0.6413014000000021
0.6602158000000029 0.6447646000000022 0.6410350000000021
0.6602491000000029 0.6434992000000023 0.6412681000000021
0.6593167000000029 0.6437656000000023 0.6403690000000021
0.6613813000000028 0.6432661000000023 0.640002700000002
0.6633127000000029 0.6453640000000023 0.641035000000002
0.6643783000000029 0.6470623000000023 0.643665700000002
0.6634459000000028 0.6481612000000023 0.644531500000002
0.6647779000000028 0.6482278000000024 0.645064300000002
0.6649111000000029 0.6467293000000024 0.646829200000002
0.6650110000000029 0.6472621000000024 0.646795900000002
0.6668758000000029 0.6473287000000024 0.648327700000002
0.6659434000000028 0.6495265000000024 0.6509251000000019
0.6666760000000028 0.6502924000000024 0.6513913000000019
0.6681412000000029 0.6504589000000024 0.6509251000000019
0.6675751000000029 0.6527233000000024 0.652357000000002
0.6683410000000028 0.6534559000000024 0.653555800000002
0.6699061000000028 0.6535225000000024 0.654588100000002
0.6727033000000029 0.6540886000000025 0.6568525000000021
0.6745015000000029 0.6542884000000024 0.6568858000000021
0.6756670000000029 0.6542884000000024 0.6574852000000021
0.675500500000003 0.6537889000000024 0.6582844000000021
0.677198800000003 0.6529897000000024 0.6597829000000021
0.677764900000003 0.6536557000000025 0.6595165000000021
0.679729600000003 0.6564529000000026 0.659116900000002
0.6797962000000031 0.6568858000000025 0.659982700000002
0.6815278000000031 0.6554206000000025 0.661248100000002
0.6816610000000032 0.6541552000000025 0.662047300000002
0.6839254000000032 0.6547213000000025 0.662347000000002
0.6846580000000032 0.6562864000000025 0.662513500000002
0.6857569000000032 0.6578515000000025 0.661980700000002
0.6875218000000032 0.6593833000000024 0.663679000000002
0.6897862000000032 0.6596497000000024 0.6627133000000021
0.6909517000000033 0.6594832000000025 0.6635458000000021
0.6923503000000033 0.6594499000000025 0.6649444000000021
0.6911182000000033 0.6601825000000024 0.6662098000000021
0.6922171000000034 0.6606154000000024 0.6667759000000021
0.6916177000000033 0.6622138000000024 0.6670423000000021
0.6913180000000033 0.6623470000000025 0.6671422000000021
0.6931495000000033 0.6633793000000024 0.6681745000000021
0.6950809000000033 0.6636124000000024 0.6680413000000021
0.6963796000000033 0.6652108000000024 0.6665095000000021
0.6973120000000034 0.6645448000000024 0.6667759000000021
0.6971122000000034 0.6650443000000024 0.6672421000000021
0.6965128000000034 0.6659767000000024 0.666309700000002
0.6980113000000033 0.6647779000000024 0.666176500000002
0.6973786000000033 0.6642784000000024 0.668407600000002
0.6988771000000032 0.6649111000000024 0.669872800000002
0.6991435000000032 0.6637789000000024 0.6708052000000021
0.7008085000000033 0.6644116000000024 0.6703057000000021
0.6997762000000033 0.6664762000000024 0.6707053000000022
0.6984442000000033 0.6684076000000024 0.6710716000000022
0.7013413000000033 0.6703723000000025 0.6722371000000023
0.7011748000000033 0.6688405000000025 0.6726034000000023
0.7035724000000033 0.6703057000000026 0.6731029000000023
0.7045048000000034 0.6721372000000025 0.6747679000000023
0.7068358000000033 0.6724036000000025 0.6760333000000023
0.7080679000000033 0.6709717000000025 0.6784309000000023
0.7085008000000033 0.6710716000000025 0.6810616000000023
0.7075351000000033 0.6724369000000026 0.6823270000000022
0.7094332000000033 0.6751675000000026 0.6834925000000023
0.7104988000000033 0.6759001000000026 0.6846580000000023
0.7114978000000033 0.6784642000000025 0.6864229000000023
0.7139620000000033 0.6789637000000025 0.6882544000000023
0.7140619000000034 0.6810616000000025 0.6879880000000023
0.7147612000000033 0.6794965000000025 0.6901192000000023
0.7155937000000033 0.6800959000000025 0.6895531000000023
0.7157269000000034 0.6808951000000025 0.6919840000000023
0.7186906000000034 0.6824602000000025 0.6919507000000023
0.7172920000000034 0.6848245000000025 0.6921838000000022
0.7182244000000034 0.6845581000000025 0.6931162000000023
0.7180246000000035 0.6846913000000026 0.6952807000000023
0.7206220000000034 0.6857902000000026 0.6953140000000023
0.7213879000000034 0.6858901000000026 0.6949144000000023
0.7215877000000034 0.6873220000000027 0.6972787000000022
0.7224535000000034 0.6869557000000026 0.6962797000000023
0.7243849000000034 0.6869224000000026 0.6979447000000023
0.7261165000000035 0.6900859000000026 0.6977449000000023
0.7271488000000035 0.6915178000000026 0.6987106000000023
0.7286140000000035 0.6901525000000026 0.7002424000000023
0.7284142000000036 0.6929830000000026 0.7034392000000023
0.7303123000000036 0.6943150000000026 0.7027066000000023
0.7301791000000035 0.6957802000000026 0.7051042000000023
0.7285807000000035 0.6956470000000026 0.7039054000000022
0.7313113000000036 0.6972121000000026 0.7065361000000022
0.7310116000000035 0.6958801000000026 0.7081012000000022
0.7327099000000036 0.6963796000000025 0.7093333000000022
0.7317109000000036 0.6959134000000026 0.7106986000000022
0.7315777000000036 0.6964462000000026 0.7123636000000022
0.7331095000000035 0.6991435000000026 0.7143949000000022
0.7359733000000035 0.6986440000000026 0.7158268000000022
0.7381045000000035 0.6992101000000026 0.7168591000000022
0.7379380000000035 0.7004755000000026 0.7163596000000022
0.7365394000000035 0.6999427000000026 0.7178914000000022
0.7375717000000035 0.6998428000000025 0.7201891000000021
0.7392034000000035 0.7019740000000025 0.7221871000000022
0.7386040000000035 0.7027732000000025 0.7236190000000022
0.7386373000000035 0.7023403000000026 0.7254838000000022
0.7393033000000035 0.7045048000000026 0.7271821000000023
0.7411015000000035 0.7046047000000026 0.7278814000000022
0.7427665000000035 0.7065361000000027 0.7289803000000022
0.7435324000000035 0.7078681000000027 0.7305454000000022
0.7454305000000035 0.7104322000000026 0.7312780000000022
0.7457968000000036 0.7118974000000027 0.7334425000000022
0.7448644000000035 0.7105987000000027 0.7324435000000022
0.7464961000000035 0.7117309000000027 0.7320106000000023
0.7490269000000036 0.7131295000000027 0.7337422000000023
0.7478947000000036 0.7136623000000027 0.7358068000000023
0.7490935000000036 0.7146613000000027 0.7359067000000024
0.7483609000000037 0.7167259000000027 0.7375051000000024
0.7478614000000037 0.7165927000000026 0.7373053000000024
0.7468624000000037 0.7177582000000027 0.7381045000000024
0.7472620000000038 0.7189903000000026 0.7385707000000024
0.7470955000000038 0.7200559000000026 0.7397695000000024
0.7496596000000038 0.7201891000000027 0.7415011000000025
0.7504921000000038 0.7205887000000027 0.7434991000000025
0.7497928000000038 0.7225867000000028 0.7447312000000025
0.7500259000000038 0.7233193000000028 0.7454971000000025
0.7498927000000037 0.7250509000000028 0.7467625000000024
0.7503589000000037 0.7268824000000028 0.7473952000000025
0.7511581000000037 0.7254172000000028 0.7472287000000025
0.7511581000000037 0.7244848000000027 0.7490935000000025
0.7512247000000037 0.7253839000000027 0.7496929000000025
0.7524568000000037 0.7260166000000028 0.7526899000000026
0.7535890000000037 0.7277815000000027 0.7517575000000025
0.7539553000000038 0.7284475000000028 0.7528897000000025
0.7549543000000037 0.7293466000000028 0.7553539000000026
0.7549210000000037 0.7293799000000029 0.7557868000000025
0.7535557000000037 0.7306786000000028 0.7549543000000025
0.7560865000000038 0.7321438000000029 0.7554205000000025
0.7546546000000037 0.7311781000000029 0.7572520000000025
0.7541884000000038 0.7329430000000029 0.7568857000000024
0.7561531000000038 0.7353406000000029 0.7578181000000025
0.7587172000000038 0.7359400000000029 0.7566193000000024
0.7584508000000038 0.736805800000003 0.7578181000000025
0.7584175000000037 0.737338600000003 0.7582177000000025
0.7580512000000037 0.7385707000000029 0.7589170000000025
0.7585174000000037 0.7380046000000029 0.7610482000000025
0.7604821000000037 0.7402357000000029 0.7616143000000025
0.7611814000000037 0.7418341000000029 0.7614478000000026
0.7608817000000037 0.7415677000000029 0.7614145000000025
0.7621471000000036 0.7415011000000029 0.7637122000000025
0.7609150000000037 0.7425334000000029 0.7648777000000025
0.7627798000000037 0.7425667000000029 0.7659433000000025
0.7634791000000036 0.7430329000000029 0.7678747000000026
0.7654771000000037 0.7448644000000029 0.7694731000000026
0.7660765000000037 0.7442650000000028 0.7683742000000026
0.7661764000000038 0.7452307000000028 0.7689736000000026
0.7663429000000037 0.7476616000000028 0.7705387000000026
0.7690069000000037 0.7502923000000028 0.7707052000000025
0.7715377000000038 0.7511248000000028 0.7725700000000025
0.7730029000000038 0.7512247000000029 0.7743682000000025
0.7742017000000039 0.7527898000000028 0.7747678000000026
0.7760998000000039 0.7531894000000029 0.7768324000000025
0.7764328000000039 0.7528564000000029 0.7762996000000025
0.776799100000004 0.7554871000000029 0.7779646000000026
0.7777648000000039 0.7561198000000029 0.7798627000000026
0.7779646000000039 0.7569190000000029 0.7816609000000025
0.7775650000000038 0.7566859000000029 0.7839919000000025
0.7774651000000038 0.7572853000000029 0.7845247000000025
0.7775650000000038 0.7580179000000029 0.7847578000000025
0.7774318000000038 0.7592500000000029 0.7845913000000025
0.7784974000000038 0.7597495000000029 0.7870888000000026
0.7793632000000038 0.7614811000000029 0.7891534000000026
0.7803289000000038 0.7611814000000029 0.7920172000000025
0.7818940000000038 0.7600825000000029 0.7943482000000025
0.7819939000000038 0.7600825000000029 0.7932826000000025
0.7834258000000038 0.7605154000000028 0.7917841000000025
0.7840918000000039 0.7622803000000028 0.7928830000000026
0.7853239000000038 0.7616809000000028 0.7921171000000026
0.7851907000000038 0.7643782000000028 0.7917175000000025
0.7876882000000038 0.7661098000000028 0.7927498000000025
0.7894864000000038 0.7657102000000028 0.7940152000000025
0.7898860000000039 0.7668757000000028 0.7949809000000024
0.7911514000000038 0.7688737000000029 0.7958800000000025
0.7902523000000038 0.7696729000000029 0.7973785000000024
0.7887538000000038 0.7710715000000029 0.7980112000000025
0.7903522000000038 0.772803100000003 0.7984774000000024
0.7912846000000039 0.773602300000003 0.8010082000000025
0.7935823000000038 0.773702200000003 0.8009749000000025
0.7943149000000038 0.774867700000003 0.8005753000000024
0.7950142000000038 0.776899000000003 0.8001091000000025
0.7981777000000038 0.776466100000003 0.7999759000000024
0.7994764000000038 0.778830400000003 0.7989769000000024
0.7994764000000038 0.778530700000003 0.8003422000000024
0.8019739000000038 0.779796100000003 0.8018407000000024
0.8018407000000037 0.780961600000003 0.8007085000000024
0.8011081000000038 0.780861700000003 0.8026066000000024
0.8035057000000038 0.782260300000003 0.8038720000000024
0.8048377000000038 0.783026200000003 0.8059033000000023
0.8041051000000038 0.783792100000003 0.8079346000000023
0.8039719000000037 0.785756800000003 0.8071687000000023
0.8047711000000037 0.7866226000000031 0.8091001000000023
0.8049709000000037 0.7882876000000031 0.8081344000000024
0.8060365000000037 0.7888204000000031 0.8096662000000023
0.8074684000000037 0.7886539000000031 0.8101324000000023
0.8089003000000038 0.7913845000000032 0.8114311000000023
0.8090668000000037 0.7928497000000032 0.8124301000000023
0.8107984000000038 0.7922836000000032 0.8156269000000023
0.8108317000000038 0.7926166000000032 0.8181910000000022
0.8125966000000038 0.7945147000000032 0.8173585000000022
0.8149276000000037 0.7955470000000032 0.8197228000000022
0.8152606000000038 0.7975450000000033 0.8212213000000022
0.8165593000000038 0.7979446000000033 0.8203888000000021
0.8187571000000038 0.7973452000000033 0.8208883000000021
0.8198227000000038 0.7960798000000033 0.8195896000000021
0.8219206000000038 0.7961131000000033 0.8221537000000021
0.8224201000000038 0.7967125000000034 0.821521000000002
0.8224534000000038 0.7974451000000033 0.820655200000002
0.8232193000000038 0.7965460000000033 0.823352500000002
0.8222536000000038 0.7963129000000033 0.8223868000000021
0.8242183000000038 0.7970455000000033 0.8237521000000021
0.8254837000000038 0.7976782000000033 0.8245513000000021
0.8255170000000038 0.7975117000000034 0.8267158000000021
0.8244847000000038 0.7992433000000034 0.8288470000000021
0.8271487000000038 0.8014078000000034 0.828713800000002
0.8280478000000039 0.8016742000000034 0.8301457000000021
0.8292799000000038 0.8027398000000034 0.8326432000000021
0.8293132000000039 0.8046379000000035 0.8323768000000021
0.8301124000000039 0.8047378000000035 0.8336089000000021
0.8320438000000039 0.8063362000000035 0.8358400000000021
0.8326765000000039 0.8069023000000035 0.8372719000000022
0.833275900000004 0.8072353000000035 0.8360065000000022
0.8340418000000039 0.8084674000000035 0.8350408000000022
0.8343082000000039 0.8084008000000035 0.8346745000000022
0.834707800000004 0.8084008000000035 0.8348410000000022
0.835040800000004 0.8109649000000034 0.8342083000000021
0.836672500000004 0.8124301000000035 0.8361397000000022
0.8386705000000041 0.8130295000000035 0.8359399000000022
0.8390701000000041 0.8130295000000035 0.8385706000000022
0.8401357000000041 0.8127631000000035 0.8377714000000022
0.8418673000000042 0.8132959000000035 0.8375050000000022
0.8426665000000042 0.8133958000000036 0.8401690000000022
0.8440651000000042 0.8131627000000036 0.8396029000000022
0.8447644000000042 0.8128963000000036 0.8417674000000022
0.8448310000000042 0.8140618000000036 0.8426998000000022
0.8451640000000042 0.8155603000000036 0.8437987000000022
0.8443315000000042 0.8163595000000036 0.8451640000000022
0.8444314000000043 0.8181577000000035 0.8461297000000022
0.8437654000000042 0.8169589000000035 0.8481277000000023
0.8468290000000043 0.8164594000000035 0.8496595000000022
