0.0116317 0.0112654 0.0116983
0.0131635 0.0121645 0.0111988
0.0144622 0.0127972 0.013996
0.0172927 0.0138295 0.0152281
0.0176257 0.0152281 0.0154612
0.0194572 0.0168265 0.0146287
0.0210889 0.0190243 0.0139294
0.0223543 0.0204895 0.0151948
0.0235864 0.022654 0.017326
0.0248518 0.023653 0.0202231
0.0268498 0.023653 0.0215884
0.0284482 0.0237862 0.0226873
0.0300133 0.0239527 0.0225208
0.0312454 0.0240859 0.0230203
0.0323776 0.0258175 0.0219214
0.0311455 0.0279487 0.0221878
0.0328438 0.0287146 0.0248851
0.0340426 0.0300133 0.0263836
0.0357742 0.0299467 0.0287146
0.037639 0.0310456 0.0301798
0.0396037 0.0311788 0.0290809
0.0421012 0.0328771 0.0290476
0.0415684 0.0332101 0.0310789
0.0436996 0.0345754 0.0320779
0.0444655 0.0354412 0.0324775
0.0461638 0.0342424 0.0323443
0.0484615 0.0344422 0.0340759
0.0476956 0.0348085 0.033976
0.0500599 0.0357409 0.0360406
0.0510589 0.0351415 0.0380053
0.0517582 0.0366067 0.0383383
0.0519913 0.0369064 0.039304
0.0529903 0.035974 0.0400699
0.0545221 0.0367399 0.040969
0.0535897 0.0396037 0.0428338
0.0551881 0.0403363 0.0417349
0.0569197 0.039637 0.0414685
0.0570196 0.0403363 0.0420679
0.058351599999999997 0.0422344 0.0430669
0.0578854 0.0439993 0.0437995
0.059783499999999996 0.0451315 0.0451981
0.059383899999999996 0.0456643 0.0465301
0.060449499999999996 0.0461971 0.0476956
0.059916699999999996 0.0458308 0.0493273
0.061215399999999996 0.0454645 0.0499933
0.061548399999999996 0.046963 0.0507592
0.0645121 0.0463969 0.0520579
0.0655444 0.0461638 0.0547552
0.0657109 0.0458308 0.05662
0.0685747 0.0451981 0.059017599999999996
0.0700732 0.0480952 0.059949999999999996
0.0708058 0.0491275 0.060682599999999996
0.0728371 0.0497602 0.062214399999999996
0.0749683 0.0515917 0.0636796
0.0765667 0.0540892 0.0651115
0.0766666 0.0559207 0.067942
0.0786646 0.0568531 0.070273
0.0786313 0.0582517 0.0732367
0.0797635 0.059883399999999996 0.0744688
0.0810622 0.061182099999999996 0.0735364
0.0797968 0.061115499999999996 0.0740359
0.0814285 0.061248699999999996 0.074269
0.0811621 0.061548399999999996 0.0739693
0.0822943 0.061048899999999996 0.0734032
0.0841924 0.062347599999999996 0.0748351
0.0859573 0.061947999999999996 0.0741025
0.0881218 0.0629137 0.07327
0.0881884 0.0656776 0.0750682
0.088588 0.0658774 0.0741358
0.0904861 0.0685414 0.073603
0.0907858 0.0699067 0.0757342
0.092584 0.0699067 0.0773659
0.0932167 0.071272 0.0768997
0.0920512 0.0728371 0.0760339
0.0929836 0.0734698 0.0754678
0.0941824 0.075601 0.0778321
0.0950149 0.0760672 0.0798967
0.097912 0.0779653 0.0817948
0.0997768 0.0771661 0.0804961
0.1020412 0.0774991 0.0810289
0.1020079 0.0800632 0.0822277
0.101908 0.0814618 0.0837262
0.1014418 0.0834931 0.0848584
0.1027405 0.0823609 0.0862237
0.1026739 0.0831268 0.087256
0.103573 0.0832933 0.0860572
0.1044388 0.082927 0.0879886
0.1044721 0.0824608 0.0869896
0.1068031 0.083593 0.0888877
0.1078687 0.0833599 0.0903862
0.1073026 0.0842923 0.0899533
0.1070362 0.0853246 0.090253
0.1066699 0.0875224 0.0904195
0.1075024 0.0891874 0.0907525
0.1084681 0.0898867 0.090253
0.1102996 0.0897535 0.0913186
0.111898 0.0912187 0.0929503
0.1113319 0.0938494 0.0947818
0.1135297 0.095581 0.0973126
0.112897 0.0967798 0.0971128
0.1147618 0.0964135 0.0970129
0.1145287 0.0972793 0.0977455
0.1152613 0.0994771 0.0987778
0.1159273 0.0996769 0.0994438
0.1150948 0.0997435 0.1002763
0.1177255 0.1010755 0.0991774
0.1197901 0.101575 0.098911
0.1210555 0.102907 0.0994771
0.1235863 0.1031401 0.1005094
0.1234864 0.1028404 0.1009756
0.1244521 0.1019413 0.1008757
0.1265167 0.1014751 0.1020745
0.12655000000000002 0.1008424 0.1009423
0.1263169 0.1025407 0.1004428
0.12861460000000002 0.1048717 0.1014418
0.12884770000000004 0.1067365 0.1031401
0.12984670000000004 0.1076356 0.1016083
0.13047940000000005 0.1081684 0.1028737
0.13367620000000005 0.1102663 0.1043722
0.13307680000000005 0.1116649 0.1043389
0.13330990000000006 0.1114984 0.1049716
0.13604050000000006 0.1106659 0.1068697
0.13690630000000006 0.110899 0.1098667
0.13767220000000008 0.1097002 0.1100998
0.1406359000000001 0.1125307 0.1097668
0.1420012000000001 0.1128637 0.1116982
0.14336650000000012 0.1130302 0.1126972
0.14456530000000012 0.1122643 0.1150282
0.14473180000000013 0.1123309 0.1150948
0.14716270000000015 0.1144954 0.1157941
0.14969350000000015 0.1156609 0.1167265
0.15132520000000016 0.1171927 0.1164601
0.15289030000000017 0.1200565 0.1150948
0.15528790000000017 0.1214218 0.1158274
0.15382270000000017 0.1223875 0.1151947
0.1539226000000002 0.1217215 0.1160605
0.1553212000000002 0.1243189 0.1159606
0.15448870000000017 0.1237528 0.1174924
0.1565866000000002 0.1253512 0.1196902
0.1578520000000002 0.1267165 0.1212553
0.1581184000000002 0.1286479 0.1230535
0.1603828000000002 0.13094560000000002 0.1237195
0.1612486000000002 0.13347640000000002 0.1256176
0.16231420000000019 0.13570750000000004 0.1269163
0.16251400000000019 0.13727260000000005 0.1278487
0.1616482000000002 0.13763890000000006 0.1281151
0.1615150000000002 0.13917070000000006 0.1282483
0.1624807000000002 0.14233420000000008 0.1285147
0.1619479000000002 0.1428337000000001 0.1280818
0.16218100000000021 0.1441657000000001 0.1270162
0.16347970000000023 0.1442989000000001 0.1286812
0.16308010000000023 0.1450981000000001 0.1283482
0.16341310000000023 0.1450981000000001 0.1294471
0.16397920000000024 0.1460638000000001 0.1281817
0.16544440000000024 0.1471294000000001 0.127216
0.16644340000000024 0.1482616000000001 0.1262836
0.16844140000000024 0.14976010000000012 0.1268164
0.16897420000000024 0.1490608000000001 0.1272493
0.16867450000000023 0.1483615000000001 0.1271494
0.16934050000000023 0.1510921000000001 0.1279486
0.1689076000000002 0.1530235000000001 0.1287478
0.16980670000000023 0.1554211000000001 0.1286812
0.17100550000000023 0.1574524000000001 0.1296136
0.17040610000000023 0.1580518000000001 0.1299133
0.17293690000000023 0.1604494000000001 0.13241080000000002
0.17373610000000023 0.1602496000000001 0.13524130000000004
0.17566750000000023 0.1621144000000001 0.13557430000000004
0.17796520000000024 0.1619479000000001 0.13847140000000005
0.17786530000000023 0.1624807000000001 0.13813840000000005
0.18056260000000024 0.1631467000000001 0.14123530000000006
0.18136180000000024 0.1655443000000001 0.14076910000000006
0.18296020000000024 0.1677421000000001 0.14126860000000008
0.18369280000000024 0.1684081000000001 0.14233420000000008
0.18289360000000024 0.1680751000000001 0.1429003000000001
0.18342640000000024 0.1671427000000001 0.1423009000000001
0.18452530000000025 0.1687411000000001 0.1425340000000001
0.18379270000000025 0.1699399000000001 0.1424008000000001
0.18422560000000027 0.1712053000000001 0.1446652000000001
0.18419230000000025 0.1713385000000001 0.14496490000000012
0.18585730000000025 0.1729369000000001 0.14526460000000013
0.18645670000000025 0.1737694000000001 0.14739580000000013
0.18565750000000025 0.1750348000000001 0.14772880000000013
0.18732250000000025 0.1768996000000001 0.15075910000000015
0.18902080000000027 0.1765999000000001 0.15385600000000016
0.18958690000000028 0.1774657000000001 0.15422230000000017
0.19205110000000028 0.1769329000000001 0.15721930000000017
0.19161820000000027 0.1760671000000001 0.15721930000000017
0.19268380000000027 0.17603380000000007 0.1580518000000002
0.19231750000000025 0.17523460000000007 0.1604494000000002
0.19331650000000025 0.1756009000000001 0.1615150000000002
0.19504810000000025 0.1756009000000001 0.1630135000000002
0.19711270000000025 0.1779319000000001 0.1647784000000002
0.19811170000000025 0.1784647000000001 0.1642456000000002
0.19957690000000025 0.1792306000000001 0.1647118000000002
0.19867780000000024 0.18086230000000011 0.16494490000000023
0.19891090000000025 0.18166150000000011 0.1646452000000002
0.20014300000000027 0.1802962000000001 0.1643788000000002
0.20047600000000027 0.18059590000000011 0.1667098000000002
0.20180800000000026 0.1796302000000001 0.1665766000000002
0.20150830000000025 0.18072910000000011 0.1672426000000002
0.20327320000000026 0.18046270000000011 0.16960690000000023
0.20473840000000026 0.18119530000000011 0.17120530000000023
0.20723590000000028 0.18209440000000013 0.17350300000000024
0.20883430000000028 0.18449200000000013 0.17580070000000025
0.20956690000000028 0.18592390000000014 0.17480170000000025
0.20930050000000028 0.18622360000000016 0.17536780000000027
0.2107990000000003 0.18725590000000017 0.17466850000000025
0.2112319000000003 0.18668980000000016 0.17473510000000025
0.2111986000000003 0.18652330000000014 0.17493490000000025
0.2113984000000003 0.18735580000000016 0.17420230000000025
0.21076570000000028 0.18655660000000016 0.17366950000000025
0.21149830000000028 0.18815500000000016 0.17403580000000027
0.21136510000000028 0.18892090000000017 0.17616700000000027
0.21229750000000028 0.18825490000000017 0.17699950000000028
0.2131966000000003 0.19075240000000018 0.17706610000000028
0.2131966000000003 0.1926505000000002 0.1788310000000003
0.2137960000000003 0.1935496000000002 0.17819830000000028
0.21376270000000028 0.19358290000000022 0.18012970000000028
0.21469510000000028 0.19318330000000022 0.17963020000000027
0.21596050000000028 0.1920178000000002 0.17833150000000025
0.21552760000000026 0.1907191000000002 0.18066250000000025
0.21552760000000026 0.18988660000000018 0.18122860000000027
0.21679300000000026 0.19221760000000018 0.18062920000000027
0.21819160000000026 0.19235080000000018 0.18329320000000027
0.21952360000000026 0.1932499000000002 0.18419230000000028
0.21935710000000025 0.1925173000000002 0.18565750000000028
0.21992320000000026 0.19228420000000018 0.1864900000000003
0.21895750000000025 0.19145170000000017 0.1888876000000003
0.21769210000000025 0.19031950000000017 0.18858790000000028
0.21669310000000025 0.19088560000000018 0.18832150000000028
0.21845800000000026 0.1915183000000002 0.18762220000000027
0.22048930000000028 0.19115200000000018 0.18728920000000027
0.22088890000000028 0.19035280000000018 0.18928720000000027
0.2213884000000003 0.19035280000000018 0.18915400000000027
0.2223208000000003 0.19288360000000018 0.19151830000000028
0.2246185000000003 0.19271710000000017 0.1919512000000003
0.2248849000000003 0.19434880000000018 0.1940824000000003
0.22638340000000032 0.19351630000000017 0.19344970000000028
0.22884760000000032 0.19571410000000017 0.19255060000000027
0.23077900000000032 0.19621360000000018 0.19238410000000025
0.2300131000000003 0.1986445000000002 0.19401580000000027
0.23177800000000032 0.2003095000000002 0.19674640000000027
0.23354290000000033 0.2008090000000002 0.19611370000000025
0.23394250000000033 0.2004094000000002 0.19474840000000024
0.23274370000000033 0.20197450000000022 0.19441540000000024
0.23424220000000034 0.20124190000000022 0.19421560000000024
0.23420890000000033 0.20004310000000022 0.19441540000000024
0.23460850000000033 0.20144170000000022 0.19358290000000022
0.23627350000000033 0.20044270000000022 0.19494820000000024
0.23897080000000034 0.1989442000000002 0.19564750000000025
0.24066910000000036 0.2000764000000002 0.19614700000000027
0.24000310000000036 0.1997767000000002 0.19784530000000028
0.23930380000000034 0.2024740000000002 0.19837810000000028
0.23920390000000033 0.2027404000000002 0.1994770000000003
0.24060250000000033 0.2034064000000002 0.2002762000000003
0.24270040000000034 0.2030068000000002 0.19917730000000028
0.24206770000000033 0.2021410000000002 0.19997650000000028
0.24349960000000034 0.20457190000000022 0.19887760000000027
0.24336640000000034 0.20507140000000024 0.19744570000000025
0.24616360000000034 0.20537110000000025 0.19841140000000027
0.24852790000000036 0.20560420000000026 0.19941040000000027
0.24982660000000037 0.20530450000000025 0.19990990000000028
0.25105870000000036 0.20527120000000024 0.19907740000000027
0.25345630000000036 0.20796850000000025 0.19984330000000028
0.2537893000000004 0.20850130000000025 0.2016748000000003
0.2532565000000004 0.20956690000000025 0.20124190000000028
0.25468840000000037 0.21009970000000025 0.20290690000000028
0.25575400000000037 0.20903410000000025 0.20350630000000028
0.25788520000000037 0.20880100000000024 0.20383930000000028
0.25825150000000036 0.20993320000000024 0.2064034000000003
0.2584513000000004 0.20940040000000024 0.2065366000000003
0.2599165000000004 0.21256390000000025 0.2065366000000003
0.2599165000000004 0.21416230000000025 0.20583730000000028
0.2623807000000004 0.21576070000000025 0.20537110000000028
0.2627470000000004 0.21519460000000024 0.2086012000000003
0.2647117000000004 0.21609370000000025 0.2091673000000003
0.2644453000000004 0.21675970000000025 0.2098333000000003
0.2644453000000004 0.21616030000000025 0.2102329000000003
0.26384590000000036 0.21692620000000026 0.21099880000000032
0.26554420000000034 0.21755890000000028 0.21332980000000032
0.26704270000000035 0.21962350000000028 0.21659320000000032
0.26677630000000035 0.22048930000000028 0.21792520000000032
0.26624350000000035 0.22302010000000028 0.21795850000000033
0.26810830000000035 0.2244520000000003 0.21902410000000033
0.26874100000000034 0.2252845000000003 0.21982330000000033
0.2685745000000003 0.2268163000000003 0.22048930000000033
0.26914060000000034 0.22871440000000032 0.22032280000000032
0.26967340000000034 0.22818160000000032 0.22105540000000032
0.26987320000000037 0.23117860000000032 0.22098880000000032
0.2695069000000004 0.23267710000000033 0.22335310000000033
0.2713051000000004 0.23527450000000033 0.22395250000000033
0.2724040000000004 0.23537440000000034 0.22551760000000035
0.2738692000000004 0.23434210000000033 0.22461850000000033
0.2753344000000004 0.23394250000000033 0.22678300000000035
0.2775655000000004 0.23627350000000033 0.22774870000000036
0.2766331000000004 0.23680630000000033 0.22798180000000037
0.2779318000000004 0.23560750000000033 0.22714930000000036
0.2781982000000004 0.23647330000000033 0.22961350000000036
0.2792305000000004 0.23817160000000034 0.22954690000000036
0.2794969000000004 0.24003640000000034 0.22918060000000035
0.2789641000000004 0.24016960000000034 0.23034610000000036
0.2817946000000004 0.23883760000000034 0.23221090000000036
0.2816281000000004 0.23847130000000033 0.23377600000000037
0.28372600000000037 0.23710600000000032 0.23384260000000037
0.28372600000000037 0.23657320000000032 0.23520790000000039
0.28555750000000035 0.23723920000000032 0.2363734000000004
0.28579060000000034 0.23893750000000033 0.2369728000000004
0.2850913000000003 0.23937040000000034 0.2384047000000004
0.2862568000000003 0.24056920000000034 0.2386045000000004
0.2880883000000003 0.24216760000000034 0.2380717000000004
0.2909521000000003 0.24473170000000036 0.2399365000000004
0.2921509000000003 0.24633010000000036 0.2420677000000004
0.29221750000000035 0.24599710000000036 0.2413351000000004
0.2936161000000004 0.24792850000000036 0.24176800000000043
0.2944486000000004 0.24766210000000036 0.24016960000000043
0.2958805000000004 0.24706270000000036 0.24150160000000043
0.29514790000000035 0.24852790000000036 0.24250060000000043
0.29584720000000037 0.25022620000000034 0.24280030000000044
0.29571400000000037 0.25212430000000036 0.24526450000000044
0.29554750000000035 0.25518790000000036 0.24639670000000044
0.29558080000000037 0.25452190000000036 0.24689620000000045
0.2961802000000004 0.25528780000000034 0.24636340000000045
0.2982115000000004 0.25638670000000036 0.24709600000000045
0.3004426000000004 0.25695280000000037 0.24633010000000044
0.3027403000000004 0.2576521000000004 0.24709600000000045
0.3027736000000004 0.2574190000000004 0.24636340000000045
0.30453850000000043 0.2587510000000004 0.24649660000000045
0.30593710000000046 0.2596834000000004 0.24682960000000045
0.30630340000000045 0.2600497000000004 0.24922720000000045
0.30883420000000045 0.25931710000000036 0.25062580000000045
0.31016620000000045 0.2599165000000004 0.25019290000000044
0.31146490000000043 0.2597833000000004 0.25072570000000044
0.31452850000000043 0.2615482000000004 0.25192450000000044
0.31526110000000046 0.2624806000000004 0.25345630000000047
0.3172924000000005 0.2634463000000004 0.2541556000000005
0.31779190000000046 0.2649448000000004 0.2537893000000005
0.31685950000000046 0.26660980000000045 0.2547883000000005
0.31855780000000045 0.2673424000000005 0.2580850000000005
0.32025610000000043 0.2681416000000005 0.2573857000000005
0.3214216000000004 0.26890750000000047 0.2563201000000005
0.32132170000000043 0.2696401000000005 0.2584846000000005
0.32272030000000046 0.2704060000000005 0.2600497000000005
0.32378590000000046 0.2723374000000005 0.2619478000000005
0.3255508000000005 0.2725705000000005 0.2634463000000005
0.3274156000000005 0.2732032000000005 0.2650114000000005
0.3290140000000005 0.27343630000000047 0.2669761000000005
0.3308122000000005 0.27287020000000045 0.2660104000000005
0.3319777000000005 0.27580060000000045 0.26704270000000047
0.3334762000000005 0.2766664000000005 0.26820820000000045
0.3348082000000005 0.2769328000000005 0.2689408000000005
0.3361735000000005 0.27916390000000046 0.2705392000000005
0.3365398000000005 0.2821276000000005 0.27197110000000047
0.3367396000000005 0.2820277000000005 0.27153820000000045
0.33760540000000056 0.2845918000000005 0.27343630000000047
0.33857110000000057 0.28545760000000053 0.27446860000000045
0.33810490000000054 0.28469170000000055 0.27363610000000044
0.33760540000000056 0.28752220000000056 0.2738692000000004
0.33837130000000054 0.2878552000000006 0.27433540000000045
0.3379384000000005 0.2895535000000006 0.27563410000000044
0.3382048000000005 0.2908855000000006 0.27606700000000045
0.3394036000000005 0.2918512000000006 0.27729910000000046
0.3383380000000005 0.2942821000000006 0.2767996000000005
0.34013620000000055 0.2952145000000006 0.2778652000000005
0.3418012000000006 0.2957473000000006 0.2809621000000005
0.3413017000000006 0.2961802000000006 0.2825605000000005
0.3413017000000006 0.29554750000000063 0.2834596000000005
0.3430999000000006 0.29598040000000064 0.28569070000000046
0.3455974000000006 0.29911060000000067 0.2874556000000005
0.3473623000000006 0.2988775000000007 0.2884213000000005
0.3477619000000006 0.2999764000000007 0.2886211000000005
0.3505258000000006 0.3000430000000007 0.2876221000000005
0.35085880000000064 0.29980990000000074 0.2899864000000005
0.3518911000000006 0.2996434000000007 0.2888209000000005
0.35422210000000065 0.2994436000000007 0.2909188000000005
0.3561535000000007 0.3019411000000007 0.2933497000000005
0.3548548000000007 0.3026737000000007 0.2953810000000005
0.3545884000000007 0.3051712000000007 0.2948149000000005
0.3571192000000007 0.3049048000000007 0.2945818000000005
0.3580849000000007 0.30403900000000067 0.2964133000000005
0.3580183000000007 0.3066364000000007 0.2968129000000005
0.3588841000000007 0.3067030000000007 0.2982781000000005
0.3591172000000007 0.3070693000000007 0.2988109000000005
0.35891740000000066 0.30766870000000074 0.2997766000000005
0.3582847000000007 0.30793510000000074 0.3010753000000005
0.3584512000000007 0.30920050000000077 0.3039391000000005
0.3595501000000007 0.30943360000000075 0.3045718000000005
0.3581848000000007 0.31253050000000077 0.3037060000000005
0.3584845000000007 0.31519450000000077 0.3055042000000005
0.3577186000000007 0.31492810000000077 0.30730240000000053
0.35938360000000075 0.31372930000000077 0.30746890000000054
0.36134830000000073 0.31346290000000077 0.30936700000000056
0.36174790000000073 0.3146950000000008 0.31033270000000057
0.3616813000000007 0.3160603000000008 0.3126304000000006
0.3623473000000007 0.3164932000000008 0.3126970000000006
0.3629800000000007 0.3157939000000008 0.3146617000000006
0.3636127000000007 0.3159271000000008 0.3151945000000006
0.3651445000000007 0.3169927000000008 0.3143953000000006
0.3646783000000007 0.3177586000000008 0.3147949000000006
0.3663100000000007 0.3190240000000008 0.3154942000000006
0.3690406000000007 0.3195235000000008 0.3151612000000006
0.3707722000000007 0.3200563000000008 0.3167596000000006
0.3697732000000007 0.3211219000000008 0.3174922000000006
0.3727369000000007 0.3223540000000008 0.3169261000000006
0.3722707000000007 0.32335300000000083 0.3194236000000006
0.3746017000000007 0.32525110000000085 0.3217213000000006
0.3764332000000007 0.3273157000000009 0.3234529000000006
0.3761335000000007 0.33007960000000086 0.3252178000000006
0.3769327000000007 0.33257710000000085 0.3260170000000006
0.37663300000000066 0.3335761000000009 0.3263833000000006
0.3786643000000007 0.33354280000000086 0.3278818000000006
0.3783979000000007 0.33607360000000086 0.3273490000000006
0.37889740000000066 0.33763870000000085 0.3285811000000006
0.3809620000000007 0.3401029000000009 0.3278818000000006
0.3805624000000007 0.33910390000000085 0.32861440000000064
0.37996300000000066 0.33813820000000083 0.3285478000000006
0.3801628000000007 0.33813820000000083 0.3280483000000006
0.3819277000000007 0.3367396000000008 0.3279817000000006
0.3845584000000007 0.3373057000000008 0.3297799000000006
0.3862567000000007 0.33640660000000083 0.3308455000000006
0.38662300000000066 0.33710590000000085 0.3294469000000006
0.38688940000000066 0.33760540000000083 0.3313117000000006
0.3863899000000007 0.33840460000000083 0.3305125000000006
0.3894535000000007 0.3382048000000008 0.3316780000000006
0.3904525000000007 0.3383047000000008 0.33041260000000056
0.3920842000000007 0.3376387000000008 0.3314116000000006
0.3936826000000007 0.3403360000000008 0.3332098000000006
0.3950146000000007 0.3423007000000008 0.3323107000000006
0.3945817000000007 0.3413683000000008 0.33344290000000065
0.3964798000000007 0.3414016000000008 0.33447520000000064
0.3988774000000007 0.3426004000000008 0.3351079000000006
0.40040920000000074 0.3444652000000008 0.33713920000000064
0.39917710000000073 0.3442987000000008 0.3366730000000006
0.40134160000000074 0.3455308000000008 0.3361402000000006
0.40187440000000074 0.3476953000000008 0.3361735000000006
0.4018078000000007 0.34882750000000085 0.3391039000000006
0.40423870000000073 0.34816150000000085 0.3377053000000006
0.40440520000000074 0.3480949000000008 0.3394036000000006
0.40487140000000077 0.3499597000000008 0.3401362000000006
0.40413880000000074 0.34946020000000083 0.3398032000000006
0.4066363000000007 0.35125840000000086 0.3398365000000006
0.40813480000000074 0.35362270000000084 0.3418012000000006
0.4080682000000007 0.35269030000000084 0.34093540000000055
0.4080682000000007 0.3536893000000009 0.34343290000000054
0.4090339000000007 0.3529234000000009 0.34536430000000057
0.4089007000000007 0.35165800000000086 0.34762870000000057
0.4087342000000007 0.3532897000000009 0.34799500000000055
0.4106989000000007 0.3557206000000009 0.34866100000000055
0.4125304000000007 0.3571192000000009 0.3485944000000005
0.4136626000000007 0.3566863000000009 0.3500596000000005
0.4158271000000007 0.3579517000000009 0.35025940000000055
0.41772520000000074 0.3607156000000009 0.35052580000000055
0.41759200000000074 0.36264700000000094 0.35239060000000055
0.41799160000000074 0.36281350000000095 0.35505460000000055
0.41865760000000074 0.365810500000001 0.35795170000000054
0.4186243000000007 0.36484480000000097 0.3609820000000005
0.41935690000000075 0.36617680000000097 0.3608488000000005
0.4199563000000008 0.366210100000001 0.35994970000000054
0.4196899000000008 0.368940700000001 0.3621808000000005
0.4197232000000008 0.37127170000000104 0.36437860000000055
0.4192903000000008 0.372304000000001 0.36481150000000057
0.4214881000000008 0.374035600000001 0.36557740000000055
0.4220542000000008 0.373436200000001 0.36760870000000057
0.42212080000000085 0.375467500000001 0.3678085000000006
0.4205890000000008 0.376266700000001 0.3695734000000006
0.4201561000000008 0.378164800000001 0.37017280000000063
0.4218877000000008 0.37966330000000104 0.37103860000000066
0.42235390000000084 0.379063900000001 0.37167130000000065
0.4222873000000008 0.379696600000001 0.37230400000000063
0.4242853000000008 0.379996300000001 0.3748015000000006
0.4255174000000008 0.382227400000001 0.37550080000000063
0.42595030000000084 0.383526100000001 0.37673290000000065
0.4265830000000008 0.383859100000001 0.3769327000000007
0.4263832000000008 0.38539090000000104 0.37903060000000066
0.4282813000000008 0.386556400000001 0.37809820000000066
0.4307122000000008 0.386156800000001 0.3806956000000007
0.4334761000000008 0.388021600000001 0.3794968000000007
0.4331764000000008 0.38885410000000104 0.3796633000000007
0.4349746000000008 0.38902060000000105 0.38052910000000073
0.43540750000000084 0.38958670000000106 0.38052910000000073
0.43624000000000085 0.3898864000000011 0.38305990000000073
0.4385710000000009 0.39131830000000106 0.38252710000000073
0.4403026000000009 0.38998630000000106 0.38539090000000076
0.43986970000000086 0.39088540000000105 0.38629000000000074
0.44200090000000086 0.39358270000000106 0.38782180000000077
0.44223400000000085 0.3937492000000011 0.3901195000000008
0.44126830000000083 0.3939157000000011 0.3922507000000008
0.4427002000000008 0.3927502000000011 0.3919843000000008
0.44339950000000083 0.3925171000000011 0.3916180000000008
0.4437658000000008 0.3922174000000011 0.3924172000000008
0.4438990000000008 0.39334960000000113 0.3931165000000008
0.4459969000000008 0.39338290000000115 0.39438190000000084
0.4478284000000008 0.39324970000000115 0.39424870000000084
0.4495933000000008 0.39348280000000113 0.39534760000000085
0.4497265000000008 0.3958471000000011 0.39431530000000087
0.4494934000000008 0.3953143000000011 0.3953143000000009
0.4494601000000008 0.39614680000000113 0.3954142000000009
0.4507588000000008 0.39844450000000114 0.3966130000000009
0.4512583000000008 0.39814480000000113 0.3976120000000009
0.4534561000000008 0.40124170000000114 0.3990772000000009
0.45432190000000083 0.40380580000000116 0.3993436000000009
0.45525430000000083 0.40350610000000114 0.4018744000000009
0.45598690000000086 0.40590370000000114 0.4036393000000009
0.4561534000000009 0.40760200000000113 0.4053709000000009
0.45745210000000086 0.40926700000000116 0.4068028000000009
0.45928360000000085 0.41166460000000116 0.4079683000000009
0.4593502000000009 0.41249710000000117 0.4079683000000009
0.4596832000000009 0.41396230000000117 0.4093336000000009
0.46228060000000093 0.41409550000000117 0.4088674000000009
0.46258030000000094 0.41392900000000116 0.4098664000000009
0.46218070000000094 0.4145284000000012 0.4102993000000009
0.46258030000000094 0.4170925000000012 0.4105324000000009
0.46464490000000097 0.4170592000000012 0.4129300000000009
0.465643900000001 0.41769190000000117 0.4135627000000009
0.464878000000001 0.4195900000000012 0.4142620000000009
0.464678200000001 0.4210885000000012 0.4149613000000009
0.46597690000000097 0.4237858000000012 0.4139623000000009
0.468407800000001 0.4235860000000012 0.4145284000000009
0.468174700000001 0.42301990000000117 0.4141288000000009
0.470439100000001 0.4251844000000012 0.4150945000000009
0.470572300000001 0.4249180000000012 0.41619340000000093
0.471271600000001 0.4249846000000012 0.41739220000000093
0.471804400000001 0.4256506000000012 0.4194901000000009
0.473036500000001 0.4246516000000012 0.4211884000000009
0.47200420000000104 0.42648310000000117 0.4210552000000009
0.471038500000001 0.42724900000000116 0.4225537000000009
0.471804400000001 0.42888070000000117 0.4251844000000009
0.471538000000001 0.42871420000000116 0.4255840000000009
0.471704500000001 0.42967990000000117 0.4262167000000009
0.473269600000001 0.43047910000000117 0.4276153000000009
0.474701500000001 0.4313116000000012 0.42977980000000093
0.474801400000001 0.4330765000000012 0.43194430000000095
0.473869000000001 0.4343752000000012 0.43194430000000095
0.476266600000001 0.4337425000000012 0.43194430000000095
0.47593360000000096 0.4358404000000012 0.43251040000000096
0.47593360000000096 0.4379050000000012 0.431211700000001
0.47683270000000094 0.43903720000000124 0.431511400000001
0.47849770000000097 0.4376719000000012 0.432443800000001
0.479596600000001 0.43850440000000124 0.43171120000000096
0.478963900000001 0.4372723000000012 0.433342900000001
0.480196000000001 0.43877080000000124 0.43237720000000096
0.482760100000001 0.4399363000000012 0.43151140000000093
0.48309310000000105 0.4395034000000012 0.43384240000000096
0.48512440000000107 0.4404025000000012 0.43527430000000095
0.4860901000000011 0.4433995000000012 0.436406500000001
0.4870225000000011 0.44546410000000125 0.436706200000001
0.4865230000000011 0.44702920000000124 0.438737500000001
0.4866895000000011 0.44822800000000124 0.439669900000001
0.4875220000000011 0.45009280000000124 0.440069500000001
0.48702250000000114 0.4499263000000012 0.439903000000001
0.48675610000000114 0.45132490000000125 0.441634600000001
0.48868750000000116 0.4505923000000012 0.441967600000001
0.48878740000000115 0.4520242000000012 0.44443180000000104
0.49135150000000116 0.45488800000000124 0.44336620000000104
0.49215070000000116 0.45795160000000124 0.44599690000000103
0.49331620000000115 0.45808480000000124 0.44799490000000103
0.49461490000000113 0.45718570000000125 0.44852770000000103
0.49681270000000116 0.45708580000000126 0.449959600000001
0.49721230000000116 0.45761860000000126 0.450592300000001
0.49801150000000116 0.4587508000000013 0.450991900000001
0.5011417000000011 0.4604824000000013 0.452090800000001
0.5004091000000012 0.4615480000000013 0.45212410000000103
0.5008753000000011 0.4631797000000013 0.453855700000001
0.5010751000000011 0.4646449000000013 0.453955600000001
0.5014081000000011 0.46604350000000133 0.45535420000000104
0.5036059000000012 0.46541080000000135 0.45405550000000106
0.5057704000000012 0.46767520000000135 0.4547881000000011
0.5084011000000012 0.4672090000000013 0.4562866000000011
0.5094334000000011 0.4664098000000013 0.4583512000000011
0.5092669000000012 0.46697590000000133 0.45878410000000114
0.5102659000000012 0.4669093000000013 0.46068220000000115
0.5126968000000012 0.4678417000000013 0.4602160000000011
0.5147614000000011 0.4692736000000013 0.46078210000000114
0.5157937000000011 0.4696732000000013 0.4606156000000011
0.5188906000000011 0.4707388000000013 0.46241380000000115
0.518224600000001 0.4706056000000013 0.46491130000000114
0.5191570000000011 0.46947340000000126 0.46467820000000115
0.5221207000000011 0.46940680000000123 0.46537750000000117
0.5230531000000012 0.4692403000000012 0.4678084000000012
0.5244850000000012 0.4682746000000012 0.4686076000000012
0.5265163000000012 0.4683079000000012 0.4698397000000012
0.5264497000000011 0.47073880000000123 0.4724038000000012
0.5270824000000012 0.4713715000000012 0.4721041000000012
0.5261833000000011 0.4717378000000012 0.4724038000000012
0.5285809000000011 0.4721707000000012 0.4715380000000012
0.5287474000000011 0.4725370000000012 0.47376910000000116
0.5276152000000011 0.4745017000000012 0.47533420000000115
0.5285143000000011 0.4747015000000012 0.47463490000000114
0.5292136000000011 0.47420200000000123 0.47656630000000116
0.530179300000001 0.47480140000000126 0.4766329000000012
0.531977500000001 0.47556730000000125 0.4787308000000012
0.531411400000001 0.47610010000000125 0.48016270000000116
0.531444700000001 0.47753200000000123 0.48159460000000115
0.532843300000001 0.47943010000000125 0.4811284000000011
0.533409400000001 0.48092860000000126 0.48342610000000114
0.533376100000001 0.4815280000000013 0.48329290000000114
0.533409400000001 0.4822606000000013 0.48505780000000115
0.534475000000001 0.4824937000000013 0.48638980000000115
0.5329432000000011 0.4846582000000013 0.48638980000000115
0.532576900000001 0.48495790000000133 0.48812140000000115
0.534475000000001 0.48715570000000136 0.49038580000000115
0.5370058000000011 0.48725560000000134 0.49161790000000116
0.5373055000000011 0.48912040000000134 0.4935160000000012
0.5372722000000011 0.48958660000000137 0.4927501000000012
0.5384377000000011 0.4898863000000014 0.4941154000000012
0.5387041000000011 0.49038580000000137 0.4949479000000012
0.5380048000000012 0.49301650000000136 0.4946149000000012
0.5379715000000012 0.4930831000000014 0.4940821000000012
0.5395033000000011 0.4945816000000014 0.4944817000000012
0.5401693000000012 0.4936825000000014 0.4961134000000012
0.5419342000000011 0.49441510000000144 0.49711240000000123
0.5429665000000011 0.49511440000000145 0.49817800000000123
0.5431663000000011 0.49701250000000147 0.49727890000000124
0.5456971000000012 0.4990771000000015 0.49771180000000126
0.5454973000000012 0.4989439000000015 0.49727890000000124
0.5458303000000012 0.4986775000000015 0.49911040000000123
0.5459302000000013 0.4978450000000015 0.5013415000000012
0.5449978000000012 0.4986775000000015 0.5021407000000012
0.5467960000000012 0.5001094000000015 0.5025403000000013
0.5489605000000012 0.5031064000000015 0.5026402000000013
0.5493934000000011 0.5043385000000015 0.5017078000000013
0.5494933000000012 0.5043052000000015 0.5033728000000013
0.5525236000000012 0.5034727000000014 0.5043052000000013
0.5543218000000012 0.5033395000000014 0.5062033000000014
0.5543218000000012 0.5032063000000013 0.5086009000000014
0.5552209000000012 0.5043052000000013 0.5087341000000014
0.5570857000000012 0.5045383000000013 0.5085010000000014
0.5570191000000012 0.5054374000000014 0.5096665000000015
0.5564530000000012 0.5071024000000014 0.5096998000000015
0.5554540000000012 0.5066695000000014 0.5105656000000015
0.5561200000000013 0.5091004000000015 0.5119975000000015
0.5584177000000012 0.5092003000000015 0.5144617000000016
0.5570857000000012 0.5088673000000015 0.5144284000000016
0.5555539000000013 0.5098663000000014 0.5140621000000015
0.5572855000000013 0.5116312000000014 0.5140621000000015
0.5575186000000013 0.5117977000000014 0.5164930000000015
0.5601826000000013 0.5141620000000013 0.5175919000000015
0.5599828000000013 0.5151943000000013 0.5187574000000016
0.5595832000000013 0.5148613000000013 0.5183245000000016
0.5615479000000013 0.5165596000000013 0.5191903000000017
0.5600161000000013 0.5183911000000013 0.5188906000000016
0.5596831000000013 0.5197564000000013 0.5193901000000016
0.5600827000000014 0.5193235000000014 0.5196898000000016
0.5592835000000014 0.5181913000000014 0.5210551000000017
0.5609485000000014 0.5181580000000013 0.5206888000000016
0.5618143000000014 0.5169592000000013 0.5235859000000016
0.5635792000000014 0.5173588000000013 0.5245849000000016
0.5635126000000014 0.5161600000000013 0.5240854000000016
0.5640787000000014 0.5166595000000013 0.5260501000000016
0.5638123000000014 0.5194234000000013 0.5282146000000016
0.5640454000000014 0.5206555000000013 0.5283478000000017
0.5668759000000013 0.5196898000000013 0.5308120000000017
0.5668759000000013 0.5209552000000013 0.5315779000000017
0.5681413000000013 0.5212882000000013 0.5307121000000017
0.5699062000000013 0.5214214000000014 0.5317777000000017
0.5706721000000012 0.5238190000000014 0.5338756000000017
0.5709718000000013 0.5235526000000014 0.5341420000000017
0.5715046000000013 0.5240188000000013 0.5365396000000017
0.5739355000000013 0.5255173000000013 0.5361067000000017
0.5729365000000013 0.5276818000000013 0.5373055000000018
0.5733694000000013 0.5300794000000013 0.5397364000000018
0.5731030000000013 0.5292469000000013 0.5394034000000018
0.5730697000000012 0.5292802000000013 0.5397364000000018
0.5748346000000012 0.5304790000000014 0.5426002000000018
0.5750011000000012 0.5308453000000014 0.5429332000000018
0.5751010000000012 0.5316445000000014 0.5431996000000018
0.5761999000000012 0.5336425000000015 0.5423338000000018
0.5777317000000012 0.5329099000000015 0.5433661000000017
0.5786641000000012 0.5351410000000015 0.5456305000000018
0.5807620000000012 0.5346748000000016 0.5480281000000018
0.5818942000000012 0.5370724000000016 0.5477950000000018
0.5821606000000012 0.5362066000000015 0.5492269000000018
0.5842585000000012 0.5370724000000016 0.5493934000000018
0.5848246000000012 0.5383378000000015 0.5495599000000018
0.5865229000000013 0.5390704000000015 0.5507254000000018
0.5880214000000012 0.5389039000000015 0.5516578000000019
0.5885875000000013 0.5390704000000015 0.5517577000000019
0.5896864000000013 0.5394700000000016 0.5543884000000019
0.5914180000000013 0.5407021000000015 0.5543218000000019
0.5904190000000014 0.5419009000000016 0.5567194000000019
0.5925169000000013 0.5432329000000016 0.5555872000000018
0.5930497000000013 0.5439322000000015 0.5564863000000019
0.5949478000000014 0.5450311000000015 0.5555872000000018
0.5966461000000014 0.5464297000000016 0.5583178000000019
0.5967793000000015 0.5485276000000016 0.5574187000000018
0.5983777000000015 0.5496265000000016 0.5587840000000018
0.5992102000000015 0.5512582000000016 0.5590837000000018
0.6012748000000014 0.5502925000000016 0.5611483000000018
0.6031063000000014 0.5515579000000016 0.5615479000000019
0.6047380000000014 0.5535892000000016 0.5630464000000018
0.6079348000000014 0.5557537000000016 0.5629132000000018
0.6095332000000014 0.5559868000000016 0.5638123000000018
0.6090004000000014 0.5573521000000016 0.5650111000000019
0.6103324000000014 0.5585509000000016 0.5650111000000019
0.6098329000000015 0.5604490000000016 0.5654107000000019
0.6117643000000015 0.5612815000000017 0.5642119000000019
0.6136624000000015 0.5622139000000017 0.5641786000000019
0.6140953000000015 0.5642785000000017 0.5650777000000019
0.6151942000000015 0.5641453000000016 0.5653774000000019
0.6162265000000015 0.5648113000000017 0.566276500000002
0.6175918000000015 0.5667760000000017 0.567941500000002
0.6201892000000014 0.5670091000000017 0.567408700000002
0.6212215000000014 0.5690404000000017 0.567708400000002
0.6223204000000014 0.5700394000000016 0.568973800000002
0.6249844000000014 0.5701393000000017 0.569539900000002
0.6258835000000015 0.5701726000000017 0.569839600000002
0.6285142000000015 0.5718043000000017 0.571105000000002
0.6304123000000015 0.5738356000000017 0.5726035000000019
0.6324103000000015 0.5733028000000017 0.5715379000000019
0.6351409000000016 0.5753341000000016 0.5723704000000019
0.6377050000000015 0.5744017000000016 0.575101000000002
0.6389038000000016 0.5728699000000016 0.577065700000002
0.6397363000000016 0.5752342000000016 0.5777317000000021
0.6409684000000015 0.5770324000000016 0.579263500000002
0.6408019000000016 0.5771989000000015 0.579496600000002
0.6433993000000016 0.5775985000000016 0.582227200000002
0.6436324000000015 0.5771989000000015 0.5830597000000021
0.6429331000000016 0.5766994000000015 0.5833261000000021
0.6425668000000015 0.5770324000000016 0.5847913000000021
0.6445981000000015 0.5771323000000016 0.5869891000000022
0.6465295000000015 0.5796298000000016 0.5876551000000022
0.6459634000000015 0.5802292000000017 0.5890204000000022
0.6462298000000015 0.5801626000000016 0.5892535000000022
0.6454306000000015 0.5794633000000017 0.5902858000000022
0.6457636000000015 0.5814946000000016 0.5907520000000022
0.6467626000000015 0.5826601000000017 0.5900194000000022
0.6455638000000015 0.5849245000000017 0.5902858000000022
0.6456304000000015 0.5855239000000018 0.5906521000000022
0.6460633000000015 0.5872222000000018 0.5924836000000022
0.6450310000000015 0.5881546000000019 0.5951809000000022
0.6474286000000015 0.5900860000000019 0.5963131000000023
0.6502258000000015 0.5890537000000019 0.5959801000000022
0.6514912000000015 0.5893201000000019 0.5975785000000022
0.6523903000000015 0.5896198000000019 0.5999428000000022
0.6542884000000015 0.5904190000000019 0.6007420000000022
0.6558868000000015 0.5908519000000019 0.6016411000000023
0.6579514000000015 0.5919508000000019 0.6011749000000023
0.6610816000000015 0.5915512000000018 0.6033394000000023
0.6619474000000015 0.5931496000000018 0.6028399000000023
0.6628798000000016 0.5951476000000019 0.6020074000000023
0.6654439000000015 0.5961799000000019 0.6017077000000023
0.6668758000000016 0.5964463000000019 0.6016744000000023
0.6684409000000016 0.5971456000000018 0.6030730000000023
0.6704389000000016 0.5964130000000019 0.6040720000000023
0.6716710000000016 0.5973121000000019 0.6045382000000022
0.6720040000000016 0.5999095000000019 0.6065362000000023
0.6732028000000017 0.6025735000000019 0.6060367000000023
0.6751342000000017 0.6033061000000018 0.6054373000000023
0.6760999000000016 0.6043051000000018 0.6080347000000023
0.6747346000000016 0.6074353000000018 0.6102325000000023
0.6745348000000017 0.6096331000000018 0.6129298000000023
0.6754006000000017 0.6093334000000018 0.6136291000000023
0.6751342000000017 0.6106987000000018 0.6166594000000023
0.6760999000000016 0.6104323000000018 0.6186574000000024
0.6771988000000017 0.6103324000000018 0.6198229000000024
0.6785308000000017 0.6109984000000018 0.6196897000000023
0.6796297000000017 0.6119974000000018 0.6199228000000023
0.6800293000000017 0.6140287000000018 0.6206554000000023
0.6802957000000017 0.6165595000000018 0.6225868000000023
0.6806620000000018 0.6186241000000018 0.6240853000000023
0.6824935000000018 0.6207553000000018 0.6245182000000022
0.6843250000000017 0.6204223000000018 0.6248845000000023
0.6851575000000018 0.6206887000000018 0.6252841000000023
0.6850243000000017 0.6223204000000018 0.6240187000000024
0.6880213000000017 0.6242518000000018 0.6249178000000024
0.6890203000000017 0.6242185000000018 0.6262498000000024
0.6892534000000017 0.6265162000000017 0.6285142000000025
0.6901858000000017 0.6258835000000017 0.6314779000000025
0.6905854000000018 0.6255838000000017 0.6317776000000025
0.6905188000000018 0.6263164000000017 0.6321439000000025
0.6916177000000018 0.6278482000000016 0.6338755000000026
0.6926500000000018 0.6310117000000016 0.6344083000000026
0.6938155000000018 0.6307120000000016 0.6332428000000025
0.6947479000000019 0.6316111000000016 0.6359734000000026
0.6966460000000019 0.6342085000000016 0.6382045000000026
0.6988771000000019 0.6362731000000016 0.6400360000000026
0.6983110000000019 0.6373387000000016 0.6417343000000026
0.7012081000000019 0.6388705000000016 0.6411349000000026
0.7014745000000019 0.6395365000000016 0.6405688000000026
0.7020406000000019 0.6415012000000017 0.6423337000000026
0.7027732000000019 0.6440653000000016 0.6419008000000026
0.7030396000000019 0.6457969000000017 0.6424003000000026
0.7060366000000019 0.6473287000000016 0.6414679000000025
0.7062364000000019 0.6491602000000016 0.6423670000000026
0.7078015000000019 0.6495598000000017 0.6418009000000026
0.7083343000000019 0.6512914000000017 0.6432994000000025
0.7081012000000019 0.6513913000000018 0.6449311000000025
0.7081012000000019 0.6522571000000018 0.6455971000000026
0.7078681000000019 0.6529231000000019 0.6467293000000026
0.7084009000000019 0.6524902000000019 0.6476617000000027
0.7085341000000019 0.6523903000000019 0.6475618000000026
0.708933700000002 0.6546880000000018 0.6505255000000026
0.707801500000002 0.6538555000000018 0.6496264000000026
0.7085008000000019 0.6549877000000018 0.6492934000000026
0.7111315000000019 0.6553540000000019 0.6495265000000026
0.7116976000000019 0.6565528000000019 0.6501592000000026
0.713129500000002 0.656619400000002 0.6511915000000026
0.7127299000000019 0.6565195000000019 0.6535225000000026
0.7122304000000019 0.6583843000000019 0.6543217000000026
0.713662300000002 0.659583100000002 0.6561865000000026
0.7159600000000019 0.659050300000002 0.6580846000000026
0.717958000000002 0.659316700000002 0.6576184000000026
0.720222400000002 0.659782900000002 0.6575518000000026
0.7227199000000021 0.6616144000000019 0.6580513000000026
0.723718900000002 0.663279400000002 0.6593500000000025
0.7238521000000021 0.664578100000002 0.6611482000000025
0.7247179000000021 0.6658435000000019 0.6612814000000026
0.7259500000000021 0.6665761000000019 0.6630130000000026
0.7254505000000021 0.667774900000002 0.6637456000000026
0.7255837000000022 0.6690403000000019 0.6643783000000026
0.7250842000000022 0.668607400000002 0.6662098000000026
0.7266493000000022 0.669406600000002 0.6686740000000027
0.7267159000000022 0.6717376000000019 0.6706054000000027
0.7277149000000022 0.6727033000000019 0.6703390000000027
0.7297462000000021 0.6748012000000019 0.6704056000000027
0.7297462000000021 0.6765328000000019 0.6699061000000027
0.7309783000000021 0.678197800000002 0.6715711000000028
0.7308118000000021 0.680595400000002 0.6736024000000027
0.7306786000000021 0.6818275000000019 0.6743683000000027
0.731444500000002 0.6830929000000019 0.6741019000000027
0.730545400000002 0.6824269000000018 0.6744016000000027
0.732110500000002 0.6841585000000019 0.6755671000000028
0.730878400000002 0.6836590000000019 0.6764329000000028
0.730545400000002 0.6847579000000019 0.6781978000000027
0.7328098000000021 0.6835924000000019 0.6799294000000028
0.7342417000000021 0.6845581000000018 0.6824269000000028
0.7344082000000021 0.6855238000000018 0.6827932000000029
0.736472800000002 0.6840253000000018 0.6843583000000029
0.737172100000002 0.6857902000000018 0.6853240000000028
0.736273000000002 0.6857236000000018 0.6857569000000028
0.736606000000002 0.6879547000000018 0.6857236000000028
0.736273000000002 0.6873220000000018 0.6855904000000027
0.7356070000000019 0.6871888000000017 0.6859567000000028
0.737072200000002 0.6885208000000017 0.6855238000000028
0.7393699000000019 0.6875218000000017 0.6875884000000028
0.741101500000002 0.6896197000000017 0.6897862000000028
0.742200400000002 0.6921172000000018 0.6906187000000028
0.743365900000002 0.6926500000000018 0.6911515000000028
0.7426666000000021 0.6925834000000017 0.6903190000000028
0.7435657000000021 0.6915511000000018 0.6904522000000028
0.7442650000000021 0.6939820000000018 0.6930829000000028
0.743132800000002 0.6949477000000017 0.6939154000000028
0.742100500000002 0.6955138000000017 0.6933493000000028
0.7435657000000021 0.6977116000000018 0.6945814000000028
0.7460299000000021 0.6979447000000017 0.6958135000000027
0.7470289000000021 0.6973786000000017 0.6976450000000027
0.7498927000000021 0.6973786000000017 0.6973120000000027
0.7501924000000021 0.6986107000000017 0.6968791000000027
0.7506586000000021 0.6998428000000017 0.6987439000000027
0.7517575000000021 0.6993766000000017 0.7016743000000027
0.7522570000000021 0.6980113000000017 0.7034059000000028
0.7520572000000021 0.6987106000000016 0.7038388000000028
0.7533226000000021 0.7005088000000016 0.7032061000000027
0.7562863000000021 0.6990436000000015 0.7034725000000027
0.7568524000000021 0.6995764000000015 0.7040719000000027
0.7579180000000021 0.6998761000000016 0.7051042000000027
0.7591168000000021 0.6996097000000016 0.7057369000000028
0.7585840000000021 0.6997429000000016 0.7047712000000028
0.7580845000000022 0.6991435000000016 0.7064029000000028
0.7598827000000021 0.7002091000000016 0.7082011000000028
0.7611814000000021 0.7021405000000016 0.7099660000000028
0.7634125000000022 0.7022071000000016 0.7113979000000028
0.7644781000000022 0.7037722000000016 0.7116310000000028
0.7654771000000021 0.7044715000000016 0.7128631000000027
0.7648777000000021 0.7054705000000016 0.7153273000000028
0.7660432000000021 0.7047046000000016 0.7163929000000028
0.7671754000000022 0.7068358000000016 0.7191235000000028
0.7672420000000022 0.7062364000000015 0.7209217000000028
0.7674751000000022 0.7073353000000016 0.7221538000000027
0.7691401000000022 0.7095664000000016 0.7229863000000027
0.7702723000000022 0.7096996000000017 0.7253839000000027
0.7717042000000023 0.7096663000000016 0.7273486000000028
0.7725034000000023 0.7104322000000016 0.7287805000000028
0.7729363000000022 0.7104655000000016 0.7305121000000029
0.7736023000000023 0.7113313000000017 0.7313779000000029
0.7732027000000022 0.7116310000000017 0.7309117000000029
0.7736689000000022 0.7133293000000017 0.7337755000000029
0.7743349000000023 0.7150276000000018 0.7348744000000029
0.7746013000000023 0.7151608000000018 0.7342417000000029
0.7747345000000023 0.7146280000000018 0.7363396000000029
0.7770322000000023 0.7146613000000018 0.7364728000000029
0.7794964000000023 0.7145614000000018 0.7360732000000029
0.7795963000000024 0.7165594000000018 0.7360732000000029
0.7787971000000024 0.7197229000000018 0.7350742000000029
0.7785307000000024 0.7189903000000019 0.7368724000000029
0.7813279000000024 0.7187572000000019 0.7360399000000029
0.7814611000000025 0.7199560000000019 0.7349410000000028
0.7816942000000024 0.721654300000002 0.7367725000000028
0.7824601000000024 0.722686600000002 0.7364395000000028
0.7839586000000024 0.723485800000002 0.7373386000000028
0.7850575000000024 0.7252507000000019 0.7358401000000029
0.7871221000000024 0.7250509000000019 0.7361065000000029
0.7877548000000024 0.7255504000000019 0.7375717000000029
0.7897195000000025 0.727748200000002 0.737371900000003
0.7887205000000025 0.7287139000000019 0.737704900000003
0.7881877000000025 0.729912700000002 0.737904700000003
0.7883542000000024 0.7309117000000019 0.739869400000003
0.7896862000000024 0.7305121000000019 0.739536400000003
0.7923169000000024 0.7321105000000019 0.7394032000000029
0.7930495000000024 0.7342750000000019 0.7378048000000029
0.7953139000000025 0.7334092000000019 0.7393699000000029
0.7960798000000024 0.7334758000000019 0.7392367000000029
0.7971787000000025 0.7355404000000019 0.7404355000000029
0.7984108000000024 0.7372387000000019 0.7414012000000029
0.7990768000000025 0.736805800000002 0.7429330000000028
0.7981777000000024 0.737405200000002 0.7449976000000028
0.7991767000000024 0.739603000000002 0.7450642000000028
0.7982776000000024 0.741034900000002 0.7440985000000029
0.7979779000000023 0.739702900000002 0.7451641000000029
0.7974118000000023 0.7419673000000021 0.7467958000000029
0.7988770000000024 0.7424002000000021 0.7491268000000029
0.8008417000000024 0.7439986000000021 0.7498261000000028
0.8018074000000024 0.744764500000002 0.7516243000000028
0.8035057000000024 0.7456636000000021 0.7529563000000028
0.8026732000000024 0.7487938000000021 0.7525234000000028
0.8025067000000025 0.7472953000000021 0.7526899000000028
0.8048710000000024 0.7483276000000021 0.7521571000000028
0.8064028000000024 0.747428500000002 0.7519573000000028
0.8083009000000024 0.7480612000000021 0.7524901000000028
0.8106319000000024 0.7501924000000021 0.7524568000000028
0.8135956000000024 0.7503922000000021 0.7516243000000028
0.8136622000000024 0.7522903000000021 0.7522570000000028
0.8139952000000025 0.752723200000002 0.7542883000000028
0.8126965000000025 0.7551874000000021 0.7556203000000028
0.8121304000000025 0.756219700000002 0.7563529000000028
0.8118307000000025 0.756186400000002 0.7571188000000028
0.8112979000000025 0.755520400000002 0.7563862000000028
0.8122303000000025 0.756053200000002 0.7564528000000028
0.8126965000000025 0.754987600000002 0.7586173000000028
0.8118973000000025 0.755320600000002 0.7605154000000028
0.8128630000000024 0.757252000000002 0.7619473000000029
0.8122303000000024 0.759682900000002 0.7616143000000029
0.8127964000000024 0.7595164000000021 0.7633459000000029
0.8133292000000024 0.7589836000000021 0.7635457000000029
0.8137621000000024 0.7604488000000021 0.7640119000000029
0.8155603000000023 0.7603822000000021 0.7635457000000029
0.8181910000000023 0.7617142000000021 0.7642450000000028
0.8175250000000023 0.7630462000000021 0.7643782000000029
0.8197561000000023 0.7644781000000022 0.7652773000000029
0.8210548000000023 0.7661764000000022 0.767008900000003
0.8206552000000022 0.7683409000000022 0.769040200000003
0.8209882000000023 0.7694731000000022 0.770938300000003
0.8240851000000022 0.7703056000000023 0.773069500000003
0.8260165000000023 0.7711381000000023 0.774967600000003
0.8271154000000023 0.7712047000000023 0.775000900000003
0.8295130000000023 0.7732693000000023 0.773702200000003
0.8282143000000023 0.7739020000000023 0.772603300000003
0.8292466000000023 0.7732693000000023 0.774168400000003
0.8310781000000023 0.7757668000000023 0.775733500000003
0.8306785000000022 0.7763995000000024 0.7769989000000029
0.8292466000000022 0.7777315000000024 0.7790302000000029
0.8301790000000022 0.7768657000000023 0.779163400000003
0.8314444000000022 0.7786972000000023 0.779496400000003
0.8336089000000022 0.7803955000000024 0.781128100000003
0.8353405000000023 0.7803289000000023 0.780695200000003
0.8366059000000022 0.7798627000000024 0.781727500000003
0.8381710000000022 0.7815277000000024 0.780895000000003
0.8383042000000023 0.7814611000000024 0.781061500000003
0.8394031000000023 0.7832593000000023 0.7836589000000029
0.8407684000000023 0.7823269000000023 0.7843582000000029
0.8402689000000023 0.7830595000000022 0.7859233000000029
0.8399359000000023 0.7828930000000023 0.7866559000000029
0.8414344000000022 0.7837921000000023 0.7857901000000028
0.8420338000000023 0.7845913000000023 0.7868890000000028
0.8423668000000023 0.7839919000000023 0.7879213000000028
0.8416009000000023 0.7849576000000023 0.7885873000000029
0.8439985000000023 0.7847911000000023 0.7891534000000029
0.8440984000000024 0.7848577000000023 0.7916176000000029
0.8451640000000024 0.7861897000000023 0.793882000000003
0.8461630000000023 0.7871887000000023 0.795713500000003
0.8463295000000023 0.7873552000000023 0.797278600000003
0.8469955000000023 0.7869889000000022 0.797411800000003
0.8475616000000024 0.7876549000000023 0.798677200000003
0.8484607000000024 0.7893199000000023 0.799076800000003
0.8479945000000024 0.7910848000000023 0.800109100000003
0.8473285000000024 0.7899859000000022 0.801341200000003
0.8489602000000024 0.7898194000000023 0.802506700000003
0.8505919000000024 0.7924168000000023 0.802706500000003
0.8511913000000024 0.7939153000000022 0.802173700000003
0.8534890000000024 0.7956469000000023 0.803172700000003
0.8554537000000024 0.7954471000000023 0.805403800000003
0.8548876000000024 0.7964128000000023 0.807035500000003
0.8557201000000024 0.7977115000000022 0.8090335000000031
0.8549542000000024 0.7984108000000022 0.8110315000000031
0.8541883000000025 0.8000425000000022 0.8117974000000031
0.8549209000000024 0.8002423000000022 0.8118973000000032
0.8541217000000024 0.8012080000000021 0.8148277000000032
0.8564527000000024 0.8035057000000021 0.8137621000000032
0.8587171000000025 0.8040385000000021 0.8151940000000032
0.8590834000000025 0.8048044000000021 0.8175583000000032
0.8586172000000025 0.804171700000002 0.8198893000000032
0.8597494000000026 0.8058700000000021 0.8214877000000032
0.8605153000000025 0.8083342000000021 0.8205220000000032
0.8612479000000025 0.8089003000000021 0.8217874000000032
0.8627131000000026 0.8085007000000021 0.8230861000000032
0.8653105000000025 0.809766100000002 0.8238520000000031
0.8660098000000025 0.8111314000000021 0.8244181000000032
0.8666092000000025 0.812696500000002 0.8253838000000031
0.8663428000000025 0.8140951000000021 0.8254171000000031
0.8679412000000025 0.8147278000000021 0.8250508000000031
0.8690401000000025 0.8173585000000021 0.8264161000000031
0.8693731000000026 0.8184241000000021 0.8284141000000032
0.8702389000000026 0.817758100000002 0.8302789000000032
