0.0120979 0.0115651 0.0094339
0.0105994 0.01333 0.0108658
0.0116983 0.012664 0.0130636
0.012997 0.0145288 0.0130636
0.0141292 0.0130636 0.0134965
0.015994 0.0144289 0.0152614
0.0156277 0.01333 0.0153613
0.0183916 0.0119647 0.0148618
0.0179254 0.0144289 0.0171595
0.0190243 0.0142624 0.0190243
0.0195238 0.014329 0.0188911
0.0218881 0.0147286 0.0175258
0.0224209 0.0148618 0.0207226
0.0229204 0.0151282 0.0226873
0.0234199 0.0166933 0.0224542
0.0238195 0.0191575 0.0239527
0.0234532 0.0217216 0.0247519
0.0248851 0.0236197 0.0261172
0.0261838 0.0254845 0.0280486
0.0266167 0.024985 0.0304795
0.0275491 0.02665 0.0304795
0.0271162 0.0267499 0.0315784
0.0269164 0.0269164 0.0326773
0.0278821 0.0266833 0.0345088
0.0292807 0.028315 0.0352747
0.0290143 0.0285814 0.0373393
0.0314452 0.0305461 0.0378055
0.0335764 0.0318448 0.0397036
0.0354745 0.0313786 0.0403696
0.0378721 0.0317782 0.0411022
0.0386713 0.0337429 0.0410689
0.0391708 0.0343423 0.0435997
0.0395038 0.0338095 0.0438661
0.0398368 0.0342424 0.0464635
0.040303 0.0359407 0.0468298
0.0417682 0.0348751 0.0484282
0.0422677 0.0361738 0.0504262
0.0432667 0.0362737 0.0491941
0.0445321 0.0360073 0.0503263
0.0451648 0.0348085 0.0515584
0.0444322 0.0352414 0.0531901
0.0444322 0.0352414 0.0541891
0.0450316 0.0375391 0.0539893
0.0453313 0.0369064 0.056287
0.0471295 0.037972 0.0575191
0.0479953 0.0377389 0.0568198
0.0490276 0.0385381 0.0568531
0.0490276 0.040303 0.058584699999999997
0.0482284 0.0420679 0.0575857
0.0472294 0.0420679 0.0569197
0.0482284 0.0428671 0.058950999999999996
0.0490942 0.0446653 0.060815799999999996
0.0503263 0.0452314 0.061681599999999996
0.0497935 0.0453979 0.062947
0.0499267 0.0460639 0.0629137
0.0515917 0.0470296 0.0649117
0.0524242 0.0457975 0.0642124
0.0530902 0.04663 0.0641791
0.0548884 0.0484948 0.0653779
0.0535231 0.0489277 0.064612
0.0546886 0.0488611 0.0660772
0.0574192 0.0481951 0.0669097
0.0575857 0.0487612 0.0668764
0.059850099999999996 0.0507925 0.0674425
0.059850099999999996 0.0501265 0.0691408
0.061015599999999996 0.0501931 0.0694072
0.0634798 0.050626 0.0697735
0.0628804 0.0494938 0.0701398
0.0625141 0.0507592 0.0710722
0.0622144 0.0515251 0.071605
0.0652447 0.0531568 0.0728038
0.0672094 0.051958 0.0733366
0.0680419 0.0511921 0.0734365
0.0707392 0.0535897 0.0740026
0.0713386 0.0539893 0.0744355
0.0743023 0.0549217 0.0743356
0.0766999 0.0556543 0.0765667
0.0790642 0.0556876 0.0776323
0.0784981 0.0582517 0.0786646
0.0797968 0.058817799999999996 0.0787645
0.0787978 0.061015599999999996 0.07993
0.0788644 0.060815799999999996 0.080929
0.0812953 0.062447499999999996 0.0809956
0.0831934 0.0650116 0.0809623
0.0834931 0.0647119 0.0828604
0.0837595 0.0654778 0.0827938
0.0838261 0.0679087 0.0830935
0.0840259 0.0688078 0.0858907
0.0830602 0.0702397 0.0864235
0.0837262 0.0727705 0.0888544
0.0831268 0.0756343 0.0886879
0.0844588 0.0759007 0.0890542
0.0857242 0.0785314 0.0897868
0.0856576 0.0808624 0.0924508
0.0870562 0.0807292 0.0942823
0.0869896 0.0818614 0.0957808
0.0868897 0.0834931 0.0953812
0.0864568 0.0853579 0.095581
0.088588 0.0871561 0.0967798
0.0877888 0.0877888 0.0961804
0.0897535 0.088255 0.0953146
0.0898867 0.0877222 0.0954811
0.092584 0.0893206 0.0964801
0.0938827 0.0913519 0.0956809
0.0967798 0.0914518 0.094582
0.0984781 0.0941491 0.094915
0.1013419 0.0962803 0.0974791
0.1020079 0.0977455 0.0969463
0.103906 0.1002763 0.0974458
0.1050715 0.1024075 0.0998767
0.1060705 0.1026739 0.1010422
0.1087012 0.1041724 0.1023409
0.1098001 0.1046053 0.1038061
0.1095337 0.1061038 0.1044388
0.1102996 0.1048051 0.106237
0.1096003 0.1060039 0.10657
0.1126306 0.1051048 0.1081018
0.1142956 0.10657 0.1092673
0.115561 0.1080352 0.1110988
0.114562 0.1100665 0.1107658
0.1162603 0.1119979 0.1123642
0.1181584 0.1106992 0.1146952
0.1206892 0.1102996 0.1155943
0.1202896 0.1110655 0.1172593
0.1196569 0.1123309 0.1170928
0.1220212 0.1121311 0.1164268
0.1240192 0.1121977 0.119224
0.1246186 0.1122643 0.1177255
0.1261504 0.1117315 0.1193572
0.1273159 0.1135963 0.118225
0.12948040000000002 0.1126306 0.1194904
0.13001320000000002 0.1141291 0.119557
0.13121200000000002 0.1153279 0.1221544
0.13231090000000004 0.1159273 0.1246186
0.13460860000000005 0.1189243 0.1237528
0.13520800000000005 0.119557 0.1241191
0.13520800000000005 0.1199899 0.1257175
0.13560760000000005 0.1216549 0.12788200000000002
0.13604050000000006 0.1204894 0.12997990000000004
0.13654000000000008 0.1195903 0.12874780000000002
0.1367731000000001 0.1203895 0.12984670000000004
0.1367731000000001 0.1223209 0.13044610000000004
0.1389709000000001 0.1227538 0.13330990000000004
0.1386379000000001 0.1243522 0.13460860000000005
0.1402030000000001 0.1261171 0.13447540000000005
0.1398367000000001 0.12655000000000002 0.13530790000000006
0.1408024000000001 0.12704950000000004 0.13687300000000008
0.1419346000000001 0.12808180000000005 0.1386379000000001
0.14216770000000012 0.12828160000000005 0.1409023000000001
0.14349970000000012 0.12778210000000004 0.1421011000000001
0.14456530000000012 0.12934720000000005 0.1411021000000001
0.14509810000000012 0.13121200000000005 0.1420678000000001
0.14559760000000013 0.13304350000000006 0.1439326000000001
0.14446540000000013 0.13334320000000008 0.1425007000000001
0.14356630000000012 0.13500820000000008 0.1436329000000001
0.14376610000000012 0.1350415000000001 0.1438660000000001
0.14569750000000012 0.1359739000000001 0.14483170000000012
0.14689630000000012 0.1367398000000001 0.1447984000000001
0.14643010000000012 0.13710610000000012 0.1457308000000001
0.14946040000000013 0.1364068000000001 0.1464634000000001
0.15099220000000013 0.1376056000000001 0.1471294000000001
0.15059260000000013 0.1388044000000001 0.1487944000000001
0.15199120000000013 0.1399366000000001 0.1513918000000001
0.15322330000000015 0.14176810000000012 0.1509589000000001
0.15378940000000016 0.14233420000000013 0.1530568000000001
0.15302350000000015 0.14383270000000015 0.15495490000000012
0.15478840000000016 0.14403250000000015 0.15698620000000013
0.15715270000000017 0.14329990000000015 0.15675310000000012
0.1575190000000002 0.14586400000000016 0.15648670000000012
0.1593172000000002 0.14836150000000017 0.15791860000000013
0.1603495000000002 0.14829490000000017 0.15825160000000013
0.16104880000000021 0.1509256000000002 0.15838480000000013
0.1635130000000002 0.1519579000000002 0.15968350000000014
0.1622476000000002 0.1508923000000002 0.16048270000000014
0.16427890000000023 0.15325660000000021 0.16014970000000014
0.16657660000000024 0.15388930000000023 0.15978340000000013
0.16714270000000025 0.15422230000000023 0.16038280000000013
0.16820830000000025 0.15588730000000023 0.15958360000000013
0.16774210000000025 0.15652000000000024 0.15938380000000013
0.16864120000000027 0.15795190000000026 0.15998320000000013
0.17113870000000028 0.15998320000000027 0.15971680000000013
0.17413570000000028 0.16004980000000027 0.16091560000000013
0.17393590000000028 0.16141510000000028 0.16244740000000013
0.17370280000000027 0.1636462000000003 0.16218100000000013
0.17573410000000028 0.1643788000000003 0.16194790000000012
0.17679970000000028 0.1643122000000003 0.16218100000000013
0.17603380000000027 0.1652113000000003 0.16374610000000014
0.17673310000000028 0.1641457000000003 0.16631020000000016
0.17726590000000028 0.1663435000000003 0.16507810000000014
0.1783648000000003 0.1662769000000003 0.16454530000000014
0.1782316000000003 0.1671427000000003 0.16474510000000014
0.1789309000000003 0.1681417000000003 0.16534450000000014
0.1786312000000003 0.16870780000000032 0.16621030000000014
0.1817281000000003 0.17000650000000034 0.16764220000000016
0.1817947000000003 0.16884100000000032 0.16740910000000014
0.1805959000000003 0.16917400000000032 0.16744240000000016
0.1803295000000003 0.17003980000000032 0.16747570000000017
0.1823275000000003 0.17077240000000032 0.16757560000000019
0.1821943000000003 0.1702729000000003 0.16700950000000017
0.18422560000000032 0.1701064000000003 0.16914070000000017
0.18675640000000032 0.1724707000000003 0.17127190000000017
0.18788860000000032 0.1740025000000003 0.17143840000000019
0.18788860000000032 0.17616700000000032 0.1724041000000002
0.18898750000000034 0.17753230000000034 0.1726372000000002
0.18875440000000032 0.17779870000000034 0.1714051000000002
0.19075240000000032 0.17956360000000035 0.17043940000000019
0.19115200000000032 0.17913070000000034 0.17097220000000019
0.19364950000000034 0.17806510000000034 0.1741357000000002
0.19368280000000035 0.18006310000000034 0.17403580000000018
0.19561420000000035 0.17936380000000032 0.17393590000000017
0.19774540000000035 0.18072910000000034 0.17466850000000017
0.19844470000000036 0.18176140000000035 0.17746570000000017
0.19984330000000036 0.18179470000000036 0.17743240000000016
0.20164150000000036 0.18402580000000038 0.17759890000000017
0.20337310000000036 0.1845253000000004 0.17963020000000018
0.20483830000000036 0.18449200000000038 0.17883100000000018
0.20397250000000036 0.18412570000000036 0.1790641000000002
0.20523790000000036 0.18632350000000036 0.1775989000000002
0.20573740000000038 0.18858790000000036 0.1801963000000002
0.20543770000000036 0.18898750000000036 0.1802962000000002
0.20577070000000036 0.19068580000000038 0.1791640000000002
0.20457190000000036 0.19065250000000036 0.17986330000000023
0.20430550000000036 0.19071910000000036 0.18066250000000023
0.20387260000000035 0.19138510000000036 0.18335980000000024
0.20433880000000035 0.19195120000000038 0.18246070000000023
0.20676970000000036 0.19108540000000038 0.18352630000000023
0.20916730000000036 0.1915849000000004 0.18555760000000024
0.20960020000000038 0.1925173000000004 0.18565750000000025
0.21219760000000037 0.1933165000000004 0.18748900000000027
0.21399580000000037 0.1939825000000004 0.18695620000000027
0.21612700000000037 0.1946818000000004 0.18778870000000028
0.2176921000000004 0.1960138000000004 0.1901530000000003
0.2195569000000004 0.19824490000000042 0.1923508000000003
0.2200564000000004 0.20054260000000043 0.1922842000000003
0.22015630000000042 0.20170810000000045 0.1936162000000003
0.2193238000000004 0.20250730000000045 0.1940491000000003
0.22082230000000042 0.20373940000000046 0.1965799000000003
0.22145500000000043 0.20363950000000045 0.1964134000000003
0.22092220000000043 0.20320660000000043 0.1983781000000003
0.22165480000000043 0.20337310000000045 0.19947700000000032
0.22308670000000044 0.20493820000000046 0.20060920000000032
0.22471840000000046 0.20656990000000047 0.19967680000000032
0.22518460000000046 0.20676970000000047 0.20100880000000032
0.22668310000000047 0.20890090000000047 0.20290690000000033
0.22854790000000047 0.20850130000000047 0.20510470000000033
0.22958020000000048 0.20923390000000047 0.20693620000000035
0.2313451000000005 0.20853460000000046 0.20703610000000036
0.23111200000000048 0.20883430000000047 0.20753560000000038
0.23117860000000048 0.21023290000000047 0.20986660000000038
0.2322775000000005 0.21106540000000049 0.20860120000000038
0.2332432000000005 0.2133631000000005 0.20986660000000038
0.2323774000000005 0.2153611000000005 0.21166480000000037
0.23301010000000053 0.2164600000000005 0.2126305000000004
0.2320444000000005 0.21749230000000053 0.2144953000000004
0.2315116000000005 0.21769210000000053 0.2170594000000004
0.2335762000000005 0.21702610000000053 0.22008970000000042
0.23400910000000053 0.21779200000000054 0.22002310000000042
0.23460850000000052 0.21855790000000055 0.22085560000000043
0.23340970000000053 0.22028950000000055 0.22272040000000043
0.23327650000000053 0.22282030000000055 0.22361950000000044
0.23307670000000053 0.22435210000000055 0.22595050000000044
0.23564080000000054 0.22461850000000055 0.22488490000000044
0.23520790000000052 0.22578400000000057 0.22491820000000046
0.23627350000000052 0.22598380000000057 0.22638340000000046
0.23640670000000052 0.22861450000000058 0.22888090000000047
0.23653990000000052 0.2304460000000006 0.23061250000000047
0.23713930000000052 0.22981330000000058 0.23224420000000048
0.23707270000000052 0.23187790000000058 0.23244400000000048
0.23927050000000052 0.23094550000000058 0.23227750000000047
0.24110200000000054 0.2313784000000006 0.23287690000000047
0.24073570000000052 0.2334763000000006 0.23254390000000047
0.24006970000000052 0.2347417000000006 0.23417560000000048
0.24153490000000052 0.2332765000000006 0.23703940000000048
0.24319990000000052 0.2347417000000006 0.2380717000000005
0.2425672000000005 0.23697280000000062 0.23783860000000048
0.2425339000000005 0.2369395000000006 0.23753890000000047
0.2448649000000005 0.23743900000000062 0.23937040000000048
0.2450647000000005 0.2368063000000006 0.2412685000000005
0.2471293000000005 0.2379385000000006 0.2425339000000005
0.2479618000000005 0.23863780000000062 0.2434996000000005
0.2476621000000005 0.23943700000000062 0.24613030000000052
0.2483614000000005 0.23967010000000064 0.24686290000000052
0.2500930000000005 0.23963680000000062 0.24822820000000054
0.2509255000000005 0.24250060000000062 0.24956020000000054
0.25245730000000055 0.24136840000000062 0.24982660000000054
0.25232410000000055 0.24170140000000062 0.24962680000000054
0.25348960000000054 0.24426550000000063 0.2522575000000005
0.2531566000000005 0.24666310000000063 0.2527570000000005
0.2534230000000005 0.24829480000000065 0.2531566000000005
0.2556874000000005 0.25025950000000063 0.25388920000000054
0.25628680000000054 0.25252390000000063 0.25442200000000054
0.25725250000000055 0.25335640000000065 0.25462180000000056
0.2571859000000005 0.25492150000000063 0.2551879000000006
0.25725250000000055 0.25558750000000063 0.2563867000000006
0.2583847000000006 0.2563534000000006 0.25618690000000055
0.25994980000000056 0.2568529000000006 0.25588720000000054
0.2622808000000006 0.2564200000000006 0.25741900000000056
0.2628136000000006 0.2551879000000006 0.25668640000000054
0.2637793000000006 0.2554876000000006 0.25512130000000055
0.2625472000000006 0.2551879000000006 0.2559871000000006
0.2618479000000006 0.2563867000000006 0.25555420000000056
0.2630467000000006 0.2565532000000006 0.25688620000000056
0.26567740000000056 0.2562868000000006 0.2580184000000006
0.26674300000000056 0.2573524000000006 0.2597167000000006
0.26884090000000055 0.2567197000000006 0.25858450000000055
0.27083890000000055 0.2588842000000006 0.25941700000000056
0.27243730000000055 0.25908400000000065 0.26088220000000056
0.27213760000000053 0.26158150000000063 0.2627803000000006
0.27433540000000056 0.26268040000000065 0.2635795000000006
0.27513460000000056 0.26494480000000065 0.26367940000000056
0.27550090000000055 0.26604370000000066 0.26347960000000054
0.27493480000000053 0.26800840000000065 0.2630467000000005
0.2761003000000005 0.27067240000000065 0.2644786000000005
0.2770327000000005 0.2700730000000006 0.2644786000000005
0.2790307000000005 0.26997310000000063 0.2644120000000005
0.2787310000000005 0.2718046000000006 0.2652445000000005
0.2787643000000005 0.27373600000000065 0.2672758000000005
0.28002970000000055 0.27310330000000066 0.2685079000000005
0.28186120000000053 0.2758006000000007 0.2673091000000005
0.28132840000000053 0.27616690000000066 0.2690407000000005
0.2840923000000005 0.27693280000000065 0.2695735000000005
0.28359280000000053 0.2789974000000007 0.27150490000000055
0.28535770000000055 0.2813284000000007 0.27300340000000056
0.2854243000000006 0.2807290000000007 0.27513460000000056
0.28725580000000056 0.2801962000000007 0.27480160000000053
0.28965340000000056 0.2807290000000007 0.27470170000000055
0.28991980000000056 0.2821942000000007 0.27386920000000053
0.2913184000000006 0.28229410000000066 0.27376930000000055
0.2917513000000006 0.2830267000000007 0.27426880000000053
0.2913850000000006 0.2853577000000007 0.27486820000000056
0.2909188000000006 0.28688950000000074 0.27606700000000056
0.2921509000000006 0.28812160000000075 0.27633340000000056
0.2933497000000006 0.2901862000000008 0.27550090000000055
0.2938492000000006 0.2921176000000008 0.27749890000000055
0.2947816000000006 0.29285020000000084 0.2766331000000005
0.2962135000000006 0.2924173000000008 0.2782315000000005
0.2966797000000006 0.29245060000000084 0.2787643000000005
0.29821150000000063 0.29404900000000084 0.2808955000000005
0.2973790000000006 0.29578060000000084 0.28159480000000053
0.2973457000000006 0.29701270000000085 0.2830267000000005
0.2972458000000006 0.29741230000000085 0.2832931000000005
0.3002761000000006 0.2984113000000009 0.2825605000000005
0.2991106000000006 0.30037600000000086 0.2824273000000005
0.3011086000000006 0.3005758000000009 0.28169470000000046
0.30207430000000063 0.3011752000000009 0.28355950000000046
0.30330640000000064 0.3027403000000009 0.2826604000000005
0.30547090000000066 0.30533770000000093 0.2814949000000005
0.30783520000000064 0.30400570000000093 0.2803294000000005
0.30800170000000066 0.30533770000000093 0.2794969000000005
0.30776860000000067 0.30710260000000095 0.27929710000000046
0.30870100000000067 0.30993310000000096 0.2814949000000005
0.31093210000000066 0.30993310000000096 0.2846584000000005
0.3111319000000007 0.311698000000001 0.28609030000000046
0.3114316000000007 0.31299670000000096 0.28645660000000045
0.3131299000000007 0.31339630000000096 0.2871892000000005
0.3156940000000007 0.313995700000001 0.28822150000000046
0.3156940000000007 0.314428600000001 0.2885545000000005
0.3143287000000007 0.31542760000000103 0.2897200000000005
0.3161269000000007 0.31729240000000103 0.28955350000000046
0.3184246000000007 0.31719250000000104 0.29115190000000046
0.3178252000000007 0.31895740000000106 0.29258380000000045
0.3173257000000007 0.31965670000000107 0.29368270000000046
0.3171925000000007 0.3200896000000011 0.29528110000000046
0.31752550000000074 0.3197233000000011 0.2968129000000005
0.31689280000000075 0.3206890000000011 0.2977453000000005
0.31839130000000077 0.3237193000000011 0.2989441000000005
0.31942360000000075 0.32351950000000107 0.2988442000000005
0.32208760000000075 0.32641660000000106 0.2974789000000005
0.32351950000000074 0.32904730000000104 0.2969461000000005
0.3253510000000007 0.33051250000000104 0.29594710000000046
0.32648320000000075 0.33291010000000104 0.2957140000000005
0.32661640000000075 0.33310990000000107 0.29581390000000046
0.32631670000000074 0.33494140000000105 0.2972125000000005
0.32888080000000075 0.33530770000000104 0.2973124000000005
0.33084550000000074 0.335241100000001 0.29914390000000046
0.33244390000000074 0.335474200000001 0.3000097000000005
0.33447520000000075 0.335041300000001 0.2994436000000005
0.33504130000000076 0.33497470000000096 0.30140830000000046
0.33624010000000076 0.33387580000000094 0.3019744000000005
0.3361402000000008 0.33454180000000094 0.30084220000000045
0.33703930000000076 0.33484150000000096 0.3015748000000005
0.33913720000000075 0.33697270000000096 0.30030940000000045
0.34036930000000076 0.338637700000001 0.30274030000000046
0.3408022000000008 0.339636700000001 0.3039724000000005
0.34050250000000076 0.338371300000001 0.3051046000000005
0.3401362000000008 0.340935400000001 0.3071026000000005
0.3419344000000008 0.341468200000001 0.3093337000000005
0.3417679000000008 0.343299700000001 0.3117979000000005
0.3438325000000008 0.344665000000001 0.31356280000000053
0.34506460000000083 0.345264400000001 0.31542760000000053
0.3437992000000008 0.347362300000001 0.31452850000000054
0.3439657000000008 0.347528800000001 0.31402900000000056
0.34496470000000085 0.34906060000000105 0.31399570000000054
0.34413220000000083 0.35162470000000107 0.31679290000000054
0.34579720000000086 0.35295670000000107 0.31626010000000054
0.34669630000000085 0.35532100000000105 0.31892410000000054
0.3483613000000009 0.35528770000000104 0.3179251000000005
0.3485611000000009 0.35572060000000105 0.3197899000000005
0.3499930000000009 0.35678620000000105 0.3210886000000005
0.3498265000000009 0.35948350000000107 0.3204226000000005
0.3497266000000009 0.35984980000000105 0.3192238000000005
0.3491605000000009 0.35935030000000107 0.3182581000000005
0.3506923000000009 0.35935030000000107 0.3188575000000005
0.3501595000000009 0.35961670000000107 0.31892410000000054
0.35075890000000093 0.35984980000000105 0.32105530000000054
0.3525904000000009 0.35895070000000107 0.32142160000000053
0.3529900000000009 0.35758540000000105 0.32102200000000053
0.35305660000000094 0.35675290000000104 0.3216547000000005
0.35375590000000096 0.35881750000000107 0.3220543000000005
0.353955700000001 0.36038260000000105 0.3232531000000005
0.355287700000001 0.3611152000000011 0.3229201000000005
0.355321000000001 0.3629800000000011 0.3242854000000005
0.355720600000001 0.3634129000000011 0.3253843000000005
0.354788200000001 0.3630466000000011 0.3276154000000005
0.355554100000001 0.3654442000000011 0.33047920000000053
0.354255400000001 0.3656773000000011 0.33054580000000056
0.354721600000001 0.3648448000000011 0.33284350000000057
0.354255400000001 0.3656773000000011 0.3346417000000006
0.356186800000001 0.3667096000000011 0.3366397000000006
0.35768530000000104 0.3680416000000011 0.3385711000000006
0.35931700000000105 0.37067230000000106 0.34073560000000064
0.36091540000000105 0.37143820000000105 0.34166800000000064
0.36314650000000104 0.37306990000000106 0.34213420000000067
0.36401230000000107 0.3739024000000011 0.3430999000000007
0.36521110000000107 0.3761668000000011 0.34426540000000067
0.36481150000000107 0.3782314000000011 0.34449850000000065
0.3652777000000011 0.3802627000000011 0.3453643000000007
0.3677086000000011 0.3791305000000011 0.3463633000000007
0.3690739000000011 0.3792304000000011 0.3480616000000007
0.3709387000000011 0.3801628000000011 0.3505258000000007
0.3732031000000011 0.37919710000000106 0.3504592000000007
0.3728035000000011 0.3815281000000011 0.3533230000000007
0.3738358000000011 0.3819943000000011 0.3545218000000007
0.37576720000000113 0.38256040000000113 0.35738560000000075
0.37816480000000113 0.38552410000000115 0.35808490000000076
0.38139490000000115 0.38459170000000115 0.35795170000000076
0.38089540000000116 0.38379250000000115 0.35955010000000076
0.37996300000000116 0.38455840000000113 0.3618811000000008
0.38032930000000115 0.3861235000000011 0.3633463000000008
0.38102860000000116 0.38738890000000115 0.3634462000000008
0.38246050000000115 0.38848780000000116 0.3625471000000008
0.38269360000000113 0.3879883000000012 0.3652111000000008
0.3819610000000011 0.38795500000000116 0.3678085000000008
0.3831265000000011 0.3906856000000012 0.3674089000000008
0.3852244000000011 0.3912517000000012 0.3670759000000008
0.3857905000000011 0.3908188000000012 0.3671425000000008
0.3873889000000011 0.3905524000000012 0.3665431000000008
0.3893536000000011 0.3920509000000012 0.3666097000000008
0.3907522000000011 0.3915181000000012 0.36650980000000083
0.3930166000000011 0.3909187000000012 0.36774190000000084
0.3944818000000011 0.3934495000000012 0.36897400000000086
0.3975454000000011 0.3961135000000012 0.36967330000000087
0.40040920000000113 0.3953476000000012 0.3705058000000009
0.40057570000000114 0.3949813000000012 0.37073890000000087
0.40254040000000113 0.39717910000000123 0.37043920000000086
0.4047715000000011 0.39797830000000123 0.3718378000000009
0.4048714000000011 0.40084210000000126 0.3706723000000009
0.40746880000000113 0.4022407000000013 0.36980650000000087
0.40966660000000116 0.4034728000000013 0.36940690000000087
0.41176450000000114 0.4033729000000013 0.37177120000000086
0.41402890000000114 0.4053709000000013 0.37123840000000086
0.41699260000000116 0.4069360000000013 0.37400230000000084
0.4171924000000012 0.4076686000000013 0.37436860000000083
0.4197232000000012 0.4103326000000013 0.3740356000000008
0.4213549000000012 0.4104325000000013 0.3756340000000008
0.4215547000000012 0.4095001000000013 0.3751345000000008
0.4220542000000012 0.40956670000000134 0.3740689000000008
0.4236526000000012 0.4097998000000013 0.3740689000000008
0.4223872000000012 0.41106520000000135 0.37596700000000083
0.4232197000000012 0.41063230000000134 0.37520110000000084
0.4241188000000012 0.41009950000000134 0.37526770000000087
0.4256506000000012 0.41076550000000134 0.3778651000000009
0.4245517000000012 0.4116646000000013 0.3794635000000009
0.4233196000000012 0.4146949000000013 0.3789640000000009
0.4241854000000012 0.41596030000000134 0.37903060000000094
0.4238857000000012 0.41622670000000134 0.37906390000000095
0.4243519000000012 0.41889070000000134 0.38092870000000095
0.4243519000000012 0.41895730000000136 0.38129500000000094
0.4257838000000012 0.4199230000000014 0.3827269000000009
0.4250512000000012 0.4215880000000014 0.38342620000000094
0.4252510000000012 0.4230199000000014 0.3835261000000009
0.4271491000000012 0.4232863000000014 0.38648980000000094
0.42944680000000124 0.4238524000000014 0.38795500000000094
0.43011280000000124 0.4263832000000014 0.38848780000000094
0.4300795000000012 0.42951340000000143 0.39055240000000097
0.43014610000000125 0.4294801000000014 0.38995300000000094
0.43174450000000125 0.42831460000000143 0.39105190000000095
0.4332763000000013 0.42901390000000145 0.394182100000001
0.4335427000000013 0.43207750000000145 0.39348280000000097
0.4349080000000013 0.43207750000000145 0.393249700000001
0.4367728000000013 0.43324300000000143 0.39414880000000097
0.4364731000000013 0.43474150000000145 0.39561400000000096
0.43630660000000127 0.43504120000000146 0.394981300000001
0.43843780000000127 0.43700590000000145 0.396446500000001
0.44070220000000127 0.43777180000000143 0.396979300000001
0.4413016000000013 0.4377385000000014 0.397445500000001
0.4424338000000013 0.4397365000000014 0.397545400000001
0.4437658000000013 0.4401028000000014 0.396313300000001
0.4431664000000013 0.4399363000000014 0.398111500000001
0.4463965000000013 0.4411684000000014 0.398044900000001
0.4478617000000013 0.4412017000000014 0.39731230000000095
0.4495600000000013 0.4417012000000014 0.39877750000000095
0.4504258000000013 0.4436992000000014 0.400042900000001
0.4526902000000013 0.4439656000000014 0.400742200000001
0.4545550000000013 0.4431997000000014 0.400808800000001
0.4562866000000013 0.44443180000000143 0.402373900000001
0.45738550000000133 0.4467961000000014 0.402640300000001
0.45622000000000135 0.44682940000000143 0.403439500000001
0.45665290000000136 0.4489273000000014 0.40510450000000103
0.4588507000000014 0.44952670000000144 0.40553740000000105
0.4590838000000014 0.44922700000000143 0.40660300000000105
0.4602826000000014 0.4491604000000014 0.40636990000000106
0.4609819000000014 0.4489273000000014 0.4069360000000011
0.4605490000000014 0.45059230000000144 0.4089673000000011
0.46008280000000135 0.4495933000000014 0.4112983000000011
0.46101520000000135 0.45015940000000143 0.4119643000000011
0.46381240000000135 0.45298990000000144 0.41332960000000113
0.46327960000000135 0.45229060000000143 0.41645980000000116
0.46288000000000135 0.45355600000000146 0.4171924000000012
0.46314640000000135 0.4541554000000015 0.4162600000000012
0.46364590000000133 0.45395560000000146 0.41875750000000117
0.46377910000000133 0.45498790000000144 0.41805820000000116
0.46594360000000135 0.45455500000000143 0.41779180000000116
0.46581040000000135 0.45515440000000146 0.41935690000000114
0.46847440000000135 0.45738550000000144 0.4188907000000011
0.47007280000000135 0.45848440000000146 0.4200895000000011
0.47247040000000134 0.4589506000000015 0.4189573000000011
0.47416870000000133 0.4604158000000015 0.4210885000000011
0.47633320000000134 0.46091530000000147 0.4206556000000011
0.47869750000000133 0.46168120000000146 0.4223206000000011
0.48072880000000134 0.46354600000000146 0.4236859000000011
0.48076210000000136 0.4656106000000015 0.4235527000000011
0.47976310000000133 0.4682746000000015 0.4221541000000011
0.48046240000000134 0.46957330000000147 0.4237192000000011
0.48292660000000137 0.4720375000000015 0.42311980000000105
0.48595690000000136 0.4723372000000015 0.42365260000000105
0.48725560000000134 0.47373580000000154 0.4243852000000011
0.48589030000000133 0.47336950000000155 0.4254841000000011
0.48495790000000133 0.47526760000000157 0.4246516000000011
0.4869226000000013 0.47603350000000155 0.42674950000000106
0.4877218000000013 0.47803150000000155 0.4268161000000011
0.4878550000000013 0.47976310000000155 0.4254508000000011
0.48735550000000133 0.48179440000000157 0.4262833000000011
0.48965320000000134 0.48126160000000157 0.4278484000000011
0.49011940000000137 0.4844917000000016 0.42914710000000106
0.4925503000000014 0.48579040000000157 0.43044580000000104
0.4947148000000014 0.48685600000000157 0.43114510000000106
0.4950145000000014 0.48885400000000157 0.4325437000000011
0.4955140000000014 0.4894201000000016 0.4320109000000011
0.49504780000000137 0.49031920000000156 0.4335427000000011
0.4948147000000014 0.49135150000000155 0.4338091000000011
0.4952809000000014 0.4932829000000016 0.4351744000000011
0.4972789000000014 0.4934161000000016 0.4375720000000011
0.4968460000000014 0.49285000000000156 0.43867090000000114
0.4978117000000014 0.49298320000000156 0.44016940000000115
0.5004424000000014 0.49225060000000154 0.44113510000000117
0.4996432000000014 0.4917844000000015 0.44140150000000117
0.4994101000000014 0.4911517000000015 0.4437325000000012
0.5015413000000014 0.49241710000000155 0.4433329000000012
0.5018410000000014 0.49358260000000154 0.4453975000000012
0.5031064000000014 0.4938157000000015 0.4460302000000012
0.5023738000000014 0.49468150000000155 0.4475287000000012
0.5014747000000014 0.49471480000000156 0.4492603000000012
0.5027401000000014 0.4962466000000016 0.4497931000000012
0.5053375000000013 0.4970791000000016 0.4512250000000012
0.5049046000000014 0.4976119000000016 0.4526902000000012
0.5074687000000013 0.4975120000000016 0.4523905000000012
0.5073688000000013 0.49874410000000163 0.4540555000000012
0.5069692000000012 0.49997620000000165 0.4550878000000012
0.5072023000000012 0.5004757000000016 0.4550545000000012
0.5060701000000012 0.5010418000000016 0.4557538000000012
0.5056039000000012 0.5001427000000016 0.4573855000000012
0.5059369000000012 0.5011750000000016 0.45811810000000125
0.5086009000000012 0.5017078000000016 0.4596499000000013
0.5086009000000012 0.5034727000000015 0.46028260000000126
0.5097331000000013 0.5022739000000015 0.4635127000000013
0.5116978000000013 0.5018077000000015 0.46294660000000126
0.5127301000000013 0.5047048000000015 0.4658104000000013
0.5114647000000013 0.5070691000000015 0.46481140000000126
0.5136292000000013 0.5090338000000015 0.46334620000000126
0.5137624000000014 0.5097664000000015 0.4647448000000013
0.5149279000000014 0.5110318000000015 0.4654441000000013
0.5152276000000015 0.5122972000000015 0.4679416000000013
0.5168593000000015 0.5123971000000015 0.4685077000000013
0.5181580000000015 0.5150278000000015 0.4701394000000013
0.5203558000000015 0.5163265000000015 0.47070550000000133
0.5227201000000015 0.5189239000000014 0.47290330000000136
0.5240521000000015 0.5206555000000015 0.47313640000000134
0.5243185000000015 0.5214880000000015 0.47596690000000136
0.5263165000000015 0.5235526000000015 0.47786500000000137
0.5281147000000015 0.5244850000000015 0.4792636000000014
0.5286475000000015 0.5269825000000016 0.4791637000000014
0.5294467000000015 0.5284477000000016 0.4809952000000014
0.5313115000000015 0.5290804000000017 0.4815280000000014
0.5324437000000015 0.5318110000000017 0.4816279000000014
0.5327434000000015 0.5321773000000017 0.4816279000000014
0.5328100000000016 0.5330764000000018 0.4834261000000014
0.5322439000000015 0.5322772000000018 0.4863232000000014
0.5329765000000015 0.5335093000000017 0.4859236000000014
0.5358070000000015 0.5347414000000017 0.4877884000000014
0.5359735000000014 0.5351743000000017 0.4894201000000014
0.5376052000000014 0.5361067000000017 0.4911184000000014
0.5393368000000015 0.5356738000000018 0.4907521000000014
0.5396365000000015 0.5348080000000017 0.4896865000000014
0.5396698000000015 0.5345416000000017 0.4894201000000014
0.5424337000000016 0.5371723000000017 0.4916512000000014
0.5438656000000016 0.5385376000000017 0.4928500000000014
0.5449312000000016 0.5392036000000018 0.4935826000000014
0.5454973000000016 0.5418343000000018 0.4943485000000014
0.5459302000000016 0.5430664000000017 0.4961134000000014
0.5471956000000016 0.5438656000000017 0.49761190000000144
0.5499928000000016 0.5448313000000017 0.4982446000000014
0.5528566000000016 0.5448646000000017 0.49827790000000144
0.5528233000000016 0.5458303000000017 0.5006755000000015
0.5543551000000015 0.5471956000000017 0.5018077000000015
0.5564530000000015 0.5464630000000017 0.5012083000000015
0.5565529000000016 0.5471290000000018 0.5032729000000015
0.5569192000000016 0.5481280000000017 0.5029399000000014
0.5574853000000016 0.5486608000000017 0.5037058000000014
0.5580514000000016 0.5494933000000017 0.5040055000000014
0.5582179000000016 0.5503924000000018 0.5054041000000015
0.5603491000000016 0.5502259000000018 0.5076352000000015
0.5605489000000016 0.5513914000000019 0.5100661000000015
0.5590837000000015 0.5531563000000018 0.5120308000000016
0.5601160000000015 0.5550544000000018 0.5125969000000016
0.5621806000000015 0.5555206000000018 0.5134960000000016
0.5629798000000015 0.5553874000000018 0.5144617000000016
0.5620807000000014 0.5575186000000018 0.5159935000000015
0.5629798000000015 0.5579515000000017 0.5154607000000015
0.5649445000000015 0.5590837000000017 0.5146615000000015
0.5662432000000015 0.5614813000000017 0.5152609000000016
0.5666761000000015 0.5629798000000017 0.5156272000000016
0.5669758000000015 0.5650111000000017 0.5152942000000016
0.5697397000000015 0.5643451000000016 0.5174920000000016
0.5696731000000015 0.5653774000000016 0.5188906000000016
0.5726368000000015 0.5672422000000016 0.5186242000000016
0.5740354000000015 0.5677084000000016 0.5211217000000017
0.5762998000000016 0.5702725000000015 0.5217877000000017
0.5749345000000016 0.5700394000000015 0.5214214000000017
0.5774320000000016 0.5698729000000016 0.5202226000000016
0.5787973000000016 0.5687407000000015 0.5195899000000016
0.5773654000000016 0.5688406000000016 0.5211550000000016
0.5771656000000016 0.5717377000000016 0.5220541000000016
0.5779315000000016 0.5738023000000015 0.5235859000000016
0.5792302000000016 0.5737690000000015 0.5253175000000017
0.5814946000000016 0.5750011000000015 0.5264830000000017
0.5824603000000016 0.5760334000000015 0.5257504000000017
0.5834260000000016 0.5760334000000015 0.5249845000000017
0.5849245000000015 0.5778982000000015 0.5277151000000018
0.5852908000000016 0.5805955000000015 0.5285143000000018
0.5841586000000015 0.5807953000000015 0.5302792000000017
0.5855905000000016 0.5817610000000014 0.5320441000000017
0.5883877000000016 0.5826934000000015 0.5342086000000017
0.5889871000000017 0.5832928000000015 0.5355739000000017
0.5901193000000017 0.5820607000000015 0.5367727000000018
0.5908519000000017 0.5825269000000015 0.5372722000000018
0.5929165000000016 0.5849578000000015 0.5369392000000017
0.5946481000000017 0.5863897000000016 0.5373388000000018
0.5951476000000017 0.5856571000000016 0.5376052000000018
0.5967127000000017 0.5842585000000016 0.5384377000000018
0.5955805000000016 0.5839588000000016 0.5408686000000018
0.5959801000000017 0.5835259000000016 0.5427667000000018
0.5976451000000017 0.5840254000000016 0.5417677000000019
0.5964463000000017 0.5846914000000016 0.5435659000000018
0.5975119000000017 0.5853907000000016 0.5452309000000019
0.5990104000000016 0.5842252000000016 0.5469958000000018
0.5982778000000016 0.5836591000000015 0.5500261000000018
0.5983777000000017 0.5834593000000016 0.5515912000000018
0.5978782000000017 0.5847913000000016 0.5536891000000018
0.5986774000000017 0.5840587000000016 0.5549545000000018
0.5980780000000017 0.5833594000000016 0.5547214000000018
0.5987107000000017 0.5833261000000016 0.5546881000000018
0.5986774000000017 0.5828599000000017 0.5563198000000018
0.6007420000000017 0.5846914000000016 0.5562865000000018
0.6003424000000016 0.5859901000000016 0.5571856000000018
0.5994433000000016 0.5858902000000016 0.5594167000000019
0.6008086000000016 0.5873221000000016 0.5595166000000019
0.6023737000000016 0.5873554000000016 0.5615479000000019
0.6044050000000015 0.5874220000000017 0.5627134000000019
0.6035392000000015 0.5875219000000017 0.5637790000000019
0.6043717000000015 0.5873554000000017 0.563046400000002
0.6048046000000015 0.5894866000000017 0.5632795000000019
0.6054373000000015 0.5896864000000017 0.564378400000002
0.6047047000000015 0.5908186000000017 0.5648113000000019
0.6079348000000016 0.5895865000000018 0.564911200000002
0.6098662000000016 0.5901193000000018 0.564944500000002
0.6109318000000016 0.5893201000000018 0.5667427000000019
0.6113647000000015 0.5898529000000018 0.5669425000000019
0.6111982000000016 0.5903857000000018 0.566509600000002
0.6127300000000016 0.5893867000000018 0.5653774000000019
0.6132295000000015 0.5905855000000019 0.5650111000000019
0.6148612000000016 0.5905855000000019 0.5645449000000019
0.6153274000000015 0.5906854000000019 0.5641786000000019
0.6141619000000015 0.5928832000000019 0.5644450000000019
0.6161266000000015 0.594581500000002 0.5643118000000018
0.6162598000000016 0.594814600000002 0.5661433000000018
0.6172921000000016 0.594881200000002 0.5661433000000018
0.6181246000000016 0.595280800000002 0.5675752000000018
0.6187573000000016 0.595147600000002 0.5695066000000019
0.6187573000000016 0.596279800000002 0.5714380000000019
0.6195565000000016 0.598111300000002 0.5725036000000019
0.6187240000000016 0.599709700000002 0.5734693000000018
0.6206221000000016 0.599709700000002 0.5750677000000018
0.6214213000000016 0.600142600000002 0.5740021000000018
0.6220873000000017 0.600442300000002 0.5745016000000018
0.6208885000000016 0.599976100000002 0.5763997000000018
0.6227533000000016 0.599643100000002 0.5768992000000018
0.6228865000000017 0.599576500000002 0.5777317000000018
0.6238522000000016 0.5992768000000019 0.5793967000000019
0.6229531000000016 0.6006088000000019 0.5813947000000019
0.6237190000000016 0.6000760000000019 0.582327100000002
0.6230530000000015 0.600642100000002 0.582626800000002
0.6249844000000015 0.6002425000000019 0.585690400000002
0.6267826000000015 0.6020074000000019 0.584358400000002
0.6275152000000015 0.6009751000000019 0.585091000000002
0.6292801000000015 0.6014080000000018 0.586156600000002
0.6306454000000015 0.6032062000000018 0.587255500000002
0.6305455000000014 0.6043717000000018 0.588554200000002
0.6321106000000014 0.6059701000000018 0.587455300000002
0.6335758000000015 0.6053707000000018 0.588221200000002
0.6351742000000015 0.6081346000000019 0.588687400000002
0.6365395000000015 0.6085342000000019 0.589020400000002
0.6364729000000015 0.609433300000002 0.589253500000002
0.6357736000000015 0.609832900000002 0.5888539000000019
0.6364729000000015 0.609533200000002 0.591085000000002
0.6370723000000015 0.610498900000002 0.591917500000002
0.6377383000000015 0.612197200000002 0.594248500000002
0.6390703000000015 0.612230500000002 0.593715700000002
0.6399361000000016 0.612730000000002 0.595147600000002
0.6420340000000015 0.613495900000002 0.594614800000002
0.6412015000000015 0.6141952000000019 0.594748000000002
0.6438988000000015 0.6170257000000019 0.595513900000002
0.6466960000000016 0.6197230000000019 0.597545200000002
0.6479281000000016 0.6188239000000019 0.599709700000002
0.6498595000000016 0.6206221000000018 0.5998429000000021
0.6484276000000015 0.6199894000000018 0.6007420000000021
0.6493933000000015 0.6216544000000018 0.6004423000000021
0.6501259000000015 0.6234859000000018 0.6011749000000021
0.6499261000000015 0.6243517000000018 0.6033394000000021
0.6492601000000014 0.6266494000000018 0.603006400000002
0.6508252000000014 0.6282145000000018 0.602640100000002
0.6502258000000014 0.6288139000000018 0.601907500000002
0.6492601000000014 0.6308452000000018 0.603938800000002
0.6506587000000015 0.6313114000000017 0.603739000000002
0.6518242000000015 0.6319441000000018 0.6041053000000021
0.6522238000000016 0.6349078000000018 0.607268800000002
0.6526567000000015 0.6361399000000018 0.607235500000002
0.6526900000000015 0.6356404000000018 0.608534200000002
0.6538555000000016 0.6376384000000018 0.609333400000002
0.6539887000000016 0.6396697000000018 0.6089005000000021
0.6553873000000017 0.6407686000000018 0.6105988000000021
0.6551542000000017 0.6422338000000019 0.6106321000000021
0.6553873000000017 0.6447646000000019 0.6131962000000021
0.6557869000000017 0.6447646000000019 0.6145948000000021
0.6569857000000018 0.647262100000002 0.6162598000000021
0.6567526000000018 0.6472288000000019 0.6151942000000021
0.6598162000000019 0.647861500000002 0.6175918000000021
0.6616810000000019 0.648361000000002 0.6177583000000021
0.6617809000000019 0.6493600000000019 0.617658400000002
0.662979700000002 0.6492934000000019 0.617358700000002
0.6631795000000019 0.6491602000000019 0.616426300000002
0.6649444000000019 0.6487939000000018 0.616559500000002
0.6670423000000019 0.6502258000000019 0.617891500000002
0.6690403000000019 0.6533560000000018 0.617491900000002
0.668607400000002 0.6535891000000018 0.618424300000002
0.670072600000002 0.6548545000000018 0.619723000000002
0.672270400000002 0.6541552000000018 0.622586800000002
0.6729031000000021 0.6539221000000018 0.622953100000002
0.6734026000000021 0.6537889000000018 0.623386000000002
0.6734692000000021 0.6560866000000017 0.624251800000002
0.6744682000000021 0.6549877000000017 0.626949100000002
0.674335000000002 0.6573853000000017 0.628447600000002
0.674668000000002 0.6578182000000017 0.630512200000002
0.6752674000000021 0.6574852000000017 0.6301792000000019
0.675966700000002 0.6569524000000017 0.6320440000000019
0.675667000000002 0.6581179000000017 0.632710000000002
0.677531800000002 0.6587506000000017 0.632377000000002
0.6787306000000021 0.6602491000000017 0.6328099000000019
0.6816277000000021 0.6601159000000016 0.632610100000002
0.681561100000002 0.6608818000000016 0.633775600000002
0.682660000000002 0.6608152000000016 0.634108600000002
0.6840253000000021 0.6622138000000016 0.635673700000002
0.685590400000002 0.6642784000000016 0.6374053000000021
0.6861898000000021 0.6660766000000016 0.637305400000002
0.686123200000002 0.6676084000000015 0.6387706000000021
0.6870223000000021 0.6679747000000016 0.640835200000002
0.6892201000000021 0.6673753000000016 0.6425002000000021
0.6912181000000022 0.6684742000000016 0.6431662000000021
0.6929164000000022 0.6716377000000016 0.6421339000000021
0.6936823000000022 0.6731362000000015 0.6427333000000022
0.6934159000000022 0.6726367000000015 0.6454639000000022
0.6939820000000022 0.6739354000000015 0.6480280000000022
0.6957469000000022 0.6742351000000015 0.6490603000000021
0.6945481000000021 0.6736690000000015 0.6488938000000022
0.6951142000000021 0.6733360000000015 0.6476950000000021
0.6959467000000021 0.6726700000000014 0.6490936000000022
0.6974452000000021 0.6728365000000014 0.6479614000000021
0.6971455000000021 0.6732694000000014 0.6480280000000022
0.6988771000000021 0.6734026000000014 0.6486274000000022
0.6984775000000021 0.6721372000000014 0.6488272000000022
0.6984775000000021 0.6726700000000014 0.6501592000000022
0.697278700000002 0.6740353000000014 0.6507919000000022
0.698510800000002 0.6740686000000015 0.6503590000000022
0.701108200000002 0.6750343000000014 0.6523903000000022
0.701674300000002 0.6747013000000014 0.6521905000000022
0.701241400000002 0.6754672000000014 0.6520573000000022
0.702806500000002 0.6765328000000014 0.6541219000000021
0.704604700000002 0.6794965000000014 0.6556537000000021
0.704904400000002 0.6809617000000014 0.6555538000000021
0.7040053000000019 0.6808618000000014 0.6574852000000021
0.7034392000000019 0.6805954000000014 0.6598162000000021
0.7045048000000019 0.6829264000000014 0.6618142000000021
0.7044382000000019 0.6836257000000013 0.6642118000000021
0.7063696000000019 0.6835591000000013 0.6656437000000022
0.706203100000002 0.6861565000000013 0.6680080000000022
0.7082677000000019 0.6862564000000013 0.6683077000000022
0.7072021000000019 0.6863230000000013 0.6693400000000022
0.7074352000000019 0.6884209000000013 0.6694732000000022
0.7076017000000019 0.6904522000000013 0.6708052000000022
0.7080679000000019 0.6921172000000013 0.6717043000000023
0.7071355000000018 0.6928498000000013 0.6708052000000022
0.7071022000000018 0.6923836000000013 0.6702391000000022
0.7072354000000018 0.6914845000000013 0.6705721000000022
0.7090003000000018 0.6913846000000012 0.6721372000000022
0.7107985000000018 0.6926167000000012 0.6727366000000022
0.7134292000000018 0.6952474000000012 0.6750010000000023
0.7142284000000018 0.6969124000000012 0.6760000000000023
0.7161265000000018 0.6986440000000013 0.6748012000000022
0.7157935000000017 0.6996430000000012 0.6759667000000023
0.7166593000000018 0.7019740000000012 0.6759001000000022
0.7159933000000017 0.7019740000000012 0.6774985000000022
0.7173253000000017 0.7049710000000012 0.6783643000000023
0.7167925000000017 0.7049377000000012 0.6805621000000023
0.7177915000000017 0.7049044000000012 0.6803956000000023
0.7166260000000017 0.7054372000000012 0.6820939000000024
0.7164595000000017 0.7061365000000012 0.6834259000000024
0.7172254000000017 0.7054039000000012 0.6846913000000023
0.7173253000000017 0.7041052000000012 0.6861898000000023
0.7177915000000017 0.7056703000000012 0.6854572000000023
0.7189570000000017 0.7064362000000012 0.6855571000000024
0.7212547000000017 0.7078015000000012 0.6846913000000023
0.7225867000000017 0.7084342000000012 0.6852574000000023
0.7219207000000016 0.7096330000000013 0.6843916000000023
0.7243516000000016 0.7112314000000013 0.6833593000000023
0.7244848000000017 0.7116310000000013 0.6838255000000023
0.7276150000000017 0.7118974000000013 0.6849244000000023
0.7272154000000016 0.7119307000000014 0.6855238000000023
0.7296463000000016 0.7112314000000014 0.6850243000000024
0.7308118000000017 0.7121971000000014 0.6874885000000024
0.7311448000000017 0.7142950000000013 0.6886873000000024
0.7321771000000017 0.7151275000000014 0.6899194000000024
0.7334758000000017 0.7150609000000013 0.6903856000000024
0.7356070000000017 0.7179913000000013 0.6924835000000024
0.7358068000000016 0.7189237000000014 0.6945148000000023
0.7354738000000016 0.7212880000000014 0.6977116000000023
0.7349410000000016 0.7231195000000014 0.6993100000000023
0.7361398000000017 0.7244182000000013 0.7001092000000023
0.7379713000000017 0.7241518000000013 0.7006420000000023
0.7401025000000017 0.7258168000000014 0.7013746000000023
0.7400692000000016 0.7272820000000014 0.7009750000000022
0.7410016000000017 0.7273486000000015 0.7014079000000022
0.7412680000000017 0.7269157000000015 0.7003090000000022
0.7431661000000017 0.7279480000000015 0.6999427000000021
0.7417009000000017 0.7274818000000015 0.6992767000000021
0.7423669000000017 0.7280146000000015 0.7007086000000021
0.7439320000000017 0.7277815000000015 0.6998428000000021
0.7429330000000017 0.7280479000000015 0.6999427000000021
0.7440652000000018 0.7297462000000016 0.6990769000000021
0.7435657000000018 0.7302124000000015 0.6992101000000022
0.7453639000000017 0.7308451000000016 0.6997096000000022
0.7450975000000017 0.7330762000000016 0.7022737000000021
0.7461631000000017 0.7324435000000016 0.7035058000000021
0.7461298000000017 0.7356070000000016 0.705537100000002
0.7483942000000018 0.7374052000000015 0.704971000000002
0.7502923000000018 0.7400026000000015 0.706935700000002
0.7492933000000018 0.7417675000000015 0.707734900000002
0.7516576000000018 0.7425334000000015 0.7083343000000021
0.7540885000000018 0.7435324000000014 0.708234400000002
0.7565194000000018 0.7459966000000015 0.707401900000002
0.7557202000000018 0.7470955000000015 0.709266700000002
0.7575517000000018 0.7482277000000015 0.7085674000000021
0.7586173000000018 0.7491268000000015 0.7097662000000021
0.7590502000000018 0.7507585000000015 0.7110982000000021
0.7585840000000018 0.7516243000000016 0.7122637000000022
0.7613146000000018 0.7528564000000015 0.7135624000000022
0.7616809000000019 0.7531228000000015 0.7160932000000022
0.7612147000000019 0.7545880000000016 0.7170922000000022
0.763179400000002 0.7537888000000016 0.7167925000000022
0.764511400000002 0.7528897000000015 0.7179247000000022
0.7665427000000019 0.7547212000000015 0.7181578000000022
0.7661764000000019 0.7550209000000015 0.7205554000000022
0.7682410000000018 0.7552873000000015 0.7231528000000021
0.7679413000000018 0.7554205000000016 0.7257502000000021
0.7696063000000019 0.7582177000000017 0.7276816000000021
0.7705387000000019 0.7590169000000017 0.7287139000000021
0.7710049000000019 0.7602157000000017 0.7286806000000021
0.7722703000000019 0.7598494000000017 0.7304122000000022
0.7709383000000019 0.7600825000000017 0.7312780000000022
0.7699726000000019 0.7618474000000016 0.7323436000000022
0.7718374000000019 0.7621804000000016 0.7316443000000022
0.772237000000002 0.7649443000000017 0.7337422000000022
0.773036200000002 0.7656436000000016 0.7340086000000022
0.772836400000002 0.7667425000000017 0.7355071000000022
0.7719040000000019 0.7685074000000016 0.7360732000000022
0.7732360000000019 0.7702057000000017 0.7362064000000023
0.773635600000002 0.7719706000000016 0.7363396000000023
0.774268300000002 0.7720039000000016 0.7390036000000023
0.7765327000000021 0.7719706000000016 0.7409017000000023
0.7765660000000021 0.7723369000000017 0.7413346000000023
0.7782976000000021 0.7737355000000017 0.7436989000000023
0.7773985000000021 0.7750675000000017 0.7456969000000023
0.7786972000000021 0.7752007000000017 0.7469290000000023
0.7809616000000021 0.7747345000000018 0.7488604000000023
0.7819939000000021 0.7740352000000018 0.7505254000000023
0.7839253000000022 0.7756336000000018 0.7500259000000024
0.7866559000000022 0.7751008000000018 0.7501924000000023
0.7880212000000022 0.7782643000000018 0.7511248000000024
0.7904521000000022 0.7808284000000018 0.7512580000000024
0.7923502000000022 0.7829929000000018 0.7499926000000025
0.7943482000000023 0.7858234000000017 0.7513579000000025
0.7948810000000023 0.7844581000000017 0.7519906000000025
0.7975117000000023 0.7851907000000017 0.7535890000000025
0.7970455000000023 0.7870888000000017 0.7536889000000025
0.7970455000000023 0.7894864000000017 0.7547878000000026
0.7970122000000023 0.7896196000000018 0.7550875000000026
0.7968790000000022 0.7897195000000018 0.7563196000000025
0.7987105000000022 0.7898860000000018 0.7565194000000025
0.7998094000000022 0.7892533000000017 0.7585174000000026
0.8016076000000022 0.7896196000000018 0.7593499000000026
0.8028730000000022 0.7916842000000017 0.7596496000000026
0.8043382000000022 0.7933825000000018 0.7592500000000025
0.8056702000000022 0.7945480000000018 0.7623469000000025
0.8061364000000022 0.7958134000000018 0.7633126000000025
0.8049043000000022 0.7979446000000018 0.7640785000000024
0.8064028000000022 0.7993432000000018 0.7652107000000025
0.8051041000000022 0.7991434000000018 0.7666093000000025
0.8052040000000023 0.8018074000000018 0.7686739000000025
0.8054371000000022 0.8039719000000018 0.7674085000000025
0.8049376000000023 0.8048044000000019 0.7685740000000025
0.8048044000000022 0.8037388000000019 0.7679080000000025
0.8054371000000022 0.8041384000000019 0.7684741000000025
0.8056369000000022 0.805037500000002 0.7704055000000025
0.8056702000000022 0.807468400000002 0.7711381000000025
0.8070355000000022 0.809000200000002 0.7735357000000025
0.8077348000000022 0.8091667000000019 0.7758334000000024
0.8099992000000023 0.810598600000002 0.7776649000000024
0.8120305000000022 0.811797400000002 0.7788637000000025
0.8126299000000022 0.811797400000002 0.7774318000000024
0.8132626000000023 0.812530000000002 0.7791967000000024
0.8134957000000023 0.812729800000002 0.7800292000000024
0.8137621000000023 0.813529000000002 0.7818274000000024
0.8161264000000023 0.8137621000000019 0.7830928000000024
0.8169256000000022 0.8152939000000019 0.7821271000000024
0.8170921000000022 0.8165926000000019 0.7827598000000024
0.8187238000000022 0.816992200000002 0.7834591000000024
0.8203555000000022 0.8155603000000019 0.7843915000000025
0.8197561000000022 0.8168257000000019 0.7855903000000025
0.8211214000000022 0.8186905000000019 0.7852573000000025
0.8208550000000022 0.8199559000000018 0.7882876000000025
0.8224534000000022 0.8209882000000018 0.7874218000000025
0.8239186000000023 0.8219872000000018 0.7892533000000025
0.8253838000000023 0.8241184000000018 0.7891534000000024
0.8251840000000024 0.8250508000000019 0.7882543000000024
0.8255170000000024 0.8267491000000019 0.7903522000000024
0.8257501000000024 0.8259832000000019 0.7897528000000024
0.8264494000000023 0.826882300000002 0.7922836000000024
0.8279812000000023 0.8273485000000019 0.7942150000000024
0.8297128000000024 0.8291800000000019 0.7936156000000024
0.8319106000000024 0.8293465000000019 0.7942150000000024
0.8335423000000024 0.8310115000000019 0.7942150000000024
0.8353405000000024 0.8331094000000019 0.7944481000000024
0.8367724000000024 0.8354071000000018 0.7959133000000025
0.8388037000000024 0.8379379000000019 0.7971787000000025
0.8386372000000024 0.8392699000000019 0.7992100000000024
0.8415676000000024 0.8403688000000019 0.8002756000000024
0.8406352000000024 0.8425000000000019 0.8007751000000024
0.8415676000000024 0.8432992000000019 0.8008084000000024
0.8432326000000024 0.8448976000000019 0.8033059000000025
0.8438320000000025 0.8464960000000019 0.8037721000000024
0.8456635000000025 0.8482609000000019 0.8049043000000025
0.8452306000000025 0.8487271000000018 0.8041051000000025
0.8468290000000025 0.8513245000000018 0.8057035000000025
0.8465959000000025 0.8516575000000018 0.8047045000000025
0.8482276000000025 0.8529895000000018 0.8040385000000024
0.8485606000000026 0.8545213000000018 0.8039719000000024
0.8513578000000026 0.8551540000000019 0.8064028000000024
0.8510914000000026 0.8551540000000019 0.8056036000000024
0.8525233000000026 0.8570188000000019 0.8054038000000024
0.8536555000000027 0.8588836000000019 0.8062363000000025
0.8532226000000027 0.8593831000000018 0.8092000000000025
0.8516242000000027 0.8596828000000019 0.8116975000000025
0.8525899000000027 0.8613478000000019 0.8135290000000025
0.8547877000000027 0.8608816000000019 0.8150941000000025
0.8545879000000027 0.8626798000000019 0.8170255000000025
0.8540551000000027 0.8623801000000019 0.8189569000000025
0.8532892000000027 0.8641783000000018 0.8188570000000025
0.8537554000000027 0.8656102000000019 0.8201890000000025
0.8551540000000027 0.8666758000000019 0.8208550000000026
0.8557867000000028 0.8659765000000019 0.8196562000000025
0.8569189000000028 0.8654770000000019 0.8198560000000025
0.8581177000000029 0.863978500000002 0.8218873000000024
0.8603821000000029 0.864178300000002 0.8242183000000024
