0.0107326 0.0105328 0.0102664
0.0125308 0.0108325 0.0104329
0.0123976 0.0133633 0.0097003
0.015328 0.0132301 0.0119647
0.0165268 0.0143623 0.0118648
0.0187579 0.0152281 0.0138961
0.0208891 0.0160606 0.0150949
0.0195904 0.0181252 0.0162271
0.0198568 0.0174259 0.0178588
0.0192574 0.0188578 0.0201565
0.0191242 0.0198901 0.021322
0.0205894 0.0198568 0.0228538
0.0216217 0.0221212 0.0235198
0.0217882 0.0230869 0.0239194
0.0224542 0.0243856 0.0255844
0.0229204 0.0254512 0.0256177
0.0254512 0.0256843 0.0278155
0.0272494 0.0272827 0.0279487
0.0291808 0.0263836 0.0294139
0.0319114 0.027982 0.0314452
0.0326773 0.0280486 0.0314452
0.0327439 0.0300466 0.0324109
0.034309 0.0315784 0.0336097
0.03331 0.0332767 0.0334432
0.0334099 0.0357742 0.0333766
0.0335431 0.0371062 0.0353746
0.0331768 0.0371395 0.0357076
0.0340759 0.0366733 0.0365734
0.0346753 0.0375391 0.0376723
0.0367066 0.0380386 0.0391375
0.0378721 0.0399034 0.0384715
0.0395038 0.0416017 0.0395704
0.0407359 0.0412021 0.041302
0.0426007 0.0402364 0.0415684
0.0431335 0.0420013 0.0416683
0.0446986 0.0447652 0.0421012
0.0445654 0.0452647 0.0434998
0.0451648 0.0478954 0.043633
0.0477955 0.0497269 0.043966
0.04996 0.0504262 0.0460972
0.0509923 0.0493606 0.0467965
0.0508591 0.0486613 0.049627
0.0525907 0.0515917 0.0515917
0.0524908 0.0513919 0.0538228
0.0550549 0.0537562 0.0568198
0.0547219 0.0551215 0.0577522
0.0553879 0.057619 0.059217399999999996
0.0565534 0.059816799999999996 0.060682599999999996
0.0575191 0.059883399999999996 0.060183099999999996
0.058584699999999997 0.060349599999999996 0.060316299999999996
0.060782499999999996 0.060948999999999996 0.061548399999999996
0.061614999999999996 0.060849099999999996 0.061848099999999996
0.0631801 0.061048899999999996 0.061348599999999996
0.062614 0.0634798 0.061714899999999996
0.0638794 0.0645121 0.0631135
0.065944 0.0642124 0.0625141
0.0653779 0.0660106 0.0643789
0.0675757 0.0660106 0.0658774
0.0696736 0.0670096 0.0680752
0.0700732 0.0695071 0.0701731
0.0700732 0.0719047 0.0688744
0.0703729 0.0725707 0.0697735
0.0714718 0.0734032 0.0707725
0.0733366 0.0749017 0.0726373
0.0725707 0.0765001 0.074935
0.073603 0.0750682 0.0758008
0.0747019 0.0751015 0.0765334
0.0745021 0.0758341 0.0773659
0.0743023 0.0752347 0.0789976
0.0740359 0.0778321 0.0789643
0.0733699 0.0787645 0.0785314
0.0742357 0.0805627 0.0784981
0.0744022 0.0820945 0.077932
0.0740026 0.0816616 0.0801298
0.0735364 0.0817615 0.0812287
0.0744355 0.081928 0.0807958
0.0766 0.0840592 0.0816949
0.0780319 0.0858574 0.0811288
0.0800299 0.0870895 0.081595
0.0794971 0.0888877 0.0845254
0.0802297 0.0909856 0.0861904
0.080596 0.0905194 0.0872893
0.082927 0.0924508 0.0898867
0.0847252 0.0920179 0.0902863
0.0855244 0.0944488 0.0918181
0.0872893 0.0948817 0.0921511
0.0902863 0.0965467 0.0914518
0.0895537 0.0993106 0.0934831
0.0898867 0.0996103 0.0947152
0.0904195 0.1023076 0.0975124
0.090253 0.1023076 0.0981451
0.090586 0.1043056 0.097912
0.0915517 0.103906 0.0975124
0.0916516 0.1063369 0.1000099
0.0913852 0.1074025 0.0988444
0.0919846 0.1081351 0.0987778
0.0937828 0.1094005 0.0987112
0.0928504 0.1079686 0.0983449
0.0937495 0.1094671 0.0993439
0.0955477 0.1099999 0.100576
0.0973792 0.1122643 0.1007092
0.097912 0.1118314 0.1018414
0.0981118 0.1113985 0.1008757
0.1000432 0.1114651 0.1019746
0.1018081 0.1137628 0.1043722
0.1031068 0.1134964 0.1071361
0.1028071 0.11656 0.1085347
0.1033399 0.1169596 0.1080352
0.1048051 0.1176922 0.1096336
0.1049383 0.1177255 0.1108657
0.1073692 0.1172593 0.1136296
0.1087678 0.1187245 0.1155277
0.1087012 0.1203562 0.114895
0.1102996 0.1215217 0.115228
0.1091008 0.1219879 0.1171261
0.1076689 0.1224541 0.1181251
0.1074691 0.1251181 0.1179586
0.1083349 0.12465190000000001 0.1186246
0.110233 0.12365290000000001 0.1190575
0.1103995 0.12475180000000001 0.1210222
0.112564 0.12734920000000002 0.1204228
0.1132633 0.12908080000000002 0.122554
0.1147285 0.12988000000000002 0.1227538
0.11656 0.13201120000000002 0.1236862
0.117559 0.13334320000000002 0.122887
0.1192906 0.13537450000000004 0.1255843
0.1183582 0.13447540000000002 0.12581740000000002
0.1197901 0.13537450000000004 0.12555100000000002
0.1211221 0.13600720000000005 0.12421900000000002
0.1221544 0.13624030000000006 0.12335320000000002
0.1227871 0.13594060000000005 0.12595060000000002
0.1241857 0.13547440000000005 0.12711610000000004
0.1232866 0.13817170000000006 0.12828160000000005
0.1219213 0.13907080000000008 0.12838150000000007
0.122887 0.13947040000000008 0.12988000000000008
0.1240525 0.14213440000000008 0.12971350000000006
0.1258174 0.1427671000000001 0.12944710000000006
0.1277155 0.1448317000000001 0.12874780000000005
0.1279153 0.1459639000000001 0.12831490000000004
0.1294471 0.1460971000000001 0.12898090000000004
0.1287478 0.1463635000000001 0.12997990000000004
0.12824829999999998 0.14586400000000008 0.13117870000000004
0.12801519999999997 0.14489830000000006 0.13144510000000004
0.12821499999999997 0.14609710000000006 0.13191130000000004
0.12974679999999997 0.14769550000000006 0.13404250000000004
0.12958029999999995 0.14872780000000008 0.13454200000000005
0.13004649999999995 0.1497601000000001 0.13430890000000004
0.13001319999999994 0.1500598000000001 0.13540780000000005
0.13034619999999994 0.1516582000000001 0.13727260000000005
0.13174479999999994 0.1510255000000001 0.13767220000000005
0.13340979999999994 0.1523908000000001 0.13827160000000005
0.13217769999999993 0.15315670000000012 0.14053600000000005
0.1316781999999999 0.15269050000000012 0.14080240000000005
0.13184469999999993 0.15299020000000013 0.14266720000000005
0.1318113999999999 0.15252400000000013 0.14296690000000006
0.13191129999999993 0.15338980000000013 0.14546440000000008
0.13350969999999993 0.15408910000000015 0.14463190000000006
0.13394259999999994 0.15515470000000015 0.14386600000000005
0.13680639999999994 0.15462190000000015 0.14336650000000004
0.13607379999999994 0.15528790000000015 0.14369950000000004
0.13673979999999994 0.15592060000000016 0.14296690000000004
0.13937049999999995 0.15502150000000015 0.14313340000000005
0.13943709999999995 0.15518800000000016 0.14356630000000006
0.14016969999999995 0.15615370000000017 0.14559760000000008
0.14003649999999995 0.15612040000000016 0.1463635000000001
0.14000319999999994 0.15708610000000017 0.1463968000000001
0.14000319999999994 0.15881770000000017 0.1486612000000001
0.13950369999999992 0.1611154000000002 0.1483948000000001
0.13970349999999992 0.16351300000000019 0.1473625000000001
0.14070249999999992 0.16624360000000019 0.1479952000000001
0.1403361999999999 0.16697620000000019 0.14862790000000012
0.1415349999999999 0.16750900000000019 0.15072580000000013
0.1433331999999999 0.16737580000000019 0.15209110000000015
0.1445319999999999 0.16877440000000019 0.15069250000000015
0.1447983999999999 0.17103880000000019 0.15072580000000016
0.1463967999999999 0.17150500000000019 0.15299020000000016
0.14643009999999992 0.1726039000000002 0.15368950000000017
0.14796189999999992 0.1728037000000002 0.15265720000000016
0.15095889999999992 0.1747351000000002 0.15269050000000017
0.15325659999999994 0.1748350000000002 0.1531900000000002
0.15335649999999995 0.17653330000000023 0.15295690000000017
0.15542109999999995 0.17823160000000024 0.15315670000000017
0.15618699999999996 0.18052930000000025 0.15435550000000017
0.15635349999999998 0.18049600000000024 0.1547884000000002
0.15592059999999996 0.18142840000000024 0.1542556000000002
0.15572079999999996 0.18219430000000025 0.1556209000000002
0.15625359999999996 0.18112870000000025 0.1574857000000002
0.15928389999999998 0.18029620000000024 0.15825160000000021
0.1606492 0.18126190000000025 0.16084900000000021
0.1623475 0.18169480000000027 0.1606159000000002
0.1634797 0.18242740000000027 0.1603162000000002
0.16531120000000002 0.18252730000000028 0.1615483000000002
0.16617700000000002 0.18209440000000027 0.1638793000000002
0.16564420000000002 0.18269380000000027 0.1660105000000002
0.16504480000000002 0.18325990000000028 0.16557760000000019
0.16747570000000003 0.1845586000000003 0.1674757000000002
0.16700950000000003 0.1845919000000003 0.1693405000000002
0.16877440000000005 0.18688960000000032 0.1692073000000002
0.16760890000000003 0.18768880000000032 0.1722709000000002
0.16930720000000005 0.18932050000000034 0.1745686000000002
0.16974010000000006 0.18935380000000035 0.17626690000000023
0.17023960000000007 0.18775540000000035 0.17586730000000023
0.16990660000000007 0.18875440000000035 0.17723260000000024
0.1706725000000001 0.19008640000000035 0.17769880000000024
0.1720711000000001 0.19211770000000036 0.17853130000000025
0.1727371000000001 0.19281700000000038 0.18022960000000027
0.1730368000000001 0.1948483000000004 0.18176140000000027
0.17413570000000012 0.19448200000000038 0.18372610000000028
0.17630020000000013 0.19608040000000038 0.18365950000000028
0.17899750000000014 0.1977787000000004 0.1850248000000003
0.17853130000000014 0.1997767000000004 0.1857241000000003
0.17816500000000013 0.2005426000000004 0.1851247000000003
0.17856460000000013 0.2022742000000004 0.18662320000000032
0.17989660000000013 0.20390590000000042 0.18768880000000032
0.18092890000000014 0.2025406000000004 0.18892090000000034
0.18116200000000016 0.2018080000000004 0.18805510000000034
0.18222760000000016 0.20357290000000042 0.18688960000000032
0.18112870000000014 0.20527120000000043 0.18772210000000034
0.18146170000000014 0.20537110000000044 0.18962020000000035
0.18216100000000016 0.20800180000000046 0.18835480000000035
0.18296020000000016 0.20913400000000046 0.19111870000000036
0.18599050000000017 0.21039940000000046 0.19035280000000035
0.18602380000000018 0.21196450000000047 0.19141840000000035
0.18815500000000018 0.21362950000000047 0.19061920000000035
0.18815500000000018 0.21579400000000049 0.18938710000000034
0.1889209000000002 0.21586060000000049 0.19078570000000034
0.1901863000000002 0.2167597000000005 0.19161820000000035
0.1906525000000002 0.2182915000000005 0.19371610000000036
0.1907524000000002 0.2187577000000005 0.19521460000000038
0.19105210000000022 0.2190241000000005 0.19701280000000038
0.19408240000000024 0.21899080000000049 0.19667980000000038
0.19298350000000022 0.21865780000000049 0.19584730000000036
0.19245070000000022 0.21862450000000047 0.19687960000000038
0.19315000000000024 0.22095550000000047 0.19687960000000038
0.19464850000000025 0.22108870000000047 0.19781200000000038
0.19411570000000025 0.22278700000000048 0.20100880000000038
0.19568080000000027 0.22545100000000048 0.20367280000000038
0.19628020000000027 0.22471840000000048 0.2055709000000004
0.19651330000000028 0.22658320000000048 0.2044387000000004
0.1974124000000003 0.2278819000000005 0.2045053000000004
0.1975789000000003 0.2284480000000005 0.2075023000000004
0.1972459000000003 0.23007970000000053 0.2086012000000004
0.1997101000000003 0.23281030000000053 0.21036610000000042
0.1996102000000003 0.23254390000000053 0.21023290000000042
0.2003761000000003 0.23347630000000053 0.21036610000000042
0.2023075000000003 0.2333764000000005 0.21159820000000043
0.20240740000000032 0.2339758000000005 0.21153160000000043
0.20330650000000033 0.2355076000000005 0.21399580000000043
0.20457190000000033 0.2342089000000005 0.21376270000000042
0.20647000000000035 0.23364280000000048 0.21369610000000042
0.20846800000000035 0.23384260000000048 0.21432880000000043
0.21023290000000036 0.23347630000000047 0.21546100000000043
0.21179800000000037 0.23390920000000048 0.21606040000000043
0.21213100000000037 0.23617360000000048 0.21546100000000043
0.21179800000000037 0.23650660000000048 0.21499480000000043
0.2140957000000004 0.2366731000000005 0.21409570000000042
0.2149615000000004 0.2368729000000005 0.21289690000000042
0.2161936000000004 0.2380384000000005 0.21359620000000043
0.21749230000000042 0.23847130000000052 0.21549430000000044
0.21849130000000042 0.24033610000000052 0.21576070000000044
0.21802510000000042 0.24070240000000054 0.21426220000000043
0.21849130000000042 0.24263380000000054 0.21366280000000043
0.21955690000000042 0.24186790000000052 0.21273040000000043
0.21855790000000042 0.24286690000000052 0.21402910000000044
0.21912400000000043 0.24469840000000054 0.21519460000000046
0.21839140000000043 0.24616360000000054 0.21822490000000047
0.22005640000000043 0.24583060000000054 0.21905740000000049
0.22025620000000043 0.24493150000000052 0.21839140000000049
0.21955690000000042 0.24506470000000052 0.22018960000000048
0.22055590000000042 0.24519790000000052 0.2218879000000005
0.22145500000000043 0.24646330000000052 0.2242855000000005
0.22255390000000044 0.2455642000000005 0.22325320000000048
0.22258720000000046 0.2451979000000005 0.22618360000000048
0.22478500000000046 0.2462302000000005 0.22704940000000048
0.22558420000000046 0.2479618000000005 0.22571740000000048
0.22635010000000047 0.2502595000000005 0.22485160000000048
0.22914730000000047 0.25192450000000055 0.22421890000000047
0.23161150000000047 0.25442200000000054 0.22451860000000048
0.23387590000000047 0.25592050000000055 0.2259505000000005
0.23474170000000047 0.25578730000000055 0.2285479000000005
0.23370940000000046 0.25778530000000055 0.2270827000000005
0.23287690000000044 0.25845130000000055 0.22611700000000048
0.23234410000000044 0.2609155000000006 0.2292139000000005
0.23440870000000044 0.2619145000000006 0.2284813000000005
0.23297680000000043 0.2619478000000006 0.2286145000000005
0.23497480000000043 0.2636461000000006 0.2306791000000005
0.23620690000000044 0.2643454000000006 0.2312452000000005
0.23750560000000046 0.2670094000000006 0.2326438000000005
0.23720590000000044 0.26664310000000063 0.23287690000000053
0.23747230000000044 0.2678086000000006 0.2325772000000005
0.23680630000000044 0.26877430000000063 0.23354290000000053
0.23604040000000043 0.2685745000000006 0.23404240000000054
0.23467510000000041 0.2686078000000006 0.23614030000000055
0.23494150000000041 0.2687077000000006 0.23567410000000055
0.23474170000000041 0.2685745000000006 0.23700610000000055
0.2353411000000004 0.2692405000000006 0.23870440000000057
0.2364067000000004 0.2681749000000006 0.24080230000000058
0.2364733000000004 0.2709721000000006 0.24333310000000058
0.2350414000000004 0.2709388000000006 0.24250060000000057
0.2370727000000004 0.2729368000000006 0.24399910000000058
0.2388709000000004 0.2759005000000006 0.24343300000000057
0.24130180000000043 0.27596710000000063 0.24439870000000058
0.24133510000000044 0.27480160000000065 0.24399910000000058
0.24206770000000044 0.27480160000000065 0.24566410000000058
0.24383260000000045 0.2744686000000006 0.2463634000000006
0.24429880000000045 0.27649990000000063 0.2469628000000006
0.24609700000000045 0.27696610000000066 0.2475955000000006
0.24862780000000045 0.27946360000000064 0.2474290000000006
0.24919390000000047 0.27949690000000066 0.2484613000000006
0.24966010000000047 0.2808955000000007 0.2474290000000006
0.24979330000000047 0.2829268000000007 0.2482948000000006
0.24969340000000045 0.2855908000000007 0.2496934000000006
0.2521576000000005 0.2867563000000007 0.2512918000000006
0.2523574000000005 0.28685620000000067 0.25282360000000065
0.2542222000000005 0.2891539000000007 0.2514250000000006
0.2537227000000005 0.2891872000000007 0.25229080000000065
0.2533897000000005 0.2914516000000007 0.25348960000000065
0.2534563000000005 0.2917846000000007 0.25445530000000066
0.25552090000000055 0.2927170000000007 0.25432210000000066
0.25795180000000056 0.2946817000000007 0.25565410000000066
0.2591839000000006 0.2964133000000007 0.25492150000000063
0.2605159000000006 0.2964133000000007 0.2572858000000006
0.2623807000000006 0.2989108000000007 0.2567197000000006
0.26231410000000055 0.3007090000000007 0.2564200000000006
0.26431210000000055 0.3028402000000007 0.2573191000000006
0.26421220000000056 0.3049714000000007 0.2591173000000006
0.2638459000000006 0.3052378000000007 0.2610154000000006
0.2659105000000006 0.30686950000000074 0.26241400000000065
0.2653111000000006 0.30650320000000075 0.26228080000000065
0.2650780000000006 0.30833470000000074 0.2648782000000007
0.2663767000000006 0.3091006000000007 0.26790850000000066
0.2670427000000006 0.3115981000000007 0.26937370000000066
0.2685745000000006 0.31246390000000074 0.26924050000000066
0.2700730000000006 0.3126970000000007 0.2695735000000007
0.26957350000000063 0.31339630000000074 0.2702062000000007
0.2702062000000006 0.31303000000000075 0.2695735000000007
0.27053920000000065 0.3157606000000008 0.2707057000000007
0.2732698000000007 0.3169594000000008 0.2692072000000007
0.27550090000000066 0.3161602000000008 0.2683414000000007
0.2765998000000007 0.3167263000000008 0.2692072000000007
0.27696610000000066 0.3181915000000008 0.2695735000000007
0.2755342000000007 0.3194569000000008 0.2712385000000007
0.2781982000000007 0.3211552000000008 0.2722708000000007
0.2799964000000007 0.3204559000000008 0.2734696000000007
0.2792638000000007 0.3195235000000008 0.2741023000000007
0.27949690000000066 0.3211552000000008 0.2752012000000007
0.2819611000000007 0.32188780000000083 0.2743021000000007
0.2818279000000007 0.32378590000000085 0.27606700000000073
0.2840923000000007 0.32501800000000086 0.2756341000000007
0.2834263000000007 0.32415220000000083 0.27673300000000073
0.2847916000000007 0.32654980000000083 0.27663310000000074
0.2852911000000007 0.3271825000000008 0.27786520000000076
0.2856241000000007 0.32934700000000083 0.27816490000000077
0.28755550000000074 0.32961340000000083 0.27683290000000077
0.2879218000000007 0.33094540000000083 0.2778319000000008
0.2880217000000007 0.33241060000000083 0.2778985000000008
0.2881216000000007 0.3321109000000008 0.2795968000000008
0.2910520000000007 0.3338092000000008 0.2809288000000008
0.2915182000000007 0.3339091000000008 0.28166140000000084
0.29341630000000074 0.3357739000000008 0.28046260000000084
0.2931166000000007 0.3362068000000008 0.28259380000000084
0.29195110000000074 0.3370393000000008 0.28319320000000087
0.29235070000000074 0.3384712000000008 0.2856574000000009
0.29101870000000074 0.34053580000000083 0.2879551000000009
0.29021950000000074 0.34293340000000083 0.2867563000000009
0.2904526000000007 0.34256710000000085 0.2863567000000009
0.29185120000000075 0.34349950000000085 0.2859571000000009
0.2921842000000008 0.34496470000000085 0.2853244000000009
0.29428210000000077 0.34459840000000086 0.2851579000000009
0.2952811000000008 0.3456973000000009 0.2867896000000009
0.2970127000000008 0.3465298000000009 0.28898740000000095
0.2975455000000008 0.3484279000000009 0.28862110000000096
0.2975122000000008 0.34862770000000093 0.29061910000000096
0.2999431000000008 0.34796170000000093 0.291984400000001
0.3009754000000008 0.34909390000000096 0.291052000000001
0.3012751000000008 0.34999300000000094 0.292250800000001
0.3028402000000008 0.3491272000000009 0.294315400000001
0.30547090000000077 0.34796170000000093 0.294448600000001
0.30730240000000075 0.3504592000000009 0.294681700000001
0.30850120000000075 0.35249050000000093 0.296479900000001
0.31009960000000075 0.35305660000000094 0.298577800000001
0.31079890000000077 0.35302330000000093 0.299643400000001
0.31223080000000075 0.35335630000000096 0.300709000000001
0.31143160000000075 0.35472160000000097 0.300808900000001
0.31286350000000074 0.355587400000001 0.302440600000001
0.31139830000000074 0.355753900000001 0.30383920000000103
0.31372930000000077 0.35768530000000104 0.305004700000001
0.3146950000000008 0.35905060000000105 0.30623680000000103
0.3143287000000008 0.3612484000000011 0.30630340000000106
0.31372930000000077 0.3635461000000011 0.3073024000000011
0.3144619000000008 0.3623806000000011 0.3092338000000011
0.3143620000000008 0.36511120000000113 0.3116314000000011
0.3162601000000008 0.3652111000000011 0.3111319000000011
0.31685950000000085 0.3656107000000011 0.3106657000000011
0.3178585000000009 0.3657439000000011 0.3102661000000011
0.31752550000000085 0.3650446000000011 0.3117646000000011
0.3170593000000008 0.3665431000000011 0.31436200000000114
0.3157273000000008 0.36870760000000113 0.3148615000000011
0.31709260000000083 0.36900730000000115 0.31596040000000114
0.31949020000000083 0.37190440000000113 0.31795840000000114
0.3207889000000008 0.37416880000000113 0.31955680000000114
0.3207223000000008 0.37416880000000113 0.3205891000000011
0.32052250000000077 0.37450180000000116 0.32238730000000115
0.3227203000000008 0.3759004000000012 0.32368600000000114
0.3257506000000008 0.3761335000000012 0.32535100000000117
0.3266164000000008 0.3780649000000012 0.3260836000000012
0.3272491000000008 0.37853110000000123 0.3273823000000012
0.3270826000000008 0.38016280000000124 0.3275821000000012
0.3294802000000008 0.38249380000000127 0.3293137000000012
0.32821480000000075 0.38129500000000127 0.3311452000000012
0.32951350000000074 0.3833596000000013 0.3324772000000012
0.3298798000000007 0.3826603000000013 0.3326437000000012
0.33181120000000075 0.3833596000000013 0.3335761000000012
0.33177790000000074 0.3843253000000013 0.3328102000000012
0.33317650000000076 0.38638990000000134 0.33577390000000124
0.3337759000000008 0.38812150000000134 0.33700600000000125
0.3344752000000008 0.3894202000000013 0.33737230000000124
0.3336094000000008 0.3898198000000013 0.33950350000000123
0.3365731000000008 0.39015280000000135 0.34116850000000126
0.3379051000000008 0.39238390000000134 0.3415015000000013
0.3384712000000008 0.39295000000000135 0.3411019000000013
0.3378385000000008 0.39424870000000134 0.3436660000000013
0.3391372000000008 0.39641320000000135 0.3442321000000013
0.3388375000000008 0.39804490000000137 0.3447649000000013
0.3389374000000008 0.3981115000000014 0.3460636000000013
0.3396700000000008 0.4002427000000014 0.3455974000000013
0.3410020000000008 0.4001095000000014 0.3453643000000013
0.34200100000000083 0.4026736000000014 0.3452311000000013
0.34213420000000083 0.4042720000000014 0.3458638000000013
0.34446520000000086 0.4058371000000014 0.3461635000000013
0.3460969000000009 0.4067029000000014 0.3463633000000013
0.3478618000000009 0.4072024000000014 0.34922710000000134
0.3489940000000009 0.4075687000000014 0.35082550000000134
0.3476287000000009 0.4074355000000014 0.35119180000000133
0.34876090000000093 0.40630330000000137 0.3509920000000013
0.3478951000000009 0.4077019000000014 0.3514249000000013
0.3503926000000009 0.4082680000000014 0.35145820000000133
0.3509254000000009 0.4082014000000014 0.35388910000000134
0.3513916000000009 0.4093003000000014 0.35272360000000136
0.3541555000000009 0.4100995000000014 0.35205760000000136
0.3547882000000009 0.4109986000000014 0.35402230000000134
0.3574522000000009 0.4122307000000014 0.35332300000000133
0.3599830000000009 0.4125304000000014 0.35522110000000134
0.35994970000000087 0.4132963000000014 0.35645320000000136
0.3586510000000009 0.4152943000000014 0.3585178000000014
0.3572191000000009 0.4176586000000014 0.3602494000000014
0.3575188000000009 0.41722570000000136 0.3606823000000014
0.3562201000000009 0.41576050000000137 0.3620809000000014
0.35758540000000094 0.4177918000000014 0.3618811000000014
0.35838460000000094 0.4183579000000014 0.3638458000000014
0.35695270000000096 0.4208554000000014 0.36367930000000137
0.35961670000000096 0.4219210000000014 0.36447850000000137
0.361548100000001 0.42415210000000136 0.3639790000000014
0.363745900000001 0.42468490000000136 0.3662434000000014
0.366376600000001 0.42664960000000135 0.3679084000000014
0.369473500000001 0.42828130000000136 0.3678418000000014
0.370938700000001 0.42931360000000135 0.3681082000000014
0.372104200000001 0.43001290000000136 0.3689074000000014
0.371671300000001 0.43064560000000135 0.36794170000000137
0.37083880000000097 0.4308454000000014 0.3698731000000014
0.36934030000000095 0.4325104000000014 0.3712384000000014
0.36983980000000094 0.4315447000000014 0.3718711000000014
0.36920710000000095 0.4331431000000014 0.3736027000000014
0.36977320000000097 0.4342087000000014 0.3741022000000014
0.37053910000000095 0.4359736000000014 0.3757006000000014
0.371404900000001 0.4360069000000014 0.3784312000000014
0.371471500000001 0.43807150000000145 0.3775987000000014
0.373203100000001 0.43923700000000143 0.3778318000000014
0.373602700000001 0.44060230000000145 0.3767662000000014
0.375067900000001 0.44140150000000145 0.37630000000000136
0.376766200000001 0.44323300000000143 0.37669960000000136
0.378231400000001 0.44446510000000145 0.37826470000000134
0.379596700000001 0.44489800000000146 0.3799630000000013
0.380096200000001 0.44469820000000143 0.3799297000000013
0.379563400000001 0.4442653000000014 0.3824272000000013
0.379663300000001 0.44659630000000144 0.3838258000000013
0.380928700000001 0.4485277000000015 0.3851245000000013
0.383359600000001 0.44819470000000144 0.3872224000000013
0.38449180000000105 0.44982640000000146 0.3877552000000013
0.38519110000000106 0.4500262000000015 0.3889540000000013
0.38772190000000106 0.4523572000000015 0.3894868000000013
0.39048580000000105 0.45282340000000154 0.3906190000000013
0.39128500000000105 0.45315640000000157 0.3897532000000013
0.39311650000000103 0.4541554000000016 0.3919177000000013
0.39245050000000103 0.4551877000000016 0.39358270000000134
0.39364930000000103 0.4555207000000016 0.39478150000000134
0.393749200000001 0.4555540000000016 0.39578050000000137
0.395847100000001 0.4556872000000016 0.39737890000000137
0.396912700000001 0.4552543000000016 0.3974122000000014
0.39884410000000103 0.4574188000000016 0.3985444000000014
0.39857770000000103 0.4584511000000016 0.39914380000000144
0.39751210000000103 0.4582180000000016 0.3989773000000014
0.39891070000000106 0.4582180000000016 0.39984310000000145
0.40060900000000105 0.4572190000000016 0.40220740000000144
0.40044250000000103 0.4584178000000016 0.40197430000000145
0.40124170000000103 0.4584844000000016 0.40327300000000144
0.40350610000000103 0.4599496000000016 0.4043053000000014
0.40593700000000105 0.46161460000000165 0.40570390000000145
0.40713580000000105 0.46188100000000165 0.40743550000000145
0.406136800000001 0.46228060000000165 0.40916710000000145
0.40617010000000103 0.4634128000000017 0.41119840000000146
0.40700260000000105 0.4660102000000017 0.4123306000000015
0.40607020000000105 0.46820800000000173 0.4114981000000015
0.4073356000000011 0.47040580000000176 0.4124305000000015
0.4086676000000011 0.47227060000000176 0.41439520000000146
0.40743550000000106 0.47306980000000176 0.4167262000000015
0.4085344000000011 0.4732696000000018 0.4175587000000015
0.4116646000000011 0.4752343000000018 0.4180582000000015
0.4106656000000011 0.4754008000000018 0.41785840000000146
0.4107322000000011 0.4746349000000018 0.4197565000000015
0.4110985000000011 0.4763665000000018 0.4204558000000015
0.4113316000000011 0.47683270000000183 0.4226869000000015
0.4130965000000011 0.47829790000000183 0.4255174000000015
0.4142620000000011 0.47936350000000183 0.4268494000000015
0.4135960000000011 0.47829790000000183 0.4286143000000015
0.41312980000000105 0.47923030000000183 0.43067890000000153
0.4142620000000011 0.47923030000000183 0.4310452000000015
0.41489470000000106 0.47929690000000186 0.43350940000000154
0.41689270000000106 0.47889730000000186 0.43467490000000153
0.4181248000000011 0.47849770000000186 0.43590700000000154
0.41849110000000106 0.48022930000000186 0.43713910000000156
0.41822470000000106 0.4804291000000019 0.43730560000000157
0.4189573000000011 0.4818277000000019 0.4377385000000016
0.4194235000000011 0.4821274000000019 0.43917040000000157
0.41949010000000114 0.4842586000000019 0.44130160000000157
0.41962330000000114 0.4866562000000019 0.44260030000000156
0.42088870000000117 0.4874221000000019 0.44183440000000157
0.4218877000000012 0.4871890000000019 0.44193430000000156
0.4222540000000012 0.4882546000000019 0.44180110000000156
0.42301990000000117 0.4894534000000019 0.44290000000000157
0.4251844000000012 0.49001950000000194 0.4436326000000016
0.42728230000000117 0.49155130000000197 0.4434994000000016
0.4271824000000012 0.493615900000002 0.4436992000000016
0.4282813000000012 0.495847000000002 0.4452976000000016
0.4309120000000012 0.49794490000000197 0.44603020000000165
0.4316113000000012 0.500242600000002 0.44779510000000167
0.4334428000000012 0.500209300000002 0.44842780000000165
0.43310980000000115 0.49947670000000194 0.44959330000000164
0.4329100000000011 0.49804480000000195 0.4491604000000016
0.4341088000000011 0.49967650000000197 0.4510252000000016
0.4347748000000011 0.49897720000000195 0.4519243000000016
0.4364731000000011 0.5003758000000019 0.45425530000000164
0.4358404000000011 0.501241600000002 0.45678610000000164
0.43667290000000114 0.5025070000000019 0.4576852000000016
0.43830460000000115 0.501807700000002 0.4575520000000016
0.4391704000000012 0.504838000000002 0.4576852000000016
0.43883740000000115 0.504871300000002 0.45935020000000165
0.44083540000000115 0.5039056000000021 0.46148140000000165
0.44070220000000115 0.5053708000000021 0.4608820000000016
0.44379910000000117 0.5056372000000021 0.46278010000000164
0.4459969000000012 0.5045050000000021 0.46284670000000167
0.4472956000000012 0.5040055000000021 0.4658104000000017
0.4496932000000012 0.5053375000000021 0.4666096000000017
0.4500262000000012 0.5067694000000021 0.4671424000000017
0.45075880000000124 0.5083012000000021 0.46844110000000166
0.45295660000000126 0.5079349000000021 0.4687741000000017
0.45262360000000124 0.5093335000000021 0.4705057000000017
0.4516246000000012 0.5087674000000021 0.4719376000000017
0.4531231000000012 0.5091337000000021 0.4724038000000017
0.4522906000000012 0.5108653000000022 0.4748014000000017
0.45488800000000124 0.5124304000000022 0.4739356000000017
0.45545410000000125 0.5143951000000022 0.4754674000000017
0.45705250000000125 0.5159602000000022 0.4759669000000017
0.45935020000000126 0.5187241000000022 0.4775986000000017
0.4588507000000013 0.5197897000000022 0.4775653000000017
0.4588507000000013 0.5228533000000023 0.4794301000000017
0.4601161000000013 0.5246182000000023 0.4808287000000017
0.46178110000000133 0.5258503000000022 0.4825270000000017
0.46251370000000136 0.5260168000000022 0.4845250000000017
0.46164790000000133 0.5263831000000022 0.4856905000000017
0.4624138000000013 0.5282479000000022 0.4876219000000017
0.4632130000000013 0.5282812000000022 0.48822130000000175
0.4650778000000013 0.5284144000000023 0.48925360000000173
0.4665430000000013 0.5300128000000023 0.49091860000000176
0.46817470000000133 0.5327101000000023 0.49368250000000174
0.47007280000000135 0.5329765000000023 0.49498120000000173
0.46954000000000135 0.5345749000000023 0.49637980000000176
0.47083870000000133 0.5356738000000023 0.4962799000000018
0.47326960000000134 0.5361067000000023 0.49704580000000176
0.47370250000000136 0.5360068000000022 0.4981780000000018
0.47310310000000133 0.5356405000000022 0.49717900000000176
0.47336950000000133 0.5366728000000022 0.49691260000000176
0.4733362000000013 0.5371390000000021 0.49877740000000176
0.47376910000000133 0.5377051000000022 0.49994290000000174
0.47510110000000133 0.5375053000000022 0.5020408000000017
0.47709910000000133 0.5396365000000022 0.5036059000000017
0.4757005000000013 0.5411683000000022 0.5051710000000017
0.4758337000000013 0.5430331000000022 0.5041387000000017
0.47683270000000133 0.5441986000000022 0.5054707000000017
0.47849770000000136 0.5446981000000022 0.5053708000000017
0.47843110000000133 0.5450311000000022 0.5067028000000017
0.47819800000000134 0.5449312000000022 0.5061700000000017
0.48042910000000133 0.5473288000000022 0.5063698000000016
0.4823938000000013 0.5478616000000022 0.5066695000000017
0.4844917000000013 0.5504257000000021 0.5083345000000017
0.4837924000000013 0.5514580000000021 0.5091337000000017
0.4823605000000013 0.5511583000000021 0.5105989000000017
0.48362590000000133 0.5515246000000021 0.5119642000000018
0.4823605000000013 0.5530564000000021 0.5142619000000017
0.48362590000000133 0.5560867000000022 0.5158936000000017
0.48449170000000136 0.5567860000000021 0.5153941000000017
0.48579040000000134 0.5576185000000021 0.5166928000000017
0.48678940000000137 0.5600494000000021 0.5161933000000017
0.48742210000000136 0.5595499000000022 0.5173921000000018
0.48928690000000136 0.5613814000000021 0.5168926000000018
0.48862090000000136 0.5606155000000022 0.5191237000000019
0.48802150000000133 0.5633461000000022 0.5192902000000018
0.4879882000000013 0.5645116000000022 0.5194234000000019
0.4890538000000013 0.5656438000000023 0.5202226000000019
0.4881880000000013 0.5650111000000022 0.5201227000000018
0.4891537000000013 0.5647780000000022 0.5197564000000018
0.4890871000000013 0.5641786000000022 0.5192902000000018
0.4894201000000013 0.5657437000000022 0.5219542000000018
0.49201750000000133 0.5646448000000022 0.5226868000000018
0.49275010000000136 0.5634460000000021 0.5245516000000018
0.49551400000000134 0.5651443000000022 0.5244517000000017
0.4954474000000013 0.5650444000000021 0.5245849000000018
0.49697920000000134 0.5652775000000021 0.5264164000000018
0.49967650000000136 0.5670424000000021 0.5269159000000018
0.5003758000000014 0.566476300000002 0.5272156000000018
0.5013415000000013 0.568041400000002 0.5283811000000018
0.5018410000000013 0.568574200000002 0.5305456000000018
0.5038723000000013 0.5703058000000021 0.5314114000000019
0.5051710000000013 0.5712382000000021 0.5320108000000019
0.5059036000000012 0.5718709000000022 0.5339089000000019
0.5062033000000012 0.5712715000000022 0.5346082000000019
0.5063365000000013 0.5734693000000022 0.5330764000000019
0.5075686000000013 0.5735692000000022 0.534808000000002
0.5066029000000013 0.5742019000000023 0.533809000000002
0.5097997000000013 0.5750677000000023 0.536339800000002
0.5116312000000013 0.5739022000000022 0.536306500000002
0.5121640000000013 0.5741686000000022 0.5383045000000021
0.5134294000000013 0.5747680000000023 0.5391037000000021
0.5140621000000013 0.5755006000000022 0.5405356000000021
0.5141953000000014 0.5765995000000023 0.5419675000000022
0.5156938000000013 0.5783977000000022 0.5428999000000022
0.5160934000000014 0.5778649000000022 0.5447647000000022
0.5177584000000014 0.5784976000000023 0.5447647000000022
0.5189905000000014 0.5798296000000023 0.5473954000000022
0.5195899000000014 0.5817610000000023 0.5484610000000022
0.5216212000000013 0.5820274000000023 0.5505922000000022
0.5220874000000013 0.5831263000000023 0.5531563000000022
0.5212882000000013 0.5830597000000023 0.5543551000000022
0.5228200000000013 0.5830597000000023 0.5563198000000023
0.5227534000000013 0.5832595000000023 0.5565862000000023
0.5234860000000012 0.5854240000000023 0.5557870000000023
0.5259502000000013 0.5857570000000023 0.5578516000000022
0.5251177000000012 0.5857570000000023 0.5585842000000022
0.5239522000000012 0.5850577000000023 0.5586175000000022
0.5237191000000012 0.5850244000000023 0.5586175000000022
0.5244850000000012 0.5870224000000024 0.5615812000000022
0.5262499000000012 0.5880214000000024 0.5640787000000023
0.5280148000000011 0.5875219000000024 0.5644783000000023
0.5285476000000011 0.5866228000000023 0.5664430000000024
0.5295466000000011 0.5861899000000024 0.5667094000000024
0.5290471000000011 0.5867560000000024 0.5683744000000024
0.5298796000000011 0.5868226000000024 0.5696398000000024
0.5326768000000012 0.5882878000000025 0.5704057000000023
0.5339089000000011 0.5878882000000024 0.5695399000000023
0.5362399000000011 0.5869891000000024 0.5701726000000024
0.534774700000001 0.5894533000000024 0.5710051000000024
0.535840300000001 0.5911849000000025 0.5713714000000024
0.5372722000000011 0.5910517000000024 0.5730364000000024
0.539569900000001 0.5925169000000025 0.5740021000000024
0.5405023000000011 0.5923504000000025 0.5733361000000023
0.5426668000000011 0.5931496000000025 0.5755006000000024
0.5414014000000011 0.5921839000000025 0.5768992000000024
0.5403358000000011 0.5930830000000026 0.5769658000000024
0.5417011000000012 0.5945482000000026 0.5783644000000024
0.5426335000000012 0.5956138000000026 0.5796631000000024
0.5438323000000013 0.5973121000000027 0.5793967000000024
0.5448646000000013 0.5989438000000027 0.5787973000000024
0.5466295000000012 0.6017410000000027 0.5802292000000024
0.5478283000000013 0.6024736000000027 0.5821939000000025
0.5502592000000013 0.6047047000000028 0.5822272000000025
0.5509252000000013 0.6056704000000027 0.5848246000000025
0.5511250000000013 0.6062032000000027 0.5870890000000025
0.5527234000000013 0.6055372000000027 0.5867227000000025
0.5519575000000013 0.6084343000000026 0.5878549000000025
0.5533561000000013 0.6094999000000026 0.5876218000000025
0.5528899000000014 0.6101992000000026 0.5884210000000025
0.5549212000000013 0.6119641000000026 0.5881879000000025
0.5549212000000013 0.6125302000000026 0.5884876000000026
0.5572522000000013 0.6131962000000026 0.5878549000000025
0.5590171000000013 0.6129964000000027 0.5869558000000025
0.5586175000000012 0.6127300000000027 0.5867560000000025
0.5592169000000012 0.6123304000000026 0.5896531000000025
0.5614813000000013 0.6131296000000026 0.5900860000000024
0.5645449000000013 0.6143950000000026 0.5914513000000025
0.5654773000000014 0.6158602000000026 0.5916844000000024
0.5662099000000014 0.6179581000000026 0.5905522000000024
0.5664097000000013 0.6199561000000027 0.5913514000000024
0.5666428000000013 0.6194233000000027 0.5925835000000024
0.5682079000000013 0.6217543000000026 0.5912182000000024
0.5693401000000013 0.6232195000000027 0.5934493000000024
0.5685742000000014 0.6229531000000027 0.5941486000000024
0.5678083000000014 0.6248179000000027 0.5930164000000023
0.5685742000000014 0.6258169000000027 0.5924503000000023
0.5676418000000013 0.6264163000000027 0.5922172000000023
0.5679415000000013 0.6266827000000027 0.5927500000000023
0.5676418000000013 0.6293800000000027 0.5923504000000023
0.5690404000000013 0.6309451000000027 0.5929498000000023
0.5702392000000014 0.6306121000000027 0.5954806000000024
0.5690737000000013 0.6314113000000027 0.5978449000000023
0.5709718000000014 0.6317776000000027 0.5998096000000024
0.5694400000000014 0.6343084000000028 0.6013747000000024
0.5690404000000013 0.6363730000000027 0.6018076000000023
0.5694733000000013 0.6380047000000028 0.6022072000000024
0.5716045000000013 0.6388372000000028 0.6034060000000024
0.5729032000000013 0.6394699000000028 0.6052042000000024
0.5744683000000013 0.6395698000000029 0.6053374000000025
0.5735692000000012 0.6401359000000029 0.6067693000000025
0.5739688000000013 0.6398362000000029 0.6089005000000025
0.5752009000000012 0.6395698000000029 0.6108319000000025
0.5737690000000012 0.6409351000000029 0.6124303000000025
0.5741353000000012 0.6418342000000029 0.6151276000000026
0.5745016000000013 0.643266100000003 0.6179581000000025
0.5764996000000013 0.6431995000000029 0.6176251000000025
0.5761999000000013 0.6441652000000029 0.6192568000000025
0.5778982000000014 0.6453640000000029 0.6193900000000025
0.5764330000000013 0.6441652000000029 0.6187240000000025
0.5763997000000013 0.6436657000000029 0.6207553000000025
0.5787307000000013 0.6426667000000029 0.6218542000000025
0.5795632000000013 0.644331700000003 0.6234193000000025
0.5812948000000013 0.6469624000000029 0.6244183000000024
0.5806621000000013 0.6482278000000029 0.6235858000000024
0.5798962000000013 0.6487606000000029 0.6248845000000024
0.5785975000000013 0.6510583000000029 0.6240853000000024
0.5782312000000013 0.6521572000000029 0.6263830000000024
0.5782645000000013 0.6536557000000028 0.6270823000000023
0.5776318000000012 0.6541219000000028 0.6292135000000023
0.5769658000000012 0.6572188000000028 0.6313447000000023
0.5787640000000012 0.6583843000000028 0.6320773000000023
0.5780980000000011 0.6570523000000028 0.6314779000000023
0.5789971000000012 0.6560533000000028 0.6333427000000023
0.5817277000000012 0.6551209000000028 0.6340753000000022
0.5808619000000012 0.6567193000000028 0.6347413000000023
0.5814613000000012 0.6571522000000027 0.6343084000000023
0.5817943000000012 0.6573187000000027 0.6343750000000024
0.5810950000000012 0.6596497000000027 0.6347413000000024
0.5832262000000012 0.6593500000000027 0.6362065000000025
0.5822272000000013 0.6611149000000026 0.6362731000000025
0.5838256000000013 0.6636457000000027 0.6363397000000025
0.5837923000000013 0.6636457000000027 0.6359401000000025
0.5841586000000013 0.6635125000000026 0.6371056000000025
0.5840587000000013 0.6646447000000026 0.6390703000000025
0.5854240000000013 0.6672754000000026 0.6404023000000025
0.5856571000000013 0.6679414000000027 0.6394033000000026
0.5861233000000012 0.6689071000000026 0.6408352000000026
0.5851909000000012 0.6687073000000027 0.6405355000000026
0.5872222000000011 0.6688738000000026 0.6414679000000026
0.5891869000000012 0.6703390000000027 0.6423004000000027
0.5902858000000012 0.6712048000000027 0.6422671000000026
0.5892868000000012 0.6706054000000027 0.6433993000000027
0.5918509000000012 0.6697396000000027 0.6446314000000026
0.5908852000000012 0.6717043000000027 0.6454972000000027
0.5921839000000012 0.6739354000000027 0.6468625000000027
0.5915845000000012 0.6755338000000027 0.6468958000000027
0.5939155000000012 0.6757003000000027 0.6488605000000027
0.5938822000000011 0.6760666000000027 0.6473953000000027
0.5945149000000012 0.6771988000000028 0.6474286000000027
0.5935825000000011 0.6777982000000028 0.6469291000000027
0.5948479000000011 0.6787639000000028 0.6464296000000027
0.5941486000000011 0.6798961000000028 0.6466294000000027
0.5962798000000011 0.6807286000000028 0.6460966000000027
0.5978782000000011 0.6803956000000028 0.6453973000000027
0.5991769000000011 0.6799627000000028 0.6456637000000027
0.6007087000000011 0.6806620000000028 0.6464629000000027
0.6012082000000011 0.6809284000000028 0.6481612000000028
0.6014413000000011 0.6826933000000027 0.6498595000000028
0.6036391000000011 0.6843583000000028 0.6503257000000028
0.6036058000000011 0.6846247000000028 0.6530230000000028
0.6028732000000011 0.6860233000000028 0.6529231000000028
0.6029065000000011 0.6862897000000028 0.6540886000000028
0.6028399000000011 0.6863896000000028 0.6561532000000028
0.6042385000000011 0.6854572000000028 0.6574186000000027
0.6059368000000012 0.6868891000000028 0.6594499000000027
0.6082345000000011 0.6868225000000028 0.6598162000000027
0.6072355000000011 0.6882877000000028 0.6596164000000028
0.6073021000000012 0.6899860000000029 0.6605155000000028
0.6091003000000011 0.6896197000000028 0.6624802000000029
0.6090670000000011 0.6927832000000028 0.6636124000000029
0.6097330000000012 0.6940486000000028 0.6653440000000029
0.6125968000000012 0.6941152000000028 0.667275400000003
0.6122305000000011 0.6948811000000028 0.669206800000003
0.6122305000000011 0.6971455000000029 0.670505500000003
0.6115312000000012 0.6976450000000028 0.671038300000003
0.6112648000000012 0.6994099000000028 0.671704300000003
0.6126634000000012 0.6997096000000028 0.671937400000003
0.6156271000000012 0.7000426000000028 0.672237100000003
0.6169591000000012 0.6998428000000029 0.674867800000003
0.6190570000000012 0.7020739000000029 0.674668000000003
0.6188905000000012 0.702973000000003 0.677598400000003
0.6218542000000012 0.703572400000003 0.678397600000003
0.6229864000000013 0.7050709000000029 0.6811282000000031
0.6217210000000013 0.7045381000000029 0.6816610000000031
0.6230863000000013 0.7047712000000029 0.681527800000003
0.6252841000000013 0.704071900000003 0.681294700000003
0.6254173000000014 0.7031728000000029 0.6810949000000031
0.6278482000000014 0.7039054000000029 0.6824935000000031
0.6269158000000014 0.7027399000000029 0.6833593000000031
0.6269824000000014 0.7036057000000029 0.6835591000000031
0.6297796000000014 0.7036057000000029 0.6852907000000031
0.6307120000000015 0.7045381000000029 0.6839254000000031
0.6318442000000015 0.704937700000003 0.6851575000000031
0.6312115000000015 0.705037600000003 0.6867892000000031
0.6314113000000015 0.707601700000003 0.688554100000003
0.6329431000000014 0.708367600000003 0.688753900000003
0.6349078000000015 0.711064900000003 0.688687300000003
0.6347080000000015 0.711264700000003 0.690452200000003
0.6344083000000015 0.7114312000000029 0.6900526000000029
0.6351742000000015 0.7129630000000029 0.6928165000000029
0.6353740000000014 0.7134625000000029 0.695613700000003
0.6368392000000015 0.7139953000000029 0.696646000000003
0.6362731000000015 0.7163929000000029 0.697245400000003
0.6371722000000015 0.7182244000000029 0.699076900000003
0.6385375000000015 0.7189237000000028 0.702007300000003
0.6389704000000015 0.7211215000000029 0.701174800000003
0.6392368000000015 0.7230862000000029 0.7008085000000029
0.6402358000000015 0.7232860000000029 0.703505800000003
0.6416677000000015 0.7255504000000029 0.7045048000000029
0.6430996000000015 0.726216400000003 0.7065694000000029
0.6453973000000015 0.727648300000003 0.7080679000000029
0.6451642000000015 0.730045900000003 0.7088005000000028
0.6460966000000016 0.731111500000003 0.7092334000000028
0.6478282000000016 0.7338754000000031 0.7111315000000028
0.6464296000000016 0.735440500000003 0.7108651000000028
0.6481612000000017 0.7373386000000031 0.7111981000000028
0.6489937000000017 0.738903700000003 0.7132294000000028
0.6494266000000016 0.739969300000003 0.7146280000000028
0.6500926000000017 0.741001600000003 0.7152940000000029
0.6516910000000017 0.7437655000000031 0.7150609000000029
0.6514579000000017 0.743365900000003 0.7146946000000028
0.6521572000000017 0.744498100000003 0.7155604000000029
0.6546880000000017 0.744764500000003 0.7146946000000028
0.6561532000000018 0.7461631000000031 0.7165261000000028
0.6552874000000017 0.7470622000000031 0.7161598000000028
0.6577516000000018 0.7489936000000031 0.7174252000000028
0.6577849000000018 0.7498594000000032 0.7180912000000028
0.6582178000000017 0.7494265000000032 0.7195897000000028
0.6591502000000018 0.7500592000000033 0.7199893000000028
0.6594499000000018 0.7502923000000032 0.7205554000000028
0.6624136000000018 0.7499260000000032 0.7223536000000028
0.6626800000000018 0.7511581000000032 0.7231195000000028
0.6618475000000018 0.7509916000000032 0.7228198000000028
0.6617143000000018 0.7508251000000032 0.7241185000000028
0.6603823000000018 0.7506586000000033 0.7254838000000028
0.6624802000000017 0.7523236000000033 0.7248844000000028
0.6644782000000018 0.7515910000000033 0.7242850000000027
0.6644449000000018 0.7535890000000034 0.7259167000000027
0.6656437000000018 0.7531561000000034 0.7277482000000027
0.6675751000000019 0.7546879000000034 0.7267159000000027
0.6685741000000018 0.7565527000000034 0.7282810000000027
0.6706720000000018 0.7584841000000034 0.7288138000000027
0.6704056000000018 0.7602823000000034 0.7293133000000027
0.6735025000000018 0.7586839000000034 0.7315777000000028
0.6734692000000018 0.7589503000000034 0.7315777000000028
0.6749011000000018 0.7593832000000034 0.7336423000000027
0.6750010000000018 0.7605820000000034 0.7350409000000028
0.6760333000000018 0.7591834000000034 0.7351741000000028
0.6756004000000019 0.7591834000000034 0.7366726000000028
0.6748678000000019 0.7588837000000034 0.7371388000000028
0.6769657000000019 0.7613146000000034 0.7368724000000028
0.6782977000000019 0.7610815000000034 0.7364062000000028
0.6797296000000019 0.7629130000000034 0.7383376000000028
0.6815944000000019 0.7644781000000034 0.7390702000000028
0.682493500000002 0.7658434000000034 0.7409683000000028
0.683159500000002 0.7663762000000034 0.7421671000000029
0.682127200000002 0.7674418000000034 0.7427998000000029
0.6821938000000021 0.7659100000000034 0.7419007000000029
0.6830263000000021 0.7688071000000034 0.7416010000000028
0.6861565000000021 0.7720705000000034 0.7420006000000029
0.686622700000002 0.7711048000000035 0.7419673000000029
0.6861565000000021 0.7722703000000035 0.7423669000000029
0.688187800000002 0.7720705000000035 0.742999600000003
0.687288700000002 0.7742350000000036 0.744165100000003
0.686989000000002 0.7751008000000036 0.7458634000000031
0.6860899000000019 0.7776982000000036 0.748227700000003
0.6874552000000019 0.7800292000000035 0.750092500000003
0.688620700000002 0.7812280000000036 0.749260000000003
0.688154500000002 0.7827931000000036 0.7485607000000031
0.688920400000002 0.7831594000000036 0.7475284000000031
0.690418900000002 0.7852240000000036 0.7490935000000031
0.6925168000000019 0.7848910000000036 0.7496596000000031
0.692083900000002 0.7861231000000035 0.7513246000000031
0.692383600000002 0.7846912000000035 0.7530562000000032
0.692716600000002 0.7853905000000034 0.7523236000000032
0.692716600000002 0.7877215000000034 0.7525567000000032
0.6949810000000021 0.7890202000000034 0.7556869000000032
0.6945148000000021 0.7919173000000034 0.7556869000000032
0.6934159000000021 0.7946479000000034 0.7573519000000032
0.6958135000000021 0.7958467000000035 0.7571854000000032
0.6970123000000021 0.7987105000000034 0.7579846000000032
0.6977449000000021 0.7977781000000034 0.7601491000000032
0.7001092000000021 0.7995097000000034 0.7588837000000033
0.7018408000000022 0.8013079000000034 0.7607818000000033
0.7032727000000022 0.8008750000000034 0.7623136000000033
0.7045714000000022 0.8021071000000034 0.7636456000000033
0.7041385000000022 0.8006419000000033 0.7650109000000033
0.7041718000000022 0.8023735000000034 0.7664095000000033
0.7042384000000023 0.8043715000000035 0.7676416000000033
0.7053706000000023 0.8074684000000034 0.7671754000000033
0.7076017000000023 0.8069356000000034 0.7695730000000033
0.7093333000000024 0.8075017000000034 0.7706053000000033
0.7106653000000024 0.8088004000000034 0.7717042000000033
0.7122637000000024 0.8098327000000034 0.7715377000000033
0.7109650000000024 0.8087338000000034 0.7738354000000033
0.7125967000000024 0.8092333000000034 0.7768324000000033
0.7124968000000024 0.8097994000000034 0.7789969000000033
0.7119973000000024 0.8114644000000034 0.7781311000000033
0.7124302000000023 0.8128297000000034 0.7790302000000033
0.7139287000000023 0.8132626000000034 0.7799959000000033
0.7165594000000023 0.8145946000000034 0.7799959000000033
0.7176250000000023 0.8138287000000034 0.7809616000000033
0.7190569000000023 0.8157934000000034 0.7814611000000032
0.7198894000000023 0.8174917000000035 0.7801291000000032
0.7195564000000023 0.8182909000000035 0.7801291000000032
0.7197895000000023 0.8189569000000035 0.7809616000000033
0.7219540000000023 0.8192233000000035 0.7815943000000033
0.7212880000000023 0.8208217000000035 0.7829596000000033
0.7226533000000023 0.8211547000000036 0.7838587000000034
0.7218208000000023 0.8241517000000036 0.7832926000000033
0.7220206000000022 0.8232526000000036 0.7853239000000033
0.7239853000000023 0.8253838000000036 0.7857235000000033
0.7248178000000023 0.8266492000000035 0.7852573000000034
0.7241851000000022 0.8259166000000036 0.7855570000000034
0.7246513000000022 0.8258167000000035 0.7853572000000034
0.7243516000000022 0.8251174000000036 0.7849576000000034
0.7256170000000022 0.8261497000000035 0.7843582000000033
0.7247512000000021 0.8278147000000036 0.7849576000000034
0.7266160000000021 0.8291800000000036 0.7868557000000034
0.7263163000000021 0.8310781000000036 0.7861564000000034
0.7277815000000022 0.8323435000000036 0.7859233000000034
0.7300459000000022 0.8330761000000035 0.7853239000000034
0.7313779000000022 0.8329429000000035 0.7872220000000034
0.7309783000000022 0.8358067000000035 0.7871554000000034
0.7332427000000022 0.8377048000000035 0.7886539000000033
0.7326433000000022 0.8366725000000035 0.7904188000000033
0.7337422000000022 0.8394697000000035 0.7920838000000033
0.7364062000000022 0.8400691000000036 0.7936822000000033
0.7369723000000022 0.8399359000000035 0.7950808000000034
0.7387705000000022 0.8397028000000035 0.7969789000000034
0.7397362000000022 0.8394364000000035 0.7972120000000034
0.7407352000000021 0.8415010000000035 0.7976782000000033
0.7410682000000022 0.8422003000000035 0.7989436000000033
0.7440652000000022 0.8447311000000035 0.7996429000000033
0.7440652000000022 0.8450641000000035 0.7996096000000033
0.7438654000000022 0.8470954000000035 0.7996096000000033
0.7463629000000023 0.8477947000000035 0.8003089000000032
0.7476283000000022 0.8488936000000035 0.8003422000000032
0.7482943000000023 0.8474950000000034 0.8020738000000033
0.7485607000000023 0.8484274000000035 0.8043382000000033
0.7491268000000023 0.8499259000000035 0.8043382000000033
0.7496596000000023 0.8499592000000035 0.8043715000000033
0.7496929000000023 0.8525899000000035 0.8050042000000034
0.7525567000000023 0.8537887000000035 0.8063362000000034
0.7548877000000023 0.8547877000000035 0.8084674000000034
0.7567192000000023 0.8562862000000034 0.8109982000000034
0.7578847000000023 0.8568523000000035 0.8111647000000034
0.7580512000000023 0.8574850000000035 0.8118307000000035
0.7582510000000022 0.8571853000000035 0.8113645000000035
0.7612813000000023 0.8569189000000035 0.8134957000000035
0.7612147000000022 0.8565526000000034 0.8155936000000035
0.7618807000000023 0.8585506000000035 0.8177248000000035
0.7618807000000023 0.8588836000000035 0.8184907000000035
0.7639120000000023 0.8610148000000035 0.8212213000000035
0.7649110000000022 0.8615476000000035 0.8233192000000035
0.7667758000000022 0.8610148000000035 0.8221537000000034
0.7674085000000023 0.8611147000000036 0.8211214000000034
0.7690735000000023 0.8631460000000035 0.8217541000000035
0.7698394000000023 0.8629129000000035 0.8228863000000035
0.7727365000000023 0.8646112000000036 0.8251174000000036
0.7728697000000023 0.8659432000000036 0.8259166000000036
0.7739353000000023 0.8671753000000035 0.8272819000000036
0.7754005000000024 0.8672419000000036 0.8289802000000036
0.7755004000000024 0.8686072000000036 0.8299459000000036
0.7770322000000024 0.8682076000000035 0.8302456000000036
0.7769989000000024 0.8675083000000036 0.8313778000000036
0.7785973000000024 0.8696728000000036 0.8329762000000036
0.7797628000000024 0.8703721000000035 0.8334757000000036
0.7786639000000024 0.8702722000000035 0.8343415000000036
0.7788304000000024 0.8714710000000035 0.8333425000000036
0.7803955000000024 0.8724367000000035 0.8341084000000036
0.7823935000000024 0.8746012000000035 0.8354404000000036
0.7845580000000024 0.8754337000000035 0.8352739000000037
0.7864561000000024 0.8741683000000036 0.8363062000000037
0.7879879000000024 0.8746678000000035 0.8361397000000037
0.7898194000000024 0.8759332000000035 0.8387371000000037
0.7890535000000024 0.8779978000000035 0.8390035000000037
0.7900192000000024 0.8777314000000035 0.8386705000000036
0.7915510000000023 0.8794297000000035 0.8388370000000036
0.7919506000000024 0.8787970000000035 0.8378380000000036
0.7946479000000024 0.8806285000000035 0.8384374000000037
0.7937488000000024 0.8820271000000035 0.8379046000000037
0.7960132000000024 0.8841916000000035 0.8384707000000037
0.7952806000000024 0.8858233000000035 0.8400025000000036
0.7944148000000024 0.8887204000000035 0.8387371000000037
0.7938820000000024 0.8881210000000035 0.8388370000000037
0.7931827000000025 0.8873884000000035 0.8384707000000037
0.7936489000000024 0.8887870000000035 0.8389369000000036
0.7938154000000024 0.8901856000000036 0.8406352000000037
0.7936156000000024 0.8898526000000035 0.8421670000000037
