0.0099334 0.0106327 0.0111988
0.0088345 0.0124975 0.0138628
0.0092674 0.013663 0.0128971
0.0104995 0.0144622 0.0146287
0.0114319 0.0160606 0.0166267
0.0119314 0.0171262 0.0160273
0.0136963 0.0185914 0.0169597
0.0127972 0.0178255 0.0183583
0.0130303 0.0170263 0.0188245
0.0133633 0.0171262 0.0205894
0.0129637 0.0197569 0.0199234
0.0148618 0.0197569 0.0211888
0.0172594 0.0192907 0.0234532
0.0193906 0.0207892 0.0253846
0.0214885 0.0202897 0.0261838
0.0235864 0.0219547 0.0254845
0.0245188 0.0231202 0.024652
0.0258841 0.0236863 0.0245854
0.025984 0.0252181 0.0264835
0.0273826 0.0266833 0.0279154
0.0268165 0.0272161 0.0307126
0.0256843 0.0295804 0.0312787
0.0280153 0.0302131 0.0322444
0.0280486 0.0305794 0.0335098
0.0275158 0.0324109 0.034309
0.028315 0.031645 0.0360073
0.0287812 0.0334432 0.0377389
0.0308125 0.0346087 0.0365401
0.0302797 0.034642 0.0364069
0.0314785 0.0370063 0.0381052
0.0335431 0.0385714 0.0377722
0.0336097 0.0391375 0.0402697
0.0334099 0.0385048 0.0392374
0.0352747 0.0406027 0.0398368
0.0368065 0.0396037 0.0415351
0.0390376 0.0400033 0.0422677
0.0396703 0.0423343 0.0438994
0.0414685 0.0422677 0.0464968
0.0431002 0.0433999 0.0472294
0.0449317 0.0464302 0.04663
0.0463636 0.0477289 0.0498601
0.0464302 0.0481285 0.0494938
0.0474958 0.0489943 0.0488944
0.0465301 0.0483949 0.04996
0.045298 0.0494272 0.0491941
0.0453313 0.0501931 0.0502597
0.0442324 0.0496603 0.0517249
0.0450649 0.0493939 0.0513919
0.0454645 0.0508591 0.0512254
0.0449317 0.0506926 0.0532234
0.0453313 0.0522244 0.0559207
0.0475624 0.0539227 0.0555544
0.0495604 0.0563869 0.0561205
0.0496603 0.058451499999999997 0.0578521
0.0501931 0.059350599999999996 0.059850099999999996
0.0495604 0.058384899999999997 0.060149799999999996
0.0500266 0.058751199999999996 0.060382899999999996
0.049627 0.059483799999999996 0.060116499999999996
0.0480952 0.060449499999999996 0.062280999999999996
0.0490276 0.061515099999999996 0.062047899999999996
0.0488611 0.0639793 0.061681599999999996
0.0506926 0.0643789 0.0633133
0.0509923 0.0631801 0.0663436
0.0517249 0.0654778 0.0667432
0.0522244 0.0653779 0.0681085
0.052957 0.0660772 0.0680086
0.0541558 0.0671095 0.0697069
0.05329 0.0689077 0.0721045
0.0531235 0.0691075 0.0715384
0.0531901 0.0688078 0.072937
0.0545887 0.0708724 0.0747019
0.0558208 0.0705061 0.0744688
0.0564535 0.0704062 0.077266
0.0582517 0.0721711 0.0780652
0.060282999999999996 0.0744355 0.0789976
0.060149799999999996 0.0761671 0.0797635
0.060615999999999996 0.0772993 0.0790975
0.061548399999999996 0.0785647 0.0791641
0.061481799999999996 0.0777655 0.0808957
0.0645121 0.0796303 0.0800632
0.0665434 0.0827272 0.0788644
0.067276 0.0831934 0.0796969
0.069274 0.0822943 0.0806959
0.0679087 0.0841591 0.082594
0.0698068 0.0844588 0.085258
0.0701065 0.0851248 0.0850915
0.069274 0.0856243 0.0843922
0.0700066 0.0852913 0.0852247
0.0717715 0.085258 0.0872893
0.0713053 0.085924 0.0886213
0.0718714 0.0857242 0.0907192
0.0733033 0.0858574 0.091585
0.0752347 0.0881884 0.093916
0.0767998 0.0905194 0.0944155
0.0777655 0.0895204 0.0940159
0.0793306 0.0900532 0.0949483
0.0816283 0.0896203 0.0947818
0.0826939 0.0884881 0.0957808
0.0823942 0.0894205 0.0986113
0.0838261 0.0906526 0.0994105
0.0834931 0.0928171 0.0987112
0.0832933 0.0953479 0.0994438
0.0828937 0.0954145 0.1011754
0.0839926 0.0968464 0.1012087
0.0852247 0.0964468 0.1036063
0.0861571 0.0960472 0.1042057
0.0854911 0.0978787 0.1051048
0.0871228 0.0990442 0.1049716
0.0865234 0.0989443 0.1080685
0.0875224 0.0987778 0.1101331
0.0878554 0.0988444 0.1099999
0.0876889 0.100243 0.1120978
0.0898201 0.0996769 0.1125307
0.0903529 0.0998434 0.1123642
0.0910855 0.1002763 0.1111654
0.0931168 0.1016083 0.1127638
0.094582 0.1022743 0.1149949
0.0959473 0.1054378 0.1169263
0.0966799 0.1067032 0.1156942
0.0981118 0.1062703 0.1173925
0.0975124 0.1071361 0.1191907
0.0975457 0.1087345 0.1190575
0.1001764 0.1085347 0.1212886
0.1030402 0.1073359 0.1236196
0.1030735 0.1061371 0.1235863
0.1047718 0.1063036 0.1243855
0.1065034 0.1074025 0.1260838
0.1080685 0.1072693 0.127549
0.1103995 0.1078021 0.1282816
0.1109656 0.1085014 0.1293805
0.1115317 0.1078354 0.1281817
0.1141624 0.1078687 0.1290475
0.1140292 0.1078354 0.1276156
0.116227 0.109567 0.12684969999999998
0.1172593 0.1112653 0.12664989999999998
0.1176256 0.1123309 0.1288144
0.1207225 0.1147285 0.1283482
0.1208557 0.1162936 0.1291141
0.120223 0.1167931 0.13107880000000002
0.1219879 0.1175923 0.13254400000000002
0.1223875 0.1184248 0.13494160000000002
0.1223209 0.1211887 0.1347085
0.1229203 0.1235197 0.13680640000000002
0.1258174 0.1259506 0.13937050000000004
0.1264834 0.1281151 0.13910410000000004
0.12638349999999998 0.12868120000000002 0.13887100000000002
0.12561759999999997 0.1286479 0.13950370000000004
0.12788199999999997 0.13014640000000002 0.14110210000000004
0.12798189999999998 0.13114540000000002 0.13973680000000002
0.129214 0.1309123 0.14073580000000002
0.1308124 0.1336429 0.14396590000000004
0.1334764 0.13467520000000002 0.14589730000000004
0.13324329999999998 0.1339759 0.14479840000000002
0.13291029999999998 0.1338427 0.1436329
0.13424229999999998 0.1330435 0.14579740000000002
0.13490829999999998 0.13507480000000002 0.14802850000000004
0.1357408 0.13577410000000004 0.14752900000000002
0.1371727 0.13777210000000004 0.14919400000000002
0.13833820000000002 0.13880440000000005 0.15139180000000002
0.13833820000000002 0.14033620000000005 0.1511587
0.13840480000000002 0.14186800000000005 0.1507591
0.14033620000000002 0.14226760000000005 0.1522243
0.14090230000000004 0.14113540000000005 0.1520578
0.14163490000000004 0.14313340000000005 0.1511254
0.14443210000000004 0.14220100000000005 0.15035949999999998
0.14669650000000004 0.14379940000000005 0.1525906
0.14682970000000004 0.14399920000000005 0.151525
0.14709610000000004 0.14300020000000005 0.1522576
0.14699620000000002 0.14436550000000006 0.1552213
0.14799520000000002 0.14426560000000005 0.1575523
0.1478953 0.14626360000000005 0.15851800000000002
0.15005980000000002 0.14653000000000005 0.1578853
0.15105880000000002 0.14866120000000005 0.1576522
0.15195790000000003 0.14849470000000004 0.159184
0.15195790000000003 0.14859460000000005 0.1602829
0.15249070000000003 0.15005980000000005 0.16151500000000002
0.15372280000000005 0.14939380000000005 0.16271380000000002
0.15352300000000005 0.14902750000000003 0.16541110000000003
0.15432220000000005 0.14976010000000003 0.16707610000000003
0.15552100000000005 0.15065920000000005 0.16910740000000005
0.15492160000000005 0.15125860000000005 0.16987330000000006
0.15718600000000005 0.15122530000000003 0.17130520000000007
0.15895090000000006 0.15242410000000003 0.17057260000000007
0.15865120000000005 0.15279040000000005 0.1708057000000001
0.16004980000000005 0.15395590000000006 0.1725373000000001
0.16071580000000005 0.15478840000000008 0.1736695000000001
0.16138180000000005 0.1548883000000001 0.1740358000000001
0.16361290000000006 0.15478840000000008 0.17500150000000012
0.16521130000000006 0.15412240000000008 0.17716600000000013
0.16614370000000006 0.15395590000000006 0.17806510000000014
0.16584400000000005 0.15448870000000006 0.18096220000000016
0.16651000000000005 0.15385600000000005 0.18136180000000016
0.16807510000000006 0.15345640000000005 0.18319330000000017
0.16780870000000006 0.15562090000000006 0.18226090000000017
0.16764220000000005 0.15725260000000008 0.18236080000000018
0.16980670000000006 0.1591507000000001 0.18322660000000018
0.17163820000000007 0.15825160000000008 0.18355960000000018
0.17163820000000007 0.1588843000000001 0.18312670000000017
0.17250400000000007 0.15758560000000008 0.18329320000000018
0.1740691000000001 0.15898420000000008 0.18269380000000018
0.17383600000000007 0.1601497000000001 0.1836595000000002
0.1750681000000001 0.1612153000000001 0.1851247000000002
0.1756675000000001 0.1621144000000001 0.1857907000000002
0.1768996000000001 0.16228090000000012 0.1886545000000002
0.1764334000000001 0.16421230000000012 0.18835480000000018
0.1755343000000001 0.1641124000000001 0.1883881000000002
0.1770661000000001 0.16727590000000012 0.1905859000000002
0.1776322000000001 0.16734250000000012 0.1895869000000002
0.1786312000000001 0.16847470000000012 0.18948700000000018
0.1782649000000001 0.16890760000000013 0.1903195000000002
0.1789309000000001 0.16947370000000014 0.18988660000000018
0.1794637000000001 0.16827490000000014 0.1913851000000002
0.1798633000000001 0.16744240000000013 0.1921843000000002
0.1803295000000001 0.16857460000000013 0.1925506000000002
0.1806292000000001 0.16854130000000012 0.19404910000000022
0.1809622000000001 0.16894090000000012 0.19531450000000022
0.1839592000000001 0.17043940000000013 0.19548100000000024
0.1831600000000001 0.17063920000000013 0.19791190000000025
0.18592390000000011 0.17110540000000013 0.19961020000000027
0.18725590000000011 0.17247070000000014 0.20054260000000027
0.18795520000000013 0.17360290000000014 0.20134180000000027
0.18998650000000014 0.17473510000000014 0.20147500000000026
0.18908740000000013 0.17490160000000016 0.20194120000000026
0.1885213000000001 0.17526790000000017 0.20260720000000026
0.18948700000000013 0.17769880000000018 0.20217430000000025
0.18968680000000013 0.1788643000000002 0.20527120000000026
0.19115200000000013 0.17843140000000018 0.20760220000000026
0.19121860000000013 0.17883100000000018 0.20823490000000028
0.19141840000000013 0.17983000000000018 0.2086678000000003
0.19225090000000014 0.17976340000000018 0.20763550000000028
0.19218430000000014 0.18102880000000018 0.20830150000000028
0.19281700000000015 0.18156160000000018 0.2114650000000003
0.19554760000000015 0.18019630000000017 0.2130967000000003
0.19751230000000017 0.17949700000000016 0.2156941000000003
0.19994320000000018 0.17886430000000014 0.2152945000000003
0.20180800000000018 0.17949700000000016 0.2169595000000003
0.2037061000000002 0.17929720000000016 0.2163601000000003
0.2045053000000002 0.17946370000000017 0.2151946000000003
0.2061370000000002 0.17896420000000016 0.2148616000000003
0.2076688000000002 0.18119530000000017 0.21462850000000028
0.2095336000000002 0.18339310000000017 0.21449530000000028
0.2089009000000002 0.18372610000000017 0.21702610000000028
0.2089009000000002 0.18639010000000017 0.21875770000000028
0.2116648000000002 0.18758890000000017 0.2196568000000003
0.2121976000000002 0.18685630000000017 0.21962350000000028
0.21309670000000022 0.18822160000000018 0.2215216000000003
0.21562750000000022 0.18808840000000018 0.2218213000000003
0.21609370000000022 0.19068580000000018 0.2230201000000003
0.2155276000000002 0.1909189000000002 0.22505140000000032
0.21822490000000022 0.1909855000000002 0.22721590000000033
0.21972340000000024 0.1930834000000002 0.22811500000000035
0.22115530000000025 0.1924174000000002 0.22994650000000036
0.22215430000000025 0.1924840000000002 0.22931380000000035
0.22225420000000026 0.1926838000000002 0.23061250000000036
0.22415230000000028 0.19398250000000022 0.23041270000000036
0.2256508000000003 0.19414900000000024 0.23277700000000037
0.2269828000000003 0.19428220000000024 0.23254390000000036
0.2283814000000003 0.19278370000000022 0.23440870000000036
0.2285812000000003 0.19321660000000024 0.23540770000000036
0.2289808000000003 0.19215100000000024 0.23820490000000036
0.2304793000000003 0.19161820000000024 0.23727250000000036
0.2318113000000003 0.19271710000000025 0.23803840000000037
0.2314117000000003 0.19251730000000025 0.24113530000000039
0.2311786000000003 0.19251730000000025 0.2419678000000004
0.2328769000000003 0.19301680000000027 0.2428669000000004
0.23444200000000032 0.19361620000000027 0.2433331000000004
0.23534110000000033 0.19261720000000027 0.24423220000000043
0.23637340000000034 0.19195120000000027 0.24719590000000044
0.23760550000000036 0.19411570000000028 0.24766210000000044
0.23740570000000036 0.19524790000000028 0.24816160000000045
0.23883760000000037 0.19471510000000028 0.24789520000000045
0.23853790000000036 0.1956142000000003 0.25025950000000047
0.23967010000000036 0.1960804000000003 0.24906070000000047
0.23993650000000036 0.1969462000000003 0.24989320000000048
0.24086890000000036 0.1992439000000003 0.24966010000000047
0.24003640000000034 0.2010421000000003 0.2512585000000005
0.24160150000000036 0.2011087000000003 0.2526238000000005
0.24110200000000034 0.20287360000000032 0.2530234000000005
0.24193450000000036 0.2025739000000003 0.2553877000000005
0.24396580000000037 0.20420560000000032 0.2572858000000005
0.24486490000000039 0.20433880000000032 0.2580517000000005
0.2460304000000004 0.20543770000000033 0.2598166000000005
0.2453644000000004 0.20710270000000033 0.2597167000000005
0.2459971000000004 0.20686960000000032 0.26044930000000055
0.24682960000000043 0.20723590000000033 0.26098210000000055
0.2458639000000004 0.20976670000000033 0.26194780000000056
0.24736240000000043 0.21083230000000033 0.26084890000000055
0.24982660000000043 0.21313000000000035 0.2621143000000006
0.25125850000000044 0.21479500000000035 0.26341300000000056
0.25252390000000047 0.21516130000000036 0.26337970000000055
0.2522908000000005 0.21626020000000037 0.26334640000000054
0.25465510000000047 0.21622690000000036 0.26581060000000056
0.2553544000000005 0.21662650000000036 0.2677087000000006
0.25598710000000047 0.21755890000000036 0.2703727000000006
0.25741900000000045 0.21852460000000037 0.2712052000000006
0.25945030000000047 0.2204893000000004 0.2707723000000006
0.25938370000000044 0.2200231000000004 0.27127180000000056
0.26091550000000047 0.2196235000000004 0.27100540000000056
0.26301340000000045 0.2213218000000004 0.2728036000000006
0.26564410000000044 0.2231200000000004 0.2747017000000006
0.26554420000000045 0.22495150000000042 0.2754676000000006
0.2649448000000004 0.22694950000000041 0.2759338000000006
0.2649448000000004 0.22821490000000041 0.2761669000000006
0.26631010000000044 0.2281816000000004 0.2757007000000006
0.26677630000000047 0.22928050000000041 0.2781649000000006
0.26767540000000045 0.22908070000000041 0.2792638000000006
0.2685412000000005 0.23017960000000043 0.2798965000000006
0.2682748000000005 0.23091220000000043 0.2827936000000006
0.2693404000000005 0.23081230000000041 0.2842255000000006
0.2713384000000005 0.23157820000000043 0.2853577000000006
0.27263710000000047 0.23454190000000044 0.2870560000000006
0.2743021000000005 0.23707270000000044 0.2872225000000006
0.2767996000000005 0.23963680000000046 0.2875888000000006
0.2786644000000005 0.24166810000000047 0.2872891000000006
0.28009630000000046 0.24389920000000048 0.2876887000000006
0.28169470000000046 0.24483160000000048 0.2889541000000006
0.28302670000000046 0.24516460000000048 0.2887210000000006
0.2846584000000005 0.24463180000000048 0.28972000000000064
0.28569070000000046 0.2460637000000005 0.29261710000000063
0.2851912000000005 0.2474956000000005 0.29208430000000063
0.28462510000000046 0.24926050000000052 0.29448190000000063
0.2865232000000005 0.2492272000000005 0.29301670000000063
0.2881216000000005 0.2507590000000005 0.29251720000000064
0.2894869000000005 0.2531566000000005 0.29354950000000063
0.2919511000000005 0.2531566000000005 0.2951146000000006
0.2930167000000005 0.2535895000000005 0.2957806000000006
0.29428210000000055 0.25565410000000055 0.2979118000000006
0.29534770000000055 0.25875100000000056 0.2973790000000006
0.29438200000000053 0.26061580000000056 0.2988109000000006
0.29667970000000055 0.26191450000000055 0.30047590000000063
0.29784520000000053 0.26394580000000056 0.30280690000000066
0.2971459000000005 0.26567740000000056 0.30560410000000066
0.29904400000000053 0.2682748000000006 0.30513790000000063
0.3000763000000005 0.2698066000000006 0.3047050000000006
0.3006091000000005 0.27147160000000065 0.30570400000000064
0.3009754000000005 0.27090550000000063 0.30776860000000067
0.3032398000000005 0.27037270000000063 0.3108988000000007
0.30503800000000053 0.2715382000000006 0.3127969000000007
0.3075355000000005 0.2735029000000006 0.3130300000000007
0.30853450000000054 0.2743354000000006 0.3144952000000007
0.30883420000000056 0.2751346000000006 0.3154276000000007
0.3114316000000006 0.2752345000000006 0.3171259000000007
0.3129634000000006 0.2753344000000006 0.3183580000000007
0.3126637000000006 0.2755342000000006 0.3195901000000007
0.3145618000000006 0.27543430000000063 0.3193237000000007
0.3139957000000006 0.27596710000000063 0.3211552000000007
0.3140623000000006 0.27786520000000065 0.3203227000000007
0.31622680000000064 0.27769870000000063 0.3220876000000007
0.31882420000000067 0.2766997000000006 0.3246184000000007
0.3184579000000007 0.2789308000000006 0.3245851000000007
0.31815820000000067 0.2815615000000006 0.32615020000000067
0.31799170000000065 0.2830600000000006 0.32931370000000065
0.3165931000000006 0.2854576000000006 0.3300463000000007
0.3163267000000006 0.2855575000000006 0.32997970000000065
0.31825810000000065 0.2869228000000006 0.32997970000000065
0.31998970000000065 0.2868229000000006 0.33117850000000065
0.3201895000000007 0.2855908000000006 0.33247720000000064
0.3216547000000007 0.28512460000000056 0.33454180000000067
0.3219544000000007 0.2869228000000006 0.3344419000000007
0.3222208000000007 0.2867563000000006 0.3355741000000007
0.3250846000000007 0.28642330000000055 0.3380716000000007
0.32591710000000074 0.28918720000000053 0.3379051000000007
0.3285478000000007 0.2884546000000005 0.3381049000000007
0.3302461000000007 0.2883214000000005 0.33817150000000074
0.3310120000000007 0.2876554000000005 0.3401362000000007
0.3310120000000007 0.2890207000000005 0.3413017000000007
0.3302461000000007 0.29051920000000053 0.3422674000000007
0.3291805000000007 0.29135170000000055 0.3412018000000007
0.3319777000000007 0.29151820000000056 0.3429001000000007
0.33390910000000074 0.2929168000000006 0.3432664000000007
0.3357406000000007 0.2918512000000006 0.3434329000000007
0.33660640000000075 0.2918179000000006 0.3442321000000007
0.33663970000000076 0.2933497000000006 0.34722910000000073
0.3383047000000008 0.2932165000000006 0.34899400000000075
0.3406690000000008 0.2926171000000006 0.34886080000000075
0.33943690000000076 0.2938159000000006 0.3502594000000008
0.33803830000000074 0.29604700000000056 0.3519910000000008
0.33857110000000074 0.29711260000000056 0.3532564000000008
0.33817150000000074 0.29907730000000055 0.35465500000000083
0.3402694000000007 0.29881090000000055 0.35651980000000083
0.34126840000000075 0.29904400000000053 0.3563533000000008
0.34246720000000075 0.30174130000000055 0.3561868000000008
0.34459840000000075 0.3010087000000005 0.3591172000000008
0.3439990000000007 0.3007090000000005 0.3606823000000008
0.34563070000000073 0.3028402000000005 0.3633130000000008
0.34659640000000075 0.3037726000000005 0.36258040000000075
0.3475954000000008 0.3060370000000005 0.3625138000000007
0.3495934000000008 0.30690280000000053 0.3629134000000007
0.3489274000000008 0.3059038000000005 0.3647449000000007
0.3499264000000008 0.30716920000000053 0.3657106000000007
0.35199100000000083 0.30666970000000054 0.3678085000000007
0.35229070000000084 0.30863440000000053 0.3699064000000007
0.35372260000000083 0.30936700000000056 0.3703726000000007
0.35332300000000083 0.30843460000000056 0.37163800000000075
0.35565400000000086 0.31039930000000054 0.3727702000000008
0.35602030000000084 0.31106530000000054 0.3729034000000008
0.35718580000000083 0.31023280000000053 0.3717379000000008
0.35811820000000083 0.31009960000000053 0.3720043000000008
0.3580516000000008 0.31123180000000056 0.3717712000000008
0.3593503000000008 0.31123180000000056 0.3717046000000008
0.3610819000000008 0.31149820000000056 0.3746350000000008
0.3604159000000008 0.31053250000000054 0.37593370000000076
0.3617146000000008 0.30996640000000053 0.37540090000000076
0.3628468000000008 0.31026610000000054 0.3770326000000008
0.3640789000000008 0.3096667000000005 0.3779983000000008
0.3648781000000008 0.31036600000000053 0.3791971000000008
0.36584380000000083 0.31176460000000056 0.37873090000000076
0.3687409000000008 0.31352950000000057 0.38002960000000074
0.3708388000000008 0.31349620000000056 0.38096200000000074
0.3723373000000008 0.31256380000000056 0.38119510000000073
0.37306990000000084 0.31429540000000056 0.38372590000000073
0.37283680000000086 0.31522780000000056 0.38372590000000073
0.3749014000000009 0.31606030000000057 0.38482480000000074
0.37699930000000087 0.31775860000000056 0.38425870000000073
0.3795967000000009 0.31932370000000054 0.38415880000000074
0.3799630000000009 0.31969000000000053 0.38638990000000073
0.38059570000000087 0.31982320000000053 0.38678950000000073
0.38242720000000086 0.32162140000000056 0.3856573000000007
0.38372590000000084 0.32388580000000056 0.3886210000000007
0.3843586000000008 0.32575060000000056 0.38882080000000074
0.38495800000000086 0.32651650000000054 0.39065230000000073
0.3840922000000008 0.3253843000000005 0.39188440000000074
0.38665630000000084 0.32688280000000053 0.39118510000000073
0.38805490000000087 0.32718250000000054 0.39078550000000073
0.38895400000000085 0.32924710000000057 0.39185110000000073
0.38852110000000084 0.32938030000000057 0.39298330000000076
0.3879217000000008 0.3312784000000006 0.39334960000000074
0.3888874000000008 0.3303460000000006 0.39568060000000077
0.38895400000000085 0.33031270000000057 0.3973456000000008
0.38988640000000085 0.32974660000000056 0.3992770000000008
0.39201760000000085 0.33014620000000056 0.4004758000000008
0.39245050000000087 0.3326104000000006 0.4012750000000008
0.3951478000000009 0.3340756000000006 0.4031398000000008
0.39468160000000085 0.33267700000000056 0.4051045000000008
0.39721240000000085 0.33181120000000053 0.4059370000000008
0.39711250000000087 0.33330970000000054 0.40800160000000085
0.39934360000000085 0.33374260000000056 0.40903390000000084
0.40097530000000087 0.33454180000000056 0.41116510000000084
0.40027600000000085 0.33723910000000057 0.41076550000000084
0.4024738000000009 0.33817150000000057 0.4115314000000008
0.4016746000000009 0.33947020000000055 0.41186440000000085
0.40270690000000087 0.3416680000000006 0.41466160000000085
0.40174120000000085 0.3433996000000006 0.41629330000000087
0.4004758000000008 0.34469830000000057 0.41869090000000087
0.4017745000000008 0.34669630000000057 0.42012280000000085
0.4040056000000008 0.3472624000000006 0.42055570000000086
0.4046716000000008 0.3476953000000006 0.42108850000000086
0.4057705000000008 0.3476953000000006 0.4209886000000009
0.40770190000000084 0.3475288000000006 0.42012280000000085
0.4087342000000008 0.34896070000000057 0.42022270000000084
0.4095334000000008 0.34882750000000057 0.42115510000000084
0.40890070000000084 0.34869430000000057 0.4228534000000008
0.4084678000000008 0.35039260000000055 0.42305320000000085
0.40836790000000084 0.35089210000000054 0.4251178000000009
0.4077685000000008 0.35189110000000057 0.42478480000000085
0.40890070000000084 0.35322310000000057 0.42708250000000086
0.40890070000000084 0.35175790000000057 0.42691600000000085
0.40893400000000085 0.35348950000000057 0.4264498000000008
0.40836790000000084 0.35328970000000054 0.42731560000000085
0.40850110000000084 0.35482150000000057 0.42864760000000085
0.40890070000000084 0.35508790000000057 0.42864760000000085
0.41013280000000085 0.3570193000000006 0.42801490000000086
0.4116646000000009 0.3585511000000006 0.4300462000000009
0.41296330000000087 0.3584845000000006 0.43121170000000086
0.4136959000000009 0.3604825000000006 0.43330960000000085
0.4147948000000009 0.3610819000000006 0.4345750000000009
0.4141954000000009 0.36084880000000064 0.4351744000000009
0.4139290000000009 0.3630799000000006 0.43737220000000093
0.4152610000000009 0.36354610000000065 0.4365397000000009
0.4171591000000009 0.3657439000000007 0.4394368000000009
0.41682610000000087 0.36571060000000066 0.4391704000000009
0.4163266000000009 0.36581050000000065 0.4406689000000009
0.4159603000000009 0.36784180000000066 0.44016940000000093
0.4158271000000009 0.36930700000000066 0.44003620000000093
0.4181248000000009 0.3696067000000007 0.4391704000000009
0.4192237000000009 0.3693403000000007 0.4389706000000009
0.41912380000000093 0.36874090000000065 0.4412683000000009
0.42072220000000093 0.36904060000000066 0.4430332000000009
0.42112180000000093 0.36857440000000063 0.4447315000000009
0.42045580000000093 0.36967330000000065 0.4456306000000009
0.4205557000000009 0.37043920000000063 0.4474288000000009
0.42075550000000095 0.37077220000000066 0.4476619000000009
0.42088870000000095 0.3709720000000007 0.4475287000000009
0.42038920000000096 0.36957340000000066 0.4482280000000009
0.42208750000000095 0.36970660000000066 0.44909380000000093
0.42358600000000096 0.36884080000000063 0.45075880000000096
0.42518440000000096 0.36817480000000063 0.452390500000001
0.42744880000000096 0.3694735000000006 0.454188700000001
0.42698260000000093 0.36950680000000063 0.453589300000001
0.42621670000000095 0.37030600000000063 0.45412210000000097
0.427615300000001 0.37157140000000066 0.45625330000000097
0.429247000000001 0.37303660000000066 0.457785100000001
0.430246000000001 0.3741688000000007 0.459583300000001
0.431045200000001 0.3740689000000007 0.459849700000001
0.432210700000001 0.37586710000000073 0.459450100000001
0.432710200000001 0.37576720000000075 0.46058230000000105
0.432077500000001 0.3770326000000008 0.4621141000000011
0.431611300000001 0.37646650000000076 0.46407880000000107
0.432610300000001 0.3783979000000008 0.46324630000000105
0.434375200000001 0.3795967000000008 0.46434520000000107
0.43497460000000104 0.37953010000000076 0.46387900000000104
0.43577380000000104 0.38016280000000074 0.46441180000000104
0.43787170000000103 0.38039590000000073 0.465843700000001
0.437272300000001 0.3803626000000007 0.46591030000000105
0.436906000000001 0.38079550000000073 0.46750870000000105
0.436473100000001 0.3831598000000007 0.46874080000000107
0.436639600000001 0.3854242000000007 0.46993960000000107
0.437272300000001 0.3858238000000007 0.4699729000000011
0.439936300000001 0.3864898000000007 0.4724371000000011
0.441001900000001 0.38735560000000074 0.4740355000000011
0.442300600000001 0.38698930000000076 0.47530090000000114
0.442666900000001 0.3873223000000008 0.4775320000000011
0.444664900000001 0.3897532000000008 0.47933020000000115
0.445530700000001 0.3902527000000008 0.4817944000000012
0.446563000000001 0.3912184000000008 0.4822273000000012
0.44636320000000096 0.3906523000000008 0.4817944000000012
0.447728500000001 0.3921508000000008 0.4827934000000012
0.446429800000001 0.3940489000000008 0.4835926000000012
0.445797100000001 0.3938158000000008 0.48565720000000123
0.446696200000001 0.39291670000000084 0.48572380000000126
0.449293600000001 0.39424870000000084 0.4867228000000013
0.448228000000001 0.3941821000000008 0.4862233000000013
0.450758800000001 0.3961801000000008 0.48708910000000133
0.451824400000001 0.39677950000000084 0.4886542000000013
0.452723500000001 0.3990106000000008 0.4896865000000013
0.454255300000001 0.40080880000000085 0.4908853000000013
0.454788100000001 0.40164130000000087 0.4897531000000013
0.45698590000000106 0.4039390000000009 0.48892060000000126
0.45928360000000107 0.40470490000000087 0.4904524000000013
0.4602826000000011 0.4051378000000009 0.4916179000000013
0.4618477000000011 0.4055707000000009 0.4948813000000013
0.4618477000000011 0.4067695000000009 0.4963798000000013
0.4617145000000011 0.40590370000000087 0.49791160000000134
0.4632463000000011 0.40483810000000087 0.49724560000000134
0.4643452000000011 0.40656970000000087 0.49897720000000134
0.4660435000000011 0.4076686000000009 0.49977640000000134
0.4668094000000011 0.4103326000000009 0.5005756000000013
0.4697398000000011 0.4117312000000009 0.5006755000000014
0.46874080000000107 0.4116979000000009 0.5021740000000013
0.46847440000000107 0.4121308000000009 0.5030731000000014
0.46914040000000107 0.4138291000000009 0.5034061000000014
0.46900720000000107 0.4145284000000009 0.5025736000000014
0.4708054000000011 0.41672620000000093 0.5035060000000015
0.4720042000000011 0.41795830000000095 0.5044051000000015
0.4725703000000011 0.41792500000000093 0.5042719000000014
0.4737358000000011 0.41849110000000095 0.5066695000000014
0.4739023000000011 0.41972320000000096 0.5082346000000014
0.47450170000000114 0.42088870000000095 0.5102326000000015
0.47626660000000115 0.42172120000000096 0.5109985000000015
0.47643310000000116 0.42465160000000096 0.5118310000000015
0.4768993000000012 0.42611680000000096 0.5130964000000015
0.4770658000000012 0.42771520000000096 0.5130298000000014
0.4788307000000012 0.42918040000000096 0.5143951000000014
0.47903050000000125 0.42844780000000093 0.5153608000000014
0.4792303000000013 0.4284145000000009 0.5150278000000014
0.4810285000000013 0.4313449000000009 0.5152942000000014
0.4816612000000013 0.4322773000000009 0.5170924000000013
0.4826602000000013 0.4345417000000009 0.5188240000000014
0.48189430000000133 0.4359736000000009 0.5210551000000014
0.48189430000000133 0.4386709000000009 0.5221873000000015
0.48259360000000134 0.4404025000000009 0.5226868000000015
0.48219400000000134 0.44216740000000093 0.5248513000000015
0.48539080000000134 0.44379910000000095 0.5262499000000015
0.48715570000000136 0.4434661000000009 0.5288140000000014
0.48628990000000133 0.4430332000000009 0.5304457000000015
0.48708910000000133 0.4424338000000009 0.5300794000000014
0.4898530000000013 0.4440655000000009 0.5310118000000015
0.49135150000000133 0.4462633000000009 0.5305123000000015
0.49311640000000134 0.44749540000000093 0.5309452000000014
0.49338280000000134 0.44856100000000093 0.5333428000000014
0.49388230000000133 0.45062560000000096 0.5343418000000014
0.49444840000000134 0.45102520000000096 0.5332429000000014
0.49621330000000136 0.45049240000000096 0.5339755000000014
0.49564720000000134 0.45262360000000096 0.5365729000000014
0.4949146000000013 0.451857700000001 0.5364730000000013
0.4960801000000013 0.45398890000000097 0.5381380000000013
0.49774510000000133 0.456819400000001 0.5385709000000013
0.49867750000000133 0.457152400000001 0.5385043000000013
0.5006089000000014 0.459416800000001 0.5379382000000013
0.5002759000000013 0.46001620000000104 0.5395699000000013
0.4996765000000013 0.46208080000000107 0.5413681000000012
0.5011750000000013 0.4634461000000011 0.5407687000000012
0.5004091000000013 0.46381240000000107 0.5430664000000012
0.5009086000000013 0.46367920000000107 0.5428000000000012
0.5013748000000012 0.46421200000000107 0.5450644000000012
0.5032729000000012 0.46581040000000107 0.5447980000000012
0.5040055000000012 0.46780840000000107 0.5461966000000013
0.5043052000000012 0.4677085000000011 0.5471290000000013
0.5060035000000013 0.46940680000000107 0.5486941000000013
0.5046715000000013 0.46920700000000104 0.5484610000000013
0.5072023000000013 0.469306900000001 0.5498263000000013
0.5069692000000013 0.47190430000000105 0.5505589000000013
0.5089006000000014 0.47127160000000107 0.5513581000000013
0.5108320000000014 0.4727701000000011 0.5527900000000013
0.5109319000000014 0.4725370000000011 0.5545549000000013
0.5131963000000015 0.4738024000000011 0.5546548000000013
0.5157604000000015 0.4756672000000011 0.5543551000000013
0.5166262000000015 0.4752010000000011 0.5548213000000013
0.5178250000000015 0.4748347000000011 0.5559202000000013
0.5184910000000016 0.4762000000000011 0.5564197000000013
0.5181913000000016 0.4777984000000011 0.5587174000000013
0.5176252000000016 0.47809810000000114 0.5587840000000013
0.5179915000000016 0.47829790000000116 0.5589172000000013
0.5198896000000016 0.4783312000000012 0.5606155000000014
0.5217877000000016 0.47706580000000115 0.5616478000000014
0.5238190000000016 0.47866420000000115 0.5628466000000014
0.5261500000000016 0.47906380000000115 0.5646448000000014
0.5269492000000016 0.4797964000000012 0.5659435000000014
0.5284477000000015 0.48216070000000116 0.5688406000000014
0.5296132000000016 0.4840921000000012 0.5706388000000013
0.5294800000000015 0.4848913000000012 0.5705056000000013
0.5303125000000015 0.48442510000000116 0.5705722000000013
0.5303458000000015 0.48329290000000114 0.5697064000000013
0.5319109000000015 0.48329290000000114 0.5707387000000013
0.5341753000000016 0.48422530000000114 0.5720707000000013
0.5348413000000016 0.48638980000000115 0.5745349000000013
0.5364730000000016 0.4853908000000011 0.5758003000000013
0.5368393000000017 0.48638980000000115 0.5785309000000013
0.5386042000000016 0.48822130000000113 0.5808952000000013
0.5394367000000017 0.48835450000000113 0.5806621000000013
0.5382379000000016 0.4883212000000011 0.5814946000000013
0.5386375000000017 0.4885876000000011 0.5815945000000013
0.5377051000000016 0.49091860000000115 0.5843584000000014
0.5379049000000016 0.4929832000000012 0.5857903000000014
0.5374387000000016 0.4948813000000012 0.5874886000000015
0.5395699000000016 0.4965463000000012 0.5890870000000015
0.5399362000000016 0.49591360000000123 0.5877217000000015
0.5423338000000016 0.49754530000000124 0.5896198000000015
0.5411683000000016 0.5000428000000012 0.5915512000000015
0.5424670000000016 0.5003092000000012 0.5941153000000015
0.5426002000000016 0.5011084000000012 0.5964796000000014
0.5434327000000017 0.5028733000000012 0.5976784000000015
0.5427667000000016 0.5053042000000012 0.5993767000000015
0.5417344000000016 0.5054041000000012 0.6024403000000016
0.5433328000000016 0.5045716000000012 0.6039721000000016
0.5450311000000017 0.5071024000000013 0.6039055000000015
0.5451976000000016 0.5067028000000012 0.6037390000000016
0.5440654000000016 0.5079349000000012 0.6055039000000015
0.5456305000000016 0.5074354000000012 0.6058369000000016
0.5455306000000015 0.5071690000000012 0.6057037000000015
0.5446981000000015 0.5080348000000012 0.6068026000000015
0.5457304000000015 0.5098663000000012 0.6088339000000015
0.5479282000000015 0.5110318000000013 0.6092668000000014
0.5471956000000016 0.5130298000000013 0.6123970000000014
0.5478949000000015 0.5145283000000013 0.6122305000000015
0.5496931000000015 0.5155606000000013 0.6123304000000015
0.5492602000000015 0.5167594000000013 0.6110650000000015
0.5499928000000015 0.5174920000000013 0.6124303000000015
0.5507920000000015 0.5186575000000013 0.6149611000000016
0.5524903000000015 0.5182912000000013 0.6143950000000016
0.5536558000000016 0.5193568000000013 0.6172588000000016
0.5526235000000016 0.5190238000000013 0.6177583000000015
0.5522239000000015 0.5209885000000013 0.6161266000000015
0.5522572000000016 0.5221207000000013 0.6188239000000015
0.5513581000000015 0.5246515000000014 0.6183910000000016
0.5512249000000015 0.5259169000000014 0.6209218000000016
0.5527567000000014 0.5260834000000013 0.6220873000000017
0.5536558000000015 0.5283145000000014 0.6225535000000016
0.5547214000000015 0.5283145000000014 0.6215212000000017
0.5573521000000015 0.5312116000000013 0.6225202000000016
0.5563198000000015 0.5326768000000014 0.6236191000000016
0.5565862000000015 0.5339089000000014 0.6256504000000016
0.5590837000000015 0.5355406000000014 0.6258835000000016
0.5593501000000015 0.5370058000000014 0.6263164000000015
0.5608486000000015 0.5384377000000015 0.6272155000000016
0.5605156000000014 0.5374054000000015 0.6276151000000016
0.5622472000000015 0.5373721000000015 0.6296131000000017
0.5630797000000015 0.5395033000000015 0.6300460000000017
0.5618809000000015 0.5415013000000015 0.6327433000000017
0.5618143000000014 0.5430331000000015 0.6357403000000017
0.5617810000000014 0.5433994000000015 0.6372055000000018
0.5624137000000015 0.5431663000000015 0.6389704000000017
0.5654107000000015 0.5433994000000015 0.6385375000000018
0.5666095000000015 0.5437324000000016 0.6394366000000018
0.5670091000000016 0.5441320000000016 0.6395698000000019
0.5681746000000016 0.5460967000000017 0.6412015000000019
0.5682412000000017 0.5461633000000017 0.6413680000000018
0.5694067000000017 0.5475286000000017 0.6430996000000019
0.5711383000000018 0.5490271000000017 0.6457303000000019
0.5716711000000018 0.5502259000000017 0.6468625000000019
0.5709052000000018 0.5504923000000017 0.6478615000000019
0.5730364000000018 0.5532229000000017 0.6501592000000018
0.5759335000000018 0.5539222000000017 0.6515911000000019
0.5766661000000017 0.5525902000000017 0.6530230000000019
0.5765995000000017 0.5540221000000017 0.6532561000000019
0.5784976000000017 0.5563864000000017 0.6550210000000019
0.5783311000000018 0.5558869000000017 0.6556204000000019
0.5778982000000018 0.5567194000000018 0.6559867000000019
0.5804623000000018 0.5579515000000017 0.655021000000002
0.5797297000000018 0.5607154000000018 0.655820200000002
0.5797963000000018 0.5597497000000018 0.655387300000002
0.5807620000000018 0.5626801000000018 0.657318700000002
0.5834926000000018 0.5640787000000018 0.656652700000002
0.5832928000000018 0.5655772000000018 0.6565195000000019
0.5840587000000018 0.5677417000000018 0.6575851000000019
0.5854906000000019 0.5690737000000018 0.658517500000002
0.5874553000000019 0.5688406000000018 0.660382300000002
0.5870557000000018 0.5694733000000018 0.661714300000002
0.5870557000000018 0.5694067000000018 0.660182500000002
0.5881879000000019 0.5712715000000018 0.6608485000000021
0.5888872000000018 0.5716045000000018 0.662080600000002
0.5887873000000018 0.5727700000000019 0.664478200000002
0.5907187000000018 0.5748346000000019 0.6662098000000021
0.5896531000000018 0.5772655000000019 0.6646447000000021
0.5886541000000018 0.5781979000000019 0.6659434000000021
0.5882878000000018 0.5789638000000019 0.668274400000002
0.5902525000000018 0.5789971000000019 0.670938400000002
0.5908852000000019 0.579063700000002 0.6699061000000021
0.5910184000000019 0.5792968000000019 0.6708385000000021
0.590518900000002 0.579063700000002 0.6731695000000021
0.5898529000000019 0.5786974000000019 0.6721705000000021
0.5903524000000019 0.5814280000000019 0.6742351000000021
0.5932828000000019 0.5821606000000019 0.6739354000000021
0.5959135000000019 0.582793300000002 0.673003000000002
0.5980447000000019 0.583392700000002 0.674235100000002
0.5993434000000019 0.5840920000000019 0.674867800000002
0.5977450000000019 0.5830264000000019 0.677731600000002
0.5974120000000018 0.583925500000002 0.679496500000002
0.5962132000000018 0.583192900000002 0.679896100000002
0.5964796000000018 0.583892200000002 0.681061600000002
0.5966461000000017 0.583958800000002 0.6811615000000021
0.5980447000000018 0.583692400000002 0.6821938000000021
0.5990437000000017 0.584092000000002 0.6825934000000021
0.5992768000000017 0.582660100000002 0.6832261000000022
0.6019741000000017 0.583292800000002 0.6837589000000022
0.6032395000000017 0.5850244000000021 0.6838921000000022
0.6030730000000017 0.5851576000000022 0.6836923000000023
0.6048379000000017 0.5852575000000022 0.6840586000000023
0.6052042000000017 0.5862898000000022 0.6868225000000023
0.6066028000000018 0.5871889000000022 0.6898195000000024
0.6081346000000017 0.5863564000000022 0.6895864000000024
0.6094666000000017 0.5861899000000023 0.6891202000000024
0.6119308000000018 0.5859568000000023 0.6903190000000025
0.6144616000000018 0.5881546000000023 0.6914512000000025
0.6144616000000018 0.5892202000000023 0.6910183000000025
0.6156604000000019 0.5894866000000023 0.6917176000000025
0.6153274000000019 0.5898862000000024 0.6933493000000025
0.6165928000000018 0.5916844000000023 0.6921838000000025
0.6182245000000018 0.5933161000000023 0.6950476000000024
0.6193900000000019 0.5934493000000024 0.6974119000000024
0.6188905000000019 0.5944150000000024 0.6982111000000024
0.6210217000000019 0.5946148000000023 0.6993100000000024
0.6216211000000019 0.5967793000000023 0.7010416000000025
0.6213547000000019 0.5967127000000023 0.7031395000000025
0.6218875000000019 0.5966128000000023 0.7028398000000025
0.6221539000000019 0.5980114000000023 0.7049710000000025
0.6205888000000019 0.5977450000000023 0.7060033000000024
0.621487900000002 0.5986774000000024 0.7053706000000024
0.622819900000002 0.6002425000000023 0.7051375000000024
0.6251176000000019 0.6001093000000023 0.7064029000000024
0.6269824000000019 0.6011749000000023 0.7072021000000024
0.628181200000002 0.6029065000000023 0.7086340000000024
0.628214500000002 0.6037390000000024 0.7103989000000024
0.629213500000002 0.6040387000000024 0.7102990000000023
0.628147900000002 0.6053374000000024 0.7095331000000024
0.628680700000002 0.6063364000000023 0.7089670000000023
0.629446600000002 0.6082678000000024 0.7117975000000023
0.629146900000002 0.6094999000000023 0.7110649000000023
0.6293134000000019 0.6090337000000023 0.7129963000000024
0.6301792000000019 0.6100993000000023 0.7138954000000024
0.6298795000000019 0.6130297000000023 0.7147612000000024
0.629679700000002 0.6141952000000024 0.7176583000000024
0.629513200000002 0.6160600000000024 0.7175584000000024
0.631045000000002 0.6180580000000024 0.7188904000000024
0.630012700000002 0.6180580000000024 0.7187239000000024
0.631744300000002 0.6168925000000024 0.7195231000000024
0.631644400000002 0.6182578000000024 0.7198894000000025
0.632476900000002 0.6171256000000024 0.7213546000000025
0.633475900000002 0.6162598000000024 0.7241185000000026
0.634075300000002 0.6157936000000024 0.7240519000000025
0.6355405000000021 0.6163597000000024 0.7250842000000025
0.634674700000002 0.6187906000000024 0.7272487000000025
0.635707000000002 0.6187573000000024 0.7262497000000026
0.637538500000002 0.6192568000000024 0.7271821000000026
0.636839200000002 0.6201892000000024 0.7292467000000026
0.6399028000000021 0.6208219000000025 0.7301791000000026
0.6421006000000021 0.6215545000000025 0.7306120000000026
0.6445981000000022 0.6225535000000024 0.7327765000000026
0.6466627000000021 0.6221539000000024 0.7346080000000026
0.6470956000000021 0.6225868000000023 0.7345747000000026
0.6465961000000021 0.6250843000000024 0.7331428000000025
0.6482611000000021 0.6261166000000024 0.7357402000000025
0.6504589000000022 0.6271822000000024 0.7388704000000025
0.6515911000000022 0.6276817000000023 0.7397362000000025
0.6534892000000022 0.6276817000000023 0.7399693000000025
0.6537223000000022 0.6265162000000023 0.7388704000000025
0.6535225000000022 0.6276151000000023 0.7397695000000025
0.6556204000000022 0.6269824000000023 0.7401025000000025
0.6548212000000022 0.6280147000000023 0.7396363000000026
0.6553540000000022 0.6276484000000022 0.7403023000000026
0.6563197000000022 0.6281479000000022 0.7392034000000026
0.6568192000000022 0.6298462000000022 0.7394698000000026
0.6594832000000022 0.6308119000000022 0.7399360000000026
0.6600826000000022 0.6333760000000022 0.7400359000000026
0.6625801000000022 0.6358069000000022 0.7398361000000027
0.6622471000000022 0.6387706000000022 0.7423669000000027
0.6619807000000022 0.6379714000000022 0.7419673000000027
0.6620140000000022 0.6393034000000022 0.7415344000000027
0.6635125000000022 0.6379381000000022 0.7430995000000027
0.6634459000000021 0.6400027000000021 0.7452640000000027
0.6647779000000021 0.6423337000000021 0.7454971000000027
0.6662098000000022 0.6449311000000021 0.7461631000000027
0.6659101000000022 0.6448978000000021 0.7470955000000028
0.6671422000000021 0.6446980000000021 0.7487938000000028
0.6667093000000022 0.6450310000000021 0.7506253000000028
0.6666427000000021 0.6464296000000022 0.7524235000000028
0.6681079000000022 0.6455305000000021 0.7532560000000028
0.6694066000000022 0.6467959000000021 0.7548877000000028
0.6693400000000022 0.6484942000000021 0.7571854000000028
0.6723703000000022 0.6491602000000022 0.7576183000000027
0.6726700000000022 0.6518575000000022 0.7575850000000027
0.6752008000000023 0.6548212000000022 0.7582843000000027
0.6757669000000023 0.6534559000000022 0.7604155000000027
0.6763996000000023 0.6540220000000022 0.7627132000000026
0.6790969000000023 0.6549544000000023 0.7644781000000026
0.6808618000000023 0.6541219000000023 0.7659100000000026
0.6832927000000023 0.6549211000000023 0.7661098000000026
0.6859234000000023 0.6575185000000022 0.7683742000000027
0.6886873000000023 0.6597829000000023 0.7689070000000027
0.6887539000000024 0.6609817000000023 0.7682077000000027
0.6893866000000024 0.6607486000000024 0.7693732000000028
0.6892867000000024 0.6617143000000023 0.7707052000000028
0.6904522000000024 0.6629797000000023 0.7711714000000027
0.6915178000000024 0.6646114000000023 0.7731694000000028
0.6904189000000024 0.6659434000000023 0.7740019000000028
0.6922504000000024 0.6655105000000023 0.7749676000000028
0.6938488000000024 0.6664429000000024 0.7769656000000028
0.6958801000000023 0.6655105000000023 0.7791967000000029
0.6965461000000024 0.6677083000000024 0.7802956000000029
0.6971122000000024 0.6699727000000024 0.7799626000000028
0.6995764000000024 0.6722704000000024 0.7819939000000028
0.6986773000000024 0.6753673000000023 0.7851241000000028
0.6990769000000024 0.6768325000000024 0.7849243000000028
0.6993766000000025 0.6775318000000023 0.7851907000000028
0.7003756000000024 0.6797962000000024 0.7873219000000028
0.7002091000000025 0.6813946000000024 0.7871221000000028
0.7011082000000025 0.6841252000000024 0.7884208000000028
0.7027399000000025 0.6855904000000025 0.7894864000000028
0.7037389000000025 0.6876217000000024 0.7893199000000028
0.7041052000000025 0.6903856000000025 0.7909849000000029
0.7058035000000026 0.6899527000000025 0.7921171000000029
0.7080013000000026 0.6922837000000025 0.794081800000003
0.7088671000000026 0.6909184000000025 0.7969789000000029
0.7114978000000026 0.6923170000000025 0.799409800000003
0.7114645000000026 0.6930496000000025 0.800508700000003
0.7123969000000027 0.6931828000000025 0.800009200000003
0.7127632000000027 0.6935158000000026 0.800242300000003
0.7142284000000028 0.6935491000000026 0.801674200000003
0.7167925000000027 0.6933160000000026 0.8036722000000031
0.7162930000000027 0.6928831000000026 0.804671200000003
0.7175917000000027 0.6938821000000026 0.804937600000003
0.7183909000000027 0.6944482000000026 0.806702500000003
0.7215877000000027 0.6958468000000027 0.807168700000003
0.7204888000000027 0.6962131000000027 0.8089669000000029
0.7222870000000027 0.6977782000000027 0.8097328000000029
0.7224535000000026 0.6998761000000027 0.8099326000000029
0.7219873000000027 0.7024402000000026 0.8117308000000029
0.7230196000000026 0.7015078000000026 0.8142616000000029
0.7250176000000027 0.7008085000000026 0.8147944000000029
0.7262830000000027 0.7018075000000026 0.8143948000000029
0.7259167000000026 0.7033060000000025 0.8149942000000029
0.7256503000000026 0.7044715000000026 0.8153272000000029
0.7251841000000027 0.7033060000000025 0.8185573000000029
0.7241185000000027 0.7058368000000026 0.8178913000000029
0.7252840000000027 0.7060366000000026 0.8197894000000029
0.7256836000000028 0.7090669000000026 0.8200891000000029
0.7271488000000028 0.7075684000000027 0.8196895000000028
0.7273819000000028 0.7089337000000027 0.8212546000000028
0.7271155000000028 0.7094332000000027 0.8236522000000028
0.7288138000000028 0.7097329000000027 0.8235856000000028
0.7304788000000029 0.7108318000000027 0.8237188000000029
0.7327765000000028 0.7127632000000027 0.8256502000000029
0.7325101000000028 0.7151608000000027 0.8281810000000029
0.7341751000000029 0.7167259000000027 0.8313112000000029
0.7331428000000029 0.7165594000000027 0.8309116000000029
0.7346413000000028 0.7192234000000027 0.8324434000000028
0.7353406000000028 0.7200559000000027 0.8338087000000028
0.7362730000000028 0.7207219000000028 0.8356735000000028
0.7382377000000029 0.7222537000000028 0.8379046000000029
0.7392700000000029 0.7243849000000028 0.8394031000000028
0.7418008000000029 0.7244515000000028 0.8398360000000028
0.741634300000003 0.7267492000000028 0.8401024000000028
0.7434325000000029 0.7257835000000028 0.8403355000000028
0.7441984000000029 0.7259833000000028 0.8412679000000028
0.745630300000003 0.7285141000000028 0.8415343000000028
0.747195400000003 0.7291135000000029 0.8429662000000029
0.7489936000000029 0.7293466000000028 0.8420005000000029
0.7481944000000029 0.7315444000000029 0.8414344000000029
0.7502590000000029 0.7335757000000028 0.8438653000000029
0.7533559000000029 0.7331095000000029 0.8461630000000029
0.7531894000000029 0.7350076000000029 0.8470621000000029
0.753322600000003 0.7349743000000029 0.8475283000000029
0.7554205000000029 0.7346080000000028 0.8481610000000029
0.756852400000003 0.7361398000000028 0.848294200000003
0.759549700000003 0.7371388000000028 0.850525300000003
0.759749500000003 0.7367392000000027 0.852057100000003
0.761148100000003 0.7365061000000027 0.8537887000000031
0.761914000000003 0.7365727000000027 0.8540884000000031
0.764078500000003 0.7365394000000027 0.8559532000000031
0.764245000000003 0.7368724000000028 0.8567191000000031
0.763545700000003 0.7360066000000027 0.857984500000003
0.763878700000003 0.7372054000000028 0.859782700000003
0.762813100000003 0.7376716000000028 0.861114700000003
0.762446800000003 0.7391701000000027 0.861281200000003
0.762380200000003 0.7391701000000027 0.8636122000000029
0.7615144000000029 0.7405021000000027 0.8630461000000029
0.762646600000003 0.7405687000000027 0.863146000000003
0.765343900000003 0.7411681000000028 0.864844300000003
0.7644781000000029 0.7419673000000028 0.864944200000003
0.764578000000003 0.7431661000000028 0.864811000000003
0.765343900000003 0.7434991000000029 0.865843300000003
0.764911000000003 0.7440985000000029 0.864611200000003
0.7669090000000031 0.7453639000000029 0.8649775000000031
0.7661431000000031 0.7442317000000028 0.8663761000000031
0.7670089000000031 0.7450975000000029 0.8664760000000031
0.7687738000000031 0.7455970000000028 0.8667757000000031
0.770305600000003 0.7465294000000029 0.8674750000000031
0.7709050000000031 0.7464628000000029 0.8680078000000031
0.7719706000000031 0.7484608000000029 0.8688736000000031
0.7725700000000031 0.7507585000000029 0.8688736000000031
0.7735024000000031 0.7516576000000029 0.8702056000000031
0.7743349000000032 0.7534891000000029 0.8703055000000032
0.7761997000000032 0.7552873000000029 0.8695396000000032
0.7770322000000032 0.7563862000000029 0.8703388000000032
0.7766659000000031 0.7567525000000029 0.8702722000000032
0.7762330000000032 0.7590835000000029 0.8704387000000031
0.7760998000000031 0.7614145000000029 0.8695729000000031
0.7774984000000031 0.7621471000000029 0.8711380000000031
0.7768324000000031 0.7635457000000029 0.8722702000000031
0.776998900000003 0.7635457000000029 0.8747344000000031
0.776899000000003 0.7646446000000029 0.8752672000000031
0.778464100000003 0.7645114000000028 0.8757334000000031
0.779263300000003 0.7652440000000028 0.8766325000000031
0.779230000000003 0.7654438000000028 0.8770321000000032
0.781694200000003 0.7663762000000028 0.8774317000000033
0.782560000000003 0.7667758000000029 0.8791633000000033
0.783858700000003 0.7668091000000029 0.8780311000000033
0.7842583000000031 0.7674085000000029 0.8790301000000033
0.784691200000003 0.767175400000003 0.8792299000000032
0.7847911000000031 0.7682077000000029 0.8782642000000033
0.7845247000000031 0.7703056000000029 0.8784640000000032
0.7851574000000031 0.770372200000003 0.8779645000000033
0.7874551000000031 0.7711048000000029 0.8767990000000032
0.786289600000003 0.7710049000000029 0.8757001000000032
0.7877548000000031 0.7703056000000029 0.8777314000000032
0.7875217000000031 0.770638600000003 0.8793964000000032
0.7862563000000031 0.771238000000003 0.8792632000000031
0.7854571000000031 0.772869700000003 0.8809948000000032
0.7850575000000031 0.772969600000003 0.8817607000000032
0.7859899000000031 0.7738687000000031 0.8828596000000032
0.7854571000000031 0.7750675000000031 0.8841916000000032
0.7878547000000031 0.7749343000000031 0.8854237000000031
0.7899193000000031 0.7749343000000031 0.8866225000000032
0.7909183000000031 0.777798100000003 0.8881210000000032
0.7922503000000031 0.7775983000000031 0.8893198000000032
0.7938487000000031 0.778297600000003 0.8911180000000032
0.7946812000000031 0.778863700000003 0.8911846000000032
0.7933159000000031 0.7794631000000031 0.8927497000000032
0.7930828000000031 0.7800958000000031 0.8921503000000032
0.7954471000000031 0.7809283000000031 0.8952139000000032
0.7962463000000031 0.7805953000000031 0.8970787000000032
0.7985107000000031 0.7805953000000031 0.8958799000000032
0.7990102000000031 0.7812280000000031 0.8958466000000032
0.7998094000000031 0.7826932000000032 0.8964460000000032
0.8022736000000031 0.7841584000000033 0.8977780000000032
0.8045713000000031 0.7839586000000033 0.8989102000000032
0.8054704000000031 0.7852573000000033 0.8986105000000032
0.8055703000000032 0.7855570000000033 0.9003754000000032
0.8055037000000032 0.7878880000000033 0.9003088000000031
0.8056036000000032 0.7881211000000032 0.9007750000000031
0.8059033000000032 0.7893199000000033 0.9024733000000031
0.8068357000000033 0.7906852000000033 0.9023068000000032
0.8069689000000033 0.7906519000000033 0.9037387000000032
0.8074018000000033 0.7917841000000033 0.9041050000000033
0.8094331000000032 0.7913845000000033 0.9033724000000033
0.8100658000000033 0.7907851000000032 0.9050041000000033
0.8106319000000033 0.7902190000000032 0.9044713000000033
0.8129296000000032 0.7899859000000032 0.9061030000000033
0.8152606000000032 0.7892533000000033 0.9086005000000034
0.8154271000000032 0.7883875000000032 0.9099658000000034
0.8173585000000032 0.7877881000000032 0.9104653000000034
0.8187571000000032 0.7882210000000032 0.9111313000000034
0.8208550000000032 0.7889869000000032 0.9130960000000035
0.8227864000000032 0.7892533000000032 0.9149941000000035
0.8243515000000032 0.7895530000000032 0.9149941000000035
0.8248177000000032 0.7882876000000032 0.9152605000000035
0.8253505000000032 0.7872886000000032 0.9150607000000035
0.8245846000000032 0.7890868000000032 0.9167257000000035
0.8264161000000032 0.7892533000000032 0.9173251000000036
0.8264161000000032 0.7904188000000032 0.9166591000000035
0.8292466000000032 0.7914511000000032 0.9154270000000035
0.8296795000000031 0.7927831000000032 0.9160264000000036
0.8293465000000031 0.7948810000000032 0.9174583000000036
0.8290468000000031 0.7954804000000032 0.9200224000000036
0.8302123000000031 0.7959799000000032 0.9208549000000036
0.8319772000000031 0.7952140000000032 0.9209881000000036
0.8325433000000031 0.7967791000000032 0.9218872000000037
0.8355736000000031 0.7966459000000031 0.9231193000000036
0.8347411000000031 0.7959466000000032 0.9245845000000037
0.8346745000000031 0.7965127000000032 0.9257500000000037
0.834274900000003 0.7982110000000032 0.9259165000000037
0.833176000000003 0.7974451000000032 0.9273484000000037
