0.0092674 0.0105661 0.0109324
0.0110989 0.0098002 0.0128638
0.0125641 0.0106327 0.0141292
0.0146287 0.0115651 0.0140959
0.016327 0.0108658 0.0145288
0.0186913 0.0119647 0.0152614
0.0181918 0.0136963 0.01666
0.0173593 0.0132634 0.0180253
0.0190576 0.0142291 0.0192907
0.0199234 0.0139627 0.0192241
0.0211222 0.0161605 0.0203896
0.020989 0.015994 0.0217549
0.0226873 0.016327 0.0240859
0.0251515 0.0174259 0.0242857
0.0264169 0.018658 0.0238861
0.0277489 0.0202897 0.0260839
0.0289477 0.021988 0.0257842
0.0281152 0.0238861 0.0283816
0.0301798 0.0248851 0.0298135
0.0302131 0.0258175 0.030313
0.0329437 0.0278155 0.0306793
0.0327106 0.0278488 0.0315118
0.0329437 0.0292141 0.0325108
0.0326773 0.0283816 0.0337096
0.0340426 0.0289144 0.035974
0.0355078 0.0291475 0.034642
0.0350749 0.0318781 0.0358075
0.0364069 0.0326773 0.0350416
0.0372394 0.0344422 0.0363736
0.0385381 0.0371395 0.0360406
0.0414685 0.0380053 0.0386047
0.0433333 0.0402364 0.039637
0.0441658 0.0409024 0.0408691
0.0447652 0.0425341 0.0409357
0.0439993 0.0425341 0.0405694
0.0468298 0.0444655 0.0419347
0.0482284 0.0444655 0.0430003
0.0496603 0.0448984 0.0439327
0.0528238 0.0465967 0.0456976
0.0526573 0.0474958 0.0472294
0.0528238 0.0482617 0.047629
0.0540559 0.0484948 0.0487612
0.0555877 0.047629 0.0497602
0.0560539 0.0497269 0.0510589
0.0570196 0.0496603 0.050293
0.059250699999999996 0.0488944 0.0533899
0.060948999999999996 0.0504928 0.053956
0.061814799999999996 0.0518581 0.0557875
0.060649299999999996 0.0521245 0.0575191
0.060183099999999996 0.0536563 0.058917699999999996
0.0628471 0.053956 0.059650299999999996
0.0635464 0.0545221 0.061315299999999996
0.0641791 0.0557875 0.0629137
0.0647452 0.0582184 0.0654112
0.067276 0.060249699999999996 0.067276
0.0694405 0.060915699999999996 0.0678421
0.0702397 0.061648299999999996 0.0685747
0.0704395 0.0631801 0.0700399
0.0691075 0.0631135 0.0720712
0.070606 0.0632134 0.0730369
0.0711388 0.0654445 0.0734032
0.0701398 0.0663769 0.0754012
0.0703729 0.0681751 0.0758341
0.0715717 0.0687079 0.0774991
0.0730702 0.0695071 0.078931
0.0731701 0.0699733 0.0801631
0.0732034 0.070939 0.0819613
0.0757342 0.0721378 0.0818947
0.0784981 0.0743356 0.0833266
0.078598 0.0735364 0.0844588
0.0786646 0.0750349 0.0846919
0.0793972 0.0749017 0.0843256
0.0788311 0.0738361 0.0859573
0.0783982 0.0756676 0.0856576
0.0795637 0.0768331 0.0864235
0.0788311 0.0784981 0.0857908
0.0785314 0.077932 0.0874558
0.0776989 0.0797302 0.0873559
0.0790975 0.0801631 0.0884215
0.0807292 0.0814285 0.0886546
0.0801964 0.0832267 0.0901531
0.0806293 0.0836263 0.0891541
0.0803296 0.08326 0.0892873
0.0797968 0.0819613 0.0898867
0.0817615 0.0847918 0.0907525
0.0804295 0.0869563 0.0924841
0.0789976 0.0872893 0.0941824
0.0803629 0.087589 0.0955477
0.0805294 0.0904861 0.0977122
0.0824941 0.0906526 0.0975124
0.0830602 0.091918 0.0966799
0.0833599 0.0924508 0.0960472
0.0820945 0.0924508 0.0964801
0.0834931 0.0924508 0.0987112
0.0848917 0.0939493 0.1004428
0.0876556 0.0934498 0.1013419
0.0876889 0.0949816 0.1028404
0.0868564 0.095914 0.1054045
0.087922 0.0969463 0.1064701
0.0884881 0.0970795 0.1093006
0.0885214 0.0980119 0.1104994
0.088588 0.0991108 0.1107991
0.0870895 0.1002763 0.1123309
0.0868231 0.1017748 0.1112986
0.0883549 0.1008757 0.1122976
0.0893872 0.1035064 0.1124308
0.091585 0.1063702 0.1139959
0.092917 0.105904 0.1165933
0.0923842 0.1067698 0.1184248
0.0931168 0.1072693 0.1187911
0.0945154 0.1068031 0.1192573
0.096913 0.1064701 0.1196902
0.0981784 0.1076356 0.1199233
0.0974791 0.1080019 0.1208557
0.0971794 0.1072027 0.1219213
0.0971128 0.1085014 0.1240525
0.099577 0.1100998 0.126217
0.1001764 0.1111654 0.1274824
0.0999766 0.1111654 0.12655
0.102241 0.1106659 0.12511809999999998
0.1026073 0.1098001 0.12488499999999998
0.1035064 0.1114984 0.12711609999999998
0.1050049 0.1137628 0.12708279999999997
0.1060039 0.1159606 0.12571749999999995
0.1076356 0.1182583 0.12704949999999995
0.108568 0.1187911 0.12821499999999997
0.110233 0.120556 0.12888099999999997
0.1114318 0.1206559 0.12904749999999998
0.1136962 0.1229203 0.13157829999999998
0.1152946 0.1234864 0.13204449999999998
0.1174258 0.1224874 0.13194459999999997
0.1171261 0.1249849 0.13187799999999997
0.1197901 0.1242523 0.13107879999999997
0.1216882 0.1239859 0.13320999999999997
0.122887 0.1254844 0.13367619999999997
0.1229203 0.1283815 0.13614039999999997
0.1239859 0.1279486 0.13720599999999997
0.1233199 0.12738249999999998 0.13897089999999998
0.1248517 0.12734919999999997 0.1393372
0.1262836 0.12891429999999998 0.1409689
0.1270828 0.130879 0.14160160000000002
0.1289476 0.1303462 0.14363290000000004
0.1314451 0.12991329999999998 0.14469850000000004
0.13354300000000002 0.1308124 0.14503150000000004
0.13484170000000004 0.1324108 0.14689630000000004
0.13434220000000002 0.134542 0.14629690000000004
0.13484170000000004 0.13410909999999998 0.14646340000000005
0.13584070000000004 0.1364068 0.14932720000000005
0.13637350000000004 0.1376722 0.15129190000000006
0.13733920000000005 0.13757229999999998 0.15205780000000008
0.13777210000000006 0.13683969999999998 0.15445540000000008
0.13823830000000006 0.13750569999999998 0.1569529000000001
0.13793860000000005 0.1389376 0.15691960000000008
0.13710610000000004 0.1384048 0.15978340000000008
0.13813840000000005 0.1397035 0.16084900000000008
0.13847140000000005 0.1418347 0.1634797000000001
0.13747240000000005 0.1404694 0.1653778000000001
0.13937050000000006 0.1414018 0.16634350000000012
0.13980340000000008 0.1422676 0.16924060000000013
0.1399033000000001 0.1421344 0.17143840000000013
0.1409689000000001 0.1426672 0.17317000000000013
0.1434331000000001 0.1428337 0.17460190000000014
0.1460305000000001 0.14393260000000002 0.17659990000000014
0.1464967000000001 0.14439880000000002 0.17789860000000016
0.1494604000000001 0.14606380000000002 0.18046270000000017
0.1490275000000001 0.14762890000000004 0.18162820000000018
0.1505593000000001 0.15009310000000003 0.18012970000000017
0.1525573000000001 0.14986000000000002 0.18012970000000017
0.1522909000000001 0.1493605 0.18242740000000018
0.1543555000000001 0.15099220000000002 0.18189460000000018
0.1556542000000001 0.1505593 0.18349300000000018
0.1574524000000001 0.15119200000000002 0.18219430000000017
0.15921730000000012 0.1496935 0.18385930000000017
0.16068250000000012 0.15072580000000002 0.18542440000000018
0.15988330000000012 0.1506925 0.1858573000000002
0.16001650000000012 0.1526239 0.1861237000000002
0.16208110000000012 0.1544221 0.1855243000000002
0.16101550000000012 0.1544221 0.1862902000000002
0.16258060000000013 0.1543555 0.1860904000000002
0.16417900000000013 0.1552879 0.1886878000000002
0.16441210000000014 0.1550215 0.18892090000000022
0.16554430000000014 0.15618700000000002 0.19048600000000024
0.16444540000000013 0.15618700000000002 0.19334980000000024
0.16657660000000013 0.15791860000000002 0.19511470000000025
0.16790860000000013 0.16094890000000003 0.19638010000000025
0.16824160000000013 0.16274710000000003 0.19771210000000025
0.16977340000000013 0.16434550000000003 0.19990990000000025
0.17073910000000014 0.16347970000000003 0.20004310000000025
0.17263720000000016 0.16337980000000002 0.20064250000000025
0.17230420000000016 0.16367950000000003 0.20150830000000025
0.17326990000000017 0.16564420000000005 0.20074240000000024
0.17540110000000017 0.16680970000000006 0.20274040000000024
0.17716600000000018 0.16857460000000007 0.20267380000000024
0.1775323000000002 0.16924060000000007 0.20397250000000025
0.1773991000000002 0.16874110000000006 0.20483830000000025
0.1775323000000002 0.17003980000000007 0.20630350000000025
0.1800964000000002 0.17017300000000007 0.20570410000000025
0.18139510000000023 0.16984000000000007 0.20690290000000025
0.18345970000000023 0.1702729000000001 0.20870110000000025
0.18429220000000024 0.1700731000000001 0.20953360000000026
0.18489160000000024 0.1716715000000001 0.20846800000000026
0.18768880000000024 0.1717381000000001 0.20773540000000026
0.18619030000000023 0.17097220000000007 0.20733580000000026
0.18778870000000022 0.17037280000000007 0.20703610000000025
0.18932050000000022 0.17037280000000007 0.20916730000000025
0.19165150000000022 0.16950700000000007 0.21099880000000026
0.19221760000000024 0.17143840000000007 0.21283030000000028
0.19218430000000022 0.17120530000000006 0.21243070000000028
0.19198450000000022 0.17346970000000006 0.2127970000000003
0.19065250000000022 0.17257060000000005 0.2140291000000003
0.19238410000000022 0.17323660000000005 0.2136628000000003
0.19454860000000024 0.17490160000000005 0.2130634000000003
0.19391590000000022 0.17683300000000005 0.2150614000000003
0.1931500000000002 0.17803180000000005 0.2156275000000003
0.1936828000000002 0.17889760000000005 0.2153611000000003
0.1930168000000002 0.18052930000000006 0.21552760000000032
0.19384930000000022 0.18116200000000007 0.21629350000000033
0.19474840000000024 0.18009640000000007 0.21649330000000033
0.19538110000000025 0.1801963000000001 0.21912400000000035
0.19551430000000025 0.1803961000000001 0.21782530000000033
0.19704610000000025 0.1823608000000001 0.21825820000000035
0.19787860000000027 0.1813285000000001 0.21899080000000035
0.19831150000000028 0.1816615000000001 0.21979000000000035
0.1997434000000003 0.1834597000000001 0.21842470000000033
0.2024740000000003 0.1840924000000001 0.21905740000000035
0.20244070000000028 0.1842256000000001 0.21799180000000035
0.20443870000000028 0.1866898000000001 0.21879100000000035
0.2050048000000003 0.1880551000000001 0.22045600000000035
0.2066698000000003 0.1890541000000001 0.22002310000000033
0.2080018000000003 0.1897201000000001 0.22042270000000033
0.2096002000000003 0.1895536000000001 0.21962350000000033
0.2094004000000003 0.1919845000000001 0.21929050000000033
0.2122642000000003 0.19295020000000013 0.21998980000000035
0.21223090000000028 0.19381600000000013 0.22002310000000036
0.21243070000000028 0.1927837000000001 0.22248730000000036
0.2129302000000003 0.19488160000000013 0.22428550000000036
0.2136295000000003 0.19654660000000013 0.22555090000000036
0.2138293000000003 0.19661320000000013 0.22801510000000036
0.21459520000000032 0.19794520000000013 0.22881430000000036
0.21502810000000033 0.19987660000000013 0.22764880000000035
0.21476170000000033 0.19961020000000013 0.22914730000000036
0.21579400000000035 0.20097550000000014 0.23131180000000037
0.21745900000000035 0.20244070000000014 0.23217760000000037
0.21659320000000035 0.20323990000000014 0.23207770000000036
0.21566080000000035 0.20520460000000015 0.23344300000000037
0.21432880000000035 0.20600380000000015 0.2346751000000004
0.21476170000000036 0.20876770000000017 0.2377054000000004
0.21639340000000037 0.20876770000000017 0.2397367000000004
0.21859120000000037 0.21009970000000017 0.2388709000000004
0.2202229000000004 0.20913400000000015 0.2395369000000004
0.2218879000000004 0.21126520000000015 0.24150160000000043
0.2239858000000004 0.21183130000000017 0.24393250000000044
0.2253844000000004 0.21352960000000018 0.24353290000000044
0.2253511000000004 0.2135629000000002 0.24369940000000045
0.2267830000000004 0.2159605000000002 0.24393250000000047
0.2279152000000004 0.2165266000000002 0.24652990000000047
0.2291140000000004 0.2177254000000002 0.24779530000000047
0.23041270000000041 0.2193904000000002 0.24932710000000047
0.23071240000000043 0.22142170000000022 0.2503261000000005
0.23354290000000044 0.22285360000000023 0.2507923000000005
0.23274370000000044 0.22531780000000023 0.2525239000000005
0.23460850000000044 0.22671640000000023 0.25498810000000055
0.23377600000000043 0.22838140000000023 0.25448860000000056
0.23564080000000043 0.23057920000000023 0.25525450000000055
0.23537440000000043 0.23267710000000025 0.25578730000000055
0.23657320000000043 0.23314330000000025 0.2570527000000006
0.23570740000000043 0.23560750000000025 0.2579185000000006
0.2356741000000004 0.23837140000000026 0.2567197000000006
0.23817160000000043 0.23720590000000025 0.2569528000000006
0.23943700000000043 0.23913730000000025 0.2572858000000006
0.24010300000000043 0.24140170000000025 0.25731910000000063
0.23937040000000043 0.24156820000000026 0.25921720000000065
0.23973670000000044 0.24276700000000026 0.26018290000000066
0.24260050000000044 0.24533110000000027 0.2602162000000007
0.24293350000000044 0.2467630000000003 0.2612818000000007
0.24343300000000045 0.2475955000000003 0.26431210000000066
0.24359950000000047 0.2471959000000003 0.26357950000000063
0.24463180000000048 0.24769540000000032 0.26281360000000065
0.2467963000000005 0.24722920000000032 0.26178130000000066
0.2488276000000005 0.24959350000000033 0.2632798000000007
0.2482615000000005 0.25179130000000033 0.2643787000000007
0.2483614000000005 0.25372270000000036 0.2638792000000007
0.2479618000000005 0.25598710000000036 0.26421220000000073
0.2476288000000005 0.25562080000000037 0.26344630000000074
0.2492272000000005 0.25771870000000036 0.26537770000000077
0.24985990000000052 0.2585845000000004 0.26617690000000077
0.24995980000000054 0.2598499000000004 0.26747560000000076
0.25122520000000054 0.2602495000000004 0.26740900000000073
0.25448860000000056 0.26284690000000044 0.26744230000000074
0.25375600000000054 0.26194780000000045 0.26854120000000076
0.2547883000000005 0.26391250000000044 0.26867440000000076
0.2552878000000005 0.26457850000000044 0.26907400000000076
0.2548882000000005 0.26517790000000047 0.26950690000000077
0.2564866000000005 0.2661769000000005 0.2698399000000008
0.2582515000000005 0.2671426000000005 0.2721709000000008
0.25911730000000055 0.26720920000000054 0.27410230000000085
0.2602495000000006 0.26631010000000055 0.27410230000000085
0.26168140000000056 0.26587720000000054 0.27273700000000084
0.26234740000000056 0.2650447000000005 0.27207100000000084
0.26311330000000055 0.2676754000000005 0.27223750000000085
0.2643787000000006 0.2705725000000005 0.27303670000000085
0.2661103000000006 0.2724373000000005 0.27540100000000084
0.2675755000000006 0.2734696000000005 0.27516790000000085
0.2684080000000006 0.2758006000000005 0.27500140000000084
0.2709721000000006 0.2762002000000005 0.27556750000000085
0.2736361000000006 0.27626680000000053 0.27516790000000085
0.2728036000000006 0.2759338000000005 0.2744353000000008
0.2752345000000006 0.2783647000000005 0.2744353000000008
0.2772325000000006 0.27959680000000053 0.2768329000000008
0.2764666000000006 0.28176130000000055 0.2778985000000008
0.27823150000000063 0.28172800000000053 0.2778652000000008
0.27866440000000064 0.28415890000000055 0.2787976000000008
0.28102870000000063 0.28279360000000053 0.28032940000000084
0.28202770000000066 0.2839591000000005 0.28239400000000087
0.2842255000000007 0.2825938000000005 0.2836594000000009
0.2860237000000007 0.2838925000000005 0.2824939000000009
0.2885212000000007 0.2854576000000005 0.2820610000000009
0.2902195000000007 0.2846917000000005 0.2838592000000009
0.2919844000000007 0.2847583000000005 0.28509130000000094
0.2942488000000007 0.28465840000000053 0.28595710000000096
0.2966131000000007 0.2856907000000005 0.28738900000000095
0.2969461000000007 0.2845918000000005 0.28858780000000095
0.2973790000000007 0.28732240000000053 0.2878552000000009
0.29687950000000074 0.28842130000000055 0.28695610000000094
0.2973790000000007 0.28892080000000053 0.28708930000000094
0.2987110000000007 0.2883547000000005 0.28888750000000096
0.2988109000000007 0.2899198000000005 0.28778860000000095
0.3002761000000007 0.2905858000000005 0.28938700000000095
0.3005758000000007 0.29278360000000053 0.28952020000000095
0.3004426000000007 0.29531440000000053 0.29135170000000093
0.3013417000000007 0.29657980000000056 0.29175130000000093
0.30220750000000074 0.29817820000000056 0.29298340000000095
0.30140830000000074 0.2999764000000006 0.293449600000001
0.29994310000000074 0.3002761000000006 0.29338300000000095
0.29914390000000074 0.3024406000000006 0.29431540000000095
0.2977786000000007 0.3047050000000006 0.295314400000001
0.2985445000000007 0.3061369000000006 0.29501470000000096
0.3007090000000007 0.3090007000000006 0.296912800000001
0.3012418000000007 0.3083014000000006 0.29994310000000096
0.3019078000000007 0.3097999000000006 0.300675700000001
0.30287350000000074 0.3104659000000006 0.303439600000001
0.30530440000000075 0.31239730000000066 0.30327310000000096
0.3064366000000008 0.31306330000000065 0.30337300000000095
0.3067030000000008 0.3120643000000006 0.305304400000001
0.30746890000000077 0.31372930000000065 0.30713590000000096
0.30920050000000077 0.31502800000000064 0.308234800000001
0.30960010000000077 0.31669300000000067 0.309566800000001
0.3101662000000008 0.31732570000000065 0.31113190000000096
0.3104659000000008 0.31972330000000065 0.313196500000001
0.3114982000000008 0.3209887000000007 0.314162200000001
0.3129634000000008 0.32095540000000067 0.316426600000001
0.3139291000000008 0.32215420000000067 0.316659700000001
0.3129634000000008 0.3247516000000007 0.318757600000001
0.3147283000000008 0.3272158000000007 0.319856500000001
0.3158605000000008 0.3294802000000007 0.319590100000001
0.3143953000000008 0.3297133000000007 0.320589100000001
0.31589380000000084 0.3314449000000007 0.32132170000000104
0.3174589000000008 0.3303127000000007 0.32355280000000103
0.31735900000000083 0.3317113000000007 0.325117900000001
0.31789180000000083 0.3328102000000007 0.324784900000001
0.3178585000000008 0.33271030000000074 0.326483200000001
0.3175255000000008 0.33340960000000075 0.326383300000001
0.3192238000000008 0.33251050000000076 0.326416600000001
0.3189574000000008 0.33251050000000076 0.325550800000001
0.3189907000000008 0.33274360000000075 0.328114900000001
0.3190240000000008 0.3337426000000008 0.328447900000001
0.3209887000000008 0.3337426000000008 0.327848500000001
0.3223873000000008 0.33317650000000076 0.327448900000001
0.3219544000000008 0.3332098000000008 0.326649700000001
0.3232531000000008 0.33301000000000075 0.327715300000001
0.3227536000000008 0.3334762000000008 0.32711590000000096
0.3239524000000008 0.3345751000000008 0.327815200000001
0.3239524000000008 0.3347416000000008 0.32994640000000097
0.3235861000000008 0.3360403000000008 0.329280400000001
0.32295340000000083 0.3377386000000008 0.331578100000001
0.32302000000000086 0.33917050000000076 0.331045300000001
0.32475160000000086 0.34170130000000076 0.330679000000001
0.32644990000000085 0.3443986000000008 0.330812200000001
0.32808160000000086 0.3448315000000008 0.332443900000001
0.33057910000000085 0.34409890000000076 0.333509500000001
0.33057910000000085 0.34403230000000073 0.33410890000000104
0.33031270000000085 0.34563070000000073 0.333676000000001
0.33254380000000083 0.3448981000000007 0.33330970000000104
0.3347749000000008 0.3448648000000007 0.33517450000000104
0.3370393000000008 0.3454309000000007 0.335274400000001
0.3379717000000008 0.3445984000000007 0.335940400000001
0.3393037000000008 0.3446317000000007 0.336739600000001
0.3414016000000008 0.3475621000000007 0.33893740000000105
0.34240060000000083 0.3464965000000007 0.33797170000000104
0.3415681000000008 0.3476953000000007 0.33910390000000107
0.34293340000000083 0.3500929000000007 0.3406357000000011
0.34243390000000085 0.3500929000000007 0.3403693000000011
0.34426540000000083 0.3503926000000007 0.3412684000000011
0.3439657000000008 0.3520909000000007 0.34043590000000107
0.34642990000000085 0.3535894000000007 0.34010290000000104
0.34659640000000086 0.3534562000000007 0.34070230000000107
0.34752880000000086 0.3550546000000007 0.3430333000000011
0.3464965000000009 0.35708590000000073 0.3429001000000011
0.3475954000000009 0.35791840000000075 0.3434329000000011
0.3481282000000009 0.35681950000000073 0.3457306000000011
0.3480949000000009 0.35671960000000075 0.34579720000000114
0.3505258000000009 0.35675290000000076 0.34876090000000115
0.3498265000000009 0.3574522000000008 0.3485611000000011
0.3498598000000009 0.3579184000000008 0.34969330000000115
0.3498598000000009 0.3600829000000008 0.35105860000000116
0.3516913000000009 0.36064900000000083 0.3521908000000012
0.3534562000000009 0.36174790000000084 0.3517579000000012
0.3540223000000009 0.36171460000000083 0.3520909000000012
0.3568195000000009 0.3639457000000008 0.3512251000000012
0.3566863000000009 0.36371260000000083 0.35092540000000116
0.3579850000000009 0.3652777000000008 0.3536560000000012
0.3582847000000009 0.3674089000000008 0.3553543000000012
0.3586510000000009 0.3681748000000008 0.3570193000000012
0.3599164000000009 0.36944020000000083 0.3566197000000012
0.3599164000000009 0.3698065000000008 0.3594169000000012
0.3595501000000009 0.36877420000000083 0.3607489000000012
0.3583180000000009 0.3711385000000008 0.3639124000000012
0.35958340000000094 0.37157140000000083 0.3636460000000012
0.36014950000000095 0.37120510000000084 0.3638125000000012
0.35921710000000096 0.37227070000000084 0.3631132000000012
0.361015300000001 0.37400230000000084 0.3637792000000012
0.36031600000000097 0.3728701000000008 0.3647782000000012
0.36134830000000095 0.3722041000000008 0.36627670000000123
0.36184780000000094 0.37466830000000084 0.3653110000000012
0.36211420000000094 0.37590040000000086 0.3660769000000012
0.36158140000000094 0.37560070000000084 0.3646117000000012
0.36361270000000095 0.37573390000000084 0.3641455000000012
0.36454510000000095 0.37723240000000086 0.36690940000000116
0.36374590000000095 0.37686610000000087 0.36527770000000115
0.36561070000000095 0.37913050000000087 0.36557740000000116
0.36720910000000095 0.3787642000000009 0.36650980000000116
0.367408900000001 0.3806290000000009 0.3681415000000012
0.367009300000001 0.3801295000000009 0.36770860000000116
0.369007300000001 0.3798298000000009 0.36850780000000116
0.37123840000000097 0.3801295000000009 0.36900730000000115
0.371271700000001 0.3810619000000009 0.37117180000000116
0.371138500000001 0.3825937000000009 0.37250380000000116
0.37230400000000097 0.3853576000000009 0.3725704000000012
0.37223740000000094 0.3857905000000009 0.3733696000000012
0.3715381000000009 0.38692270000000095 0.3758671000000012
0.3705391000000009 0.38705590000000095 0.3765664000000012
0.3733030000000009 0.38692270000000095 0.3760336000000012
0.3733696000000009 0.38678950000000095 0.3769327000000012
0.3753676000000009 0.38648980000000094 0.3776320000000012
0.37570060000000094 0.38622340000000094 0.3782314000000012
0.37776520000000097 0.38505790000000095 0.37843120000000124
0.37696600000000097 0.38722240000000097 0.37873090000000126
0.37683280000000097 0.38788840000000097 0.37903060000000127
0.37603360000000097 0.388987300000001 0.37966330000000126
0.377798500000001 0.389553400000001 0.37996300000000127
0.379330300000001 0.391118500000001 0.37953010000000126
0.379829800000001 0.392117500000001 0.3805291000000013
0.379530100000001 0.392050900000001 0.38116180000000127
0.380229400000001 0.39268360000000097 0.3817279000000013
0.382493800000001 0.39304990000000095 0.3826936000000013
0.381394900000001 0.39374920000000097 0.3833596000000013
0.383126500000001 0.39428200000000097 0.3836593000000013
0.385424200000001 0.395547400000001 0.3830266000000013
0.385457500000001 0.396746200000001 0.3846250000000013
0.38685610000000104 0.395813800000001 0.3844585000000013
0.387355600000001 0.39521440000000096 0.3872224000000013
0.387455500000001 0.396979300000001 0.3857905000000013
0.388887400000001 0.39881080000000096 0.3844918000000013
0.387688600000001 0.40077550000000095 0.3864565000000013
0.388887400000001 0.40080880000000096 0.3859237000000013
0.389919700000001 0.399510100000001 0.3869893000000013
0.390985300000001 0.400742200000001 0.3857239000000013
0.392450500000001 0.400442500000001 0.3853576000000013
0.391784500000001 0.40333960000000096 0.3852577000000013
0.391551400000001 0.40327300000000094 0.3875554000000013
0.390385900000001 0.40460500000000094 0.38908720000000135
0.391051900000001 0.40343950000000095 0.38958670000000134
0.393849100000001 0.40343950000000095 0.38958670000000134
0.394748200000001 0.40517110000000095 0.39058570000000137
0.396479800000001 0.40533760000000096 0.39051910000000134
0.397378900000001 0.407935000000001 0.3908854000000013
0.39867760000000096 0.409500100000001 0.3926170000000013
0.39947680000000096 0.411131800000001 0.3943486000000013
0.39957670000000095 0.411131800000001 0.39588040000000135
0.39927700000000094 0.412164100000001 0.39884410000000137
0.40054240000000096 0.413229700000001 0.4002094000000014
0.39987640000000096 0.413629300000001 0.4020742000000014
0.400708900000001 0.413529400000001 0.4020742000000014
0.402607000000001 0.414361900000001 0.40174120000000135
0.405604000000001 0.414994600000001 0.40310650000000137
0.407202400000001 0.415061200000001 0.40603690000000137
0.408900700000001 0.414928000000001 0.40680280000000135
0.40910050000000103 0.417059200000001 0.40627000000000135
0.411198400000001 0.41749210000000103 0.40830130000000137
0.41283010000000103 0.41912380000000105 0.4094335000000014
0.41229730000000103 0.4198564000000011 0.4088008000000014
0.415194400000001 0.41899060000000105 0.4088008000000014
0.415993600000001 0.41975650000000103 0.4105324000000014
0.41642650000000103 0.42008950000000106 0.4102993000000014
0.416093500000001 0.41995630000000106 0.4115980000000014
0.415827100000001 0.42008950000000106 0.4126303000000014
0.417592000000001 0.41978980000000105 0.4133629000000014
0.418491100000001 0.42115510000000106 0.41286340000000143
0.417392200000001 0.4221208000000011 0.41446180000000143
0.418657600000001 0.4225537000000011 0.41452840000000146
0.42108850000000103 0.4235194000000011 0.4157605000000015
0.42135490000000103 0.4244185000000011 0.41506120000000146
0.42148810000000103 0.4232197000000011 0.41612680000000146
0.423053200000001 0.4229200000000011 0.4185577000000015
0.424884700000001 0.4247182000000011 0.4204891000000015
0.424751500000001 0.42625000000000113 0.4204891000000015
0.424518400000001 0.42831460000000116 0.4223206000000015
0.423652600000001 0.43021270000000117 0.4244185000000015
0.425051200000001 0.43151140000000116 0.42421870000000145
0.426250000000001 0.4335760000000012 0.42395230000000145
0.42724900000000104 0.4359736000000012 0.4262833000000015
0.42838120000000107 0.4361068000000012 0.4256173000000015
0.4302793000000011 0.43607350000000117 0.42691600000000146
0.4289806000000011 0.4367728000000012 0.4257505000000015
0.4284811000000011 0.4386709000000012 0.42491800000000146
0.42868090000000114 0.4406023000000012 0.4261834000000015
0.4294468000000011 0.4391371000000012 0.4282147000000015
0.4315447000000011 0.4408354000000012 0.42881410000000153
0.43334290000000114 0.4423339000000012 0.4291804000000015
0.4350412000000011 0.44343280000000124 0.4287475000000015
0.4366063000000011 0.44276680000000124 0.4304458000000015
0.43693930000000114 0.4417678000000012 0.4296133000000015
0.4367395000000011 0.4433662000000012 0.4314781000000015
0.4367728000000011 0.44463160000000124 0.43087870000000145
0.4397032000000011 0.44423200000000124 0.4321441000000015
0.44146810000000114 0.44573050000000125 0.4325437000000015
0.4401028000000011 0.4459303000000013 0.4343419000000015
0.4415680000000011 0.44722900000000126 0.4336426000000015
0.44176780000000115 0.4471291000000013 0.4356073000000015
0.44286670000000117 0.44762860000000126 0.43464160000000146
0.4450312000000012 0.4483279000000013 0.43447510000000145
0.4460302000000012 0.4486276000000013 0.43580710000000145
0.4468627000000012 0.4484611000000013 0.43624000000000146
0.44769520000000124 0.44949340000000126 0.43757200000000146
0.44836120000000124 0.45119170000000125 0.43797160000000146
0.44879410000000125 0.45102520000000124 0.4380382000000015
0.4484611000000012 0.45025930000000125 0.4395367000000015
0.45115840000000124 0.45075880000000124 0.4397698000000015
0.45092530000000125 0.4496599000000012 0.4412683000000015
0.4532563000000013 0.45089200000000124 0.44266690000000153
0.4551211000000013 0.4512583000000012 0.44486470000000156
0.4555540000000013 0.4521574000000012 0.44476480000000157
0.4580182000000013 0.4542553000000012 0.4465630000000016
0.45951670000000133 0.4566196000000012 0.4494268000000016
0.4584178000000013 0.4572190000000012 0.4514248000000016
0.4610485000000013 0.4573189000000012 0.45452170000000164
0.4608154000000013 0.4585510000000012 0.45602020000000165
0.46058230000000133 0.4575187000000012 0.4570192000000017
0.46258030000000133 0.4569193000000012 0.4589173000000017
0.46581040000000135 0.4578184000000012 0.45738550000000167
0.46537750000000133 0.45831790000000117 0.45898390000000167
0.4673422000000013 0.4586509000000012 0.4591837000000017
0.4700062000000013 0.4588840000000012 0.4600162000000017
0.4714381000000013 0.46018270000000117 0.4617478000000017
0.4723372000000013 0.46191430000000117 0.4637458000000017
0.4739356000000013 0.4622473000000012 0.4634461000000017
0.4750678000000013 0.4617145000000012 0.4634128000000017
0.4763998000000013 0.4627468000000012 0.4656106000000017
0.4791970000000013 0.4645450000000012 0.4654108000000017
0.4798630000000013 0.4643452000000012 0.4665097000000017
0.47856430000000133 0.4654441000000012 0.4683412000000017
0.47829790000000133 0.4657105000000012 0.4703392000000017
0.47949670000000133 0.4671757000000012 0.47163790000000166
0.4822606000000013 0.4672090000000012 0.4726036000000017
0.4840921000000013 0.46914040000000123 0.47350270000000166
0.48602350000000133 0.46927360000000123 0.47330290000000164
0.4862566000000013 0.4707055000000012 0.47430190000000166
0.4878217000000013 0.47073880000000123 0.4771324000000017
0.48922030000000133 0.47313640000000123 0.4788973000000017
0.4905190000000013 0.47380240000000123 0.4807288000000017
0.4922506000000013 0.47343610000000125 0.48162790000000166
0.4927834000000013 0.47543410000000125 0.4836925000000017
0.49311640000000134 0.47716570000000125 0.4837924000000017
0.49391560000000134 0.47726560000000123 0.48482470000000166
0.49657960000000134 0.47929690000000125 0.4844584000000017
0.49661290000000136 0.48112840000000123 0.4837924000000017
0.49591360000000134 0.48072880000000123 0.4839589000000017
0.4958470000000013 0.4834927000000012 0.4853575000000017
0.49588030000000133 0.4853575000000012 0.4849579000000017
0.4970458000000013 0.4851910000000012 0.48632320000000173
0.49667950000000133 0.4872889000000012 0.48565720000000173
0.4958470000000013 0.4884211000000012 0.4864231000000017
0.4955140000000013 0.4906522000000012 0.4863565000000017
0.4962466000000013 0.4913515000000012 0.4865230000000017
0.49667950000000133 0.4929166000000012 0.4893535000000017
0.49604680000000134 0.4925170000000012 0.4896199000000017
0.49761190000000133 0.4918843000000012 0.4895533000000017
0.4971790000000013 0.49235050000000125 0.4908853000000017
0.4975786000000013 0.49514770000000125 0.4914181000000017
0.4965796000000013 0.4958803000000013 0.4932829000000017
0.4968793000000013 0.49598020000000126 0.4942819000000017
0.4973122000000013 0.49727890000000124 0.4950478000000017
0.4997098000000013 0.4972123000000012 0.4948480000000017
0.5011084000000013 0.4973455000000012 0.4980448000000017
0.5015746000000013 0.49980970000000124 0.4987108000000017
0.5026735000000013 0.5007421000000013 0.4983112000000017
0.5016412000000013 0.5010418000000013 0.4988440000000017
0.5017411000000014 0.5036392000000013 0.5001760000000017
0.5016412000000013 0.5047381000000013 0.5029399000000018
0.5013082000000013 0.5043385000000012 0.5026402000000018
0.5020408000000013 0.5052376000000013 0.5033395000000017
0.5029399000000013 0.5038390000000013 0.5053042000000018
0.5035060000000013 0.5054707000000013 0.5053708000000018
0.5051710000000014 0.5083012000000012 0.5062033000000018
0.5052376000000014 0.5111983000000012 0.5051710000000018
0.5065030000000014 0.5126968000000012 0.5070025000000018
0.5078683000000014 0.5145949000000012 0.5088007000000018
0.5085010000000014 0.5140288000000012 0.5092003000000018
0.5095999000000014 0.5168260000000012 0.5097331000000018
0.5088007000000014 0.5184244000000012 0.5100994000000019
0.5098663000000014 0.5207887000000012 0.5092669000000019
0.5112649000000015 0.5217877000000012 0.5094667000000018
0.5102992000000015 0.5236192000000012 0.5109985000000018
0.5098996000000015 0.5250844000000012 0.5098996000000018
0.5117977000000015 0.5241520000000012 0.5111317000000017
0.5121307000000015 0.5247847000000012 0.5137624000000017
0.5150611000000015 0.5244184000000012 0.5140288000000017
0.5149612000000015 0.5239189000000012 0.5151610000000018
0.5144950000000015 0.5249179000000012 0.5178250000000018
0.5174254000000015 0.5236525000000012 0.5205889000000018
0.5188240000000015 0.5251510000000011 0.5204557000000017
0.5182579000000015 0.5267827000000012 0.5218543000000018
0.5201560000000015 0.5287141000000012 0.5218210000000018
0.5198563000000015 0.5296465000000012 0.5222872000000017
0.5199895000000015 0.5300794000000012 0.5230198000000017
0.5205556000000016 0.5309119000000012 0.5259502000000017
0.5224870000000016 0.5303458000000012 0.5257171000000017
0.5223871000000015 0.5311450000000012 0.5257171000000017
0.5242519000000015 0.5299462000000011 0.5274820000000017
0.5245516000000016 0.5296465000000011 0.5295466000000016
0.5238856000000015 0.5294467000000012 0.5316778000000016
0.5250511000000015 0.5281480000000012 0.5346415000000017
0.5259169000000016 0.5272489000000011 0.5363398000000017
0.5276152000000016 0.5273488000000012 0.5370058000000018
0.5279815000000017 0.5274820000000012 0.5367061000000017
0.5269492000000017 0.5262832000000012 0.5366062000000017
0.5260501000000016 0.5290804000000012 0.5370058000000018
0.5274820000000017 0.5292136000000013 0.5375386000000018
0.5271823000000017 0.5302792000000013 0.5382046000000018
0.5275819000000017 0.5293801000000012 0.5404024000000018
0.5276485000000017 0.5308786000000012 0.5409019000000018
0.5272822000000017 0.5323771000000012 0.5434327000000019
0.5277151000000017 0.5327101000000012 0.5445649000000019
0.5276485000000016 0.5338756000000012 0.5471956000000019
0.5292802000000016 0.5345083000000013 0.5469292000000019
0.5311117000000016 0.5335759000000012 0.5465296000000018
0.5298796000000017 0.5342086000000013 0.5455639000000019
0.5305123000000017 0.5362066000000013 0.5455306000000019
0.5332096000000017 0.5352409000000014 0.5455972000000019
0.5339422000000017 0.5380381000000014 0.5469625000000019
0.5328100000000017 0.5368060000000014 0.5469958000000019
0.5330764000000017 0.5391703000000014 0.547894900000002
0.5321440000000016 0.5404690000000014 0.5477617000000019
0.5319442000000016 0.5432329000000015 0.5494267000000019
0.5321773000000016 0.5421340000000014 0.5490271000000019
0.5331097000000017 0.5416678000000015 0.5500927000000019
0.5328766000000017 0.5430331000000015 0.5499928000000018
0.5333428000000017 0.5438656000000015 0.5508586000000019
0.5345416000000017 0.5452975000000015 0.5498596000000019
0.5354074000000018 0.5460634000000015 0.5492269000000018
0.5360734000000018 0.5473288000000015 0.5506588000000019
0.5381047000000018 0.5484943000000015 0.5497597000000018
0.5396698000000018 0.5475952000000015 0.5499928000000018
0.5401360000000017 0.5482279000000015 0.5503591000000019
0.5386042000000018 0.5507587000000016 0.5506588000000019
0.5391370000000018 0.5514580000000016 0.5526235000000019
0.5418343000000018 0.5531230000000016 0.5539555000000019
0.5420674000000018 0.5549545000000016 0.5554540000000019
0.5427667000000017 0.5562199000000015 0.5574853000000018
0.5425003000000017 0.5590837000000015 0.5571523000000018
0.5442985000000017 0.5584510000000015 0.5565196000000018
0.5449978000000016 0.5580847000000014 0.5569858000000018
0.5447314000000016 0.5585176000000014 0.5577850000000018
0.5452309000000016 0.5606821000000014 0.5575519000000018
0.5454973000000016 0.5604823000000014 0.5601493000000017
0.5458969000000017 0.5618809000000015 0.5599495000000018
0.5483278000000017 0.5637457000000015 0.5608819000000018
0.5506255000000017 0.5638456000000015 0.5626468000000018
0.5512915000000017 0.5646448000000015 0.5653774000000018
0.5511916000000017 0.5653441000000015 0.5668093000000018
0.5514247000000017 0.5677084000000014 0.5692735000000019
0.5515912000000016 0.5665762000000014 0.5689072000000018
0.5509252000000016 0.5693401000000015 0.5684077000000018
0.5517244000000016 0.5699395000000015 0.5683411000000018
0.5513914000000015 0.5721040000000015 0.5683078000000018
0.5514247000000015 0.5721373000000015 0.5695399000000018
0.5527234000000015 0.5732362000000015 0.5685742000000018
0.5522239000000015 0.5748013000000015 0.5710384000000018
0.5533561000000016 0.5765662000000015 0.5701393000000018
0.5518909000000015 0.5752342000000015 0.5727700000000018
0.5517244000000016 0.5768326000000015 0.5730031000000018
0.5521906000000015 0.5791969000000015 0.5754007000000018
0.5551210000000015 0.5820607000000014 0.5741020000000018
0.5568859000000015 0.5824936000000014 0.5755006000000018
0.5575186000000015 0.5828599000000014 0.5776651000000018
0.5579848000000015 0.5842252000000014 0.5789971000000018
0.5593501000000015 0.5858902000000015 0.5817943000000019
0.5597830000000015 0.5883544000000015 0.5848579000000019
0.5623138000000015 0.5883544000000015 0.5858236000000019
0.5632129000000016 0.5903524000000016 0.5873554000000019
0.5643784000000016 0.5906521000000016 0.5868892000000019
0.5643451000000016 0.5927500000000016 0.5894866000000019
0.5643451000000016 0.5940820000000016 0.5898196000000019
0.5637790000000016 0.5929165000000015 0.5922838000000019
0.5633461000000016 0.5934493000000015 0.5940820000000019
0.5657770000000016 0.5949145000000016 0.5951143000000019
0.5681413000000016 0.5945482000000015 0.5945482000000019
0.5683744000000016 0.5954473000000016 0.5974120000000018
0.5682079000000017 0.5964796000000016 0.5990104000000018
0.5702725000000016 0.5978782000000016 0.5977117000000018
0.5700061000000016 0.5984443000000016 0.5985442000000019
0.5722372000000017 0.6006421000000016 0.5985442000000019
0.5724370000000016 0.5994100000000017 0.5988439000000019
0.5742352000000016 0.6012415000000016 0.5979115000000018
0.5748013000000016 0.6023404000000017 0.5974120000000018
0.5758669000000016 0.6018409000000017 0.5986108000000019
0.5775319000000017 0.6023404000000017 0.5984110000000019
0.5785642000000016 0.6033727000000016 0.5997763000000019
0.5773321000000017 0.6052042000000016 0.5995099000000019
0.5778982000000017 0.6072022000000017 0.6011416000000019
0.5806954000000017 0.6079015000000016 0.6014080000000019
0.5813947000000017 0.6088339000000017 0.601807600000002
0.5805289000000017 0.6098995000000017 0.603139600000002
0.5808952000000017 0.6107986000000017 0.603073000000002
0.5812615000000018 0.6098995000000017 0.604238500000002
0.5810284000000018 0.6116311000000018 0.604072000000002
0.5840254000000018 0.6117976000000017 0.604871200000002
0.5832595000000018 0.6137623000000018 0.605936800000002
0.5830930000000019 0.6126634000000017 0.608301100000002
0.5848246000000019 0.6112648000000017 0.609100300000002
0.5857903000000019 0.6115645000000017 0.608267800000002
0.5866561000000019 0.6144949000000017 0.6104989000000021
0.5868892000000019 0.6164263000000018 0.6100327000000021
0.5876884000000019 0.6177250000000017 0.6107653000000021
0.5868226000000019 0.6177250000000017 0.6115645000000021
0.5879548000000019 0.6173254000000017 0.6137623000000021
0.5873887000000019 0.6183244000000017 0.6139954000000021
0.5899195000000019 0.6175918000000017 0.6139621000000021
0.5898196000000019 0.6183577000000017 0.613662400000002
0.5919175000000019 0.6180580000000017 0.6131629000000021
0.5935159000000019 0.6201892000000017 0.6150943000000021
0.5937490000000019 0.6200893000000016 0.6151942000000021
0.5951143000000019 0.6208885000000016 0.6162265000000021
0.5966128000000018 0.6214213000000016 0.6162598000000021
0.5961133000000018 0.6235192000000016 0.6172255000000021
0.5984443000000018 0.6256171000000016 0.6195898000000021
0.5975785000000018 0.6275485000000016 0.6193234000000021
0.5991769000000018 0.6276817000000017 0.618957100000002
0.5998762000000017 0.6296131000000017 0.6198562000000021
0.6009418000000017 0.6321772000000017 0.6209218000000021
0.6007087000000018 0.6338089000000017 0.6223537000000021
0.6009751000000018 0.6350077000000017 0.6239188000000021
0.6002758000000018 0.6382045000000017 0.6240853000000021
0.6008419000000018 0.6390703000000018 0.6250177000000021
0.6019408000000018 0.6394699000000018 0.6243850000000021
0.6032395000000018 0.6396031000000019 0.6262498000000021
0.6046714000000019 0.6390703000000019 0.627748300000002
0.6051043000000018 0.6391036000000019 0.628480900000002
0.6045715000000018 0.6391036000000019 0.6296797000000021
0.6071356000000018 0.6402025000000019 0.628580800000002
0.6078349000000017 0.6401359000000019 0.629613100000002
0.6079015000000018 0.6399361000000019 0.629479900000002
0.6098329000000018 0.6424336000000019 0.628614100000002
0.6092668000000018 0.6431662000000019 0.629446600000002
0.6091669000000017 0.6442651000000019 0.631011700000002
0.6093667000000017 0.6453640000000019 0.631810900000002
0.6093667000000017 0.646795900000002 0.6308785000000019
0.6100660000000017 0.646762600000002 0.6339754000000019
0.6104323000000017 0.649426600000002 0.6337423000000019
0.6105655000000018 0.651857500000002 0.6348412000000019
0.6099994000000017 0.6517576000000019 0.6347746000000019
0.6097996000000018 0.651790900000002 0.6348412000000019
0.6116977000000018 0.6524902000000019 0.6343084000000019
0.6110317000000017 0.6545548000000019 0.6359401000000019
0.6121972000000018 0.6546880000000019 0.6375052000000019
0.6137956000000018 0.655820200000002 0.6387706000000019
0.6139621000000017 0.657551800000002 0.6399694000000019
0.6158602000000017 0.659416600000002 0.640069300000002
0.6147613000000017 0.658917100000002 0.6405688000000019
0.6149944000000017 0.6592501000000021 0.6432328000000019
0.6153274000000017 0.6589837000000021 0.6428998000000019
0.6172588000000018 0.658950400000002 0.6425002000000019
0.6186907000000018 0.660182500000002 0.6438988000000019
0.6205888000000018 0.661148200000002 0.6465295000000019
0.6214879000000019 0.663545800000002 0.6466294000000019
0.6226867000000019 0.6645115000000019 0.6468292000000019
0.624385000000002 0.665410600000002 0.6478948000000019
0.6269824000000019 0.667042300000002 0.6471955000000019
0.625950100000002 0.668773900000002 0.6488272000000019
0.625450600000002 0.6702058000000021 0.6511915000000019
0.626782600000002 0.6713047000000021 0.652090600000002
0.6282811000000019 0.6705721000000021 0.654588100000002
0.6288139000000019 0.6717043000000021 0.655820200000002
0.6287806000000019 0.6736024000000022 0.656852500000002
0.6298129000000019 0.6737023000000022 0.657718300000002
0.6297130000000019 0.6753340000000022 0.657651700000002
0.6306454000000019 0.6748345000000022 0.659583100000002
0.6319441000000019 0.6746680000000023 0.659283400000002
0.6312781000000018 0.6761665000000022 0.6608152000000019
0.6302125000000018 0.6793300000000022 0.661381300000002
0.6330763000000018 0.6793966000000022 0.6639454000000019
0.6326767000000018 0.6814612000000022 0.664844500000002
0.6330430000000018 0.6845914000000022 0.6660766000000019
0.6348412000000018 0.6878548000000022 0.6673420000000019
0.6373720000000018 0.6889537000000022 0.6685408000000019
0.6382045000000018 0.6880213000000022 0.6681412000000019
0.6388372000000019 0.6888538000000022 0.6709384000000019
0.6403690000000019 0.6887872000000022 0.669406600000002
0.6399028000000019 0.6885541000000022 0.672370300000002
0.6396031000000019 0.6897196000000022 0.6711715000000019
0.6405688000000018 0.6900859000000023 0.6720040000000019
0.6417676000000019 0.6905521000000022 0.671537800000002
0.6412681000000019 0.6920506000000022 0.671604400000002
0.6410017000000019 0.6934825000000022 0.671304700000002
0.6403357000000018 0.6941818000000022 0.672936400000002
0.6403690000000019 0.6966460000000022 0.674901100000002
0.6411016000000018 0.6987439000000022 0.6744349000000021
0.6402025000000018 0.6978448000000022 0.676532800000002
0.6415678000000018 0.6996763000000021 0.6770989000000021
0.6405022000000018 0.7004089000000021 0.676166500000002
0.6405355000000018 0.7007086000000021 0.678031300000002
0.6423337000000018 0.7017076000000021 0.679663000000002
0.6426667000000018 0.701874100000002 0.682093900000002
0.6433993000000018 0.701008300000002 0.684724600000002
0.6441652000000018 0.700808500000002 0.6845581000000021
0.6451309000000017 0.7017076000000021 0.6869557000000021
0.6458968000000017 0.7017742000000021 0.686089900000002
0.6480613000000017 0.7023736000000022 0.688121200000002
0.6473953000000017 0.7023736000000022 0.6879880000000019
0.6489604000000017 0.7029730000000022 0.688620700000002
0.6488272000000016 0.7041052000000022 0.689386600000002
0.6518242000000016 0.7045714000000022 0.6911848000000019
0.6516577000000017 0.7055038000000022 0.691784200000002
0.6508252000000017 0.7043716000000022 0.693482500000002
0.6521572000000017 0.7039054000000022 0.692783200000002
0.6523570000000016 0.7037056000000023 0.695913400000002
0.6522904000000016 0.7065694000000022 0.697944700000002
0.6519907000000016 0.7078015000000022 0.698344300000002
0.6520906000000016 0.7095331000000022 0.7005754000000021
0.6516244000000017 0.7090669000000023 0.7007086000000021
0.6545548000000017 0.7097662000000022 0.7030729000000021
0.6559534000000017 0.7113646000000022 0.7023070000000021
0.6566527000000016 0.7133959000000022 0.7018075000000021
0.6554872000000016 0.7160932000000022 0.7027399000000022
0.6562531000000016 0.7170589000000022 0.7045048000000022
0.6589504000000016 0.7196230000000021 0.7066027000000021
0.6600826000000016 0.7210549000000022 0.7057702000000021
0.6593167000000016 0.7230862000000021 0.7063696000000022
0.6605821000000016 0.7237189000000022 0.7062031000000022
0.6623803000000016 0.7261498000000022 0.7070356000000022
0.6621139000000016 0.7270822000000022 0.7066360000000022
0.6646114000000016 0.7283476000000022 0.7063696000000022
0.6656437000000016 0.7288138000000022 0.7076350000000021
0.6678748000000017 0.7281811000000021 0.7095664000000022
0.6688072000000017 0.7307785000000021 0.7108984000000022
0.6698395000000017 0.7326433000000021 0.7110649000000021
0.6694066000000017 0.7325434000000021 0.7136623000000021
0.6680746000000017 0.734041900000002 0.7155937000000021
0.6695398000000018 0.733475800000002 0.7170589000000022
0.6706054000000018 0.733009600000002 0.7186906000000022
0.6704722000000017 0.735373900000002 0.7189237000000022
0.6707719000000018 0.737438500000002 0.7202557000000022
0.6718708000000018 0.739969300000002 0.7214878000000021
0.6713047000000018 0.739702900000002 0.7221538000000022
0.6719374000000018 0.7424002000000021 0.7230529000000022
0.6725701000000018 0.743399200000002 0.7235191000000022
0.6753007000000019 0.744398200000002 0.7238521000000022
0.6771655000000019 0.745563700000002 0.7249177000000022
0.6781978000000018 0.747361900000002 0.7234858000000022
0.6778648000000018 0.749493100000002 0.7248844000000022
0.6794299000000018 0.749426500000002 0.7258168000000023
0.6811615000000019 0.750159100000002 0.7269157000000023
0.6812281000000019 0.751357900000002 0.7277482000000023
0.681361300000002 0.753156100000002 0.7276150000000022
0.6828598000000019 0.753455800000002 0.7276483000000022
0.6827266000000018 0.753489100000002 0.7293466000000023
0.6848911000000019 0.7549543000000021 0.7302457000000023
0.6835591000000019 0.7546546000000021 0.7310782000000023
0.6840919000000019 0.7579513000000021 0.7327765000000024
0.6834925000000018 0.7606153000000021 0.7326766000000023
0.6861898000000018 0.7602490000000021 0.7339087000000023
0.6858568000000018 0.761014900000002 0.7349410000000023
0.6861565000000018 0.7627132000000021 0.7351408000000023
0.6865228000000019 0.7642783000000021 0.7352740000000023
0.6894532000000019 0.7638454000000021 0.7346080000000023
0.6893533000000018 0.7636456000000021 0.7332760000000023
0.6920839000000019 0.7649776000000021 0.7355071000000023
0.6934492000000019 0.7658767000000022 0.7378048000000023
0.6934159000000019 0.7674418000000022 0.7390369000000022
0.6943483000000019 0.7690069000000022 0.7421338000000022
0.6960133000000019 0.7698727000000022 0.7420339000000021
0.6989437000000019 0.7699393000000022 0.7432327000000022
0.7000093000000019 0.7707052000000022 0.7445647000000022
0.7001758000000019 0.7726699000000022 0.7452640000000021
0.700575400000002 0.7736023000000023 0.7453306000000022
0.703339300000002 0.7725367000000023 0.7453306000000022
0.703172800000002 0.7745680000000023 0.7455637000000022
0.7048711000000021 0.7742350000000022 0.7462297000000022
0.7054039000000021 0.7747012000000022 0.7448977000000022
0.705070900000002 0.7773652000000022 0.7460632000000023
0.706902400000002 0.7779979000000022 0.7458967000000023
0.707701600000002 0.7790635000000022 0.7462297000000023
0.710332300000002 0.7796629000000023 0.7494931000000024
0.711298000000002 0.7804288000000023 0.7500925000000024
0.711331300000002 0.7793632000000023 0.7500925000000024
0.711964000000002 0.7793299000000022 0.7519573000000024
0.7112647000000021 0.7801291000000022 0.7523902000000023
0.711730900000002 0.7795630000000022 0.7544881000000023
0.7126633000000021 0.7818940000000022 0.7534225000000023
0.7128298000000021 0.7843249000000022 0.7525900000000023
0.712430200000002 0.7855903000000022 0.7539220000000023
0.712297000000002 0.7856236000000022 0.7548211000000024
0.711531100000002 0.7863895000000022 0.7537555000000024
0.712063900000002 0.7881211000000022 0.7554205000000024
0.7135957000000019 0.7900192000000023 0.7554205000000024
0.716659300000002 0.7913512000000023 0.7552873000000023
0.716159800000002 0.7918507000000022 0.7560532000000023
0.717425200000002 0.7938820000000022 0.7568857000000023
0.7199893000000019 0.7936156000000022 0.7577182000000023
0.722520100000002 0.7930162000000022 0.7570522000000023
0.722919700000002 0.7937488000000021 0.7562530000000023
0.724751200000002 0.7934491000000021 0.7573519000000023
0.724085200000002 0.7939486000000021 0.7595497000000023
0.724484800000002 0.7941817000000021 0.7588171000000024
0.725250700000002 0.7953805000000022 0.7589170000000024
0.7261498000000021 0.7975450000000022 0.7615810000000024
0.7264162000000021 0.7996762000000022 0.7620805000000024
0.7270822000000021 0.8020738000000022 0.7650442000000024
0.7261831000000021 0.8029729000000022 0.7669423000000024
0.726882400000002 0.8042050000000022 0.7697728000000024
0.7283476000000021 0.8051707000000021 0.7713379000000024
0.7283476000000021 0.8077015000000022 0.7718041000000023
0.7283809000000021 0.8093998000000022 0.7720039000000023
0.7282144000000021 0.8113978000000023 0.7737688000000023
0.7283476000000022 0.8124634000000023 0.7745014000000022
0.7288138000000022 0.8119972000000023 0.7759999000000022
0.7294798000000022 0.8139952000000024 0.7758334000000022
0.7297462000000022 0.8158933000000024 0.7759666000000023
0.7296796000000022 0.8158933000000024 0.7762996000000023
0.7314112000000023 0.8157934000000023 0.7773985000000023
0.7319773000000023 0.8150608000000024 0.7793632000000024
0.7341085000000023 0.8155936000000024 0.7793965000000024
0.7351408000000023 0.8174251000000023 0.7800625000000024
0.7364728000000023 0.8198227000000023 0.7793299000000025
0.7387705000000022 0.8228863000000024 0.7813279000000025
0.7392367000000022 0.8236189000000024 0.7833592000000025
0.7396696000000021 0.8237854000000023 0.7825600000000025
0.7419007000000022 0.8245513000000023 0.7839586000000025
0.7431328000000021 0.8258167000000023 0.7860898000000025
0.7444648000000021 0.8255170000000023 0.7862563000000025
0.7469623000000022 0.8258500000000023 0.7878547000000025
0.7475617000000022 0.8253838000000023 0.7901857000000024
0.7480279000000022 0.8248510000000023 0.7931827000000025
0.7484275000000022 0.8242516000000023 0.7926832000000025
0.7505587000000022 0.8239519000000023 0.7929163000000025
0.7536889000000022 0.8235856000000022 0.7941151000000025
0.7542550000000022 0.8222536000000022 0.7948477000000025
0.7554871000000022 0.8218207000000023 0.7968124000000025
0.7565860000000022 0.8232859000000023 0.7987438000000026
0.7585507000000022 0.8241517000000024 0.8012080000000026
0.7608151000000023 0.8238520000000024 0.8011081000000025
0.7621804000000023 0.8257501000000024 0.8016742000000026
0.7637788000000023 0.8282476000000024 0.8013079000000025
0.7648444000000023 0.8297128000000025 0.8007085000000025
0.7646113000000023 0.8313112000000025 0.8000092000000025
0.7643782000000023 0.8335756000000025 0.8024401000000025
0.7653439000000023 0.8342083000000026 0.8051374000000026
0.7647778000000023 0.8367058000000026 0.8054704000000026
0.7675084000000023 0.8383708000000026 0.8049709000000026
0.7675084000000023 0.8394364000000026 0.8070688000000026
0.7692400000000024 0.8378047000000026 0.8076349000000026
0.7707052000000024 0.8370388000000026 0.8084008000000026
0.7715377000000024 0.8366725000000026 0.8098327000000026
0.7725700000000024 0.8385373000000026 0.8090668000000026
0.7742683000000025 0.8405353000000026 0.8108317000000026
0.7743682000000025 0.8397028000000026 0.8123968000000026
0.7758334000000026 0.8409349000000026 0.8152606000000026
0.7758001000000025 0.8424334000000026 0.8154271000000025
0.7751341000000025 0.8423002000000025 0.8162596000000025
0.7757668000000025 0.8424334000000026 0.8177914000000025
0.7771321000000025 0.8451307000000026 0.8186239000000025
0.7783642000000025 0.8460964000000025 0.8193898000000025
0.7803289000000025 0.8486605000000025 0.8202223000000025
0.7795963000000026 0.8494930000000025 0.8221870000000026
0.7813945000000025 0.8502922000000025 0.8249842000000026
0.7832926000000026 0.8522902000000026 0.8253172000000026
0.7865227000000026 0.8538886000000026 0.8241517000000026
0.7865227000000026 0.8534557000000026 0.8259166000000026
0.7852240000000026 0.8553871000000026 0.8273152000000026
0.7862896000000026 0.8556202000000026 0.8296129000000025
0.7888204000000026 0.8545879000000026 0.8309116000000025
0.7893532000000026 0.8555536000000026 0.8313445000000025
0.7900858000000026 0.8567191000000026 0.8321770000000025
0.7908850000000026 0.8563528000000026 0.8337421000000025
0.7931161000000027 0.8583175000000026 0.8334091000000025
0.7949143000000026 0.8595163000000027 0.8327764000000024
0.7954471000000026 0.8614477000000027 0.8337754000000024
0.7961131000000027 0.8630461000000027 0.8327098000000024
0.7983775000000027 0.8620138000000027 0.8350075000000023
0.7999426000000027 0.8621803000000027 0.8353738000000024
0.8020405000000027 0.8620138000000027 0.8362396000000024
0.8038387000000027 0.8636455000000027 0.8381044000000024
