0.0111655 0.0108658 0.0116983
0.0130303 0.011998 0.01333
0.0141625 0.0138628 0.0118648
0.0158608 0.0168265 0.0104329
0.0180253 0.0170929 0.0104329
0.0191242 0.0178588 0.0115318
0.0210223 0.0197569 0.0135298
0.0226873 0.0214219 0.0141625
0.0229204 0.0210556 0.0127306
0.0236197 0.0228205 0.0137296
0.0265168 0.0226207 0.0141292
0.0275491 0.0227872 0.0131968
0.0266833 0.0226873 0.0155611
0.025651 0.0222211 0.0165601
0.0266833 0.0244522 0.0156943
0.0281485 0.0251515 0.015161500000000001
0.0293473 0.0262504 0.0159274
0.0281485 0.0255178 0.0176923
0.0270496 0.027982 0.0177589
0.0287146 0.0274492 0.0182917
0.0290809 0.0297802 0.0185581
0.0314452 0.0305794 0.0200566
0.0320779 0.0324442 0.0210223
0.0325108 0.034309 0.0221545
0.034309 0.0348418 0.0225541
0.034642 0.0341425 0.0232534
0.0359407 0.0328438 0.0240859
0.0380053 0.0341425 0.0237862
0.0387712 0.0341758 0.0241525
0.0401032 0.0337096 0.0262171
0.0412021 0.0342424 0.0264502
0.0428005 0.0361405 0.0287146
0.0438994 0.0364735 0.0301798
0.0440659 0.0381718 0.0327772
0.0438994 0.0407026 0.0322777
0.0458641 0.0405028 0.0333766
0.0449983 0.0397036 0.0326773
0.0439993 0.0421345 0.0346753
0.0454645 0.0417349 0.0361738
0.0467632 0.0415018 0.0365068
0.0463636 0.0424009 0.0365734
0.046963 0.042967 0.0388045
0.0478954 0.0434998 0.0386047
0.0496603 0.0461638 0.037972
0.0523243 0.0485614 0.0371062
0.051292 0.0498601 0.0375724
0.0537895 0.0490942 0.0384049
0.0538228 0.0478288 0.0404695
0.0538228 0.0478954 0.0421012
0.0531235 0.0465967 0.0427672
0.0540226 0.0455311 0.0430336
0.0537229 0.0457309 0.0432667
0.0539893 0.047629 0.0434332
0.0552214 0.0505261 0.0430669
0.0579853 0.0498268 0.0447652
0.0572527 0.0485947 0.0447652
0.0580852 0.0487612 0.0465301
0.058617999999999996 0.049627 0.0463969
0.058884399999999996 0.0513919 0.0469297
0.059283999999999996 0.0525574 0.0465967
0.059350599999999996 0.0552547 0.0458308
0.061648299999999996 0.0559873 0.0460306
0.0630802 0.0571861 0.0462637
0.0635797 0.0567865 0.0462637
0.0645454 0.057952 0.046963
0.06661 0.0571861 0.0487945
0.0665101 0.0565201 0.0515584
0.0667099 0.058418199999999997 0.052957
0.0678088 0.060882399999999996 0.0540559
0.0690409 0.061248699999999996 0.053956
0.0717382 0.062480799999999996 0.0548218
0.0733366 0.062047899999999996 0.057286
0.0735364 0.0635464 0.0580852
0.0751015 0.065611 0.057619
0.0753679 0.0660106 0.058285
0.0760672 0.0675424 0.0580186
0.0754345 0.0690409 0.059616999999999996
0.0750016 0.0710389 0.062480799999999996
0.0755677 0.0711721 0.0625474
0.0744022 0.0708391 0.0615151
0.075268 0.0707392 0.0616816
0.0768331 0.0714385 0.0605494
0.0761005 0.0714385 0.0602497
0.0774325 0.0731701 0.0623809
0.0779986 0.0742024 0.0651781
0.0787645 0.0756343 0.0667432
0.0800632 0.0762004 0.0673093
0.0827605 0.0777988 0.0677422
0.0842923 0.0796969 0.068941
0.0857575 0.0825274 0.0680086
0.0861571 0.0837928 0.0705727
0.0871894 0.0844255 0.0721711
0.0893206 0.085258 0.0727039
0.0906526 0.0874225 0.0754678
0.091585 0.0890209 0.0756343
0.0932167 0.0886546 0.0781984
0.0950149 0.0880885 0.0793306
0.0948817 0.0883216 0.0810622
0.095248 0.0870229 0.0824941
0.0946153 0.0884548 0.0831601
0.0957808 0.091585 0.0837928
0.0977122 0.091918 0.0852913
0.0971461 0.0925174 0.085591
0.0990109 0.0921844 0.0858574
0.0988444 0.093916 0.0864568
0.1017082 0.0939493 0.0889543
0.1034065 0.0956143 0.0899866
0.1054045 0.0974458 0.0920512
0.105238 0.097579 0.0931168
0.1046719 0.0994438 0.0932167
0.1036396 0.0986446 0.0938494
0.1053379 0.0994438 0.0951148
0.1073359 0.1023076 0.0945487
0.1087012 0.1023409 0.09325
0.1111321 0.1045054 0.0930502
0.1098001 0.1050382 0.0928171
0.1119313 0.1053046 0.0936496
0.1105327 0.1062037 0.0954478
0.1106659 0.1068031 0.0969463
0.112231 0.1090009 0.0968131
0.1132633 0.1106326 0.098911
0.1155943 0.1103995 0.0982783
0.1185247 0.1109989 0.0978121
0.1182916 0.112231 0.0977122
0.118558 0.1136629 0.0996769
0.1191241 0.1150615 0.0988111
0.1206892 0.1151281 0.098911
0.1195903 0.1146619 0.0997102
0.1191907 0.114562 0.1016416
0.1203895 0.1140958 0.101575
0.1226539 0.1138294 0.1022077
0.1229869 0.1135963 0.1030402
0.1248184 0.1135297 0.1054711
0.1263502 0.1138627 0.1064701
0.1263502 0.1143289 0.106237
0.1288144 0.1161271 0.1069696
0.1297468 0.1165267 0.1080019
0.1292806 0.1177255 0.1078354
0.1304794 0.1178254 0.1081018
0.1326439 0.1199899 0.1100332
0.1317781 0.1204561 0.1101331
0.13254400000000002 0.1227538 0.1111654
0.13201120000000002 0.1242856 0.1123642
0.13327660000000002 0.124219 0.1129636
0.13474180000000002 0.1263502 0.1141291
0.13530790000000004 0.1280485 0.1153945
0.13507480000000002 0.1274824 0.1146952
0.13510810000000004 0.1281817 0.1161604
0.13484170000000004 0.1289809 0.1145953
0.13554100000000005 0.13001320000000002 0.1141624
0.13540780000000005 0.13181140000000002 0.1162936
0.13540780000000005 0.13347640000000002 0.1186246
0.13743910000000006 0.13374280000000002 0.1179253
0.13687300000000005 0.13454200000000002 0.1192906
0.13644010000000004 0.13610710000000004 0.1198234
0.13600720000000002 0.13803850000000004 0.1197568
0.13520800000000002 0.13937050000000004 0.1189909
0.13654000000000002 0.13937050000000004 0.1183582
0.13747240000000002 0.13847140000000002 0.1206892
0.1371061 0.13920400000000002 0.1216882
0.1376389 0.14156830000000004 0.1239526
0.1375057 0.14210110000000004 0.1251514
0.1381051 0.14336650000000004 0.124219
0.14040280000000002 0.14320000000000002 0.1252846
0.14263390000000004 0.14346640000000002 0.1270828
0.14393260000000005 0.14586400000000002 0.1272826
0.14459860000000005 0.14676310000000004 0.12698289999999998
0.14436550000000004 0.14792860000000005 0.12654999999999997
0.14569750000000004 0.14709610000000004 0.12774879999999997
0.14506480000000002 0.14816170000000004 0.12958029999999998
0.1439659 0.14752900000000002 0.12851469999999998
0.1438993 0.14646340000000002 0.1300132
0.14626360000000002 0.14769550000000004 0.1311121
0.14826160000000002 0.14826160000000005 0.13187800000000002
0.15012640000000002 0.14932720000000005 0.13221100000000002
0.1491607 0.15002650000000006 0.1313785
0.15092560000000002 0.15115870000000006 0.1312786
0.15172480000000002 0.15205780000000008 0.1315783
0.15265720000000002 0.1524241000000001 0.1301797
0.15488830000000003 0.1550215000000001 0.13134520000000002
0.15775210000000003 0.1567198000000001 0.13317670000000004
0.16028290000000003 0.1585180000000001 0.13450870000000004
0.15968350000000003 0.16041610000000012 0.13460860000000005
0.16264720000000005 0.16254730000000012 0.13567420000000005
0.16354630000000006 0.16381270000000012 0.13703950000000006
0.16464520000000007 0.16634350000000012 0.13787200000000008
0.16644340000000007 0.16680970000000012 0.13820500000000008
0.1686745000000001 0.16827490000000012 0.13933720000000008
0.1684081000000001 0.17070580000000013 0.14146840000000008
0.16777540000000007 0.17067250000000012 0.14246740000000008
0.1693405000000001 0.17310340000000013 0.1432999000000001
0.1696402000000001 0.17290360000000013 0.1423675000000001
0.1705060000000001 0.17423560000000013 0.1433665000000001
0.1705060000000001 0.17490160000000013 0.1441657000000001
0.1724374000000001 0.17513470000000014 0.1434331000000001
0.1728370000000001 0.17416900000000013 0.1459972000000001
0.1735030000000001 0.17463520000000013 0.14629690000000012
0.1749682000000001 0.17470180000000013 0.14692960000000013
0.1749349000000001 0.17556760000000013 0.14696290000000015
0.1763002000000001 0.17719930000000014 0.14752900000000016
0.1750015000000001 0.17699950000000014 0.14819500000000016
0.1751680000000001 0.17666650000000014 0.14786200000000016
0.17759890000000012 0.17749900000000016 0.14769550000000015
0.17739910000000012 0.17833150000000017 0.14802850000000015
0.17953030000000011 0.17976340000000018 0.15052600000000016
0.18119530000000011 0.1799965000000002 0.15285700000000016
0.18379270000000011 0.17989660000000018 0.15378940000000016
0.18435880000000013 0.1831267000000002 0.15392260000000016
0.18362620000000013 0.1831933000000002 0.15428890000000017
0.18382600000000013 0.1837927000000002 0.1564534000000002
0.18276040000000013 0.1860904000000002 0.15555430000000017
0.18256060000000013 0.18772210000000022 0.1563202000000002
0.18512470000000014 0.18955360000000024 0.1565200000000002
0.18632350000000014 0.19171810000000025 0.1565866000000002
0.18715600000000016 0.19098550000000025 0.1584514000000002
0.18845470000000017 0.19118530000000025 0.1590175000000002
0.19105210000000017 0.19258390000000025 0.16178140000000021
0.19041940000000016 0.19291690000000025 0.1625140000000002
0.19138510000000017 0.19568080000000027 0.1641124000000002
0.19358290000000017 0.19601380000000027 0.16581070000000023
0.19614700000000018 0.19491490000000025 0.16700950000000023
0.19741240000000018 0.19538110000000025 0.16680970000000023
0.1988443000000002 0.19701280000000027 0.16601050000000023
0.1993105000000002 0.19857790000000028 0.16834150000000023
0.19861120000000018 0.1998100000000003 0.16894090000000023
0.20020960000000018 0.2013418000000003 0.1679752000000002
0.2004427000000002 0.2023408000000003 0.16954030000000023
0.19981000000000018 0.2040724000000003 0.16984000000000024
0.19967680000000018 0.2051713000000003 0.17003980000000024
0.19947700000000018 0.20527120000000032 0.17173810000000025
0.19987660000000018 0.20587060000000032 0.17410240000000027
0.20007640000000018 0.20880100000000032 0.17506810000000028
0.2020411000000002 0.20946700000000032 0.17606710000000028
0.2030734000000002 0.21163150000000033 0.17679970000000028
0.20417230000000022 0.21173140000000035 0.17663320000000027
0.20513800000000024 0.21266380000000035 0.17753230000000028
0.20417230000000022 0.21203110000000033 0.1790974000000003
0.20317330000000022 0.21073240000000032 0.1812286000000003
0.20407240000000024 0.21073240000000032 0.1823941000000003
0.20407240000000024 0.21273040000000032 0.18269380000000032
0.20683630000000025 0.21399580000000032 0.18379270000000034
0.20806840000000026 0.21559420000000032 0.18395920000000035
0.20813500000000026 0.21745900000000032 0.18455860000000035
0.20890090000000028 0.21985660000000032 0.18532450000000036
0.21023290000000028 0.22112200000000032 0.18792190000000036
0.21176470000000028 0.22298680000000032 0.18725590000000036
0.2132632000000003 0.22528450000000033 0.18718930000000036
0.2142289000000003 0.22545100000000035 0.18812170000000036
0.2168263000000003 0.22701610000000036 0.19001980000000038
0.2166931000000003 0.22654990000000036 0.18905410000000036
0.2163601000000003 0.22691620000000037 0.18885430000000036
0.21805840000000032 0.22688290000000036 0.19061920000000038
0.22058920000000032 0.22838140000000037 0.19031950000000036
0.22325320000000032 0.22824820000000037 0.19245070000000036
0.22525120000000032 0.2284813000000004 0.19178470000000036
0.22788190000000033 0.2292472000000004 0.19268380000000038
0.22898080000000035 0.2318446000000004 0.1933165000000004
0.23114530000000036 0.2333098000000004 0.1922509000000004
0.23247730000000036 0.2327104000000004 0.1910521000000004
0.23261050000000036 0.23294350000000041 0.1907857000000004
0.23330980000000037 0.23261050000000041 0.18935380000000038
0.2338093000000004 0.23497480000000043 0.1904527000000004
0.2342422000000004 0.23720590000000044 0.1904527000000004
0.2362069000000004 0.23780530000000044 0.1905859000000004
0.2384047000000004 0.24013630000000044 0.1922509000000004
0.2378719000000004 0.24226750000000044 0.19161820000000038
0.2380717000000004 0.24419890000000044 0.1938493000000004
0.2379052000000004 0.24553090000000044 0.1956808000000004
0.2398699000000004 0.24826150000000044 0.19644670000000042
0.24256720000000043 0.24712930000000044 0.19717930000000042
0.24423220000000043 0.24839470000000044 0.20004310000000042
0.24483160000000043 0.24939370000000044 0.1994770000000004
0.24589720000000043 0.25072570000000044 0.1996102000000004
0.2446651000000004 0.25338970000000044 0.2015416000000004
0.2459305000000004 0.25458850000000044 0.2015083000000004
0.24656320000000043 0.25365610000000044 0.2035396000000004
0.24966010000000044 0.25618690000000044 0.20497150000000042
0.25195780000000045 0.25811830000000047 0.20543770000000042
0.25289020000000045 0.26024950000000047 0.20810170000000042
0.25488820000000045 0.2626804000000005 0.20850130000000042
0.25432210000000044 0.26291350000000047 0.20980000000000043
0.2558872000000004 0.2632132000000005 0.21143170000000044
0.2551879000000004 0.26357950000000047 0.21156490000000044
0.2568196000000004 0.26517790000000047 0.21183130000000044
0.25578730000000044 0.2653444000000005 0.21213100000000046
0.25498810000000044 0.2663101000000005 0.21462850000000047
0.25718590000000047 0.2664766000000005 0.21369610000000047
0.25821820000000045 0.26667640000000054 0.21559420000000049
0.25745230000000047 0.26687620000000056 0.2165599000000005
0.25698610000000044 0.26874100000000056 0.2188576000000005
0.2584180000000004 0.2701063000000006 0.2187577000000005
0.26044930000000044 0.27113860000000056 0.21839140000000049
0.26071570000000044 0.2740024000000006 0.21709270000000047
0.26244730000000044 0.2755009000000006 0.21785860000000049
0.26284690000000044 0.2775988000000006 0.21719260000000049
0.2617480000000004 0.2781649000000006 0.2185579000000005
0.2627803000000004 0.2782648000000006 0.2204227000000005
0.2645119000000004 0.2812285000000006 0.2212885000000005
0.26631010000000044 0.2841256000000006 0.2225206000000005
0.26900740000000045 0.2830600000000006 0.2215882000000005
0.26930710000000047 0.2834929000000006 0.2224540000000005
0.2685412000000005 0.2851246000000006 0.2219878000000005
0.2698732000000005 0.2869561000000006 0.2217214000000005
0.2683081000000005 0.2868229000000006 0.2247850000000005
0.2694403000000005 0.2860237000000006 0.22635010000000053
0.2714050000000005 0.2885545000000006 0.22761550000000053
0.2733031000000005 0.2877553000000006 0.22778200000000054
0.27363610000000055 0.2893204000000006 0.22834810000000055
0.2723707000000005 0.2899864000000006 0.23057920000000057
0.2739358000000005 0.2912518000000006 0.23111200000000057
0.2756341000000005 0.2905525000000006 0.23014630000000055
0.2760004000000005 0.2903860000000006 0.23091220000000057
0.27593380000000045 0.28965340000000056 0.23287690000000058
0.27686620000000045 0.2916847000000006 0.23201110000000058
0.2773324000000005 0.2925172000000006 0.23174470000000058
0.2790973000000005 0.2957473000000006 0.2323774000000006
0.2799964000000005 0.2959138000000006 0.2335096000000006
0.2796301000000005 0.29528110000000063 0.23207770000000058
0.2819944000000005 0.29501470000000063 0.23214430000000058
0.28179460000000045 0.29624680000000064 0.23287690000000058
0.28129510000000046 0.29744560000000064 0.23474170000000058
0.28142830000000046 0.29934370000000066 0.23627350000000058
0.28166140000000045 0.3007423000000007 0.2381716000000006
0.28229410000000044 0.3013417000000007 0.2390041000000006
0.28256050000000044 0.30313990000000074 0.24096880000000062
0.2823940000000004 0.30500470000000074 0.2406025000000006
0.28272700000000045 0.3037393000000007 0.2430001000000006
0.28276030000000046 0.30447190000000074 0.2424673000000006
0.28249390000000046 0.30570400000000075 0.2439325000000006
0.28202770000000044 0.3079018000000008 0.24616360000000062
0.28272700000000045 0.30760210000000077 0.24766210000000063
0.2847916000000005 0.3069694000000008 0.24692950000000063
0.2851246000000005 0.3063367000000008 0.24672970000000063
0.2859571000000005 0.3076354000000008 0.24872770000000063
0.28705600000000053 0.3087343000000008 0.25042600000000065
0.2886211000000005 0.3117979000000008 0.25192450000000066
0.2907523000000005 0.3132964000000008 0.2518246000000007
0.29065240000000053 0.31469500000000084 0.2513251000000007
0.29218420000000056 0.31529440000000086 0.2522908000000007
0.29391580000000056 0.3153610000000009 0.2525572000000007
0.29351620000000056 0.3153610000000009 0.2541889000000007
0.2950480000000006 0.3183580000000009 0.2533564000000007
0.2954476000000006 0.3183580000000009 0.2552212000000007
0.2972125000000006 0.3200896000000009 0.2577853000000007
0.2982781000000006 0.3191239000000009 0.25785190000000074
0.29874430000000063 0.3179584000000009 0.25845130000000077
0.29781190000000063 0.31842460000000095 0.2592838000000008
0.29931040000000064 0.31829140000000095 0.25895080000000076
0.29927710000000063 0.31962340000000095 0.2607490000000008
0.29927710000000063 0.31998970000000093 0.2624140000000008
0.3007090000000006 0.32018950000000096 0.26434540000000084
0.3009754000000006 0.32148820000000095 0.26371270000000085
0.3013750000000006 0.321688000000001 0.26384590000000085
0.3013084000000006 0.323053300000001 0.26637670000000085
0.30057580000000056 0.324185500000001 0.26554420000000084
0.30134170000000055 0.325783900000001 0.26660980000000084
0.30050920000000053 0.326416600000001 0.26730910000000085
0.3035395000000005 0.329180500000001 0.26970670000000085
0.3040390000000005 0.329713300000001 0.27247060000000084
0.30450520000000053 0.32994640000000097 0.27530110000000085
0.3056707000000005 0.33124510000000096 0.2748349000000008
0.30690280000000053 0.333576100000001 0.2737027000000008
0.30746890000000054 0.332277400000001 0.2738026000000008
0.31029940000000056 0.332876800000001 0.2738359000000008
0.3115648000000006 0.332876800000001 0.27363610000000077
0.3117313000000006 0.335241100000001 0.27550090000000077
0.3134962000000006 0.335008000000001 0.27709930000000077
0.3137626000000006 0.33677290000000104 0.27883090000000077
0.3130966000000006 0.33707260000000105 0.27839800000000076
0.3118978000000006 0.3394036000000011 0.27869770000000077
0.3130966000000006 0.3386044000000011 0.27849790000000074
0.3141289000000006 0.3404026000000011 0.27779860000000073
0.3143287000000006 0.3402694000000011 0.2769328000000007
0.3132298000000006 0.3401362000000011 0.2770327000000007
0.31396240000000064 0.34033600000000114 0.2762002000000007
0.3140623000000006 0.3429667000000011 0.2791972000000007
0.3131299000000006 0.34513120000000114 0.2797633000000007
0.31559410000000065 0.34499800000000114 0.2793304000000007
0.31749220000000067 0.34712920000000114 0.2783647000000007
0.3175588000000007 0.34912720000000114 0.2813617000000007
0.3199897000000007 0.34919380000000116 0.2829268000000007
0.3191905000000007 0.35155810000000115 0.2856241000000007
0.3197566000000007 0.35245720000000114 0.2862901000000007
0.3199897000000007 0.35408890000000115 0.28808830000000074
0.3205558000000007 0.35658640000000114 0.28842130000000077
0.3202561000000007 0.35765200000000114 0.28822150000000074
0.32085550000000074 0.35984980000000116 0.28852120000000075
0.32218750000000074 0.35931700000000116 0.28915390000000074
0.32438530000000076 0.36101530000000115 0.29008630000000074
0.32541760000000075 0.3618811000000012 0.2927170000000007
0.32538430000000074 0.3643120000000012 0.29291680000000075
0.32864770000000076 0.3658438000000012 0.29421550000000074
0.33087880000000075 0.36724240000000125 0.29468170000000077
0.33224410000000076 0.36767530000000126 0.29601370000000077
0.3338758000000008 0.36687610000000126 0.29568070000000074
0.3352078000000008 0.3663766000000013 0.29814490000000077
0.33570730000000076 0.36647650000000126 0.2979118000000008
0.3360070000000008 0.36834130000000126 0.29717920000000075
0.33544090000000076 0.36834130000000126 0.2995102000000008
0.3361735000000008 0.3698731000000013 0.30014290000000077
0.33597370000000076 0.3699064000000013 0.3010087000000008
0.3378718000000008 0.3720709000000013 0.3020077000000008
0.3387376000000008 0.37330300000000133 0.3042388000000008
0.3407689000000008 0.37470160000000136 0.3033397000000008
0.3422008000000008 0.3771658000000014 0.3042388000000008
0.3439657000000008 0.37873090000000137 0.3074689000000008
0.34559740000000083 0.3802627000000014 0.3069028000000008
0.34493140000000083 0.3810952000000014 0.3090007000000008
0.3466297000000008 0.3825604000000014 0.3100330000000008
0.34696270000000085 0.3851911000000014 0.31066570000000077
0.34759540000000083 0.3863566000000014 0.31133170000000077
0.34786180000000083 0.3883546000000014 0.31306330000000077
0.34919380000000083 0.3898864000000014 0.31329640000000075
0.3500929000000008 0.3892204000000014 0.3138958000000008
0.3500263000000008 0.3888874000000014 0.31452850000000077
0.3495934000000008 0.3903859000000014 0.31679290000000077
0.34956010000000076 0.3918511000000014 0.3166930000000008
0.34926040000000075 0.39178450000000137 0.3176920000000008
0.35112520000000075 0.3918511000000014 0.3175588000000008
0.35149150000000073 0.3922840000000014 0.3184579000000008
0.35205760000000075 0.3935827000000014 0.3201895000000008
0.3531898000000008 0.3964132000000014 0.3206557000000008
0.35448850000000076 0.3957805000000014 0.3214216000000008
0.35458840000000075 0.39851110000000145 0.3235861000000008
0.35538760000000075 0.3985777000000015 0.3242521000000008
0.3569194000000008 0.3993103000000015 0.3257173000000008
0.3591838000000008 0.40097530000000153 0.3268828000000008
0.36034930000000076 0.40224070000000156 0.3287809000000008
0.36191440000000075 0.40170790000000156 0.3275821000000008
0.36111520000000075 0.40367260000000155 0.3267163000000008
0.36181450000000076 0.40593700000000155 0.3263167000000008
0.36421210000000076 0.40543750000000156 0.3273490000000008
0.3645118000000008 0.40500460000000155 0.3276487000000008
0.3634795000000008 0.40567060000000155 0.3299464000000008
0.36341290000000076 0.40810150000000156 0.3329767000000008
0.36288010000000076 0.4081681000000016 0.3319444000000008
0.3661102000000008 0.4090672000000016 0.3328435000000008
0.36577720000000075 0.4096333000000016 0.3332098000000008
0.36720910000000073 0.4115647000000016 0.3352411000000008
0.37003960000000075 0.4102993000000016 0.3347416000000008
0.37043920000000075 0.4119976000000016 0.3373057000000008
0.37220410000000076 0.41382910000000156 0.3379717000000008
0.3733030000000008 0.41529430000000156 0.33910390000000085
0.37180450000000076 0.4179916000000016 0.34043590000000085
0.37243720000000075 0.4187908000000016 0.33980320000000086
0.37293670000000073 0.41862430000000156 0.34140160000000086
0.3753010000000007 0.4207888000000016 0.34080220000000083
0.37560070000000073 0.4193236000000016 0.34280020000000083
0.3753010000000007 0.4195900000000016 0.34256710000000085
0.3751678000000007 0.4200229000000016 0.34260040000000086
0.3765997000000007 0.4216546000000016 0.3435661000000009
0.3783646000000007 0.4230865000000016 0.3456973000000009
0.3800629000000007 0.4232863000000016 0.3448981000000009
0.3802960000000007 0.4244851000000016 0.34672960000000086
0.37956340000000066 0.4257172000000016 0.34882750000000085
0.37889740000000066 0.4261168000000016 0.3512917000000009
0.38059570000000065 0.4257172000000016 0.35245720000000086
0.38136160000000063 0.42641650000000164 0.35312320000000086
0.3825271000000006 0.42924700000000166 0.3531565000000009
0.38499130000000065 0.42991300000000165 0.3540223000000009
0.3846583000000006 0.43121170000000164 0.3545884000000009
0.38672290000000065 0.4327768000000016 0.3548548000000009
0.38782180000000066 0.4327768000000016 0.35691940000000094
0.38778850000000065 0.43267690000000164 0.35855110000000096
0.39031930000000065 0.43134490000000164 0.35868430000000096
0.39218410000000065 0.4337092000000016 0.36054910000000095
0.39521440000000063 0.4342420000000016 0.36264700000000094
0.39574720000000063 0.4348747000000016 0.36441190000000095
0.39614680000000063 0.4350412000000016 0.36437860000000094
0.3969127000000006 0.4370392000000016 0.36561070000000095
0.3962467000000006 0.4377052000000016 0.367941700000001
0.3955807000000006 0.43680610000000164 0.36764200000000097
0.3954142000000006 0.4369060000000016 0.36677620000000094
0.3968461000000006 0.4371724000000016 0.36650980000000094
0.3986776000000006 0.43933690000000164 0.36667630000000095
0.3984445000000006 0.4399696000000016 0.36867430000000095
0.3989440000000006 0.4410352000000016 0.36827470000000095
0.4004092000000006 0.4429999000000016 0.37040590000000095
0.4028734000000006 0.4436992000000016 0.37200430000000095
0.4021741000000006 0.4459636000000016 0.3719377000000009
0.4034728000000006 0.44799490000000164 0.3723373000000009
0.4044385000000006 0.44999290000000164 0.3722707000000009
0.4040056000000006 0.45199090000000164 0.3730366000000009
0.4035061000000006 0.4546216000000016 0.3732031000000009
0.4040722000000006 0.45602020000000165 0.3732364000000009
0.4058371000000006 0.4584844000000017 0.3731698000000009
0.40853440000000063 0.45911710000000167 0.3744019000000009
0.4084678000000006 0.46044910000000167 0.3751678000000009
0.4096666000000006 0.46038250000000164 0.3758338000000009
0.4086676000000006 0.46238050000000164 0.3778318000000009
0.4100662000000006 0.46271350000000167 0.37793170000000087
0.41173120000000063 0.46254700000000165 0.3799630000000009
0.4127635000000006 0.46401220000000165 0.3809620000000009
0.4116313000000006 0.46584370000000164 0.3818611000000009
0.4120642000000006 0.4679416000000016 0.3837592000000009
0.4117978000000006 0.4682080000000016 0.3821941000000009
0.4130965000000006 0.46904050000000164 0.38156140000000094
0.4117312000000006 0.4703392000000016 0.3815281000000009
0.4123972000000006 0.4704391000000016 0.38332630000000095
0.4134961000000006 0.4718044000000016 0.38319310000000095
0.4150612000000006 0.4739356000000016 0.385923700000001
0.4172590000000006 0.4744351000000016 0.385124500000001
0.4167595000000006 0.4759336000000016 0.387155800000001
0.41895730000000064 0.4783312000000016 0.387422200000001
0.41772520000000063 0.47959660000000165 0.388754200000001
0.41992300000000066 0.48042910000000166 0.388587700000001
0.42005620000000066 0.48082870000000166 0.38775520000000097
0.42182110000000067 0.4823605000000017 0.388720900000001
0.4226536000000007 0.4846249000000017 0.389653300000001
0.42461830000000067 0.4855906000000017 0.390452500000001
0.42391900000000066 0.4848247000000017 0.39025270000000095
0.42428530000000064 0.48622330000000175 0.39128500000000094
0.42538420000000066 0.4865563000000018 0.39091870000000095
0.4282480000000007 0.4892203000000018 0.39115180000000094
0.4293136000000007 0.48888730000000175 0.39135160000000097
0.43141150000000067 0.48995290000000175 0.39158470000000095
0.4343752000000007 0.4925503000000018 0.39308320000000097
0.4361734000000007 0.4951477000000018 0.394848100000001
0.4373389000000007 0.4979449000000018 0.396446500000001
0.4383379000000007 0.4997764000000018 0.39628000000000096
0.43823800000000074 0.4996432000000018 0.398211400000001
0.43760530000000075 0.4998097000000018 0.399676600000001
0.43840450000000075 0.5011750000000018 0.401807800000001
0.44133490000000075 0.4998097000000018 0.404072200000001
0.44349940000000077 0.5011750000000018 0.405604000000001
0.44336620000000077 0.5014414000000018 0.40417210000000103
0.44386570000000075 0.5014747000000018 0.40603690000000103
0.44343280000000074 0.5014747000000018 0.408001600000001
0.44496460000000077 0.5011084000000018 0.40763530000000103
0.44616340000000076 0.5008420000000018 0.40883410000000103
0.4461967000000008 0.5020408000000018 0.41019940000000105
0.4472956000000008 0.5031064000000018 0.41276350000000106
0.4489273000000008 0.5042053000000019 0.41259700000000105
0.4493269000000008 0.5037724000000019 0.412130800000001
0.44952670000000083 0.5060035000000019 0.41442850000000103
0.45115840000000085 0.506403100000002 0.41406220000000105
0.45265690000000086 0.508933900000002 0.41369590000000106
0.4529566000000009 0.507468700000002 0.4143952000000011
0.4542886000000009 0.509266900000002 0.41316310000000106
0.45438850000000086 0.510732100000002 0.4122640000000011
0.45678610000000086 0.512030800000002 0.4149946000000011
0.45728560000000085 0.514128700000002 0.4181914000000011
0.4586842000000009 0.516326500000002 0.4192237000000011
0.4600828000000009 0.5169592000000021 0.4200229000000011
0.46014940000000093 0.5159935000000021 0.4201894000000011
0.45948340000000093 0.5178250000000021 0.4202227000000011
0.45908380000000093 0.5175253000000021 0.4214215000000011
0.45921700000000093 0.5202892000000021 0.42318640000000113
0.4598497000000009 0.5226202000000021 0.42498460000000116
0.46111510000000094 0.5245516000000021 0.42618340000000116
0.46044910000000094 0.5257837000000021 0.4275820000000012
0.4603825000000009 0.5273821000000021 0.4280482000000012
0.4609153000000009 0.5285809000000021 0.43011280000000124
0.4620808000000009 0.5279482000000021 0.43201090000000125
0.4644451000000009 0.5276818000000021 0.43147810000000125
0.4659436000000009 0.5291137000000021 0.43191100000000127
0.4674088000000009 0.5304457000000021 0.43204420000000127
0.4698064000000009 0.5316445000000022 0.4350079000000013
0.47133820000000093 0.5326102000000021 0.4352743000000013
0.4711717000000009 0.5339755000000022 0.4343419000000013
0.47123830000000094 0.5354074000000022 0.4362400000000013
0.47400220000000093 0.5370058000000022 0.4385044000000013
0.47480140000000093 0.5369725000000022 0.4390705000000013
0.47626660000000093 0.5363398000000021 0.4419676000000013
0.47829790000000094 0.5368726000000021 0.4421008000000013
0.47916370000000097 0.5379049000000021 0.4441321000000013
0.480129400000001 0.5395699000000022 0.4457638000000013
0.48249370000000097 0.5407021000000022 0.4447981000000013
0.48369250000000097 0.5406688000000022 0.4467961000000013
0.48569050000000097 0.5420008000000022 0.4486942000000013
0.48888730000000097 0.5417677000000022 0.4494601000000013
0.490252600000001 0.5403691000000022 0.4506256000000013
0.49115170000000097 0.5427001000000021 0.4525237000000013
0.49095190000000094 0.5447647000000021 0.4510585000000013
0.49388230000000094 0.5462632000000021 0.4514248000000013
0.49514770000000097 0.549127000000002 0.4528234000000013
0.49791160000000095 0.5510917000000021 0.45352270000000133
0.49754530000000097 0.5515912000000021 0.45648640000000135
0.49924360000000095 0.5526901000000021 0.45878410000000136
0.5001094000000009 0.5538223000000021 0.45811810000000136
0.49947670000000094 0.5546215000000021 0.45781840000000135
0.5014414000000009 0.5560201000000021 0.45845110000000133
0.5027401000000009 0.5558869000000021 0.46004950000000133
0.5029732000000009 0.556852600000002 0.4608154000000013
0.5046715000000009 0.558118000000002 0.46351270000000133
0.505071100000001 0.558317800000002 0.46367920000000135
0.506636200000001 0.559483300000002 0.4633462000000013
0.505570600000001 0.562080700000002 0.46377910000000133
0.506769400000001 0.560981800000002 0.4641454000000013
0.508600900000001 0.563046400000002 0.4661101000000013
0.509133700000001 0.5634793000000019 0.4655773000000013
0.509466700000001 0.5636458000000019 0.4655440000000013
0.5092336000000011 0.5642452000000019 0.4660768000000013
0.511797700000001 0.5661100000000019 0.4680415000000013
0.5113648000000011 0.5671756000000019 0.4700395000000013
0.5114314000000011 0.5670424000000018 0.4706056000000013
0.5119642000000011 0.5670757000000018 0.4710718000000013
0.5139289000000011 0.5669758000000018 0.4703725000000013
0.5155273000000011 0.5665762000000018 0.4728700000000013
0.5177584000000012 0.5670091000000017 0.4729033000000013
0.5189905000000011 0.5696731000000017 0.4726702000000013
0.5203558000000011 0.5700727000000018 0.4733029000000013
0.5210884000000011 0.5699728000000017 0.4740022000000013
0.5216212000000011 0.5703724000000018 0.47576710000000133
0.5213881000000011 0.5705389000000017 0.47809810000000136
0.5225536000000012 0.5707387000000017 0.48022930000000136
0.5234527000000012 0.5723704000000017 0.48222730000000136
0.5226202000000012 0.5723704000000017 0.48379240000000134
0.5249845000000012 0.5721373000000017 0.48415870000000133
0.5257171000000012 0.5737024000000017 0.48339280000000134
0.5254507000000012 0.5733028000000017 0.48539080000000134
0.5267494000000011 0.5731030000000017 0.48565720000000134
0.5285476000000011 0.5747680000000017 0.48772180000000137
0.5290138000000011 0.5768659000000017 0.4906855000000014
0.5293468000000011 0.5756671000000017 0.49198420000000137
0.5293135000000011 0.5768659000000017 0.49434850000000136
0.5295133000000011 0.5775319000000018 0.49598020000000137
0.528880600000001 0.5781979000000018 0.4953475000000014
0.5302792000000011 0.5787307000000018 0.4973788000000014
0.5300128000000011 0.5818609000000018 0.4968460000000014
0.529979500000001 0.5823271000000018 0.4978117000000014
0.5303791000000011 0.5829598000000018 0.4996432000000014
0.5325436000000011 0.5858569000000018 0.5001427000000014
0.5336092000000011 0.5856904000000018 0.5023738000000014
0.5346082000000011 0.5874220000000019 0.5031730000000014
0.5369392000000011 0.5876884000000019 0.5052709000000014
0.5372056000000011 0.5869891000000019 0.5080348000000015
0.5381047000000011 0.5882545000000019 0.5097997000000014
0.5390038000000011 0.5899528000000019 0.5110318000000014
0.5391370000000012 0.590585500000002 0.5098663000000013
0.5408020000000012 0.590785300000002 0.5115646000000014
0.5422006000000013 0.592183900000002 0.5134294000000014
0.5420341000000013 0.593882200000002 0.5132296000000014
0.5437990000000013 0.593515900000002 0.5156938000000014
0.5434660000000012 0.595347400000002 0.5163265000000015
0.5456971000000013 0.596179900000002 0.5185576000000015
0.5449645000000013 0.595747000000002 0.5211217000000015
0.5451643000000013 0.598211200000002 0.5206222000000015
0.5474620000000012 0.6004090000000021 0.5208220000000015
0.5463298000000012 0.5999761000000021 0.5215546000000014
0.5462299000000012 0.6020407000000021 0.5231197000000014
0.5471290000000012 0.6028732000000021 0.5238856000000014
0.5465296000000012 0.6017077000000021 0.5262832000000014
0.5487274000000012 0.6028399000000021 0.5264497000000014
0.5484943000000012 0.6038722000000021 0.5273488000000014
0.5492269000000012 0.6052375000000021 0.5276152000000014
0.5480614000000011 0.6065029000000021 0.5280814000000014
0.5506921000000011 0.6062365000000021 0.5287807000000013
0.5502925000000011 0.608534200000002 0.5284810000000013
0.5521240000000011 0.610698700000002 0.5280148000000013
0.5535226000000011 0.613928800000002 0.5273821000000013
0.5557537000000011 0.6139954000000021 0.5272156000000013
0.5549545000000011 0.614161900000002 0.5277484000000013
0.5560201000000011 0.6158269000000021 0.5284810000000013
0.5558536000000012 0.616326400000002 0.5280814000000013
0.5563198000000011 0.616026700000002 0.5293468000000012
0.5555539000000012 0.618124600000002 0.5312782000000013
0.5576851000000012 0.620255800000002 0.5342752000000013
0.5582512000000012 0.619589800000002 0.5355406000000013
0.5581513000000011 0.620422300000002 0.5369392000000013
0.5608153000000011 0.621854200000002 0.5381380000000013
0.5611483000000012 0.6219541000000021 0.5387374000000014
0.5619142000000011 0.6208885000000021 0.5382046000000014
0.5624803000000012 0.6204223000000021 0.5389039000000013
0.5641120000000012 0.6198562000000021 0.5417011000000014
0.5645782000000011 0.6198562000000021 0.5430331000000014
0.5635792000000012 0.618424300000002 0.5454640000000014
0.5642452000000012 0.621354700000002 0.5456971000000014
0.5641786000000012 0.623186200000002 0.5462965000000014
0.5655439000000012 0.625816900000002 0.5461633000000014
0.5679748000000012 0.626915800000002 0.5482945000000014
0.5693734000000013 0.627248800000002 0.5486941000000014
0.5696398000000013 0.629280100000002 0.5496598000000014
0.5694733000000013 0.631577800000002 0.5485942000000014
0.5684410000000013 0.632776600000002 0.5494267000000014
0.5682412000000013 0.6355405000000021 0.5502592000000014
0.5679748000000013 0.634907800000002 0.5521906000000014
0.5677417000000013 0.635140900000002 0.5545549000000014
0.5695732000000013 0.633942100000002 0.5564197000000014
0.5710051000000014 0.633709000000002 0.5552875000000014
0.5710717000000014 0.636139900000002 0.5565196000000013
0.5714713000000015 0.638304400000002 0.5557870000000014
0.5704057000000015 0.638437600000002 0.5545549000000014
0.5699728000000015 0.6382711000000021 0.5562865000000015
0.5698729000000015 0.637072300000002 0.5571523000000015
0.5696065000000015 0.638137900000002 0.5595166000000015
0.5694733000000014 0.640502200000002 0.5617144000000015
0.5695066000000014 0.641467900000002 0.5606488000000015
0.5711383000000014 0.641601100000002 0.5625136000000015
0.5717377000000015 0.6417010000000021 0.5621473000000015
0.5724370000000014 0.6428332000000021 0.5608486000000015
0.5729032000000014 0.6437989000000021 0.5612149000000015
0.5750344000000014 0.644265100000002 0.5631796000000016
0.5760667000000014 0.647095600000002 0.5635792000000016
0.5760334000000014 0.649426600000002 0.5649445000000016
0.5777983000000013 0.648694000000002 0.5660101000000016
0.5785309000000013 0.647861500000002 0.5680081000000017
0.5779981000000013 0.649593100000002 0.5673421000000016
0.5799295000000013 0.6502591000000021 0.5690071000000017
0.5800627000000014 0.6499594000000021 0.5695732000000017
0.5806288000000014 0.6507919000000021 0.5697730000000016
0.5829931000000014 0.6519907000000021 0.5705056000000016
0.5837590000000014 0.6537556000000021 0.5717044000000017
0.5846914000000014 0.6524569000000021 0.5711383000000017
0.5847580000000014 0.6544549000000022 0.5718043000000017
0.5844583000000014 0.6542218000000022 0.5728033000000017
0.5851243000000015 0.6555871000000022 0.5720374000000017
0.5855239000000015 0.6562198000000022 0.5744017000000017
0.5856238000000016 0.6546880000000023 0.5754340000000017
0.5852242000000015 0.6579181000000023 0.5748346000000016
0.5875552000000015 0.6586174000000022 0.5743351000000017
0.5895865000000015 0.6599161000000022 0.5739022000000017
0.5884876000000014 0.6598495000000022 0.5748013000000017
0.5897863000000014 0.6601492000000022 0.5756005000000017
0.5885542000000015 0.6624136000000023 0.5750677000000017
0.5912515000000015 0.6611482000000023 0.5755006000000017
0.5920507000000015 0.6610150000000022 0.5762998000000017
0.5925835000000015 0.6629797000000023 0.5777650000000017
0.5929831000000015 0.6657769000000023 0.5795965000000017
0.5932495000000015 0.6678082000000023 0.5809285000000017
0.5943151000000015 0.6678415000000023 0.5817277000000017
0.5955472000000015 0.6692068000000023 0.5828599000000018
0.5981446000000015 0.6696730000000023 0.5845915000000018
0.5972455000000014 0.6685075000000023 0.5870557000000018
0.5971123000000014 0.6709384000000023 0.5870557000000018
0.5979115000000014 0.6730030000000022 0.5902525000000018
0.6000427000000014 0.6740686000000022 0.5925169000000019
0.6018076000000013 0.6760666000000023 0.593715700000002
0.6037723000000014 0.6762664000000023 0.595713700000002
0.6035059000000014 0.6766327000000023 0.597278800000002
0.6053374000000014 0.6763663000000023 0.600175900000002
0.6069025000000013 0.6772321000000023 0.600175900000002
0.6072022000000014 0.6761665000000023 0.5995432000000019
0.6083677000000014 0.6790303000000023 0.602240500000002
0.6097330000000014 0.6805621000000023 0.604171900000002
0.6106321000000015 0.6811948000000023 0.607035700000002
0.6119308000000014 0.6820273000000023 0.6096331000000019
0.6117643000000015 0.6816943000000023 0.611564500000002
0.6126301000000015 0.6828931000000024 0.6117643000000019
0.6114313000000015 0.6826267000000024 0.611830900000002
0.6123304000000015 0.6822604000000023 0.613828900000002
0.6134293000000015 0.6821605000000023 0.613029700000002
0.6140287000000015 0.6822937000000023 0.614428300000002
0.6131962000000015 0.6825934000000023 0.6161599000000021
0.6147946000000015 0.6839254000000023 0.6190237000000021
0.6132961000000016 0.6834592000000024 0.618690700000002
0.6146281000000016 0.6819940000000023 0.618890500000002
0.6174586000000015 0.6820606000000023 0.619090300000002
0.6182911000000015 0.6821272000000024 0.620488900000002
0.6184576000000015 0.6832927000000024 0.621854200000002
0.6187240000000015 0.6840586000000024 0.623952100000002
0.6176917000000015 0.6854905000000024 0.624451600000002
0.6201892000000016 0.6851575000000024 0.624285100000002
0.6219208000000016 0.6879547000000025 0.624751300000002
0.6208885000000016 0.6885208000000025 0.625783600000002
0.6220873000000017 0.6903190000000025 0.627515200000002
0.6225202000000016 0.6917842000000025 0.629013700000002
0.6215545000000017 0.6936823000000025 0.630612100000002
0.6225202000000016 0.6940153000000026 0.632410300000002
0.6242851000000016 0.6950143000000025 0.634141900000002
0.6250843000000016 0.6944482000000025 0.6336757000000021
0.6257503000000016 0.6960799000000025 0.633076300000002
0.6264163000000017 0.6976117000000025 0.634708000000002
0.6282811000000017 0.6987106000000025 0.634308400000002
0.6285142000000017 0.7009084000000025 0.633342700000002
0.6271489000000017 0.7010083000000026 0.635407300000002
0.6290470000000017 0.7008751000000025 0.637571800000002
0.6302791000000016 0.7016743000000025 0.637238800000002
0.6316111000000016 0.7028398000000026 0.639303400000002
0.6319774000000017 0.7046713000000026 0.641268100000002
0.6341419000000017 0.7071688000000026 0.642666700000002
0.6360400000000017 0.7085008000000026 0.644797900000002
0.6384376000000017 0.7082011000000026 0.6443317000000021
0.6402358000000017 0.7072687000000025 0.6454639000000021
0.6401692000000017 0.7072021000000025 0.6467626000000021
0.6419008000000017 0.7083010000000025 0.6464629000000021
0.6427666000000017 0.7094998000000026 0.6464962000000021
0.6460633000000018 0.7098994000000026 0.6475285000000021
0.6455305000000018 0.7114312000000026 0.6495265000000021
0.6482278000000018 0.7110316000000025 0.6506920000000022
0.6507919000000018 0.7124635000000026 0.6509251000000021
0.6503590000000018 0.7147945000000026 0.6507919000000021
0.6518908000000018 0.7159267000000026 0.649892800000002
0.6525568000000018 0.7146280000000026 0.648294400000002
0.6531562000000019 0.7173586000000026 0.6488605000000021
0.6520240000000018 0.7185574000000027 0.6516577000000021
0.6527566000000018 0.7177582000000027 0.6530230000000021
0.6552208000000018 0.7192234000000027 0.6536224000000022
0.6556537000000018 0.7212547000000027 0.6546547000000021
0.6563863000000018 0.7225534000000027 0.6541552000000022
0.6582844000000018 0.7222870000000027 0.6564196000000022
0.6594499000000018 0.7225867000000027 0.6565528000000023
0.6594832000000018 0.7241851000000027 0.6556204000000022
0.6594166000000018 0.7239853000000027 0.6562864000000023
0.6588172000000018 0.7253839000000027 0.6563863000000023
0.6585508000000018 0.7275817000000028 0.6572188000000023
0.6603157000000017 0.7280146000000027 0.6575518000000024
0.6615478000000017 0.7274485000000027 0.6578848000000024
0.6616144000000017 0.7275817000000028 0.6583510000000024
0.6612814000000017 0.7293466000000027 0.6583510000000024
0.6609151000000016 0.7319773000000027 0.6605821000000024
0.6622471000000016 0.7325434000000027 0.6601825000000023
0.6614812000000017 0.7326433000000028 0.6611815000000023
0.6606154000000016 0.7323436000000028 0.6626467000000024
0.6613480000000016 0.7311781000000027 0.6638788000000023
0.6615478000000016 0.7326100000000028 0.6637456000000023
0.6612481000000016 0.7327765000000027 0.6633793000000022
0.6606820000000015 0.7322437000000027 0.6650110000000022
0.6625135000000015 0.7333426000000027 0.6669757000000023
0.6611815000000015 0.7339753000000028 0.6678082000000023
0.6624136000000015 0.7340086000000028 0.6690070000000023
0.6629797000000015 0.7364395000000028 0.6710716000000023
0.6628798000000015 0.7354072000000028 0.6724036000000023
0.6643450000000015 0.7363396000000029 0.6738022000000023
0.6659434000000015 0.7381378000000028 0.6760999000000023
0.6662098000000015 0.7394365000000028 0.6774652000000023
0.6684076000000015 0.7383376000000028 0.6768991000000023
0.6704722000000015 0.7410682000000028 0.6792301000000023
0.6717709000000015 0.7425334000000029 0.6818608000000023
0.6721705000000016 0.743732200000003 0.6814945000000022
0.6718042000000015 0.7468291000000029 0.6831262000000022
0.6742351000000015 0.7477948000000029 0.6826600000000023
0.6758668000000015 0.7469290000000028 0.6835591000000023
0.6757003000000016 0.7482610000000028 0.6856570000000023
0.6780979000000016 0.7484941000000028 0.6860899000000023
0.6808951000000016 0.7497595000000028 0.6854905000000022
0.6825601000000017 0.7505920000000028 0.6872221000000023
0.6841252000000017 0.7528231000000029 0.6887539000000023
0.6828931000000017 0.7536889000000029 0.6899194000000023
0.6849910000000017 0.7557868000000029 0.6927166000000023
0.6852574000000017 0.7558534000000029 0.6941818000000024
0.6877882000000017 0.7574185000000029 0.6956803000000024
0.6906520000000017 0.7580512000000029 0.6962131000000024
0.6895531000000017 0.759216700000003 0.6981112000000024
0.6905188000000017 0.761314600000003 0.6992767000000024
0.6928165000000016 0.763512400000003 0.7003423000000024
0.6926500000000017 0.7652773000000029 0.7010083000000025
0.6927166000000017 0.7649776000000029 0.7038721000000024
0.6922837000000017 0.763978600000003 0.7045381000000025
0.6935158000000017 0.7633126000000029 0.7047379000000025
0.6948811000000017 0.7620805000000029 0.7055704000000025
0.6954139000000017 0.7644781000000029 0.7057702000000025
0.6965794000000017 0.764877700000003 0.7081012000000024
0.6982777000000018 0.765477100000003 0.7095331000000025
0.6976117000000017 0.765976600000003 0.7094998000000025
0.6983776000000017 0.766076500000003 0.7114978000000025
0.7008751000000017 0.767874700000003 0.7137289000000026
0.7012747000000018 0.767941300000003 0.7144282000000025
0.7014745000000018 0.769739500000003 0.7147945000000026
0.7042051000000018 0.770505400000003 0.7167592000000026
0.7066027000000018 0.771071500000003 0.7159267000000026
0.7088671000000019 0.773635600000003 0.7182910000000026
0.7090669000000018 0.774101800000003 0.7188571000000026
0.7102324000000019 0.775267300000003 0.7188238000000026
0.7103656000000019 0.777365200000003 0.7209217000000026
0.7111981000000019 0.7783309000000029 0.7227199000000025
0.7127632000000019 0.7803622000000029 0.7238521000000026
0.712829800000002 0.7801291000000029 0.7243849000000026
0.713928700000002 0.7789969000000029 0.7262497000000026
0.714761200000002 0.7812613000000029 0.7256170000000025
0.715360600000002 0.7817275000000029 0.7278148000000025
0.717125500000002 0.7836256000000029 0.7301125000000025
0.718257700000002 0.7847245000000029 0.7288471000000025
0.719889400000002 0.786089800000003 0.7300126000000026
0.719722900000002 0.787188700000003 0.7293133000000026
0.718324300000002 0.789819400000003 0.7306786000000026
0.719323300000002 0.7905187000000029 0.7310449000000027
0.720488800000002 0.7911181000000029 0.7325767000000026
0.7216876000000021 0.7913179000000029 0.7325101000000026
0.7232860000000021 0.792483400000003 0.7327432000000026
0.7240519000000021 0.793882000000003 0.7340419000000026
0.7261498000000021 0.792783100000003 0.7345747000000026
0.7256170000000021 0.794148400000003 0.7365727000000026
0.728214400000002 0.7940152000000029 0.7364062000000027
0.7307452000000021 0.7940152000000029 0.7376050000000027
0.7309783000000021 0.7950142000000029 0.7371388000000028
0.7304788000000021 0.7963462000000029 0.7375717000000027
0.7305121000000021 0.7984441000000029 0.7388038000000027
0.7308118000000021 0.7996096000000029 0.7381378000000026
0.7306786000000021 0.799676200000003 0.7402690000000026
0.730578700000002 0.7993432000000029 0.7423003000000026
0.7298794000000021 0.7989436000000029 0.7431994000000026
0.730079200000002 0.7990102000000029 0.7435324000000026
0.731311300000002 0.7994431000000028 0.7457635000000027
0.7311781000000019 0.8014078000000029 0.7452307000000027
0.7327765000000019 0.8036056000000029 0.7451308000000026
0.734175100000002 0.8046379000000029 0.7453972000000026
0.7340419000000019 0.8034391000000028 0.7460299000000027
0.734674600000002 0.8043049000000029 0.7478281000000027
0.735840100000002 0.8061031000000028 0.7492933000000027
0.738237700000002 0.8057368000000028 0.7509583000000027
0.739070200000002 0.8073019000000028 0.7512247000000027
0.738970300000002 0.8082010000000028 0.7514911000000027
0.741667600000002 0.8088337000000029 0.7518241000000028
0.740568700000002 0.8115643000000029 0.7548211000000028
0.7399360000000019 0.8126965000000029 0.7540219000000028
0.7411681000000019 0.813096100000003 0.7556203000000028
0.7406020000000019 0.812363500000003 0.7557868000000028
0.7405021000000018 0.812829700000003 0.7571854000000028
0.7402690000000018 0.813762100000003 0.7585174000000028
0.7423336000000018 0.8130628000000031 0.7589836000000028
0.7427998000000018 0.814861000000003 0.7612480000000028
0.7440652000000018 0.814294900000003 0.7607818000000028
0.7449976000000018 0.8159932000000031 0.7598827000000028
0.7443982000000018 0.817791400000003 0.7609150000000028
0.7461964000000018 0.8197561000000031 0.7634791000000027
0.7464628000000018 0.8213878000000031 0.7629796000000028
0.7462630000000018 0.8207551000000031 0.7646113000000028
0.7483942000000018 0.821221300000003 0.7659100000000028
0.7491268000000018 0.8216209000000031 0.7665760000000028
0.7493932000000018 0.8203222000000031 0.7665760000000028
0.7491601000000018 0.8223535000000031 0.7658101000000028
0.7493266000000017 0.822253600000003 0.7673752000000028
0.7507585000000018 0.823618900000003 0.7674751000000029
0.7519573000000018 0.824717800000003 0.7676749000000028
0.7537888000000018 0.824617900000003 0.7675750000000028
0.7559866000000018 0.825883300000003 0.7690069000000028
0.7570189000000018 0.824751100000003 0.7704721000000029
0.7597828000000019 0.825650200000003 0.7704721000000029
0.7593832000000018 0.825683500000003 0.7713712000000029
0.7606819000000018 0.826682500000003 0.7703056000000029
0.7615144000000018 0.827448400000003 0.7719373000000029
0.7626466000000018 0.826715800000003 0.7721038000000029
0.7616809000000019 0.828580600000003 0.7744681000000029
0.7635124000000019 0.830711800000003 0.7749010000000028
0.7645447000000019 0.832476700000003 0.7774984000000028
0.7646446000000019 0.8326765000000029 0.7789303000000029
0.7661764000000019 0.833542300000003 0.7787305000000029
0.7667758000000019 0.832276900000003 0.7792633000000029
0.7666759000000019 0.833042800000003 0.7811947000000029
0.7667092000000019 0.834940900000003 0.783192700000003
0.7670755000000019 0.834208300000003 0.783758800000003
0.7673086000000019 0.834807700000003 0.784824400000003
0.7697728000000019 0.836839000000003 0.786089800000003
0.7720705000000019 0.836905600000003 0.787488400000003
0.7735357000000019 0.836938900000003 0.788787100000003
0.7729696000000019 0.836805700000003 0.7884208000000029
0.7728364000000019 0.836206300000003 0.7896862000000029
0.7745347000000019 0.8358067000000029 0.7912846000000029
0.7746013000000019 0.8344747000000029 0.7927165000000029
0.7748677000000019 0.8357068000000029 0.794714500000003
0.7748344000000019 0.8361730000000028 0.796246300000003
0.7750675000000019 0.8358400000000028 0.797611600000003
0.7743349000000019 0.8372719000000028 0.7977781000000029
0.7763662000000019 0.8386039000000028 0.7992766000000029
0.7791967000000019 0.8402023000000028 0.8011414000000029
0.7804288000000018 0.8408017000000029 0.8030395000000029
0.7811947000000018 0.8437654000000029 0.8040052000000029
0.7812946000000018 0.8462296000000029 0.8033059000000029
0.7801957000000018 0.8462962000000029 0.8022403000000029
0.7814278000000018 0.847195300000003 0.8033725000000029
0.7828597000000018 0.849459700000003 0.8060365000000029
0.7820605000000018 0.8490268000000031 0.8088670000000029
0.7838254000000018 0.849459700000003 0.8101990000000029
0.7849909000000018 0.849892600000003 0.8125300000000029
0.7860232000000018 0.850891600000003 0.8150275000000029
0.7882210000000018 0.850159000000003 0.8170588000000029
0.7871221000000018 0.849959200000003 0.8187238000000029
0.7864894000000018 0.850791700000003 0.8205553000000029
0.7861564000000018 0.852823000000003 0.8222203000000029
0.7855903000000017 0.854288200000003 0.8220871000000028
0.7857901000000017 0.854754400000003 0.8235856000000028
0.7861231000000017 0.856685800000003 0.8228863000000028
0.7887205000000017 0.8586838000000031 0.8235190000000029
0.7903522000000017 0.8580511000000031 0.8225866000000028
0.7909516000000018 0.8592166000000031 0.8228197000000028
0.7901857000000018 0.8616475000000031 0.8228863000000028
0.7896196000000018 0.8612146000000032 0.8243182000000029
0.7898194000000017 0.8630128000000031 0.8252173000000029
0.7914178000000017 0.8643448000000031 0.8270488000000029
0.7922503000000017 0.8654104000000031 0.8277814000000029
0.7945813000000017 0.8659765000000031 0.8269489000000029
0.7946479000000017 0.8662429000000031 0.8292799000000028
0.7940818000000017 0.8684407000000032 0.8316442000000028
0.7951141000000017 0.8685406000000032 0.8321437000000028
0.7950142000000017 0.8709715000000032 0.8318440000000028
0.7944814000000017 0.8726032000000032 0.8314111000000028
0.7955803000000017 0.8729695000000033 0.8321770000000028
0.7953472000000017 0.8732026000000033 0.8354071000000028
0.7951141000000017 0.8750008000000032 0.8346745000000029
0.7942816000000017 0.8753338000000033 0.8359732000000029
0.7945480000000017 0.8773651000000032 0.8358067000000029
0.7961464000000017 0.8780311000000033 0.8374051000000029
0.7970788000000018 0.8788969000000033 0.8385040000000029
0.7975117000000017 0.8779645000000033 0.8383708000000029
0.7982776000000017 0.8799625000000033 0.8386705000000029
0.7991101000000017 0.8790634000000033 0.8379712000000029
0.7998427000000017 0.8798626000000033 0.8377381000000029
0.8001424000000017 0.8811946000000033 0.8366059000000029
0.8005087000000017 0.8821270000000033 0.8381710000000029
0.8020738000000017 0.8843248000000034 0.8393698000000029
0.8025067000000017 0.8852905000000033 0.8408683000000029
0.8043382000000017 0.8868223000000033 0.8411680000000029
0.8037388000000016 0.8871886000000033 0.8403688000000029
0.8045380000000016 0.8885206000000033 0.839136700000003
0.8039053000000016 0.8891200000000034 0.8412346000000029
0.8067691000000016 0.8912179000000033 0.8430328000000029
0.8069356000000015 0.8923834000000034 0.8438986000000029
0.8089003000000016 0.8935489000000034 0.8432992000000029
0.8075017000000015 0.8933824000000035 0.8440651000000029
0.8081677000000016 0.8934157000000035 0.8458633000000029
0.8102989000000016 0.8954470000000034 0.8455303000000028
