0.012997 0.0117649 0.0109324
0.0152614 0.013996 0.0122311
0.0165268 0.0153946 0.011998
0.0180919 0.0148951 0.0130969
0.0177589 0.0142957 0.0150616
0.0170596 0.0144622 0.014662
0.0195904 0.0149284 0.0151615
0.0194572 0.0180919 0.0156277
0.0200566 0.019657 0.015527800000000001
0.022987 0.0198235 0.0161272
0.0244189 0.0218548 0.0167599
0.0258175 0.0231202 0.0188245
0.025984 0.0240193 0.020656
0.0280819 0.0241525 0.0215551
0.0294805 0.0245521 0.0233533
0.0301798 0.0245854 0.0249184
0.0329104 0.0241525 0.0249517
0.032977 0.0232867 0.027316
0.0349084 0.0224209 0.0267832
0.0347752 0.0251515 0.0285814
0.0357409 0.0245188 0.0284815
0.0371395 0.0270829 0.0306127
0.0373393 0.0268165 0.033643
0.0363736 0.0260839 0.0323776
0.0374059 0.0284815 0.034309
0.0380053 0.0316117 0.0354745
0.0373726 0.0334432 0.0352747
0.0393373 0.0350416 0.0343756
0.0391708 0.0349417 0.0355078
0.0391708 0.0344422 0.0378388
0.0418348 0.0352414 0.0395704
0.0442324 0.0370396 0.0390376
0.0450649 0.0401032 0.0395038
0.0460639 0.0401365 0.0421345
0.0461638 0.0408358 0.0441991
0.0483616 0.0407692 0.0432667
0.0491275 0.0432667 0.0441658
0.0499933 0.044632 0.0437329
0.0501265 0.0456643 0.0433999
0.0504595 0.0472627 0.0425674
0.052291 0.0472294 0.0438994
0.0519913 0.0465967 0.0455644
0.0517582 0.0490276 0.0462304
0.0521245 0.0502264 0.0470296
0.0528238 0.050626 0.0487279
0.054289 0.0502597 0.0501598
0.0541225 0.0511588 0.0491608
0.0565534 0.0538561 0.048628
0.0557542 0.0548218 0.0475291
0.0560206 0.056287 0.0485281
0.056287 0.0576856 0.0509257
0.058950999999999996 0.060582699999999996 0.0504595
0.0579187 0.059283999999999996 0.050626
0.059616999999999996 0.058651299999999996 0.0527572
0.061848099999999996 0.059450499999999996 0.0530569
0.0631801 0.058817799999999996 0.0547552
0.0647785 0.058484799999999997 0.0560206
0.0632467 0.060915699999999996 0.0560872
0.0628138 0.060516099999999996 0.0577855
0.0637795 0.061681599999999996 0.058351599999999997
0.0663103 0.062114499999999996 0.060749199999999996
0.0681085 0.0632134 0.061914699999999996
0.0678754 0.0630136 0.062014599999999996
0.0698068 0.0643123 0.0640126
0.071272 0.0670762 0.0638461
0.0705727 0.0690409 0.0627139
0.0704062 0.0709057 0.0635797
0.0694738 0.0709723 0.0646453
0.0704062 0.071605 0.0645787
0.0721711 0.0733033 0.0651448
0.0744022 0.073936 0.0668431
0.0739027 0.0736696 0.0684415
0.0747352 0.0750016 0.0688078
0.0773659 0.0766666 0.0687412
0.0776989 0.0765667 0.0694405
0.0782317 0.0759673 0.0694738
0.0772993 0.0777655 0.0692407
0.0788644 0.0797968 0.0705394
0.0789976 0.0803629 0.0731368
0.0799966 0.0807625 0.073936
0.0791641 0.0826939 0.0748351
0.0798967 0.0826273 0.0751015
0.0811954 0.0841924 0.0751681
0.0811954 0.0854578 0.0754345
0.0817948 0.0849583 0.0774658
0.0803962 0.0859906 0.077599
0.07993 0.0866566 0.0792307
0.0806293 0.0870229 0.0803962
0.0825607 0.0861571 0.0815284
0.0822943 0.0877222 0.0831934
0.0838927 0.0890875 0.0833932
0.0853579 0.0898867 0.0846919
0.0846253 0.0915184 0.0833932
0.0864901 0.0933832 0.085924
0.0876223 0.0939826 0.0856576
0.087589 0.0955477 0.0854245
0.088588 0.0970795 0.0863902
0.0884548 0.0979786 0.0864568
0.090253 0.0991774 0.0867565
0.0925507 0.1010089 0.0887878
0.0918514 0.1008091 0.0899533
0.092584 0.1013752 0.091585
0.0952813 0.1029403 0.0929836
0.0976123 0.1031401 0.0930169
0.0975457 0.1031734 0.093916
0.0981451 0.1033066 0.0956476
0.0980785 0.106237 0.0958474
0.098578 0.1059706 0.0947818
0.0991108 0.1064368 0.0938827
0.098911 0.1057042 0.0944155
0.0996436 0.1045387 0.095581
0.1006759 0.1052713 0.0985447
0.101575 0.1076023 0.1008424
0.1044055 0.1073692 0.0997102
0.1062703 0.1100332 0.1008091
0.1067032 0.1099666 0.1018747
0.1067698 0.1109323 0.1025407
0.1093006 0.1125307 0.1027738
0.1088677 0.1132633 0.1049716
0.1114318 0.1149949 0.1073692
0.1105327 0.1176589 0.1084681
0.1133632 0.1171927 0.1105327
0.1156942 0.1160272 0.110566
0.115228 0.1184914 0.1111321
0.1167931 0.1190242 0.1108324
0.1189576 0.1195237 0.112564
0.1208224 0.1209223 0.1147285
0.1231201 0.1214884 0.1167265
0.1240525 0.1237861 0.1168597
0.1246519 0.1246519 0.1184914
0.1255843 0.1272493 0.118558
0.12568420000000002 0.12834820000000002 0.1188244
0.12581740000000002 0.12961360000000002 0.1201564
0.12641680000000002 0.13191130000000004 0.1207891
0.12681640000000002 0.13281040000000005 0.1215883
0.1265833 0.13454200000000005 0.1233532
0.12701620000000002 0.13400920000000005 0.1228537
0.12984670000000004 0.13464190000000006 0.1222876
0.13107880000000005 0.13657330000000006 0.1239193
0.13301020000000005 0.13657330000000006 0.1242523
0.13477510000000006 0.13903750000000006 0.1247518
0.13604050000000006 0.14023630000000006 0.1257508
0.13793860000000008 0.13933720000000005 0.1286479
0.13807180000000008 0.14110210000000006 0.1272493
0.13860460000000008 0.14120200000000008 0.1272493
0.13933720000000008 0.14406580000000008 0.1291807
0.14173480000000008 0.1456975000000001 0.12994660000000002
0.14320000000000008 0.1457641000000001 0.13084570000000004
0.1451647000000001 0.1473625000000001 0.13131190000000004
0.1469629000000001 0.1476289000000001 0.13154500000000005
0.1479286000000001 0.1498267000000001 0.13231090000000006
0.14802850000000012 0.1512919000000001 0.13397590000000006
0.14756230000000012 0.1519912000000001 0.13534120000000008
0.1471294000000001 0.1510255000000001 0.1367065000000001
0.1489942000000001 0.1531567000000001 0.1388044000000001
0.14936050000000012 0.1543888000000001 0.1388044000000001
0.14992660000000013 0.1542889000000001 0.13950370000000012
0.15215770000000015 0.1545886000000001 0.14173480000000013
0.15195790000000015 0.15482170000000012 0.14449870000000015
0.15239080000000016 0.15688630000000012 0.14366620000000013
0.15195790000000015 0.15805180000000013 0.14529790000000015
0.15165820000000013 0.15875110000000014 0.14776210000000015
0.15089230000000012 0.15748570000000015 0.14756230000000015
0.15232420000000013 0.15825160000000016 0.14666320000000013
0.15505480000000013 0.15875110000000017 0.14782870000000015
0.15565420000000013 0.1591840000000002 0.14852800000000016
0.15628690000000015 0.1592839000000002 0.14902750000000017
0.15841810000000014 0.16011640000000021 0.14779540000000016
0.15765220000000013 0.1629802000000002 0.14836150000000017
0.15698620000000013 0.1628137000000002 0.15022630000000017
0.15905080000000013 0.1614151000000002 0.15169150000000017
0.16091560000000013 0.1622809000000002 0.1531234000000002
0.15985000000000013 0.1616149000000002 0.1534897000000002
0.15994990000000014 0.1611487000000002 0.1533232000000002
0.16191460000000016 0.1620145000000002 0.1534564000000002
0.16054930000000014 0.1635463000000002 0.1535896000000002
0.16104880000000016 0.1660438000000002 0.1550215000000002
0.16248070000000017 0.1652113000000002 0.1546885000000002
0.16284700000000019 0.1669762000000002 0.15685300000000021
0.1654777000000002 0.1677754000000002 0.15778540000000021
0.1685080000000002 0.16880770000000023 0.15731920000000021
0.1710388000000002 0.17030620000000024 0.1571527000000002
0.1725040000000002 0.17207110000000025 0.15771880000000021
0.1737694000000002 0.17253730000000025 0.15868450000000023
0.17566750000000023 0.17257060000000027 0.15941710000000023
0.1741024000000002 0.17456860000000027 0.15878440000000021
0.1726039000000002 0.17383600000000027 0.15935050000000023
0.1728703000000002 0.17413570000000028 0.16114870000000023
0.1736362000000002 0.17426890000000028 0.16111540000000021
0.1734364000000002 0.17273710000000028 0.15991660000000021
0.1737028000000002 0.1749016000000003 0.16061590000000023
0.1749682000000002 0.1761337000000003 0.16314670000000023
0.1736362000000002 0.17669980000000032 0.16437880000000024
0.17586730000000023 0.17929720000000032 0.16484500000000024
0.17716600000000024 0.18029620000000032 0.16511140000000024
0.17759890000000025 0.18052930000000034 0.16667650000000026
0.18029620000000027 0.18029620000000032 0.16694290000000025
0.17906410000000025 0.17983000000000032 0.16964020000000027
0.17976340000000027 0.18199450000000034 0.17047270000000028
0.18206110000000028 0.18299350000000034 0.16934050000000028
0.18219430000000028 0.18572410000000034 0.16927390000000028
0.18192790000000028 0.18828820000000035 0.1696402000000003
0.1834930000000003 0.18892090000000036 0.1695070000000003
0.18239410000000028 0.18985330000000036 0.1700398000000003
0.18379270000000028 0.19041940000000038 0.1713385000000003
0.1840258000000003 0.19268380000000038 0.1709389000000003
0.1828270000000003 0.19215100000000038 0.1707724000000003
0.1831933000000003 0.1926505000000004 0.1705726000000003
0.1853911000000003 0.1923841000000004 0.1729369000000003
0.18742240000000032 0.19201780000000038 0.1730701000000003
0.18735580000000032 0.1931833000000004 0.1734031000000003
0.18878770000000034 0.1929835000000004 0.1748017000000003
0.19075240000000035 0.1937494000000004 0.1756675000000003
0.19275040000000035 0.19584730000000042 0.1768663000000003
0.19408240000000035 0.19774540000000043 0.1781983000000003
0.19628020000000035 0.19667980000000043 0.1801297000000003
0.19491490000000034 0.19737910000000045 0.1797967000000003
0.19618030000000033 0.19757890000000045 0.1799299000000003
0.19731250000000033 0.19751230000000045 0.1827937000000003
0.19924390000000033 0.19754560000000046 0.1822942000000003
0.19864450000000033 0.19997650000000047 0.18199450000000028
0.19964350000000033 0.19911070000000047 0.18166150000000028
0.19947700000000032 0.19901080000000046 0.1821610000000003
0.20037610000000033 0.20120860000000046 0.1825606000000003
0.20147500000000035 0.20360620000000046 0.1843921000000003
0.20370610000000036 0.20560420000000046 0.1851913000000003
0.20430550000000036 0.20537110000000044 0.1847584000000003
0.20633680000000038 0.20627020000000046 0.1856575000000003
0.20746900000000038 0.20633680000000046 0.1847917000000003
0.20780200000000038 0.20613700000000046 0.18522460000000032
0.2089009000000004 0.20716930000000047 0.18555760000000032
0.2106658000000004 0.2088010000000005 0.18708940000000032
0.2117314000000004 0.2090008000000005 0.18765550000000034
0.2129968000000004 0.2092672000000005 0.18995320000000035
0.2129968000000004 0.21199780000000049 0.19001980000000035
0.2128303000000004 0.21196450000000047 0.18978670000000034
0.2134963000000004 0.21173140000000046 0.18962020000000032
0.2146618000000004 0.21113200000000046 0.19161820000000032
0.21589390000000042 0.21309670000000047 0.19175140000000032
0.21516130000000042 0.21522790000000047 0.19418230000000034
0.21629350000000042 0.21509470000000047 0.19428220000000035
0.21596050000000042 0.21396250000000047 0.19578070000000036
0.21669310000000042 0.21612700000000049 0.19731250000000036
0.21785860000000043 0.2167597000000005 0.19631350000000036
0.21809170000000044 0.2182582000000005 0.19697950000000036
0.22105540000000046 0.22082230000000053 0.19661320000000035
0.22375270000000047 0.22062250000000053 0.19841140000000035
0.22518460000000048 0.22242070000000053 0.19841140000000035
0.22578400000000048 0.22331980000000054 0.19997650000000036
0.22555090000000047 0.22535110000000055 0.20250730000000036
0.22784860000000048 0.22568410000000055 0.20260720000000038
0.22681630000000047 0.22708270000000055 0.20407240000000038
0.22858120000000048 0.22941370000000055 0.2042389000000004
0.2289475000000005 0.23051260000000057 0.2068363000000004
0.2314450000000005 0.23294350000000058 0.2087344000000004
0.2341090000000005 0.23500810000000058 0.20976670000000042
0.23574070000000052 0.23600710000000058 0.21176470000000042
0.23790520000000054 0.23820490000000058 0.21339640000000043
0.23887090000000055 0.2399698000000006 0.21589390000000044
0.23947030000000055 0.2422342000000006 0.21669310000000044
0.23883760000000054 0.2437660000000006 0.21642670000000044
0.24130180000000054 0.2453977000000006 0.21502810000000044
0.24110200000000054 0.2465965000000006 0.21549430000000044
0.24200110000000055 0.2481283000000006 0.21546100000000043
0.24503140000000057 0.24916060000000062 0.21466180000000043
0.24729580000000057 0.25039270000000063 0.21529450000000044
0.24672970000000055 0.24876100000000062 0.21516130000000044
0.24616360000000054 0.2481949000000006 0.21532780000000046
0.24613030000000052 0.24962680000000062 0.21509470000000044
0.24539770000000052 0.2512585000000006 0.21586060000000046
0.2446984000000005 0.2510920000000006 0.21739240000000046
0.2463634000000005 0.2526238000000006 0.21702610000000044
0.2460304000000005 0.2520577000000006 0.21832480000000046
0.24659650000000052 0.2535562000000006 0.21895750000000047
0.24766210000000052 0.2526904000000006 0.22128850000000047
0.24916060000000054 0.2549215000000006 0.22125520000000046
0.25142500000000056 0.2553211000000006 0.22401910000000047
0.2540224000000006 0.2580517000000006 0.22361950000000047
0.25315660000000056 0.2594170000000006 0.22242070000000047
0.25462180000000056 0.2619145000000006 0.22321990000000047
0.2542555000000006 0.2617813000000006 0.22288690000000047
0.2558872000000006 0.2618812000000006 0.22235410000000047
0.2564866000000006 0.2618812000000006 0.22295350000000047
0.25668640000000065 0.2638792000000006 0.22441870000000047
0.25765210000000066 0.2636128000000006 0.22698280000000048
0.2585179000000007 0.2630800000000006 0.2290141000000005
0.2596501000000007 0.2635795000000006 0.2292139000000005
0.26078230000000074 0.26301340000000056 0.2291473000000005
0.26258050000000077 0.2645452000000006 0.2309788000000005
0.26471170000000077 0.2663767000000006 0.23340970000000053
0.26401240000000076 0.26607700000000056 0.23437540000000054
0.2662102000000008 0.26740900000000056 0.23390920000000054
0.2665432000000008 0.26820820000000056 0.23700610000000055
0.2691739000000008 0.2695735000000006 0.23753890000000055
0.2701063000000008 0.2713384000000006 0.23937040000000057
0.2704393000000008 0.2722375000000006 0.23993650000000058
0.27077230000000085 0.2736361000000006 0.2431000000000006
0.27280360000000087 0.2725372000000006 0.2453977000000006
0.27463510000000085 0.2746684000000006 0.2443654000000006
0.2745685000000008 0.2761669000000006 0.2466298000000006
0.27570070000000085 0.2785978000000006 0.2483281000000006
0.27746560000000087 0.2774989000000006 0.24882760000000062
0.27836470000000085 0.27783190000000063 0.2503261000000006
0.2785645000000009 0.28102870000000063 0.2501263000000006
0.2793970000000009 0.28279360000000064 0.24899410000000058
0.2805958000000009 0.28315990000000063 0.2508589000000006
0.2830933000000009 0.28402570000000066 0.2496268000000006
0.28372600000000087 0.28512460000000067 0.2502262000000006
0.2825605000000009 0.28682290000000066 0.2530234000000006
0.2829934000000009 0.2886211000000007 0.2526904000000006
0.2837926000000009 0.2906191000000007 0.2536561000000006
0.2851579000000009 0.2907856000000007 0.2543554000000006
0.2845918000000009 0.2909188000000007 0.2545885000000006
0.2858905000000009 0.2930500000000007 0.2567197000000006
0.28639000000000087 0.2938825000000007 0.2582182000000006
0.28892080000000087 0.29594710000000074 0.2596501000000006
0.29011960000000087 0.29654650000000077 0.2594170000000006
0.28985320000000087 0.2967130000000008 0.2607157000000006
0.2920177000000009 0.2968462000000008 0.2600830000000006
0.2926171000000009 0.29601370000000077 0.26041600000000065
0.2930500000000009 0.29598040000000075 0.26164810000000066
0.29374930000000093 0.29824480000000075 0.26281360000000065
0.29494810000000093 0.29807830000000074 0.26444530000000066
0.29701270000000096 0.30040930000000077 0.26604370000000066
0.29831140000000095 0.30210760000000075 0.2685079000000007
0.30047590000000096 0.3047050000000008 0.2701396000000007
0.301708000000001 0.3041722000000008 0.2715715000000007
0.304272100000001 0.30640330000000077 0.2731366000000007
0.306403300000001 0.3083014000000008 0.27217090000000066
0.308268100000001 0.3104992000000008 0.2731366000000007
0.308101600000001 0.3114316000000008 0.2734696000000007
0.30753550000000096 0.3100663000000008 0.27380260000000073
0.30763540000000095 0.3101329000000008 0.2735029000000007
0.309167200000001 0.31179790000000085 0.27340300000000073
0.310232800000001 0.31209760000000086 0.27516790000000074
0.311598100000001 0.31436200000000086 0.27643330000000077
0.31073230000000096 0.3165265000000009 0.27719920000000076
0.31043260000000095 0.31675960000000086 0.27856450000000077
0.31099870000000096 0.31589380000000084 0.27836470000000074
0.31336300000000095 0.31709260000000083 0.27813160000000076
0.314228800000001 0.3174589000000008 0.27813160000000076
0.315361000000001 0.3172591000000008 0.28056250000000077
0.316459900000001 0.31679290000000077 0.2815615000000008
0.31835800000000103 0.31645990000000074 0.2837926000000008
0.318990700000001 0.31622680000000075 0.2836594000000008
0.318158200000001 0.31825810000000077 0.28575730000000077
0.318824200000001 0.3189574000000008 0.28589050000000077
0.318191500000001 0.3184246000000008 0.28562410000000077
0.317492200000001 0.3182914000000008 0.28718920000000075
0.320056300000001 0.31812490000000077 0.28835470000000074
0.32195440000000103 0.3186910000000008 0.28835470000000074
0.32288680000000103 0.31905730000000077 0.2868562000000007
0.32341960000000103 0.3186910000000008 0.2876554000000007
0.324318700000001 0.3180250000000008 0.28808830000000074
0.323486200000001 0.31729240000000075 0.28878760000000075
0.32515120000000103 0.31785850000000077 0.2909854000000008
0.32748220000000106 0.31649320000000075 0.2921176000000008
0.32788180000000106 0.31729240000000075 0.2940157000000008
0.32831470000000107 0.31845790000000074 0.2944153000000008
0.3297133000000011 0.31952350000000074 0.29391580000000084
0.3309787000000011 0.3191905000000007 0.2941489000000008
0.33261040000000114 0.31952350000000074 0.2957473000000008
0.3321442000000011 0.3214882000000007 0.2962468000000008
0.3321109000000011 0.3221209000000007 0.2957806000000008
0.3332431000000011 0.3222874000000007 0.2971126000000008
0.3340423000000011 0.32445190000000074 0.2998432000000008
0.3340423000000011 0.32578390000000074 0.2996101000000008
0.3371059000000011 0.32821480000000075 0.2985445000000008
0.33877090000000115 0.32977990000000074 0.29831140000000084
0.33813820000000117 0.33264370000000076 0.30030940000000084
0.33893740000000117 0.3338758000000008 0.30150820000000084
0.33747220000000117 0.3357406000000008 0.30234070000000085
0.3395035000000012 0.3356074000000008 0.3041389000000009
0.3410353000000012 0.3368062000000008 0.3060037000000009
0.3402028000000012 0.3392038000000008 0.3078685000000009
0.3423007000000012 0.3393370000000008 0.30700270000000085
0.34210090000000115 0.3385378000000008 0.30650320000000086
0.34236730000000115 0.3408688000000008 0.3065365000000009
0.34280020000000117 0.34240060000000083 0.3071359000000009
0.3448648000000012 0.34136830000000085 0.3084346000000009
0.3462634000000012 0.3436993000000009 0.3087676000000009
0.3462301000000012 0.3464299000000009 0.3078019000000009
0.3468961000000012 0.34702930000000093 0.3066697000000009
0.3468628000000012 0.34849450000000093 0.3061369000000009
0.3479950000000012 0.35065900000000094 0.3067363000000009
0.3494602000000012 0.35159140000000094 0.3091339000000009
0.35029270000000123 0.35412220000000094 0.3084679000000009
0.35155810000000126 0.35452180000000094 0.30999970000000093
0.35392240000000125 0.35575390000000096 0.30989980000000095
0.3566530000000013 0.35705260000000094 0.30946690000000093
0.3569194000000013 0.35845120000000097 0.31039930000000093
0.35955010000000126 0.360249400000001 0.3110320000000009
0.36141490000000126 0.361648000000001 0.3106324000000009
0.3627802000000013 0.36407890000000104 0.3104992000000009
0.36341290000000126 0.36441190000000107 0.31069900000000095
0.36314650000000126 0.3643120000000011 0.31349620000000095
0.36524440000000125 0.3659104000000011 0.316226800000001
0.36750880000000125 0.3667096000000011 0.317891800000001
0.36880750000000123 0.3675421000000011 0.317059300000001
0.36924040000000125 0.3682081000000011 0.31579390000000096
0.37083880000000125 0.3703060000000011 0.31572730000000093
0.36980650000000126 0.3696733000000011 0.31645990000000096
0.37057240000000125 0.3716713000000011 0.31606030000000096
0.37313650000000126 0.3732364000000011 0.31775860000000095
0.3751678000000013 0.37520110000000106 0.31882420000000095
0.3766996000000013 0.37679950000000106 0.31912390000000096
0.3777652000000013 0.3789640000000011 0.31882420000000095
0.3782980000000013 0.37986310000000106 0.32148820000000095
0.3808288000000013 0.38182780000000105 0.3206224000000009
0.3814282000000013 0.3830932000000011 0.32331970000000093
0.3821941000000013 0.38345950000000106 0.32465170000000093
0.3845917000000013 0.38289340000000105 0.3255508000000009
0.3855574000000013 0.38272690000000104 0.32708260000000094
0.38668960000000135 0.382826800000001 0.32931370000000093
0.38605690000000137 0.384391900000001 0.33024610000000093
0.3872890000000014 0.383559400000001 0.3319444000000009
0.38778850000000137 0.385590700000001 0.33437530000000093
0.3895534000000014 0.384891400000001 0.3346084000000009
0.3924838000000014 0.385657300000001 0.3342088000000009
0.3942487000000014 0.384225400000001 0.33530770000000093
0.3960469000000014 0.385823800000001 0.33707260000000094
0.3959803000000014 0.388288000000001 0.33630670000000096
0.3990772000000014 0.39058570000000103 0.33574060000000094
0.4015081000000014 0.39251710000000106 0.33490810000000093
0.40327300000000144 0.3944485000000011 0.33497470000000096
0.40383910000000145 0.3976453000000011 0.33407560000000097
0.4055041000000015 0.3975454000000011 0.335174500000001
0.4054042000000015 0.3985777000000011 0.336939400000001
0.4059703000000015 0.3988774000000011 0.33620680000000097
0.4058704000000015 0.4008754000000011 0.336806200000001
0.40683610000000153 0.4011418000000011 0.335440900000001
0.4072024000000015 0.4009420000000011 0.335707300000001
0.40816810000000153 0.4018744000000011 0.335207800000001
0.40833460000000155 0.4028401000000011 0.338071600000001
0.41073220000000155 0.4043053000000011 0.338471200000001
0.41352940000000155 0.4046050000000011 0.33867100000000105
0.41276350000000156 0.4065031000000011 0.3396700000000011
0.4135960000000016 0.4074355000000011 0.3413350000000011
0.4145950000000016 0.4069693000000011 0.3423007000000011
0.4160602000000016 0.4075687000000011 0.3416347000000011
0.4167262000000016 0.4091671000000011 0.3431998000000011
0.4181581000000016 0.41159800000000113 0.3445318000000011
0.4202893000000016 0.41426200000000113 0.3445651000000011
0.4221208000000016 0.41572720000000113 0.3452311000000011
0.4239856000000016 0.4156606000000011 0.3463966000000011
0.4234528000000016 0.4149946000000011 0.3463300000000011
0.4229533000000016 0.4165930000000011 0.3461968000000011
0.4233529000000016 0.4184911000000011 0.3449980000000011
0.4244518000000016 0.41839120000000113 0.3472957000000011
0.4238857000000016 0.41749210000000114 0.3471292000000011
0.4231198000000016 0.41852440000000113 0.3464632000000011
0.4236859000000016 0.41988970000000114 0.34882750000000107
0.42495130000000164 0.42092200000000113 0.3502261000000011
0.4263832000000016 0.4228867000000011 0.3513250000000011
0.4269160000000016 0.42495130000000114 0.3506257000000011
0.4287475000000016 0.42641650000000114 0.3500929000000011
0.4313782000000016 0.42648310000000117 0.3505258000000011
0.4329766000000016 0.4290472000000012 0.3525571000000011
0.4333096000000016 0.43127830000000117 0.3553543000000011
0.4347415000000016 0.4336093000000012 0.3546883000000011
0.4365064000000016 0.4359736000000012 0.35675290000000115
0.4378384000000016 0.4353409000000012 0.3580183000000012
0.43960330000000164 0.4363732000000012 0.3588841000000012
0.44176780000000165 0.43860430000000117 0.3585511000000012
0.44339950000000167 0.4393369000000012 0.3592504000000012
0.44230060000000165 0.4410685000000012 0.3602827000000012
0.44339950000000167 0.4412017000000012 0.3620143000000012
0.44469820000000165 0.4419676000000012 0.3648115000000012
0.4470292000000017 0.4437658000000012 0.3663433000000012
0.44819470000000167 0.4456306000000012 0.3655441000000012
0.44792830000000167 0.44796160000000124 0.3670093000000012
0.4485277000000017 0.44802820000000126 0.3681748000000012
0.4498597000000017 0.4492936000000013 0.3704392000000012
0.4500595000000017 0.4513582000000013 0.3698731000000012
0.4509919000000017 0.4508254000000013 0.3713383000000012
0.45345610000000175 0.4498597000000013 0.3727369000000012
0.45328960000000174 0.4496266000000013 0.3738025000000012
0.45545410000000175 0.45035920000000135 0.37586710000000123
0.45691930000000175 0.44992630000000133 0.3759670000000012
0.4559203000000017 0.45272350000000133 0.37803160000000124
0.4564198000000017 0.45232390000000133 0.37723240000000124
0.4595833000000017 0.45155800000000135 0.37763200000000124
0.4601494000000017 0.45025930000000136 0.37819810000000126
0.4605157000000017 0.4513915000000014 0.37849780000000127
0.4604158000000017 0.4517245000000014 0.38036260000000127
0.4610485000000017 0.4511251000000014 0.37966330000000126
0.46084870000000167 0.45079210000000136 0.38046250000000126
0.4609153000000017 0.4515247000000014 0.38006290000000126
0.4631131000000017 0.4530898000000014 0.38129500000000127
0.4641454000000017 0.4539556000000014 0.3820276000000013
0.4646449000000017 0.4564531000000014 0.3810952000000013
0.4649113000000017 0.4573189000000014 0.3811951000000013
0.4649779000000017 0.46004950000000144 0.38086210000000126
0.4637125000000017 0.45948340000000143 0.3810619000000013
0.4657771000000017 0.46071550000000144 0.3835927000000013
0.46647640000000173 0.46281340000000143 0.3853909000000013
0.46770850000000175 0.46341280000000146 0.3867229000000013
0.46780840000000173 0.46397890000000147 0.3872890000000013
0.46727560000000173 0.4660102000000015 0.3881881000000013
0.46754200000000173 0.46554400000000146 0.3911185000000013
0.47033920000000173 0.4665430000000015 0.3901195000000013
0.47090530000000175 0.4674088000000015 0.3921508000000013
0.47207080000000173 0.4701727000000015 0.3953143000000013
0.4740355000000017 0.4717711000000015 0.39528100000000127
0.4743019000000017 0.47143810000000147 0.39521440000000124
0.4734694000000017 0.47117170000000147 0.39614680000000124
0.4754341000000017 0.47210410000000147 0.39714580000000127
0.4767994000000017 0.4713382000000015 0.39754540000000127
0.47846440000000173 0.4728034000000015 0.39694600000000124
0.48076210000000175 0.4744018000000015 0.39751210000000126
0.48299320000000173 0.4741687000000015 0.39734560000000124
0.48345940000000176 0.4742020000000015 0.39951010000000126
0.48465820000000176 0.47426860000000154 0.40087540000000127
0.4856572000000018 0.4753009000000015 0.40270690000000126
0.4863565000000018 0.47733220000000154 0.40340620000000127
0.4862899000000018 0.4762333000000015 0.40254040000000124
0.4870225000000018 0.4754008000000015 0.4037059000000012
0.4858237000000018 0.4780648000000015 0.40333960000000124
0.4851577000000018 0.48106180000000154 0.4033063000000012
0.4855573000000018 0.4811617000000015 0.40587040000000124
0.4853242000000018 0.48149470000000155 0.4051711000000012
0.4867561000000018 0.48139480000000157 0.40683610000000126
0.48828790000000183 0.48259360000000157 0.40936690000000125
0.4880881000000018 0.48295990000000155 0.41166460000000127
0.4903192000000018 0.48572380000000154 0.41206420000000127
0.48932020000000176 0.48522430000000155 0.4142287000000013
0.49115170000000175 0.48499120000000157 0.41472820000000127
0.4904191000000017 0.4853242000000016 0.41376250000000125
0.4890871000000017 0.4871224000000016 0.41639320000000124
0.4890538000000017 0.4879216000000016 0.41586040000000124
0.4909519000000017 0.4879216000000016 0.41802490000000125
0.49285000000000173 0.4889539000000016 0.4194235000000013
0.49304980000000176 0.4909519000000016 0.4183579000000013
0.49491460000000176 0.49195090000000163 0.4196233000000013
0.4965796000000018 0.49348270000000166 0.4219876000000013
0.4993102000000018 0.4955473000000017 0.4233196000000013
0.4993102000000018 0.4973788000000017 0.4238191000000013
0.5020741000000019 0.4986442000000017 0.42458500000000127
0.5041387000000018 0.4980448000000017 0.4247515000000013
0.5038723000000018 0.5004757000000016 0.4255840000000013
0.5064697000000018 0.5029066000000016 0.4265164000000013
0.5077018000000018 0.5058703000000017 0.42618340000000127
0.5095000000000017 0.5052709000000016 0.42605020000000127
0.5094334000000017 0.5081014000000016 0.42551740000000127
0.5109985000000017 0.5100661000000016 0.4255840000000013
0.5112982000000017 0.5116645000000016 0.4252843000000013
0.5127301000000017 0.5115646000000016 0.4269493000000013
0.5120974000000017 0.5115313000000016 0.42901390000000134
0.5145283000000017 0.5138290000000015 0.43021270000000134
0.5164930000000018 0.5129965000000015 0.4313782000000013
0.5156605000000017 0.5134627000000015 0.43154470000000134
0.5172589000000017 0.5137624000000015 0.43304320000000135
0.5171590000000017 0.5150611000000015 0.4349746000000014
0.5178250000000018 0.5178583000000015 0.4361734000000014
0.5170258000000018 0.5198230000000016 0.43707250000000136
0.5185576000000017 0.5192236000000016 0.43557400000000135
0.5193235000000017 0.5189239000000015 0.4356406000000014
0.5187574000000017 0.5188906000000015 0.4371391000000014
0.5199229000000017 0.5204557000000015 0.4367062000000014
0.5216212000000018 0.5230198000000015 0.4387708000000014
0.5209552000000017 0.5230864000000015 0.4396033000000014
0.5217877000000017 0.5247181000000015 0.4415680000000014
0.5225869000000017 0.5260168000000015 0.4413349000000014
0.5232862000000017 0.5276152000000015 0.4417012000000014
0.5254174000000017 0.5281480000000015 0.4406356000000014
0.5252176000000017 0.5297131000000015 0.4405690000000014
0.5279815000000018 0.5314114000000015 0.4406356000000014
0.5283478000000018 0.5313448000000015 0.4408687000000014
0.5302792000000018 0.5327767000000015 0.4411684000000014
0.5324770000000019 0.5325436000000016 0.4429999000000014
0.5344750000000019 0.5332429000000015 0.4422340000000014
0.5366395000000019 0.5331763000000015 0.4421008000000014
0.5387374000000019 0.5354074000000015 0.4431331000000014
0.5411350000000019 0.5351743000000015 0.4423672000000014
0.543865600000002 0.5349412000000016 0.44389900000000143
0.544132000000002 0.5343085000000015 0.44406550000000145
0.5453641000000019 0.5365729000000016 0.4455973000000015
0.5461300000000019 0.5373721000000016 0.4482613000000015
0.547861600000002 0.5384710000000016 0.4485610000000015
0.547961500000002 0.5397364000000016 0.4484611000000015
0.548627500000002 0.5410018000000015 0.4517245000000015
0.549693100000002 0.5422672000000015 0.4507921000000015
0.552323800000002 0.5427334000000015 0.4507588000000015
0.553655800000002 0.5433328000000015 0.4507921000000015
0.5540554000000021 0.5431663000000015 0.45015940000000154
0.5552542000000021 0.5452975000000015 0.44896060000000154
0.5552875000000022 0.5460967000000015 0.45029260000000154
0.5572189000000022 0.5463964000000016 0.45169120000000157
0.5577517000000022 0.5466628000000016 0.4536226000000016
0.5589838000000021 0.5466295000000015 0.4562533000000016
0.5612482000000022 0.5479615000000015 0.45568720000000157
0.5627800000000022 0.5500927000000015 0.45555400000000157
0.5655106000000022 0.5515579000000016 0.4550545000000016
0.5663764000000022 0.5520241000000016 0.4564531000000016
0.5675086000000023 0.5516911000000015 0.4576519000000016
0.5686408000000023 0.5528233000000016 0.46011610000000164
0.5697730000000023 0.5545549000000016 0.46118170000000164
0.5710717000000023 0.5549212000000017 0.46171450000000164
0.5709718000000022 0.5547880000000016 0.46244710000000167
0.5732029000000023 0.5572189000000016 0.4638124000000017
0.5726701000000023 0.5576518000000016 0.4631464000000017
0.5718709000000023 0.5599495000000015 0.4639456000000017
0.5745349000000023 0.5606155000000016 0.46374580000000165
0.5745349000000023 0.5625802000000016 0.46457830000000166
0.5764996000000023 0.5634460000000017 0.46471150000000166
0.5765329000000023 0.5639788000000017 0.46511110000000166
0.5766661000000024 0.5658436000000017 0.4666429000000017
0.5773321000000025 0.5685076000000017 0.4691071000000017
0.5794300000000024 0.5676751000000017 0.4689073000000017
0.5805622000000025 0.5708386000000016 0.4711384000000017
0.5804290000000024 0.5717710000000017 0.4733362000000017
0.5799295000000024 0.5733361000000017 0.4752343000000017
0.5796298000000024 0.5764330000000016 0.4769326000000017
0.5793301000000024 0.5772322000000016 0.47873080000000173
0.5786308000000024 0.5774320000000016 0.4817611000000017
0.5794633000000025 0.5789638000000016 0.4815946000000017
0.5802292000000024 0.5792968000000016 0.4813615000000017
0.5799628000000024 0.5813281000000016 0.4838923000000017
0.5821939000000025 0.5816278000000016 0.48512440000000173
0.5842585000000025 0.5812948000000016 0.48658960000000173
0.5846914000000024 0.5812282000000015 0.48858760000000173
0.5847580000000024 0.5825269000000015 0.49058560000000173
0.5853241000000025 0.5857903000000015 0.4914847000000017
0.5851243000000025 0.5871556000000016 0.49125160000000173
0.5845915000000025 0.5880880000000016 0.49211740000000176
0.5847247000000025 0.5866894000000016 0.4929499000000018
0.5857570000000025 0.5864896000000016 0.4940821000000018
0.5857570000000025 0.5873887000000017 0.4961800000000018
0.5856238000000025 0.5905189000000016 0.4971124000000018
0.5857237000000025 0.5897863000000017 0.4957804000000018
0.5883544000000025 0.5913181000000016 0.4972123000000018
0.5903857000000025 0.5921506000000016 0.49934350000000177
0.5897197000000024 0.5938156000000017 0.5012749000000017
0.5902525000000024 0.5954140000000017 0.5014747000000017
0.5892535000000024 0.5947813000000016 0.5025070000000017
0.5906854000000025 0.5955805000000016 0.5027068000000017
0.5923171000000025 0.5983444000000017 0.5048380000000017
0.5912848000000025 0.5982778000000016 0.5043718000000017
0.5901193000000025 0.5989438000000017 0.5051710000000017
0.5895865000000025 0.5998096000000017 0.5072689000000017
0.5886541000000024 0.6007753000000017 0.5094001000000017
0.5899861000000024 0.6017410000000016 0.5112316000000017
0.5912515000000024 0.6024070000000017 0.5117977000000017
0.5914846000000024 0.6036391000000016 0.5129632000000017
0.5930164000000023 0.6045049000000017 0.5127967000000018
0.5927500000000023 0.6052042000000016 0.5120641000000018
0.5934826000000023 0.6046048000000016 0.5112316000000018
0.5921839000000023 0.6057037000000016 0.5126968000000018
0.5924503000000023 0.6071356000000017 0.5144284000000019
0.5933494000000024 0.6088339000000017 0.5140621000000019
0.5949145000000023 0.6095998000000017 0.5128966000000018
0.5956471000000023 0.6093001000000017 0.5120308000000018
0.5967460000000023 0.6093667000000017 0.5116312000000017
0.5970790000000024 0.6109318000000017 0.5131963000000017
0.5955139000000024 0.6139954000000017 0.5132296000000017
0.5941486000000024 0.6152608000000017 0.5135293000000017
0.5966128000000024 0.6159601000000017 0.5129299000000017
0.5988106000000024 0.6152608000000017 0.5130631000000018
0.5989438000000025 0.6154273000000017 0.5126635000000017
0.5999095000000024 0.6155605000000017 0.5133628000000017
0.6025069000000024 0.6157270000000017 0.5151610000000016
0.6024736000000024 0.6169924000000017 0.5160601000000017
0.6020074000000024 0.6176917000000016 0.5181247000000017
0.6016411000000024 0.6198895000000016 0.5181580000000017
0.6040054000000024 0.6210550000000017 0.5205889000000017
0.6054373000000024 0.6230530000000017 0.5223205000000017
0.6073687000000024 0.6242185000000018 0.5248180000000018
0.6070690000000024 0.6238522000000017 0.5250511000000018
0.6070357000000024 0.6256171000000017 0.5275153000000018
0.6062365000000024 0.6267493000000017 0.5289139000000018
0.6065362000000024 0.6283477000000017 0.5295133000000019
0.6083011000000024 0.6286807000000018 0.5306122000000019
0.6091003000000024 0.6295798000000018 0.5320774000000019
0.6095665000000023 0.6292801000000018 0.533542600000002
0.6111982000000024 0.6290137000000018 0.534941200000002
0.6116977000000023 0.6296464000000018 0.535474000000002
0.6114979000000024 0.6303790000000018 0.537571900000002
0.6100993000000023 0.6328765000000018 0.539569900000002
0.6108319000000023 0.6322438000000018 0.5405023000000021
0.6118975000000023 0.6320773000000018 0.5394367000000021
0.6116977000000023 0.6352075000000018 0.5421007000000021
0.6131629000000024 0.6359401000000018 0.5429332000000021
0.6147946000000024 0.6361732000000018 0.5437657000000021
0.6152275000000024 0.6381046000000018 0.5456971000000022
0.6149611000000024 0.6389704000000018 0.5464963000000022
0.6156604000000023 0.6415345000000018 0.5492269000000022
0.6159934000000024 0.6423670000000018 0.5491270000000021
0.6170590000000024 0.6422338000000017 0.5503258000000022
0.6167593000000023 0.6415012000000018 0.5501926000000021
0.6175252000000023 0.6428665000000018 0.5515912000000022
0.6177583000000023 0.6434992000000018 0.5508919000000022
0.6178582000000024 0.6429997000000018 0.5523238000000023
0.6194566000000024 0.6423670000000018 0.5525902000000023
0.6206554000000024 0.6432328000000018 0.5541553000000022
0.6207553000000025 0.6434992000000018 0.5535226000000022
0.6231862000000025 0.6428332000000018 0.5554873000000022
0.6237190000000025 0.6439321000000018 0.5551876000000022
0.6244183000000024 0.6453973000000018 0.5565529000000022
0.6241519000000024 0.6459634000000019 0.5562532000000022
0.6241186000000024 0.6461965000000018 0.5568193000000022
0.6242851000000024 0.6478948000000019 0.5585509000000023
0.6261166000000024 0.6478615000000019 0.5578516000000023
0.6260833000000023 0.6484942000000019 0.5585509000000023
0.6288805000000024 0.6502924000000019 0.5591503000000023
0.6303790000000024 0.6501259000000019 0.5617810000000023
0.6317776000000024 0.6527566000000019 0.5620141000000023
0.6339088000000024 0.6556204000000019 0.5632795000000023
0.6353074000000024 0.6582511000000019 0.5641786000000023
0.6377383000000024 0.6575518000000019 0.5650111000000023
0.6369724000000024 0.6589504000000019 0.5663764000000023
0.6376717000000024 0.659083600000002 0.5659768000000023
0.6398362000000024 0.658450900000002 0.5672755000000023
0.6410350000000025 0.659350000000002 0.5685076000000022
0.6425335000000024 0.660815200000002 0.5712049000000022
0.6450643000000025 0.662047300000002 0.5709052000000022
0.6476284000000024 0.662946400000002 0.5708386000000022
0.6470956000000024 0.663412600000002 0.5711050000000022
0.6487606000000025 0.6648778000000021 0.5717377000000022
0.6485941000000025 0.664511500000002 0.5723038000000022
0.6503590000000025 0.664444900000002 0.5739022000000022
0.6513580000000024 0.6672421000000021 0.5746681000000022
0.6529564000000024 0.669539800000002 0.5743018000000022
0.6521572000000024 0.669573100000002 0.5742352000000022
0.6526900000000024 0.670372300000002 0.5769325000000022
0.6524236000000024 0.672670000000002 0.5777317000000022
0.6530563000000025 0.6714712000000019 0.5794966000000021
0.6530230000000025 0.6725368000000019 0.5799961000000021
0.6553207000000024 0.6733360000000019 0.5817943000000021
0.6555538000000024 0.6741019000000019 0.582227200000002
0.6561199000000024 0.6740020000000019 0.584258500000002
0.6580846000000025 0.6752008000000019 0.586822600000002
0.6599494000000025 0.6765328000000019 0.5861899000000019
0.6598495000000024 0.678197800000002 0.5872222000000019
0.6593500000000024 0.6778315000000019 0.587888200000002
0.6585841000000024 0.679762900000002 0.5877550000000019
0.6593833000000024 0.6818275000000019 0.5883544000000019
0.6593167000000024 0.6809950000000019 0.589753000000002
0.6591502000000025 0.6836590000000019 0.5896864000000019
0.6597163000000025 0.6829264000000019 0.590818600000002
0.6584509000000025 0.6850243000000019 0.591850900000002
0.6613480000000025 0.6859900000000019 0.5922838000000019
0.6609151000000025 0.6873220000000019 0.593216200000002
0.6623803000000026 0.6894865000000019 0.593216200000002
0.6633127000000026 0.6902524000000019 0.5928166000000019
0.6632128000000026 0.6914179000000019 0.5925835000000019
0.6638455000000026 0.691551100000002 0.5932828000000019
0.6637123000000026 0.6935824000000019 0.5924836000000019
0.6647446000000026 0.696612700000002 0.5940820000000019
0.6663097000000026 0.697811500000002 0.5947813000000018
0.6672754000000025 0.697678300000002 0.5943484000000019
0.6688405000000025 0.6978781000000019 0.5957470000000019
0.6712048000000025 0.698011300000002 0.5954140000000019
0.6720706000000025 0.698177800000002 0.5969458000000019
0.6730696000000025 0.6975784000000019 0.5985109000000018
0.6747679000000025 0.6988771000000019 0.5974120000000018
0.6762331000000026 0.700309000000002 0.5978782000000018
0.6775318000000026 0.703106200000002 0.5993101000000018
0.6789304000000026 0.705237400000002 0.6014080000000018
0.6797962000000026 0.706869100000002 0.6022405000000018
0.6823936000000026 0.707401900000002 0.6035392000000018
0.6832261000000026 0.707968000000002 0.6043051000000018
0.6852241000000027 0.709732900000002 0.6063697000000018
0.6868558000000027 0.710165800000002 0.6081013000000018
0.6870223000000026 0.7098328000000019 0.6087340000000019
0.6889537000000027 0.7116976000000019 0.6075685000000018
0.6885541000000026 0.7142950000000019 0.6099661000000018
0.6911182000000026 0.714961000000002 0.6113980000000019
0.6928165000000026 0.7146613000000019 0.6109984000000018
0.6929830000000026 0.714794500000002 0.6124969000000018
0.6920839000000025 0.716226400000002 0.6139621000000018
0.6933160000000025 0.715327300000002 0.6160933000000018
0.6935158000000025 0.716259700000002 0.6175252000000019
0.6950143000000024 0.718657300000002 0.6193900000000019
0.6963796000000024 0.720955000000002 0.6202225000000019
0.6963463000000024 0.721820800000002 0.6216211000000019
0.6975784000000024 0.721787500000002 0.6234193000000019
0.6981445000000024 0.721754200000002 0.624351700000002
0.7001758000000023 0.723286000000002 0.6258835000000019
0.7019407000000023 0.723885400000002 0.6279814000000019
0.7035724000000023 0.723619000000002 0.6296131000000019
0.7044382000000023 0.725450500000002 0.6303790000000019
0.7053373000000024 0.726183100000002 0.6292801000000019
0.7062697000000024 0.7255504000000019 0.6302458000000019
0.7063363000000025 0.7259833000000019 0.6316111000000019
0.7066360000000025 0.7270489000000019 0.6316777000000019
0.7071355000000025 0.7260499000000019 0.6305788000000019
0.7079347000000025 0.7273486000000019 0.6314779000000019
0.7081012000000024 0.7287805000000019 0.633975400000002
0.7073020000000024 0.731011600000002 0.635074300000002
0.7065028000000024 0.733109500000002 0.634341700000002
0.7089670000000025 0.734275000000002 0.634941100000002
0.7090669000000025 0.7344082000000021 0.6353074000000021
0.7092334000000025 0.734608000000002 0.6367726000000021
0.7086673000000024 0.7336423000000021 0.6369391000000021
0.7096996000000024 0.7352074000000021 0.6379381000000021
0.7108318000000025 0.737505100000002 0.6385042000000021
0.7136290000000025 0.739270000000002 0.6388039000000021
0.7141618000000025 0.7397029000000019 0.6394366000000021
0.7156270000000026 0.7401358000000019 0.6385708000000021
0.7144282000000025 0.7395697000000019 0.6397030000000021
0.7149943000000025 0.7396363000000019 0.6421339000000021
0.7172920000000025 0.7395697000000019 0.6432661000000022
0.7168924000000024 0.7410682000000018 0.6449644000000022
0.7179913000000024 0.7417675000000018 0.6473287000000022
0.7184242000000024 0.7436656000000018 0.6501259000000023
0.7204555000000024 0.7440652000000019 0.6512581000000023
0.7208551000000024 0.7462630000000019 0.6526567000000023
0.7203889000000024 0.7466293000000019 0.6528232000000023
0.7201558000000025 0.748627300000002 0.6544882000000023
0.7199560000000025 0.749692900000002 0.6557536000000023
0.7210549000000025 0.751724200000002 0.6565528000000023
0.7226200000000025 0.753056200000002 0.6552541000000023
0.7214878000000025 0.753422500000002 0.6555205000000023
0.7219540000000024 0.754521400000002 0.6580513000000023
0.7212547000000025 0.754521400000002 0.6587506000000023
0.7229863000000025 0.753888700000002 0.6601492000000023
0.7230862000000026 0.7534891000000019 0.6604489000000023
0.7240852000000025 0.7556203000000019 0.6616144000000024
0.7243516000000025 0.756253000000002 0.6620473000000023
0.7261831000000025 0.757385200000002 0.6646447000000023
0.7277815000000025 0.759449800000002 0.6646780000000023
0.7301125000000025 0.761048200000002 0.6661432000000024
0.7303456000000025 0.760582000000002 0.6660100000000023
0.7316443000000025 0.762746500000002 0.6676417000000023
0.7330762000000025 0.764711200000002 0.6680413000000024
0.7334092000000025 0.7669756000000021 0.6687739000000024
0.7360399000000025 0.7691734000000021 0.6689737000000023
0.7378048000000025 0.7707718000000021 0.6692401000000023
0.7378048000000025 0.7710382000000021 0.6702724000000023
0.7397362000000025 0.7728364000000021 0.6706720000000024
0.7418341000000025 0.7734358000000021 0.6715711000000024
0.7417009000000024 0.7745347000000021 0.6727699000000025
0.7431661000000025 0.7751674000000022 0.6732361000000024
0.7440985000000025 0.7761664000000021 0.6750343000000024
0.7434658000000025 0.7755670000000021 0.6756337000000024
0.7456636000000025 0.7771321000000021 0.6772321000000024
0.7477282000000025 0.7788637000000022 0.6788638000000025
0.7483276000000025 0.7791301000000022 0.6795298000000025
0.7489603000000026 0.7811614000000021 0.6796630000000026
0.7508917000000026 0.7821937000000021 0.6806953000000026
0.7516909000000026 0.7813612000000021 0.6805954000000025
0.7521904000000026 0.7803622000000021 0.6808285000000025
0.7536556000000026 0.7806952000000021 0.6814945000000026
0.7563529000000027 0.7822603000000021 0.6836257000000026
0.7563196000000026 0.7827265000000021 0.6839587000000026
0.7564528000000027 0.7814611000000021 0.6834259000000026
0.7559866000000027 0.7830928000000021 0.6826600000000026
0.7586839000000027 0.7832593000000021 0.6850243000000026
0.7608151000000027 0.7854571000000021 0.6873886000000026
0.7595497000000028 0.7869889000000021 0.6891868000000025
0.7585507000000028 0.7884541000000022 0.6909517000000025
0.7585507000000028 0.7911847000000022 0.6919840000000025
0.7588837000000028 0.7906852000000022 0.6928498000000025
0.7585174000000028 0.7924834000000022 0.6932827000000025
0.7603489000000028 0.7925833000000022 0.6949144000000025
0.7619140000000028 0.7941817000000022 0.6972454000000025
0.7619140000000028 0.7940818000000022 0.6982444000000024
0.7616476000000028 0.7947478000000022 0.6990103000000024
0.7635124000000028 0.7949476000000022 0.6997429000000024
0.7650109000000027 0.7976116000000022 0.6995764000000024
0.7651441000000028 0.8005420000000022 0.7004755000000025
0.7667425000000028 0.8005420000000022 0.7015744000000025
0.7676416000000028 0.8001757000000022 0.7039387000000025
0.7677415000000029 0.8013412000000022 0.7053040000000025
0.7698394000000028 0.8037055000000022 0.7068691000000025
0.7698394000000028 0.8024401000000022 0.7093333000000025
0.7698727000000029 0.8052706000000022 0.7098661000000025
0.7688737000000029 0.8062363000000021 0.7117975000000025
0.7686739000000029 0.8075683000000021 0.7123303000000025
0.7696729000000029 0.8074351000000021 0.7139953000000026
0.7704055000000029 0.8075350000000021 0.7168591000000025
0.7722370000000028 0.8092000000000021 0.7183243000000026
0.7735690000000028 0.8111647000000022 0.7173586000000026
0.7746679000000029 0.8120971000000022 0.7169590000000026
0.7755670000000029 0.8135623000000023 0.7172254000000026
0.7769989000000029 0.8137288000000023 0.7182244000000025
0.778097800000003 0.8149942000000022 0.7196563000000026
0.7793965000000029 0.8152606000000022 0.7196230000000026
0.779230000000003 0.8151940000000022 0.7198561000000026
0.781561000000003 0.8159932000000022 0.7196230000000026
0.7835923000000029 0.8165926000000022 0.7202557000000026
0.785057500000003 0.8180245000000023 0.7209217000000027
0.7862896000000029 0.8192233000000023 0.7224535000000026
0.7877881000000029 0.8198560000000024 0.7233193000000027
0.7887538000000028 0.8201557000000024 0.7253839000000026
0.7887871000000028 0.8214544000000024 0.7275484000000026
0.7916176000000028 0.8221870000000023 0.7297795000000027
0.7931161000000028 0.8234857000000023 0.7312780000000026
0.7950475000000028 0.8233192000000024 0.7297795000000027
0.7947145000000028 0.8254504000000024 0.7307785000000027
0.7963462000000028 0.8254837000000024 0.7311448000000027
0.7968457000000028 0.8259832000000024 0.7307452000000026
0.7973452000000028 0.8252506000000024 0.7305121000000027
0.7973785000000028 0.8275150000000024 0.7317775000000026
0.7978447000000027 0.8298793000000024 0.7325767000000026
0.7993099000000028 0.8304121000000024 0.7338754000000026
0.8011747000000028 0.8308783000000024 0.7364395000000026
0.8018740000000028 0.8305453000000024 0.7361065000000026
0.8013745000000028 0.8328763000000023 0.7364062000000026
0.8030062000000028 0.8345080000000024 0.7374385000000026
0.8032726000000028 0.8348743000000024 0.7371055000000025
0.8020405000000028 0.8346412000000024 0.7394365000000025
0.8007751000000028 0.8357068000000024 0.7389370000000025
0.8013412000000029 0.8369722000000024 0.7392700000000025
0.8015410000000028 0.8376049000000024 0.7405021000000025
0.8018407000000028 0.8383708000000024 0.7430662000000025
0.8041384000000028 0.8416009000000024 0.7426999000000024
0.8041051000000028 0.8422336000000025 0.7438321000000024
0.8068690000000028 0.8444980000000025 0.7449643000000025
0.8056369000000029 0.8447644000000025 0.7477615000000025
0.8083342000000029 0.8453638000000026 0.7475617000000025
0.8086339000000029 0.8459965000000026 0.7497928000000026
0.8109649000000029 0.8485939000000026 0.7502257000000025
0.8121637000000029 0.8487604000000025 0.7491268000000025
0.812230300000003 0.8488936000000026 0.7498594000000025
0.813329200000003 0.8505586000000026 0.7512580000000025
0.815593600000003 0.8528896000000026 0.7513246000000026
0.817491700000003 0.8543215000000026 0.7541884000000025
0.818823700000003 0.8549875000000027 0.7557202000000025
0.8210215000000031 0.8562862000000027 0.7554871000000025
0.8242516000000031 0.8569522000000027 0.7571854000000026
0.826316200000003 0.8570854000000028 0.7580512000000026
0.8258833000000031 0.8584840000000028 0.7600492000000026
0.8267824000000031 0.8607817000000028 0.7589836000000026
0.8268157000000032 0.8594830000000028 0.7587838000000027
0.8295130000000032 0.8587837000000028 0.7599826000000027
0.8296462000000032 0.8592166000000028 0.7592833000000028
0.8310115000000032 0.8595496000000028 0.7587505000000028
0.8305453000000033 0.8609482000000028 0.7587838000000028
0.8315776000000032 0.8617474000000028 0.7614145000000028
0.8330761000000032 0.8619805000000028 0.7608484000000028
0.8330095000000032 0.8621803000000028 0.7606153000000028
0.8346745000000032 0.8616475000000028 0.7598827000000028
0.8364394000000032 0.8614477000000028 0.7593832000000028
0.8383708000000032 0.8630461000000028 0.7609483000000028
0.8401024000000032 0.8653438000000028 0.7596496000000028
0.8415676000000033 0.8653105000000028 0.7611148000000029
0.8408350000000033 0.8656435000000028 0.7614811000000029
0.8411014000000033 0.8663095000000028 0.7622803000000029
0.8431660000000033 0.8669755000000029 0.7638121000000029
0.8459632000000034 0.8665759000000028 0.7652107000000029
0.8471953000000033 0.8670088000000028 0.7670089000000029
0.8472619000000033 0.8669755000000028 0.7675417000000029
0.8496595000000033 0.8677747000000028 0.7705720000000029
0.8513911000000034 0.8685073000000028 0.7699393000000029
0.8538220000000034 0.8677747000000028 0.7711381000000029
0.8558200000000035 0.8692732000000027 0.7721371000000029
0.8569855000000035 0.8690068000000027 0.773868700000003
0.8579179000000036 0.8698060000000027 0.7759000000000029
0.8608483000000036 0.8702722000000027 0.776266300000003
0.8619472000000036 0.8712712000000027 0.775999900000003
0.8635456000000036 0.8723035000000027 0.777198700000003
0.8627797000000036 0.8721037000000027 0.7799959000000031
0.8628463000000036 0.8719039000000027 0.779363200000003
0.8648110000000037 0.8744347000000028 0.7810948000000031
0.8654770000000037 0.8739019000000028 0.7809283000000031
0.8669089000000038 0.8757667000000028 0.7821604000000031
0.8686072000000038 0.8770654000000028 0.783925300000003
0.8711047000000038 0.8788636000000027 0.784691200000003
0.8717041000000039 0.8800291000000028 0.785723500000003
0.8708383000000038 0.8805286000000028 0.7877215000000031
0.8730361000000039 0.8820604000000027 0.787621600000003
0.8743348000000039 0.8840917000000027 0.788121100000003
0.8746678000000039 0.8848576000000027 0.789453100000003
0.8741350000000039 0.8859898000000027 0.7892866000000031
0.8750674000000039 0.8873884000000027 0.7899526000000031
0.8747677000000039 0.8869888000000027 0.7900525000000032
0.874301500000004 0.8875882000000027 0.7902190000000031
0.876532600000004 0.8881543000000027 0.7901524000000031
0.879163300000004 0.8893198000000028 0.7920838000000031
0.882060400000004 0.8893531000000028 0.7915843000000031
0.882859600000004 0.8914510000000028 0.7913179000000031
0.885390400000004 0.8915509000000028 0.7934158000000031
0.887754700000004 0.8926498000000028 0.7919173000000032
0.8897527000000041 0.8944147000000028 0.7925167000000032
0.892383400000004 0.8967457000000028 0.7941817000000032
0.894681100000004 0.8964460000000027 0.7959799000000032
0.893349100000004 0.8952139000000028 0.7963129000000032
0.893981800000004 0.8967457000000028 0.7989103000000032
0.896312800000004 0.8997094000000028 0.7997761000000032
0.897944500000004 0.9005419000000028 0.7995763000000032
0.8993764000000041 0.9020404000000027 0.8006419000000032
0.9021736000000041 0.9021070000000028 0.8014744000000033
0.9020071000000042 0.9053704000000028 0.8026732000000033
0.9036388000000042 0.9063694000000028 0.8036056000000034
0.9043381000000041 0.9058033000000028 0.8055703000000034
0.9043714000000042 0.9049708000000027 0.8057035000000035
0.9052372000000042 0.9062029000000027 0.8042050000000035
0.9049375000000042 0.9061696000000027 0.8043715000000035
0.9042715000000041 0.9085672000000027 0.8040385000000034
0.9038053000000041 0.9096328000000027 0.8066359000000034
0.9046378000000042 0.9097993000000026 0.8090668000000034
0.9042049000000042 0.9113644000000026 0.8084674000000034
0.9054703000000042 0.9140284000000026 0.8074018000000034
0.9060364000000042 0.9140284000000026 0.8097661000000034
0.9071686000000042 0.9167923000000027 0.8094664000000034
0.9056701000000043 0.9181576000000027 0.8112979000000033
0.9087670000000042 0.9189568000000027 0.8125633000000033
0.9080344000000042 0.9179578000000027 0.8129296000000034
0.9088336000000042 0.9207217000000028 0.8143948000000034
0.9101656000000042 0.9191566000000028 0.8158267000000035
0.9119305000000042 0.9214876000000027 0.8175916000000034
