0.0086014 0.0096004 0.011332
0.0081685 0.0088012 0.0125974
0.0073027000000000005 0.0092341 0.0132634
0.0080686 0.0098002 0.0128638
0.0079354 0.011332 0.0140293
0.0076357000000000005 0.0118315 0.0150949
0.0097003 0.0113653 0.0161605
0.0100333 0.0120313 0.0177256
0.0092674 0.0129304 0.01666
0.0120313 0.015328 0.01666
0.0135631 0.0140626 0.0173593
0.0151282 0.0126973 0.0199234
0.0138961 0.0153613 0.0207226
0.0128638 0.0170263 0.0203896
0.0135298 0.0190576 0.0197902
0.0156943 0.0200566 0.0216217
0.0165268 0.020323 0.0237529
0.0168265 0.0215884 0.0250183
0.0187246 0.021322 0.023986
0.0212887 0.0200899 0.0230203
0.0221212 0.0217216 0.0252514
0.0223543 0.0230536 0.025651
0.0241525 0.0227206 0.0272827
0.0259174 0.0220213 0.0287812
0.0270829 0.022654 0.0294805
0.0266167 0.0228538 0.0316117
0.02665 0.0242524 0.0318448
0.0290476 0.0241192 0.0309457
0.0305794 0.02665 0.030979
0.0323443 0.0291142 0.0317449
0.0327106 0.0290809 0.0328438
0.0324442 0.0315118 0.0342424
0.0336763 0.030646 0.035641
0.0359407 0.0305461 0.0355744
0.0353413 0.0316117 0.0357409
0.0365401 0.0327439 0.0372061
0.036307 0.0318115 0.0383716
0.0384382 0.0327772 0.0377722
0.0382051 0.0328105 0.0372727
0.0392374 0.034309 0.0385381
0.038971 0.0365734 0.0397036
0.0409024 0.0383716 0.0411022
0.0399034 0.0400699 0.0434332
0.0400699 0.0395371 0.0442657
0.039637 0.0427672 0.0458974
0.0384715 0.0450649 0.046297
0.0381052 0.0458974 0.0486946
0.0381052 0.0473626 0.0490276
0.0400699 0.0474625 0.0511588
0.0426673 0.0495271 0.0520246
0.0434665 0.0512587 0.0517915
0.0431335 0.0540559 0.0533233
0.043966 0.0553213 0.0548551
0.0440992 0.0562537 0.0548551
0.0465634 0.0558208 0.0560539
0.0476623 0.0571861 0.0566533
0.047629 0.05662 0.058884399999999996
0.0490276 0.0561538 0.061248699999999996
0.0503596 0.0566533 0.060948999999999996
0.051292 0.058418199999999997 0.062247699999999996
0.0534232 0.061148799999999996 0.063946
0.0550216 0.062347599999999996 0.0666433
0.0573859 0.0635797 0.0674092
0.059850099999999996 0.0635131 0.0701731
0.060915699999999996 0.062281 0.0716716
0.0637462 0.0636463 0.072271
0.0640459 0.0665434 0.0721378
0.0643123 0.0670096 0.0741025
0.0660772 0.0665434 0.0754012
0.0659107 0.0671761 0.0780319
0.0673426 0.0696736 0.0804961
0.0679087 0.0704728 0.0830269
0.067276 0.0711721 0.0844921
0.0667432 0.071272 0.0863569
0.0662104 0.0729037 0.0860239
0.0668098 0.0743689 0.0866899
0.0685747 0.0753679 0.0881551
0.0679087 0.0769996 0.089254
0.0692074 0.0789643 0.0901531
0.0710056 0.079597 0.090253
0.0723043 0.0803962 0.0891208
0.0752014 0.0814951 0.0887212
0.0754345 0.082261 0.0896536
0.077599 0.0823276 0.0908524
0.0763003 0.0828271 0.0923842
0.0763669 0.0823276 0.0939826
0.0769663 0.082594 0.095581
0.0781318 0.0842257 0.0956143
0.077932 0.0836263 0.0972793
0.0801631 0.0836929 0.0999433
0.0791308 0.0854245 0.0993439
0.0794305 0.0881218 0.098245
0.0788311 0.0886213 0.097912
0.0798634 0.0879886 0.0990775
0.0802963 0.0884548 0.1002763
0.0823276 0.0897868 0.0997435
0.0847252 0.0888211 0.1001764
0.0878554 0.0880552 0.0995437
0.0873559 0.0874225 0.1022743
0.0892207 0.088255 0.1044388
0.0887545 0.0909856 0.105904
0.0894205 0.0927505 0.1045387
0.0901864 0.0939493 0.1071028
0.0897535 0.0961138 0.1068364
0.0919513 0.0966799 0.1081684
0.0918847 0.0982783 0.1086679
0.0930502 0.0986779 0.1104661
0.0925174 0.0999766 0.1124974
0.0931168 0.0986446 0.1126639
0.0936496 0.0987445 0.113896
0.0934165 0.0998767 0.1157608
0.0946819 0.1028737 0.1151614
0.0956476 0.1036063 0.1149283
0.098245 0.1065367 0.1161937
0.0981118 0.10657 0.1171594
0.0987445 0.1073359 0.1180252
0.0993772 0.1073359 0.1178587
0.1001431 0.1095337 0.1167265
0.100243 0.1110988 0.1169929
0.100909 0.110899 0.1191241
0.1013752 0.1129636 0.1205227
0.1015084 0.1143955 0.1199899
0.1022077 0.1134298 0.1197235
0.1019413 0.1146952 0.1207558
0.1017415 0.1139293 0.1226539
0.1026073 0.1132633 0.1228537
0.1043056 0.1144288 0.1240192
0.1065034 0.1145287 0.1237528
0.1077355 0.1135963 0.1240192
0.1102996 0.1158607 0.1240858
0.1108657 0.1187245 0.1247185
0.1105327 0.1210222 0.1271161
0.1114984 0.1214884 0.1259506
0.1107658 0.1207891 0.1276489
0.1113652 0.1193905 0.1284481
0.1116982 0.1196902 0.12868120000000002
0.1123309 0.1205227 0.12928060000000002
0.1122643 0.1215217 0.1291141
0.1151614 0.1233199 0.1313785
0.1159273 0.1256509 0.13374280000000002
0.1149616 0.1276489 0.13437550000000004
0.115228 0.12954700000000002 0.13514140000000005
0.1157275 0.13151170000000004 0.13524130000000006
0.1158274 0.13394260000000005 0.13527460000000008
0.1172926 0.13480840000000005 0.13747240000000008
0.1176922 0.13484170000000006 0.13967020000000008
0.120223 0.13490830000000006 0.14106880000000008
0.1214884 0.13524130000000006 0.14246740000000008
0.1229203 0.13407580000000005 0.14326660000000008
0.1215883 0.13710610000000006 0.14499820000000008
0.1211887 0.13790530000000006 0.14546440000000008
0.1233199 0.14026960000000008 0.14633020000000008
0.1256842 0.14213440000000008 0.1472959000000001
0.12565089999999998 0.1444321000000001 0.1490941000000001
0.12678309999999998 0.1442989000000001 0.1500598000000001
0.12851469999999998 0.1467964000000001 0.1499932000000001
0.1314118 0.1479286000000001 0.15075910000000012
0.1321777 0.1475956000000001 0.15015970000000012
0.13294360000000002 0.1497268000000001 0.15135850000000012
0.13480840000000002 0.1482616000000001 0.15295690000000012
0.13610710000000004 0.1501264000000001 0.15315670000000012
0.13880440000000005 0.1522576000000001 0.15565420000000013
0.13897090000000006 0.15448870000000012 0.15681970000000015
0.14026960000000008 0.15592060000000013 0.15691960000000016
0.1417681000000001 0.15558760000000013 0.15875110000000017
0.1421011000000001 0.15761890000000015 0.1599832000000002
0.1418347000000001 0.15778540000000016 0.1591840000000002
0.1427338000000001 0.15948370000000017 0.1616149000000002
0.14429890000000012 0.15968350000000017 0.1622476000000002
0.14526460000000013 0.15898420000000016 0.1650448000000002
0.14633020000000013 0.15878440000000016 0.1663768000000002
0.14809510000000015 0.15951700000000016 0.16747570000000023
0.14776210000000015 0.15895090000000014 0.16914070000000023
0.14782870000000015 0.15965020000000016 0.17077240000000024
0.14952700000000016 0.16088230000000017 0.17057260000000024
0.15019300000000016 0.15998320000000016 0.17177140000000024
0.15159160000000016 0.15941710000000014 0.17430220000000024
0.15342310000000017 0.15985000000000016 0.17436880000000024
0.15548770000000017 0.16211440000000016 0.17503480000000024
0.1561204000000002 0.16484500000000016 0.17436880000000024
0.1561204000000002 0.16744240000000016 0.17406910000000023
0.15482170000000017 0.16824160000000016 0.17426890000000023
0.15422230000000017 0.16880770000000017 0.17603380000000024
0.15582070000000017 0.17083900000000019 0.17846470000000025
0.15755230000000017 0.1730035000000002 0.17766550000000025
0.15994990000000017 0.1751347000000002 0.17973010000000025
0.16181470000000017 0.1779985000000002 0.18122860000000027
0.16174810000000017 0.1789309000000002 0.18129520000000027
0.16244740000000019 0.1801963000000002 0.18276040000000027
0.1616482000000002 0.1812619000000002 0.18186130000000025
0.1636129000000002 0.1814950000000002 0.18349300000000027
0.16304680000000019 0.1820944000000002 0.18256060000000027
0.1654111000000002 0.1809622000000002 0.18425890000000028
0.1661104000000002 0.18339310000000023 0.18525790000000028
0.16734250000000023 0.18429220000000024 0.1862902000000003
0.16930720000000024 0.18579070000000025 0.18552430000000028
0.17000650000000025 0.18808840000000027 0.18678970000000028
0.17057260000000027 0.18948700000000027 0.1888210000000003
0.17173810000000028 0.19021960000000027 0.1879552000000003
0.17037280000000027 0.19191790000000028 0.1875556000000003
0.17223760000000027 0.1937494000000003 0.1893538000000003
0.17303680000000027 0.1947817000000003 0.1910854000000003
0.17410240000000027 0.1953811000000003 0.1913518000000003
0.17526790000000028 0.1963135000000003 0.1918513000000003
0.17540110000000028 0.1969129000000003 0.1935829000000003
0.17813170000000028 0.1966798000000003 0.1959139000000003
0.17796520000000027 0.1972459000000003 0.1967131000000003
0.17926390000000028 0.1993105000000003 0.1962802000000003
0.17966350000000028 0.2019079000000003 0.1978453000000003
0.18172810000000028 0.20360620000000032 0.20014300000000032
0.1817614000000003 0.20460520000000032 0.20030950000000033
0.1824940000000003 0.20676970000000033 0.20240740000000035
0.1828936000000003 0.20713600000000035 0.20340640000000035
0.1834597000000003 0.20950030000000036 0.20443870000000036
0.18469180000000032 0.21113200000000037 0.20530450000000036
0.18702280000000032 0.21096550000000036 0.20666980000000038
0.18882100000000032 0.21093220000000035 0.2077687000000004
0.18908740000000032 0.21003310000000033 0.2071693000000004
0.18855460000000032 0.21176470000000033 0.2086012000000004
0.18842140000000032 0.21406240000000035 0.21036610000000042
0.1880551000000003 0.21519460000000035 0.21209770000000042
0.1885213000000003 0.21522790000000036 0.21223090000000042
0.19008640000000032 0.21626020000000037 0.21349630000000042
0.19191790000000034 0.21612700000000037 0.21546100000000043
0.19295020000000035 0.21825820000000037 0.21709270000000044
0.19285030000000034 0.22018960000000037 0.21802510000000044
0.19564750000000034 0.22165480000000037 0.21672640000000043
0.19861120000000035 0.2241523000000004 0.21692620000000043
0.19781200000000035 0.2263834000000004 0.21802510000000044
0.19827820000000035 0.2250847000000004 0.21795850000000044
0.19841140000000035 0.2267164000000004 0.21822490000000044
0.19851130000000036 0.2288476000000004 0.21789190000000044
0.19954360000000038 0.23101210000000041 0.21769210000000044
0.20107540000000038 0.23087890000000041 0.22025620000000046
0.20220760000000038 0.23244400000000043 0.22195450000000047
0.2040391000000004 0.23171140000000043 0.22168810000000047
0.2042722000000004 0.23054590000000041 0.22298680000000048
0.2059372000000004 0.22908070000000041 0.22245400000000048
0.2062702000000004 0.22861450000000041 0.22338640000000048
0.20637010000000042 0.23041270000000041 0.22551760000000048
0.20720260000000043 0.23131180000000043 0.2272825000000005
0.20783530000000044 0.23437540000000043 0.2279485000000005
0.20833480000000046 0.23517460000000043 0.2280484000000005
0.20983330000000047 0.23660650000000044 0.22928050000000053
0.21069910000000047 0.23847130000000044 0.22934710000000053
0.21016630000000047 0.24106870000000044 0.23154490000000053
0.20970010000000047 0.24270040000000045 0.23407570000000053
0.20863450000000047 0.24463180000000045 0.2337760000000005
0.20993320000000049 0.24623020000000045 0.2324773000000005
0.21046600000000049 0.24706270000000047 0.2329102000000005
0.21153160000000049 0.24829480000000048 0.2338426000000005
0.2122309000000005 0.25052590000000047 0.2355076000000005
0.2133298000000005 0.2526904000000005 0.23787190000000052
0.21349630000000053 0.25438870000000047 0.24093550000000052
0.21406240000000054 0.25318990000000047 0.24173470000000052
0.21316330000000053 0.25452190000000047 0.24270040000000054
0.21532780000000054 0.2553544000000005 0.24326650000000055
0.21562750000000055 0.2557873000000005 0.24409900000000057
0.21549430000000055 0.2559871000000005 0.24373270000000055
0.21522790000000055 0.2550547000000005 0.24343300000000054
0.21739240000000057 0.2563867000000005 0.24566410000000055
0.21809170000000058 0.25818490000000055 0.24709600000000057
0.22008970000000058 0.25848460000000056 0.24792850000000058
0.2219878000000006 0.2583847000000006 0.24939370000000058
0.22188790000000058 0.2605492000000006 0.25102540000000056
0.22282030000000058 0.2627803000000006 0.2535895000000006
0.2252512000000006 0.2637793000000006 0.25328980000000056
0.2252845000000006 0.2652112000000006 0.25299010000000055
0.2262169000000006 0.2652778000000006 0.2546551000000006
0.22658320000000062 0.26667640000000065 0.2565199000000006
0.22664980000000062 0.26720920000000065 0.2569528000000006
0.22651660000000062 0.26910730000000066 0.2575522000000006
0.2264167000000006 0.26854120000000065 0.25841800000000065
0.2267497000000006 0.26824150000000063 0.25945030000000063
0.22844800000000062 0.27037270000000063 0.26158150000000063
0.23017960000000062 0.26947360000000065 0.26374600000000065
0.23231080000000062 0.26964010000000066 0.26511130000000066
0.23234410000000064 0.2711719000000007 0.26504470000000063
0.23094550000000064 0.2714050000000007 0.26504470000000063
0.23044600000000062 0.2725039000000007 0.26557750000000063
0.23164480000000062 0.2729035000000007 0.2652445000000006
0.23241070000000064 0.2748682000000007 0.26544430000000063
0.23247730000000064 0.2742355000000007 0.26577730000000066
0.23394250000000064 0.2740690000000007 0.26760880000000065
0.23357620000000062 0.27363610000000066 0.2674090000000006
0.23597380000000062 0.27350290000000066 0.26934040000000065
0.23740570000000064 0.2754343000000007 0.2704726000000007
0.23653990000000064 0.2778319000000007 0.26934040000000065
0.23670640000000065 0.2783314000000007 0.26817490000000066
0.23810500000000065 0.2803627000000007 0.26787520000000065
0.23790520000000065 0.2822941000000007 0.26734240000000065
0.23960350000000066 0.28246060000000073 0.26837470000000063
0.24063580000000068 0.28262710000000074 0.2699398000000006
0.24250060000000068 0.28226080000000076 0.2694070000000006
0.24206770000000066 0.28492480000000076 0.27120520000000065
0.24230080000000068 0.28675630000000074 0.2718046000000007
0.24443200000000068 0.28842130000000077 0.2726371000000007
0.2451313000000007 0.28822150000000074 0.2735695000000007
0.24463180000000068 0.2876554000000007 0.2743021000000007
0.24489820000000068 0.28848790000000074 0.2756341000000007
0.24609700000000068 0.28928710000000074 0.2771992000000007
0.24782860000000068 0.28995310000000074 0.27726580000000073
0.2499931000000007 0.29088550000000074 0.27699940000000073
0.2517580000000007 0.2923174000000007 0.27673300000000073
0.25328980000000073 0.2925838000000007 0.27846460000000073
0.25372270000000074 0.29318320000000075 0.28112860000000073
0.2553877000000008 0.29411560000000075 0.28022950000000074
0.2579518000000008 0.29561410000000077 0.28022950000000074
0.2586511000000008 0.29491480000000075 0.28162810000000077
0.25791850000000077 0.29518120000000075 0.2840590000000008
0.2602495000000008 0.29741230000000074 0.28389250000000077
0.2613484000000008 0.29687950000000074 0.2863567000000008
0.2619811000000008 0.2968462000000007 0.2885545000000008
0.2611486000000008 0.2996434000000007 0.2893537000000008
0.2634463000000008 0.2986444000000007 0.2905192000000008
0.2637460000000008 0.2992438000000007 0.2917513000000008
0.2651779000000008 0.30090880000000075 0.29328310000000085
0.2657440000000008 0.30047590000000074 0.2932165000000008
0.2672092000000008 0.30260710000000074 0.29511460000000084
0.2679751000000008 0.30407230000000074 0.29631340000000084
0.2685079000000008 0.30473830000000074 0.2981449000000008
0.2686078000000008 0.30367270000000074 0.2978119000000008
0.2672758000000008 0.30393910000000074 0.2969128000000008
0.2682415000000008 0.30583720000000075 0.29871100000000084
0.2693071000000008 0.3076354000000008 0.2996101000000008
0.2698066000000008 0.30920050000000077 0.30060910000000085
0.2707390000000008 0.31023280000000075 0.30164140000000084
0.2706391000000008 0.31126510000000074 0.3013417000000008
0.2718379000000008 0.3111985000000007 0.30260710000000085
0.27177130000000077 0.3103327000000007 0.30470500000000084
0.27080560000000076 0.3104992000000007 0.3073357000000008
0.27277030000000074 0.31003300000000067 0.3064033000000008
0.27486820000000073 0.30973330000000066 0.30806830000000085
0.27649990000000074 0.31199770000000066 0.30713590000000085
0.27706600000000076 0.31103200000000064 0.3092005000000009
0.27786520000000076 0.31296340000000067 0.3090673000000009
0.2789974000000008 0.31293010000000065 0.30796840000000086
0.2792638000000008 0.31329640000000064 0.30979990000000085
0.2810287000000008 0.31266370000000065 0.31063240000000086
0.28056250000000077 0.31356280000000064 0.3118645000000009
0.2811286000000008 0.31536100000000067 0.3129301000000009
0.28282690000000077 0.31732570000000065 0.3133963000000009
0.28282690000000077 0.3160603000000006 0.3143287000000009
0.2830267000000008 0.31675960000000064 0.3160270000000009
0.2840590000000008 0.31839130000000065 0.3163600000000009
0.2843587000000008 0.32042260000000067 0.31802500000000095
0.2863900000000008 0.3206224000000007 0.318224800000001
0.2857906000000008 0.3213550000000007 0.319956400000001
0.2862235000000008 0.3214549000000007 0.32258710000000096
0.2862568000000008 0.3232198000000007 0.32508460000000095
0.2862568000000008 0.3226870000000007 0.32631670000000096
0.2853577000000008 0.32285350000000074 0.32854780000000094
0.2866897000000008 0.32445190000000074 0.33044590000000096
0.28698940000000084 0.3253510000000007 0.33071230000000096
0.28838800000000087 0.3266497000000007 0.33061240000000097
0.2884546000000009 0.3271492000000007 0.332011000000001
0.2907856000000009 0.32654980000000067 0.334475200000001
0.29055250000000094 0.3276487000000007 0.334308700000001
0.29001970000000094 0.3289141000000007 0.333642700000001
0.29148490000000093 0.3306790000000007 0.335474200000001
0.29228410000000093 0.33177790000000074 0.336140200000001
0.29311660000000095 0.33204430000000074 0.337006000000001
0.29454850000000093 0.33211090000000076 0.33853780000000105
0.29514790000000096 0.33111190000000074 0.34003630000000107
0.297978400000001 0.33097870000000074 0.3412684000000011
0.298844200000001 0.3320110000000007 0.3398032000000011
0.298611100000001 0.3321442000000007 0.33950350000000107
0.297145900000001 0.3314782000000007 0.33986980000000105
0.299410300000001 0.3321442000000007 0.339004000000001
0.302174200000001 0.33417550000000074 0.337771900000001
0.302041000000001 0.33670630000000074 0.338970700000001
0.30330640000000103 0.3382714000000007 0.34183450000000104
0.30387250000000104 0.33833800000000075 0.34483150000000107
0.30587050000000104 0.33780520000000075 0.34626340000000105
0.30650320000000103 0.3397366000000008 0.34742890000000104
0.306603100000001 0.3402694000000008 0.34649650000000104
0.307935100000001 0.3397699000000008 0.34852780000000105
0.30756880000000103 0.3405691000000008 0.34942690000000104
0.30916720000000103 0.3434329000000008 0.35042590000000107
0.31063240000000103 0.3447316000000008 0.3526237000000011
0.31186450000000104 0.34666300000000083 0.3533230000000011
0.31249720000000103 0.34586380000000083 0.3557539000000011
0.31283020000000106 0.34722910000000085 0.35778520000000114
0.31442860000000106 0.34852780000000083 0.3575854000000011
0.3164932000000011 0.3490273000000008 0.35805160000000114
0.31845790000000107 0.3485611000000008 0.36038260000000116
0.3204892000000011 0.3470626000000008 0.3625804000000012
0.31975660000000106 0.3488275000000008 0.3645784000000012
0.32202100000000106 0.3500263000000008 0.3648115000000012
0.3227536000000011 0.3502927000000008 0.3641455000000012
0.3235861000000011 0.3501595000000008 0.3642121000000012
0.3266164000000011 0.3505258000000008 0.3641788000000012
0.3284146000000011 0.35102530000000076 0.3661435000000012
0.3301462000000011 0.3536227000000008 0.3668095000000012
0.3325438000000011 0.3540223000000008 0.3682747000000012
0.3317779000000011 0.3537226000000008 0.3680083000000012
0.33460840000000114 0.3545551000000008 0.3689407000000012
0.33544090000000115 0.3568528000000008 0.3685744000000012
0.33753880000000114 0.3571192000000008 0.3700729000000012
0.33917050000000115 0.3577519000000008 0.3719710000000012
0.34126840000000114 0.3583846000000008 0.3715381000000012
0.34130170000000115 0.35768530000000076 0.3732364000000012
0.34329970000000115 0.35748550000000073 0.3745684000000012
0.34426540000000116 0.35765200000000075 0.37450180000000116
0.34413220000000116 0.3583846000000008 0.37540090000000115
0.34369930000000115 0.3612484000000008 0.3750679000000011
0.3453643000000012 0.3606823000000008 0.3775987000000011
0.34799500000000116 0.3624139000000008 0.37776520000000113
0.34969330000000115 0.3627802000000008 0.37949680000000113
0.34886080000000114 0.3647116000000008 0.38022940000000116
0.3485611000000011 0.3678751000000008 0.37949680000000113
0.3478285000000011 0.3680749000000008 0.37966330000000115
0.3482947000000011 0.36814150000000084 0.37899730000000115
0.3484279000000011 0.37067230000000084 0.37943020000000116
0.3508255000000011 0.37057240000000086 0.37829800000000113
0.3529234000000011 0.3707722000000009 0.37899730000000115
0.3525904000000011 0.37140490000000087 0.3783979000000011
0.3542554000000011 0.3738358000000009 0.38059570000000115
0.3542554000000011 0.3739690000000009 0.38302660000000116
0.3555541000000011 0.3747016000000009 0.3850912000000012
0.3554542000000011 0.3762667000000009 0.3856573000000012
0.3564199000000011 0.37593370000000087 0.3866896000000012
0.3590506000000011 0.37633330000000087 0.3884212000000012
0.3600829000000011 0.37803160000000086 0.3889873000000012
0.3615481000000011 0.37886410000000087 0.39078550000000123
0.3638791000000011 0.37913050000000087 0.39191770000000126
0.3638125000000011 0.38139490000000087 0.39111850000000126
0.3665431000000011 0.38079550000000084 0.3927835000000013
0.36817480000000113 0.3819610000000008 0.3929167000000013
0.3681415000000011 0.38402560000000086 0.3946816000000013
0.36820810000000115 0.3847582000000009 0.3971125000000013
0.36797500000000116 0.3863566000000009 0.3964465000000013
0.36970660000000116 0.3869227000000009 0.3963799000000013
0.3701728000000012 0.3871225000000009 0.3980449000000013
0.3702727000000012 0.3865897000000009 0.3992770000000013
0.3714049000000012 0.38865430000000095 0.39970990000000134
0.3734029000000012 0.38772190000000095 0.39984310000000134
0.37413550000000123 0.38812150000000095 0.40027600000000135
0.37496800000000124 0.390985300000001 0.40014280000000135
0.37613350000000123 0.392250700000001 0.40204090000000137
0.37653310000000123 0.393016600000001 0.40350610000000137
0.37719910000000123 0.395747200000001 0.40617010000000137
0.37793170000000126 0.39737890000000103 0.4056706000000014
0.3795967000000013 0.39824470000000106 0.40790170000000137
0.3817279000000013 0.39931030000000106 0.40840120000000135
0.3808288000000013 0.40247380000000105 0.40893400000000135
0.3826603000000013 0.4026736000000011 0.41133160000000135
0.38276020000000127 0.4047382000000011 0.41306320000000135
0.38475820000000127 0.4042720000000011 0.4157938000000014
0.38712250000000126 0.4073689000000011 0.4158604000000014
0.38862100000000127 0.4083346000000011 0.4166263000000014
0.39021940000000127 0.4090006000000011 0.4167928000000014
0.39261700000000127 0.4086676000000011 0.4186243000000014
0.39271690000000126 0.4085677000000011 0.4192237000000014
0.39295000000000124 0.4084345000000011 0.4191904000000014
0.39225070000000123 0.4084345000000011 0.42072220000000143
0.39508120000000124 0.4088674000000011 0.42185440000000146
0.39508120000000124 0.4094002000000011 0.42252040000000146
0.39591370000000126 0.4092004000000011 0.42315310000000145
0.39568060000000127 0.4107988000000011 0.4245517000000015
0.3969127000000013 0.4121974000000011 0.4263499000000015
0.3988108000000013 0.4126969000000011 0.4280482000000015
0.4010419000000013 0.4128967000000011 0.4310119000000015
0.40380580000000127 0.41452840000000113 0.43187770000000153
0.40607020000000127 0.41639320000000113 0.43247710000000156
0.40590370000000126 0.4163266000000011 0.43287670000000156
0.40656970000000126 0.41839120000000113 0.43251040000000157
0.40830130000000125 0.4179583000000011 0.43380910000000156
0.40883410000000125 0.41852440000000113 0.43357600000000157
0.40963330000000125 0.4183579000000011 0.4355074000000016
0.41123170000000125 0.4182913000000011 0.4383712000000016
0.41426200000000124 0.41782510000000106 0.4407355000000016
0.4141954000000012 0.4185577000000011 0.4407355000000016
0.4137958000000012 0.4208221000000011 0.4402693000000016
0.41426200000000124 0.4214881000000011 0.4400362000000016
0.41509450000000125 0.4225204000000011 0.4421674000000016
0.41546080000000124 0.4242520000000011 0.4420342000000016
0.41399560000000124 0.4253176000000011 0.4448647000000016
0.41376250000000125 0.4249180000000011 0.4478284000000016
0.41259700000000127 0.4265830000000011 0.4480615000000016
0.4139623000000013 0.4277485000000011 0.4485610000000016
0.4149613000000013 0.42904720000000107 0.4492603000000016
0.4153609000000013 0.4289473000000011 0.45092530000000164
0.4169593000000013 0.4302793000000011 0.44946010000000164
0.4159603000000013 0.4305457000000011 0.4504924000000016
0.41872420000000127 0.4297798000000011 0.4494268000000016
0.4179583000000013 0.4295134000000011 0.4516579000000016
0.4190239000000013 0.4291138000000011 0.4533562000000016
0.41882410000000125 0.4291804000000011 0.4538557000000016
0.42058900000000127 0.42964660000000116 0.45608680000000157
0.4223539000000013 0.43137820000000116 0.45608680000000157
0.4215547000000013 0.4335760000000012 0.45831790000000155
0.42085540000000127 0.4334761000000012 0.4571857000000015
0.4199563000000013 0.4362067000000012 0.45818470000000155
0.4212883000000013 0.43693930000000125 0.45868420000000154
0.4213216000000013 0.43790500000000127 0.46021600000000157
0.4207888000000013 0.43813810000000125 0.46088200000000157
0.42045580000000127 0.43996960000000124 0.46111510000000155
0.4206223000000013 0.44130160000000124 0.4618477000000016
0.4226536000000013 0.4428667000000012 0.46288000000000157
0.4239523000000013 0.4428667000000012 0.46327960000000157
0.4226203000000013 0.44449840000000124 0.4656106000000016
0.4223872000000013 0.44479810000000125 0.4672090000000016
0.4243852000000013 0.44556400000000124 0.4671091000000016
0.4253176000000013 0.44463160000000124 0.4667761000000016
0.4266829000000013 0.44736220000000126 0.46674280000000157
0.4265830000000013 0.44962660000000126 0.46521100000000154
0.42661630000000134 0.44985970000000125 0.4657105000000015
0.42774850000000136 0.45009280000000124 0.4686409000000015
0.4291138000000014 0.4511251000000012 0.46937350000000155
0.4305790000000014 0.4527235000000012 0.4681081000000015
0.4323106000000014 0.45345610000000125 0.4699396000000015
0.43227730000000136 0.45315640000000124 0.4708720000000015
0.43427530000000136 0.4548547000000012 0.47120500000000154
0.43347610000000136 0.45568720000000124 0.47150470000000155
0.4335427000000014 0.4549546000000012 0.47153800000000157
0.4334095000000014 0.4553875000000012 0.4715713000000016
0.4335427000000014 0.4558870000000012 0.4737025000000016
0.4349746000000014 0.4571191000000012 0.4741354000000016
0.4362067000000014 0.45888400000000124 0.4761001000000016
0.4375720000000014 0.4577851000000012 0.4754341000000016
0.4373389000000014 0.4567861000000012 0.4753009000000016
0.43710580000000143 0.4565530000000012 0.47416870000000155
0.4390705000000014 0.4575853000000012 0.47496790000000155
0.43927030000000145 0.4591504000000012 0.47456830000000155
0.44113510000000145 0.46004950000000117 0.47726560000000157
0.4414681000000015 0.4606489000000012 0.4776985000000016
0.44303320000000146 0.4594834000000012 0.4773322000000016
0.4438657000000015 0.4598497000000012 0.4769659000000016
0.4456639000000015 0.4594168000000012 0.4763665000000016
0.4482946000000015 0.4598830000000012 0.4769326000000016
0.4500262000000015 0.4590172000000012 0.4774321000000016
0.4518244000000015 0.4580848000000012 0.4800295000000016
0.4526236000000015 0.4596166000000012 0.4827934000000016
0.4543552000000015 0.4611151000000012 0.4848580000000016
0.4553875000000015 0.46344610000000125 0.48409210000000163
0.4544884000000015 0.46341280000000123 0.48542410000000163
0.4540888000000015 0.46477810000000125 0.4848247000000016
0.45442180000000154 0.46541080000000123 0.4840921000000016
0.45562060000000154 0.46544410000000125 0.48645640000000157
0.45565390000000155 0.46601020000000126 0.48868750000000155
0.45635320000000157 0.46854100000000126 0.4888873000000016
0.45525430000000155 0.4716379000000013 0.4896865000000016
0.45575380000000154 0.4712383000000013 0.4920175000000016
0.45575380000000154 0.4727701000000013 0.4933162000000016
0.45618670000000155 0.4741354000000013 0.4947481000000016
0.45775180000000154 0.4740022000000013 0.4937158000000016
0.45831790000000155 0.4737358000000013 0.4942819000000016
0.45841780000000154 0.47686600000000134 0.4956472000000016
0.45885070000000155 0.47833120000000134 0.4974787000000016
0.46028260000000154 0.47739880000000134 0.4961134000000016
0.4602160000000015 0.47849770000000136 0.49578040000000156
0.4609819000000015 0.48112840000000134 0.49654630000000155
0.4615480000000015 0.48202750000000133 0.49681270000000155
0.46294660000000154 0.48152800000000134 0.49977640000000156
0.46547740000000154 0.48385900000000137 0.5000428000000016
0.46521100000000154 0.48665620000000137 0.49997620000000154
0.46660960000000157 0.4884544000000014 0.5025070000000016
0.46724230000000155 0.4897198000000014 0.5029066000000016
0.46627660000000154 0.4907854000000014 0.5039722000000016
0.4670425000000015 0.4938490000000014 0.5057371000000016
0.46760860000000154 0.49564720000000145 0.5080681000000016
0.46887400000000157 0.49697920000000145 0.5092003000000016
0.4714714000000016 0.49804480000000145 0.5084011000000016
0.4741354000000016 0.5003425000000015 0.5072689000000016
0.4748347000000016 0.5001427000000015 0.5073688000000016
0.4764331000000016 0.4993102000000015 0.5083678000000016
0.4769992000000016 0.4994767000000015 0.5089006000000016
0.4793968000000016 0.4995766000000015 0.5089672000000016
0.4794967000000016 0.4998430000000015 0.5078017000000016
0.4783978000000016 0.4998763000000015 0.5088340000000016
0.4807954000000016 0.5020741000000015 0.5089672000000016
0.4811950000000016 0.5013748000000016 0.5091004000000017
0.4811617000000016 0.5016412000000016 0.5118976000000017
0.48032920000000157 0.5036725000000015 0.5122639000000018
0.48232720000000157 0.5044717000000015 0.5148280000000017
0.4818277000000016 0.5051710000000015 0.5154274000000018
0.4824271000000016 0.5069692000000015 0.5146615000000018
0.4836259000000016 0.5070691000000015 0.5152609000000018
0.4856572000000016 0.5081680000000015 0.5173588000000018
0.48785500000000165 0.5074354000000015 0.5179582000000018
0.4876552000000016 0.5071690000000015 0.5191237000000019
0.48715570000000163 0.5072356000000016 0.5207554000000019
0.48652300000000165 0.5089339000000016 0.5200561000000019
0.48825460000000165 0.5095000000000016 0.520955200000002
0.48975310000000166 0.5089006000000016 0.521754400000002
0.4914181000000017 0.5101660000000016 0.523386100000002
0.4926502000000017 0.5112649000000016 0.522586900000002
0.4937158000000017 0.5128300000000016 0.5235526000000019
0.4938157000000017 0.5132629000000015 0.5235859000000019
0.4951477000000017 0.5159935000000015 0.5243851000000019
0.4954141000000017 0.5171257000000016 0.5234860000000019
0.4948813000000017 0.5160268000000016 0.5233528000000018
0.4954807000000017 0.5164930000000015 0.5256838000000018
0.4956139000000017 0.5156938000000015 0.5277151000000018
0.49714570000000174 0.5164930000000015 0.5301127000000018
0.49944340000000176 0.5191903000000015 0.5319109000000017
0.5002759000000018 0.5193235000000016 0.5319775000000018
0.49914370000000174 0.5205223000000017 0.5327101000000017
0.5004091000000017 0.5227201000000017 0.5322439000000018
0.5000095000000017 0.5231530000000016 0.5331430000000018
0.5012749000000016 0.5257837000000016 0.5364064000000018
0.5040055000000017 0.5278816000000016 0.5369725000000019
0.5041387000000017 0.5304457000000016 0.5385709000000019
0.5038390000000017 0.5309785000000016 0.5400694000000018
0.5053375000000017 0.5304124000000016 0.5395366000000018
0.5047381000000016 0.5310118000000016 0.5399029000000019
0.5046049000000016 0.5313448000000016 0.5403358000000018
0.5061700000000016 0.5323438000000016 0.5391703000000018
0.5060035000000016 0.5326768000000016 0.5395366000000018
0.5061700000000016 0.5334094000000016 0.5422006000000018
0.5068360000000016 0.5334760000000016 0.5433661000000019
0.5061034000000016 0.5347081000000016 0.5450644000000019
0.5058703000000017 0.5346082000000015 0.5446648000000018
0.5055706000000016 0.5354074000000015 0.5464297000000018
0.5071690000000016 0.5345416000000015 0.5457637000000017
0.5061034000000016 0.5344750000000015 0.5473621000000017
0.5063365000000016 0.5360734000000015 0.5498929000000018
0.5076685000000016 0.5367727000000014 0.5484943000000018
0.5081680000000016 0.5378383000000014 0.5484610000000018
0.5072689000000016 0.5394034000000014 0.5513248000000017
0.5073688000000016 0.5394034000000014 0.5522572000000018
0.5096998000000016 0.5405356000000014 0.5530564000000018
0.5113648000000016 0.5408353000000015 0.5527234000000018
0.5118310000000016 0.5425336000000015 0.5544883000000017
0.5131963000000016 0.5423005000000015 0.5565196000000017
0.5145616000000016 0.5410351000000015 0.5555872000000016
0.5154274000000016 0.5414014000000016 0.5555539000000016
0.5142952000000016 0.5424004000000016 0.5549878000000016
0.5147281000000016 0.5427001000000016 0.5573854000000016
0.5149612000000016 0.5438656000000016 0.5604157000000016
0.5169592000000016 0.5456971000000016 0.5630131000000016
0.5187574000000016 0.5459635000000016 0.5650777000000016
0.5176918000000016 0.5480947000000016 0.5641453000000015
0.5184244000000016 0.5492269000000016 0.5650111000000015
0.5180914000000015 0.5476951000000017 0.5654107000000016
0.5191237000000015 0.5506921000000017 0.5677750000000016
0.5200561000000016 0.5530897000000017 0.5698729000000016
0.5216878000000016 0.5526901000000016 0.5695732000000016
0.5216878000000016 0.5536225000000017 0.5701726000000016
0.5223538000000016 0.5555539000000017 0.5709718000000016
0.5228200000000016 0.5570191000000018 0.5733028000000016
0.5222539000000016 0.5580181000000017 0.5735692000000016
0.5239855000000017 0.5594833000000018 0.5722372000000016
0.5233861000000016 0.5615479000000018 0.5727367000000015
0.5247847000000017 0.5629798000000018 0.5727367000000015
0.5242852000000017 0.5655439000000018 0.5739355000000016
0.5248846000000017 0.5643118000000018 0.5764330000000016
0.5264830000000017 0.5655772000000018 0.5769658000000016
0.5264497000000017 0.5654440000000017 0.5797297000000017
0.5273488000000017 0.5658436000000018 0.5805955000000017
0.5278483000000017 0.5662765000000017 0.5818609000000017
0.5292802000000018 0.5670091000000017 0.5823604000000017
0.5307121000000018 0.5682745000000017 0.5836258000000016
0.5311450000000018 0.5702392000000017 0.5858236000000017
0.5339422000000018 0.5715379000000017 0.5866228000000017
0.5351743000000018 0.5728033000000017 0.5875885000000016
0.5362066000000018 0.5733694000000017 0.5882212000000017
0.5375053000000017 0.5742019000000017 0.5895532000000017
0.5399362000000018 0.5745016000000017 0.5904523000000017
0.5398030000000017 0.5760001000000017 0.5898862000000017
0.5405356000000017 0.5767660000000017 0.5910850000000017
0.5407354000000016 0.5788306000000016 0.5900194000000017
0.5417677000000016 0.5776651000000016 0.5890204000000018
0.5408686000000016 0.5798962000000016 0.5885209000000018
0.5415346000000016 0.5814613000000016 0.5904856000000018
0.5438989000000016 0.5833261000000016 0.5910184000000018
0.5445982000000016 0.5832262000000016 0.5927167000000019
0.5443984000000016 0.5830930000000015 0.5941819000000019
0.5455306000000016 0.5837257000000016 0.5931496000000019
0.5475952000000016 0.5837923000000016 0.595414000000002
0.5478283000000016 0.5840254000000016 0.598177900000002
0.5474620000000016 0.5852575000000015 0.5983111000000021
0.5473954000000015 0.5854240000000015 0.6005755000000021
0.5489272000000015 0.5858236000000016 0.6009751000000022
0.5485276000000014 0.5878882000000015 0.6008086000000022
0.5501593000000015 0.5872888000000015 0.6032728000000023
0.5514247000000014 0.5880880000000015 0.6035059000000023
0.5521240000000014 0.5883877000000015 0.6053374000000022
0.5545882000000014 0.5887873000000016 0.6070024000000023
0.5556205000000014 0.5881879000000015 0.6080680000000023
0.5574853000000014 0.5878882000000015 0.6077683000000023
0.5578849000000015 0.5907187000000015 0.6101326000000022
0.5604157000000015 0.5917177000000015 0.6108985000000022
0.5616478000000015 0.5918176000000015 0.6126634000000022
0.5628133000000015 0.5912848000000015 0.6133294000000022
0.5642785000000016 0.5919175000000015 0.6130963000000023
0.5645116000000016 0.5927833000000016 0.6153607000000023
0.5666428000000016 0.5953141000000016 0.6166261000000023
0.5664763000000016 0.5978782000000016 0.6170590000000022
0.5664430000000016 0.5993767000000015 0.6178915000000023
0.5674087000000015 0.5987773000000015 0.6166261000000023
0.5671756000000016 0.6012415000000015 0.6193234000000023
0.5673754000000015 0.6019075000000016 0.6214546000000023
0.5698063000000015 0.6009085000000016 0.6201892000000023
0.5717044000000016 0.6008086000000016 0.6192901000000023
0.5710051000000016 0.6006754000000015 0.6194566000000022
0.5733028000000016 0.6009751000000015 0.6208885000000023
0.5741353000000016 0.6016078000000016 0.6228865000000023
0.5745349000000016 0.6023404000000016 0.6247846000000024
0.5771656000000016 0.6038389000000015 0.6273820000000023
0.5794966000000016 0.6038389000000015 0.6297463000000023
0.5800294000000016 0.6046048000000015 0.6304789000000023
0.5798962000000015 0.6069691000000015 0.6315445000000023
0.5809618000000015 0.6088006000000015 0.6323770000000023
0.5816611000000015 0.6090670000000015 0.6333094000000024
0.5831929000000015 0.6106321000000015 0.6360400000000024
0.5853574000000015 0.6107320000000015 0.6379714000000024
0.5872222000000015 0.6118309000000015 0.6387040000000024
0.5887540000000014 0.6113314000000015 0.6407686000000024
0.5912848000000015 0.6106654000000015 0.6422671000000023
0.5933827000000015 0.6111982000000015 0.6440320000000023
0.5940820000000014 0.6129631000000014 0.6436324000000022
0.5945482000000014 0.6124303000000014 0.6457636000000022
0.5958469000000014 0.6124636000000014 0.6451309000000022
0.5963131000000014 0.6131296000000015 0.6448312000000022
0.5971123000000014 0.6140287000000015 0.6440986000000022
0.5986441000000013 0.6135292000000016 0.6434326000000021
0.6005755000000014 0.6152275000000016 0.6452641000000021
0.5997763000000014 0.6150610000000016 0.6465961000000021
0.5994433000000013 0.6162931000000016 0.6476284000000021
0.6019741000000014 0.6161266000000016 0.6489937000000021
0.6043051000000014 0.6157603000000016 0.6484942000000021
0.6034060000000013 0.6181246000000016 0.6498595000000021
0.6033394000000013 0.6177583000000015 0.6497263000000021
0.6031729000000013 0.6195565000000015 0.6487606000000021
0.6018409000000013 0.6190903000000015 0.6493267000000021
0.6038722000000013 0.6203224000000015 0.6523903000000022
0.6052375000000013 0.6187573000000015 0.6532228000000022
0.6057703000000013 0.6209551000000015 0.6536224000000023
0.6072355000000014 0.6207220000000016 0.6540886000000022
0.6068359000000013 0.6203890000000015 0.6565528000000023
0.6088006000000014 0.6220873000000016 0.6583177000000022
0.6098995000000014 0.6219208000000016 0.6613147000000023
0.6086008000000014 0.6238522000000016 0.6618142000000022
0.6078016000000014 0.6243517000000016 0.6640786000000023
0.6071689000000013 0.6234859000000016 0.6634459000000023
0.6097330000000013 0.6238855000000016 0.6621805000000023
0.6094333000000013 0.6261499000000017 0.6625135000000023
0.6107986000000013 0.6283810000000017 0.6646447000000023
0.6102991000000013 0.6276817000000018 0.6641452000000023
0.6108319000000013 0.6265162000000017 0.6626800000000023
0.6116644000000013 0.6277150000000018 0.6632128000000023
0.6132628000000013 0.6270490000000017 0.6621472000000023
0.6119641000000013 0.6280480000000017 0.6615478000000022
0.6118975000000013 0.6304789000000017 0.6620140000000022
0.6118975000000013 0.6311782000000017 0.6622471000000022
0.6133294000000014 0.6313780000000017 0.6639787000000023
0.6121306000000013 0.6317776000000017 0.6651775000000023
0.6120307000000013 0.6340087000000018 0.6666094000000024
0.6134293000000013 0.6358735000000018 0.6679414000000023
0.6131629000000013 0.6386707000000018 0.6709717000000024
0.6123637000000013 0.6401026000000019 0.6710383000000024
0.6136624000000013 0.6403690000000019 0.6728365000000024
0.6131962000000013 0.6406354000000019 0.6726367000000024
0.6134293000000013 0.6411682000000019 0.6736024000000024
0.6157603000000013 0.6402358000000018 0.6756004000000024
0.6164263000000013 0.6409351000000018 0.6752674000000024
0.6176917000000013 0.6402358000000018 0.6766327000000024
0.6199894000000012 0.6390703000000018 0.6782977000000024
0.6223204000000012 0.6388039000000018 0.6808285000000025
0.6245182000000012 0.6378715000000017 0.6824935000000025
0.6261832000000013 0.6373054000000017 0.6833926000000026
0.6265495000000013 0.6368392000000017 0.6835924000000025
0.6270823000000013 0.6369058000000017 0.6833926000000026
0.6273820000000013 0.6379714000000017 0.6841252000000025
0.6306121000000013 0.6364729000000018 0.6860566000000026
0.6315778000000013 0.6366727000000018 0.6883543000000025
0.6314113000000013 0.6376051000000018 0.6890203000000026
0.6339088000000014 0.6367726000000018 0.6884875000000026
0.6347413000000014 0.6366061000000018 0.6883210000000026
0.6366394000000014 0.6374386000000019 0.6902191000000026
0.6391369000000015 0.6382045000000018 0.6909517000000026
0.6398362000000014 0.6391369000000019 0.6915178000000026
0.6400693000000014 0.6384376000000019 0.6938155000000026
0.6399694000000014 0.639869500000002 0.6922837000000026
0.6422005000000014 0.642466900000002 0.6916843000000026
0.6439654000000014 0.6429664000000019 0.6937489000000026
0.6437656000000014 0.644931100000002 0.6949477000000026
0.6435658000000014 0.6442651000000019 0.6961132000000027
0.6443983000000014 0.6463297000000019 0.6978448000000027
0.6436657000000015 0.647794900000002 0.6982777000000027
0.6460633000000015 0.6479614000000019 0.6998095000000026
0.6464629000000015 0.6481279000000019 0.6998095000000026
0.6464629000000015 0.6495265000000019 0.7020073000000027
0.6493933000000015 0.6492268000000019 0.7033393000000027
0.6516244000000015 0.6506587000000019 0.7046380000000027
0.6504589000000015 0.6514912000000019 0.7062364000000027
0.6491602000000015 0.651624400000002 0.7067692000000027
0.6504589000000015 0.652723300000002 0.7094998000000027
0.6518908000000015 0.652723300000002 0.7097995000000027
0.6512914000000015 0.652223800000002 0.7115311000000027
0.6537223000000015 0.652556800000002 0.7134958000000028
0.6549877000000015 0.6534226000000021 0.7150942000000028
0.6543550000000015 0.6550210000000021 0.7152940000000028
0.6536557000000015 0.655453900000002 0.7158601000000028
0.6542218000000015 0.657518500000002 0.7161598000000028
0.6550210000000015 0.659449900000002 0.7178914000000028
0.6546880000000015 0.658883800000002 0.7187572000000029
0.6537223000000015 0.661747600000002 0.7196230000000029
0.6541885000000015 0.663645700000002 0.7189237000000029
0.6558868000000015 0.664611400000002 0.7205221000000029
0.6560533000000015 0.664411600000002 0.7210216000000029
0.6569191000000015 0.665710300000002 0.720022600000003
0.6595165000000015 0.666775900000002 0.720322300000003
0.6586507000000015 0.6682744000000019 0.7202557000000029
0.6595831000000015 0.6687073000000019 0.7204222000000029
0.6586174000000016 0.6687406000000019 0.7205887000000029
0.6591169000000016 0.6711715000000019 0.7226200000000028
0.6607819000000016 0.6732694000000019 0.7240186000000028
0.6614146000000016 0.6727699000000019 0.7242850000000028
0.6617809000000017 0.6733360000000019 0.7262164000000029
0.6617476000000017 0.6730696000000019 0.7289137000000029
0.6624802000000016 0.6748345000000019 0.7312780000000029
0.6621472000000016 0.6763330000000018 0.7329763000000029
0.6635125000000016 0.6763330000000018 0.733342600000003
0.6631129000000016 0.6758668000000019 0.734241700000003
0.6646780000000015 0.6751342000000019 0.735340600000003
0.6665428000000015 0.6764995000000019 0.734408200000003
0.6674752000000016 0.6786640000000019 0.736339600000003
0.6683410000000016 0.6804955000000019 0.736606000000003
0.6676750000000016 0.6794299000000019 0.738504100000003
0.6673420000000015 0.680329000000002 0.739336600000003
0.6689737000000016 0.681927400000002 0.740568700000003
0.6717043000000016 0.6818608000000019 0.740635300000003
0.6724702000000016 0.6844915000000019 0.743565700000003
0.6728365000000016 0.686722600000002 0.745563700000003
0.6735691000000016 0.6869224000000019 0.7471954000000031
0.6747679000000016 0.6877216000000019 0.748194400000003
0.6748678000000017 0.687821500000002 0.749426500000003
0.6752341000000017 0.688720600000002 0.748527400000003
0.6749011000000017 0.6896197000000021 0.750991600000003
0.6761665000000017 0.6888871000000021 0.751724200000003
0.6768991000000016 0.6903190000000021 0.752623300000003
0.6776650000000016 0.6902857000000021 0.752423500000003
0.6774319000000016 0.6913513000000021 0.753422500000003
0.6796297000000017 0.6936157000000022 0.7524901000000029
0.6822604000000017 0.6949144000000022 0.7523902000000029
0.6845581000000016 0.6981112000000022 0.7533892000000029
0.6859900000000017 0.6983443000000021 0.7542217000000029
0.6856903000000016 0.6992434000000022 0.7546213000000029
0.6862564000000017 0.7004089000000022 0.7540552000000029
0.6871555000000017 0.7013746000000022 0.755453800000003
0.6882211000000017 0.7020739000000021 0.756286300000003
0.6880546000000017 0.7006087000000021 0.7572520000000029
0.6882877000000017 0.702107200000002 0.759216700000003
0.6881878000000017 0.704771200000002 0.759349900000003
0.6877549000000017 0.705603700000002 0.759283300000003
0.6899860000000018 0.7065361000000021 0.759050200000003
0.6909184000000018 0.7079014000000021 0.759416500000003
0.6927832000000018 0.7071355000000021 0.759616300000003
0.6917509000000018 0.7073353000000021 0.760182400000003
0.6926833000000019 0.7078348000000021 0.761181400000003
0.6925834000000018 0.7075684000000021 0.763645600000003
0.6951142000000019 0.7073686000000021 0.764211700000003
0.6956137000000019 0.7096996000000021 0.7647778000000031
0.6985774000000019 0.7104988000000021 0.7648444000000031
0.6991435000000019 0.7115977000000021 0.7667425000000031
0.7004422000000019 0.7128631000000021 0.7688071000000031
0.7018408000000019 0.7128631000000021 0.768474100000003
0.7036390000000019 0.7125967000000021 0.769806100000003
0.7028731000000019 0.7133959000000021 0.770005900000003
0.703272700000002 0.714128500000002 0.772070500000003
0.7042384000000019 0.714628000000002 0.774035200000003
0.705903400000002 0.7165927000000021 0.7754671000000031
0.7082344000000019 0.7172254000000021 0.7763662000000031
0.709633000000002 0.7169257000000021 0.7767658000000032
0.7095331000000019 0.7164928000000022 0.7769989000000032
0.7094998000000019 0.7165594000000022 0.7765660000000032
0.7091335000000019 0.7158268000000022 0.7770655000000032
0.7119640000000018 0.7155937000000022 0.7772653000000032
0.7135957000000018 0.7176916000000022 0.7786972000000032
0.7163263000000019 0.7166260000000022 0.7792633000000032
0.7181578000000018 0.7184575000000022 0.7790968000000033
0.7199893000000018 0.7202557000000022 0.7788970000000033
0.7193899000000018 0.7193566000000021 0.7806952000000033
0.7186240000000018 0.7218874000000022 0.7818274000000033
0.7196230000000018 0.7229530000000022 0.7822270000000033
0.7200559000000017 0.7228531000000021 0.7837255000000033
0.7220539000000018 0.7220206000000021 0.7837921000000033
0.7239853000000018 0.7230196000000021 0.7844248000000034
0.7255837000000018 0.7249177000000021 0.7866226000000034
0.7264162000000018 0.7254505000000021 0.7869223000000034
0.7269823000000019 0.7246180000000021 0.7885207000000034
0.7284808000000018 0.724518100000002 0.7898194000000034
0.7297129000000018 0.7259833000000021 0.7923169000000034
0.7312447000000017 0.7262164000000021 0.7950142000000034
0.7305454000000018 0.726382900000002 0.7960798000000034
0.7323103000000017 0.7275817000000021 0.7974451000000035
0.7324102000000018 0.7284142000000021 0.7980112000000035
0.7340086000000018 0.7285141000000022 0.7996429000000035
0.7332094000000018 0.7287805000000022 0.7998094000000034
0.7346080000000018 0.7310782000000021 0.7996429000000035
0.7362397000000018 0.7324435000000021 0.8008417000000035
0.7363063000000019 0.7315777000000021 0.8015743000000035
0.7367392000000018 0.7314112000000021 0.8008084000000035
0.7390702000000018 0.7333426000000022 0.8033059000000036
0.7393366000000018 0.7332760000000021 0.8047378000000036
0.7395364000000018 0.7338421000000022 0.8052040000000036
0.7404355000000018 0.7362064000000021 0.8064361000000035
0.7416010000000018 0.7359400000000021 0.8080345000000035
0.7422004000000019 0.7371388000000022 0.8090002000000035
0.7441984000000019 0.7372387000000022 0.8097994000000035
0.7440985000000019 0.7383376000000023 0.8101324000000035
0.7453972000000019 0.7381378000000023 0.8109649000000035
0.7475950000000019 0.7384708000000023 0.8126965000000036
0.7488271000000019 0.7385707000000024 0.8139952000000036
0.7503922000000018 0.7382044000000023 0.8157268000000036
0.7506919000000019 0.7405021000000023 0.8163595000000037
0.7539553000000019 0.7409683000000022 0.8154604000000036
0.7551541000000019 0.7428997000000023 0.8172586000000036
0.756319600000002 0.7439320000000023 0.8192899000000036
0.755320600000002 0.7468291000000022 0.8212546000000036
0.756019900000002 0.7493599000000023 0.8215210000000036
0.756685900000002 0.7500592000000023 0.8212213000000036
0.757285300000002 0.7509916000000023 0.8212213000000036
0.756452800000002 0.7525234000000023 0.8205553000000035
0.7565194000000021 0.7519906000000023 0.8199226000000035
0.7590169000000021 0.7516909000000023 0.8215543000000035
0.7577515000000021 0.7541884000000023 0.8221870000000036
0.7583509000000022 0.7556203000000024 0.8214877000000036
0.7589503000000022 0.7572853000000024 0.8217874000000036
0.7608484000000022 0.7579180000000024 0.8218540000000036
0.7640452000000022 0.7591834000000024 0.8237188000000036
0.7648111000000022 0.7604821000000024 0.8248843000000037
0.7644115000000021 0.7609150000000023 0.8252173000000037
0.7640119000000021 0.7628797000000024 0.8264827000000037
0.7649443000000021 0.7632460000000024 0.8272153000000037
0.7678414000000021 0.7648111000000024 0.8290135000000036
0.7691734000000021 0.7651108000000024 0.8304787000000037
0.7709383000000021 0.7643782000000025 0.8324434000000037
0.770838400000002 0.7639120000000025 0.8339752000000037
0.772203700000002 0.7652773000000025 0.8357401000000036
0.7736689000000021 0.7671421000000025 0.8385373000000037
0.7752340000000021 0.7686406000000024 0.8398360000000037
0.7766326000000021 0.7679413000000025 0.8413012000000037
0.7767658000000022 0.7695397000000025 0.8409016000000037
0.7774984000000021 0.7692067000000025 0.8430661000000037
0.7778314000000022 0.7702723000000025 0.8439985000000038
0.7800292000000022 0.7710715000000025 0.8463295000000037
0.7820272000000023 0.7725034000000025 0.8468290000000037
0.7823269000000023 0.7744681000000025 0.8460298000000037
0.7828264000000023 0.7734691000000026 0.8456968000000037
0.7818274000000023 0.7736023000000026 0.8458966000000037
0.7837921000000023 0.7728697000000027 0.8477281000000036
0.7861897000000023 0.7737688000000027 0.8467291000000037
0.7878214000000023 0.7749343000000027 0.8471287000000037
0.7895530000000024 0.7752340000000028 0.8469955000000037
0.7906852000000024 0.7754005000000027 0.8491267000000037
0.7898860000000024 0.7780978000000027 0.8506585000000036
0.7914511000000024 0.7773652000000028 0.8507251000000037
0.7917841000000024 0.7779646000000028 0.8501257000000036
0.7917508000000024 0.7792633000000028 0.8512912000000037
0.7919839000000024 0.7800958000000028 0.8504254000000037
0.7915843000000023 0.7790968000000028 0.8504254000000037
0.7929163000000023 0.7805953000000028 0.8510248000000037
0.7943149000000024 0.7793965000000027 0.8512246000000037
0.7956136000000024 0.7799626000000027 0.8519905000000036
0.7955137000000023 0.7822270000000028 0.8517907000000037
0.7963129000000023 0.7826932000000028 0.8544880000000037
0.7966792000000024 0.7819606000000028 0.8554204000000037
0.7956469000000024 0.7815277000000028 0.8564527000000037
0.7958467000000023 0.7812946000000028 0.8564194000000037
0.7963795000000023 0.7816609000000029 0.8563861000000037
0.7962796000000023 0.7840918000000029 0.8563528000000037
0.7968457000000023 0.7855237000000029 0.8578513000000036
0.7982443000000023 0.7865560000000029 0.8594830000000037
0.7994431000000024 0.7865560000000029 0.8617807000000036
0.8011081000000024 0.7896529000000029 0.8617807000000036
0.8020072000000025 0.7909183000000028 0.8633125000000036
0.8018074000000025 0.7905187000000028 0.8661430000000035
0.8036056000000025 0.7920838000000028 0.8664094000000035
0.8028064000000025 0.7947811000000028 0.8671420000000035
0.8024734000000024 0.7968790000000028 0.8688070000000035
0.8030395000000025 0.7977448000000028 0.8686072000000036
0.8033392000000025 0.7971121000000028 0.8676748000000035
0.8032393000000024 0.7969789000000027 0.8686072000000036
0.8062696000000025 0.7989769000000028 0.8686738000000036
0.8061364000000024 0.8007085000000028 0.8691400000000036
0.8067691000000025 0.7998760000000028 0.8708716000000036
0.8095330000000025 0.8031394000000028 0.8719039000000036
0.8116975000000025 0.8030728000000028 0.8740018000000036
0.8130961000000025 0.8030062000000028 0.8762329000000036
0.8136622000000026 0.8046046000000028 0.8767990000000037
0.8152606000000026 0.8058367000000027 0.8789968000000037
0.8167258000000026 0.8064694000000028 0.8804287000000037
0.8176915000000026 0.8083009000000028 0.8809282000000037
0.8193232000000026 0.8093665000000028 0.8827597000000037
0.8187571000000026 0.8107651000000028 0.8845246000000037
0.8179246000000026 0.8129962000000028 0.8843581000000037
0.8181244000000025 0.8125633000000029 0.8857900000000037
0.8192233000000025 0.8149276000000029 0.8859565000000037
0.8216542000000026 0.8145280000000028 0.8881543000000037
0.8229196000000025 0.8166592000000028 0.8898193000000038
0.8251840000000026 0.8172253000000028 0.8918839000000037
0.8268157000000026 0.8164927000000028 0.8920504000000037
0.8269822000000026 0.8183575000000028 0.8924833000000036
0.8272153000000025 0.8200558000000029 0.8943148000000036
0.8299126000000026 0.8194897000000029 0.8965126000000037
0.8309782000000026 0.8191234000000028 0.8965792000000037
0.8331427000000026 0.8179579000000028 0.8958799000000037
0.8331427000000026 0.8195896000000028 0.8965792000000037
