0.0106327 0.011998 0.0097336
0.0127639 0.0121645 0.0118648
0.013996 0.0124642 0.0129304
0.0149284 0.0130636 0.0153613
0.0170596 0.0135964 0.0167599
0.0182251 0.0132967 0.0168931
0.0204229 0.0156943 0.0177256
0.0220879 0.0161605 0.0178255
0.0235531 0.0191908 0.0187912
0.0245521 0.0191242 0.0206227
0.0259507 0.0202897 0.0221212
0.0253846 0.020989 0.02332
0.0258508 0.0221545 0.0246187
0.0269497 0.0226207 0.024985
0.0274159 0.0235198 0.0268831
0.0304129 0.02332 0.029314
0.0334099 0.0242857 0.0300133
0.0352747 0.0246187 0.02998
0.0345754 0.0253846 0.030313
0.0364069 0.0276823 0.0297802
0.0381718 0.0304795 0.0320779
0.0398035 0.0322777 0.0313786
0.0401032 0.0333433 0.0312454
0.0423676 0.0342424 0.0325774
0.044965 0.0358741 0.0340093
0.0465301 0.0367732 0.0347752
0.0466633 0.0356077 0.0363736
0.0488611 0.0379054 0.0378388
0.0491608 0.03997 0.039637
0.0482284 0.0421012 0.0403363
0.0485614 0.0411355 0.0418348
0.0490609 0.0417349 0.0417016
0.0494605 0.0425674 0.0441325
0.0504928 0.0446653 0.0447985
0.0507259 0.0451648 0.0449317
0.0516916 0.046297 0.0465967
0.0537562 0.0453646 0.0461305
0.0536896 0.0483616 0.0462304
0.0561205 0.0496936 0.0490609
0.0580519 0.0520579 0.0505594
0.060116499999999996 0.0530236 0.0504928
0.060449499999999996 0.0520579 0.0505261
0.059217399999999996 0.0513586 0.0507259
0.059550399999999996 0.0520579 0.0526573
0.059217399999999996 0.0535564 0.0512587
0.061348599999999996 0.0538894 0.0502264
0.061614999999999996 0.0541891 0.0519247
0.062480799999999996 0.0553879 0.0548884
0.061515099999999996 0.0557542 0.0552547
0.060349599999999996 0.055621 0.0563869
0.059583699999999996 0.0574525 0.0568198
0.062047899999999996 0.058584699999999997 0.0558874
0.062114499999999996 0.058950999999999996 0.054622
0.062480799999999996 0.059350599999999996 0.0548218
0.061248699999999996 0.059450499999999996 0.0565867
0.061748199999999996 0.0582517 0.0559873
0.062147799999999996 0.059616999999999996 0.0555211
0.0636796 0.059949999999999996 0.0567532
0.0654778 0.061947999999999996 0.059783499999999996
0.065944 0.063613 0.060316299999999996
0.0681418 0.0651115 0.060382899999999996
0.0675757 0.0653446 0.0627139
0.0685747 0.0650782 0.0626473
0.0675424 0.0647785 0.0640126
0.06661 0.0647452 0.0640792
0.0671761 0.0659107 0.066277
0.0687745 0.0652447 0.0661105
0.0674092 0.0665101 0.0686746
0.0704395 0.0678754 0.0702064
0.0712387 0.0676756 0.0690076
0.0709057 0.069274 0.0704062
0.0708058 0.0719713 0.0708724
0.07327 0.0725041 0.0718048
0.0727705 0.0726706 0.0721378
0.0738361 0.0718714 0.0722377
0.0730036 0.0721378 0.0732034
0.0753013 0.0737362 0.0734032
0.0768331 0.0750016 0.0742357
0.0762004 0.0769663 0.0755344
0.0780319 0.0794305 0.0764335
0.077932 0.0805294 0.0793306
0.0791641 0.0793639 0.0810289
0.0785314 0.0787312 0.081928
0.0784981 0.0797635 0.0826606
0.0788311 0.0788977 0.0815284
0.0804628 0.0792307 0.0832933
0.0826606 0.0788977 0.0844255
0.0849583 0.0808957 0.0836929
0.0873892 0.0807958 0.0856576
0.0864901 0.0795637 0.0873892
0.0891208 0.0821278 0.0878221
0.0896203 0.0836596 0.0887212
0.0918514 0.0826606 0.0903862
0.0922843 0.0835264 0.0908857
0.092251 0.0846919 0.0911188
0.0907525 0.0863236 0.0925174
0.090586 0.0878221 0.094249
0.0898534 0.087922 0.0940825
0.0914851 0.0873892 0.0936496
0.0901864 0.0880552 0.0955477
0.0924175 0.0899866 0.096247
0.0950815 0.0893872 0.0952813
0.0954478 0.0887545 0.0973792
0.0957475 0.0883549 0.0973459
0.0962803 0.0894871 0.0981784
0.0977788 0.0924508 0.0998767
0.0972793 0.0939493 0.1020745
0.0990109 0.09325 0.1007758
0.0998434 0.0933832 0.1002763
0.1011754 0.0948151 0.1029736
0.1022743 0.0935164 0.1055044
0.1033066 0.095581 0.1060039
0.1033399 0.0950815 0.1075024
0.1031068 0.0953146 0.1066366
0.1036729 0.0974458 0.1061038
0.1028404 0.0983449 0.1075357
0.1046053 0.0970462 0.1094671
0.1063702 0.0967798 0.1090342
0.1059373 0.0987778 0.1092007
0.1071361 0.1009423 0.1094338
0.1071694 0.1003096 0.1111987
0.1077355 0.1009423 0.1118647
0.1085014 0.1001431 0.1134298
0.1105993 0.1007758 0.1155277
0.1114984 0.102241 0.1162603
0.1129636 0.1011754 0.1156609
0.1135297 0.1026073 0.1157608
0.1126972 0.102241 0.117559
0.1143622 0.1017415 0.1183249
0.114229 0.1013086 0.1201897
0.1166599 0.1030069 0.1221544
0.1165933 0.1029736 0.1215883
0.1176589 0.1043389 0.1224208
0.1200565 0.106237 0.1226539
0.1206559 0.1065034 0.124219
0.1224874 0.1083349 0.1244521
0.12322 0.1093006 0.125551
0.1240858 0.1097002 0.1263835
0.1262836 0.1117648 0.1271161
0.1280485 0.1136296 0.13007980000000002
0.12828160000000002 0.1137961 0.13107880000000002
0.12821500000000002 0.1160272 0.13324330000000004
0.12881440000000002 0.1162603 0.13311010000000004
0.12951370000000004 0.1176589 0.13357630000000004
0.13021300000000005 0.1194571 0.13294360000000002
0.13234420000000005 0.1225207 0.13340980000000002
0.13211110000000004 0.1221544 0.13547440000000002
0.13390930000000004 0.1227205 0.13737250000000004
0.13477510000000004 0.1247185 0.13663990000000004
0.13637350000000004 0.1237195 0.13540780000000002
0.13927060000000005 0.1244854 0.1345087
0.14253400000000005 0.1250515 0.13474180000000002
0.14113540000000005 0.12521800000000002 0.13690630000000004
0.14313340000000005 0.12698290000000004 0.13953700000000005
0.14386600000000005 0.12568420000000002 0.14046940000000005
0.14369950000000004 0.1250515 0.14136850000000006
0.14270050000000004 0.12458530000000001 0.14300020000000008
0.14210110000000004 0.1263169 0.1446985000000001
0.14456530000000004 0.1259839 0.1446985000000001
0.14636350000000004 0.12628360000000002 0.1449649000000001
0.14669650000000004 0.12791530000000004 0.1476955000000001
0.14752900000000005 0.12981340000000005 0.14732920000000008
0.14966020000000005 0.12981340000000005 0.14726260000000008
0.15052600000000005 0.13074580000000005 0.1472959000000001
0.15305680000000005 0.13131190000000006 0.1487611000000001
0.15538780000000005 0.13001320000000005 0.1484281000000001
0.15618700000000005 0.12997990000000004 0.1484281000000001
0.15502150000000003 0.13117870000000004 0.14839480000000008
0.15458860000000002 0.13360960000000005 0.15092560000000008
0.15405580000000002 0.13567420000000005 0.15085900000000008
0.15512140000000002 0.13597390000000006 0.14992660000000008
0.15678640000000002 0.13580740000000005 0.15159160000000008
0.15665320000000002 0.13747240000000005 0.15152500000000008
0.15558760000000002 0.13863790000000006 0.1525573000000001
0.15681970000000003 0.14013640000000008 0.1531234000000001
0.15675310000000003 0.1412353000000001 0.1542556000000001
0.15658660000000002 0.14093560000000008 0.1542556000000001
0.15881770000000003 0.1411021000000001 0.15535450000000012
0.16021630000000003 0.1426672000000001 0.15711940000000013
0.16044940000000005 0.14283370000000012 0.15911740000000013
0.16168150000000006 0.14419900000000013 0.16014970000000014
0.16218100000000008 0.14300020000000013 0.16171480000000016
0.1642789000000001 0.14339980000000013 0.16278040000000016
0.1644121000000001 0.14449870000000015 0.16224760000000016
0.1667431000000001 0.14469850000000015 0.16144840000000016
0.1685746000000001 0.14486500000000016 0.16224760000000016
0.1684414000000001 0.14573080000000016 0.16118200000000016
0.1685746000000001 0.14766220000000016 0.16391260000000016
0.1677754000000001 0.14829490000000017 0.16654330000000017
0.1676755000000001 0.1497934000000002 0.16641010000000017
0.1691074000000001 0.1516249000000002 0.16571080000000016
0.1687078000000001 0.1544887000000002 0.16561090000000014
0.1713052000000001 0.15578740000000021 0.16694290000000014
0.17180470000000012 0.15808510000000023 0.16757560000000016
0.1717714000000001 0.15945040000000024 0.16997320000000016
0.17360290000000012 0.15965020000000024 0.16930720000000016
0.17496820000000013 0.16058260000000024 0.16984000000000016
0.17616700000000013 0.16211440000000024 0.17120530000000017
0.17673310000000014 0.16291360000000024 0.17253730000000017
0.17536780000000013 0.16551100000000024 0.17376940000000018
0.17406910000000012 0.16724260000000024 0.1748683000000002
0.17556760000000013 0.16900750000000025 0.17396920000000018
0.17779870000000014 0.16987330000000025 0.17450200000000018
0.17999650000000014 0.16970680000000024 0.17406910000000017
0.18066250000000014 0.16897420000000024 0.17553430000000017
0.17959690000000014 0.16830820000000024 0.17676640000000018
0.18126190000000014 0.16757560000000024 0.17856460000000018
0.18379270000000014 0.16804180000000024 0.1791307000000002
0.18419230000000014 0.16734250000000023 0.1790641000000002
0.18718930000000014 0.16814170000000023 0.1794970000000002
0.18908740000000016 0.16880770000000023 0.1783315000000002
0.18982000000000016 0.17000650000000023 0.1799299000000002
0.19098550000000017 0.16867450000000023 0.1793971000000002
0.19155160000000018 0.17063920000000024 0.1802962000000002
0.1945153000000002 0.17017300000000024 0.18179470000000023
0.1952479000000002 0.16927390000000023 0.1811620000000002
0.1955809000000002 0.16964020000000024 0.18146170000000023
0.1971793000000002 0.17263720000000024 0.18342640000000024
0.1983115000000002 0.17496820000000024 0.18602380000000024
0.2003095000000002 0.17653330000000025 0.18792190000000025
0.2002429000000002 0.17739910000000025 0.19011970000000025
0.2014417000000002 0.17799850000000025 0.18972010000000025
0.2036062000000002 0.17839810000000025 0.19185130000000025
0.2041390000000002 0.17723260000000024 0.19334980000000027
0.2040058000000002 0.17826490000000025 0.19558090000000028
0.2032399000000002 0.17846470000000025 0.19651330000000028
0.2034064000000002 0.17999650000000025 0.19877770000000028
0.2031400000000002 0.17969680000000024 0.19957690000000028
0.2042056000000002 0.17973010000000025 0.20210770000000028
0.2049382000000002 0.18212770000000025 0.20194120000000026
0.2047051000000002 0.18262720000000027 0.20420560000000026
0.2049049000000002 0.18349300000000027 0.20660320000000026
0.2069695000000002 0.18232750000000025 0.20663650000000028
0.2089009000000002 0.18176140000000024 0.2082682000000003
0.2082349000000002 0.18236080000000024 0.2092339000000003
0.20753560000000018 0.18432550000000025 0.21146500000000032
0.20750230000000017 0.18455860000000027 0.2106991000000003
0.20943370000000017 0.18662320000000027 0.2095003000000003
0.20910070000000017 0.18718930000000028 0.20953360000000032
0.20976670000000017 0.18972010000000028 0.21063250000000033
0.21139840000000018 0.1919512000000003 0.21303010000000033
0.21206440000000018 0.1928170000000003 0.21279700000000032
0.2151613000000002 0.1922176000000003 0.21376270000000033
0.2168929000000002 0.1932166000000003 0.21492820000000035
0.2177254000000002 0.1943821000000003 0.21612700000000035
0.21869110000000022 0.1959805000000003 0.21895750000000036
0.21872440000000024 0.19667980000000032 0.22132180000000037
0.22098880000000024 0.19934380000000032 0.2226871000000004
0.22108870000000025 0.20027620000000032 0.2251846000000004
0.22152160000000026 0.20034280000000032 0.22575070000000041
0.22351960000000026 0.20184130000000033 0.22721590000000041
0.22208770000000025 0.20140840000000032 0.22734910000000041
0.22385260000000026 0.20264050000000033 0.2271160000000004
0.22478500000000026 0.20370610000000033 0.22721590000000041
0.22468510000000025 0.20527120000000035 0.22741570000000041
0.22721590000000025 0.20637010000000036 0.22818160000000043
0.22734910000000025 0.20647000000000038 0.22804840000000043
0.22848130000000025 0.20813500000000038 0.22721590000000041
0.22954690000000025 0.20840140000000038 0.22791520000000043
0.22981330000000025 0.2092339000000004 0.22914730000000044
0.23227750000000025 0.2107324000000004 0.23041270000000044
0.23347630000000025 0.21229750000000042 0.23287690000000044
0.23294350000000025 0.21386260000000043 0.23437540000000046
0.23377600000000026 0.21632680000000043 0.23730580000000046
0.23550760000000026 0.21739240000000043 0.23863780000000046
0.23740570000000027 0.21732580000000043 0.24000310000000047
0.23617360000000026 0.21885760000000043 0.24063580000000048
0.23697280000000026 0.21952360000000043 0.2428669000000005
0.23723920000000026 0.22158820000000043 0.2425339000000005
0.23913730000000027 0.22242070000000044 0.2436661000000005
0.24160150000000027 0.22242070000000044 0.2439658000000005
0.24393250000000027 0.22292020000000046 0.24426550000000052
0.24243400000000026 0.22461850000000047 0.24426550000000052
0.24409900000000026 0.22661650000000047 0.24566410000000052
0.24489820000000026 0.22714930000000047 0.24589720000000054
0.24486490000000025 0.22671640000000046 0.24559750000000052
0.24546430000000025 0.22731580000000046 0.24779530000000052
0.24722920000000026 0.22981330000000047 0.24802840000000054
0.24669640000000026 0.22944700000000046 0.25019290000000055
0.24929380000000026 0.22974670000000047 0.25095880000000054
0.24999310000000027 0.23067910000000047 0.25162480000000054
0.2508589000000003 0.23127850000000047 0.25179130000000055
0.2525239000000003 0.23390920000000048 0.25348960000000054
0.2538892000000003 0.23424220000000048 0.25495480000000054
0.25352290000000033 0.23683960000000048 0.25562080000000054
0.25438870000000036 0.2386045000000005 0.2546218000000005
0.25428880000000037 0.2397700000000005 0.2552878000000005
0.25468840000000037 0.24080230000000052 0.2572525000000005
0.25642000000000037 0.24123520000000054 0.2587843000000005
0.2569861000000004 0.24206770000000055 0.2617147000000005
0.25681960000000037 0.24146830000000055 0.2630134000000005
0.25838470000000036 0.24306670000000055 0.2635462000000005
0.25751890000000033 0.24389920000000057 0.26427880000000054
0.2586844000000003 0.24536440000000057 0.2653111000000005
0.2605159000000003 0.24639670000000058 0.2659771000000005
0.2617480000000003 0.24846130000000058 0.2654443000000005
0.2615815000000003 0.24836140000000057 0.26494480000000054
0.2624806000000003 0.25019290000000055 0.26551090000000055
0.2626471000000003 0.2523907000000006 0.26614360000000054
0.2636794000000003 0.25155820000000056 0.2687743000000005
0.2653111000000003 0.2515915000000006 0.2686411000000005
0.2665432000000003 0.25289020000000056 0.2707723000000005
0.2682415000000003 0.25282360000000054 0.2718046000000005
0.2714716000000003 0.25335640000000054 0.2727037000000005
0.2711386000000003 0.25325650000000055 0.2737360000000005
0.2737027000000003 0.2558539000000006 0.27353620000000045
0.2752345000000003 0.2567863000000006 0.27580060000000045
0.2761336000000003 0.2569528000000006 0.27756550000000046
0.2769328000000003 0.2583847000000006 0.2771992000000005
0.2789641000000003 0.2587843000000006 0.2765665000000005
0.2792305000000003 0.2595835000000006 0.2785978000000005
0.2790307000000003 0.25845130000000055 0.27973000000000053
0.2804293000000003 0.25965010000000055 0.27963010000000055
0.28099540000000034 0.26084890000000055 0.27959680000000053
0.28276030000000035 0.26268040000000054 0.27843130000000055
0.2814949000000003 0.26427880000000054 0.28026280000000053
0.2811952000000003 0.26564410000000055 0.28152820000000056
0.2824939000000003 0.26541100000000056 0.28362610000000055
0.2832598000000003 0.26674300000000056 0.28672300000000056
0.2855908000000003 0.26924050000000055 0.2895535000000006
0.2866231000000003 0.27097210000000055 0.2924839000000006
0.2885212000000003 0.27310330000000055 0.2935828000000006
0.2871892000000003 0.2751679000000006 0.2947150000000006
0.2880217000000003 0.2740024000000006 0.29611360000000064
0.28862110000000035 0.2737027000000006 0.29554750000000063
0.29061910000000035 0.27243730000000055 0.29541430000000063
0.28958680000000037 0.2729035000000006 0.29654650000000066
0.29128510000000035 0.2718712000000006 0.29664640000000064
0.29211760000000037 0.2737027000000006 0.29767870000000063
0.2952478000000004 0.27287020000000056 0.29731240000000064
0.2971792000000004 0.27336970000000055 0.29747890000000066
0.29857780000000045 0.27420220000000056 0.29734570000000066
0.29894410000000043 0.2746684000000006 0.29811160000000064
0.3013084000000004 0.2773324000000006 0.29677960000000064
0.3025072000000004 0.2785978000000006 0.29990980000000067
0.3030067000000004 0.2775988000000006 0.3009088000000007
0.3051046000000004 0.2784646000000006 0.2998099000000007
0.3074356000000004 0.2789641000000006 0.29894410000000066
0.3081016000000004 0.2791972000000006 0.30137500000000067
0.3073024000000004 0.2800630000000006 0.30400570000000066
0.30800170000000043 0.2818945000000006 0.30603700000000067
0.30806830000000046 0.2834929000000006 0.3059371000000007
0.30979990000000046 0.28382590000000063 0.30523780000000067
0.31193110000000046 0.28239400000000064 0.30410560000000064
0.31442860000000045 0.28209430000000063 0.30400570000000066
0.3162268000000005 0.28276030000000063 0.30480490000000066
0.3170926000000005 0.2857906000000006 0.30690280000000064
0.3172258000000005 0.28742230000000063 0.30970000000000064
0.3195235000000005 0.28815490000000066 0.3096334000000006
0.32065570000000054 0.28912060000000067 0.3103327000000006
0.32391910000000057 0.29085220000000067 0.31076560000000064
0.32378590000000057 0.29015290000000066 0.30986650000000066
0.32391910000000057 0.28932040000000064 0.3112651000000007
0.3246184000000006 0.29205100000000067 0.3139957000000007
0.32684950000000057 0.2939824000000007 0.3157606000000007
0.32734900000000056 0.2947816000000007 0.3174589000000007
0.32714920000000053 0.2938825000000007 0.31978990000000074
0.32981320000000053 0.2939158000000007 0.32235400000000075
0.32984650000000054 0.29518120000000075 0.32351950000000074
0.32991310000000057 0.29614690000000077 0.3234529000000007
0.33204430000000057 0.2975122000000008 0.3250513000000007
0.3337093000000006 0.29691280000000075 0.3264832000000007
0.3351745000000006 0.29691280000000075 0.3287809000000007
0.3367729000000006 0.2977786000000008 0.3302461000000007
0.3369394000000006 0.2972791000000008 0.3298132000000007
0.3359071000000006 0.2967796000000008 0.3311452000000007
0.3367063000000006 0.2984779000000008 0.3334429000000007
0.33620680000000064 0.2994103000000008 0.3334096000000007
0.3365731000000006 0.2992438000000008 0.3361402000000007
0.3364399000000006 0.30027610000000077 0.33630670000000074
0.3372391000000006 0.3030067000000008 0.3378718000000007
0.33887080000000064 0.3043720000000008 0.3374056000000007
0.34076890000000065 0.30736900000000084 0.3395035000000007
0.34253380000000067 0.3073024000000008 0.33933700000000067
0.3436327000000007 0.3085012000000008 0.3397699000000007
0.3432664000000007 0.3105325000000008 0.34226740000000067
0.3439990000000007 0.3123973000000008 0.34359940000000067
0.3446650000000007 0.31366270000000085 0.3450979000000007
0.3442654000000007 0.31296340000000084 0.34639660000000067
0.3445318000000007 0.3123640000000008 0.3469627000000007
0.34429870000000073 0.3131632000000008 0.34852780000000066
0.34376590000000073 0.31429540000000084 0.34879420000000066
0.34526440000000075 0.3127969000000008 0.34849450000000065
0.34459840000000075 0.3126304000000008 0.34772860000000066
0.3459970000000008 0.3117979000000008 0.34959340000000066
0.3474955000000008 0.3131965000000008 0.3497932000000007
0.3499264000000008 0.3120643000000008 0.3523240000000007
0.3523573000000008 0.3143953000000008 0.3530899000000007
0.3536893000000008 0.31576060000000084 0.3557872000000007
0.35612020000000083 0.3182581000000008 0.3573856000000007
0.35791840000000086 0.3200896000000008 0.3601495000000007
0.35788510000000084 0.3198232000000008 0.36064900000000066
0.36058240000000086 0.32015620000000083 0.3633463000000007
0.36248050000000087 0.32175460000000083 0.3625804000000007
0.36181450000000087 0.3204892000000008 0.3620809000000007
0.36327970000000087 0.3192904000000008 0.3620476000000007
0.3650779000000009 0.32122180000000083 0.3620809000000007
0.3654442000000009 0.32168800000000086 0.36414550000000073
0.3667762000000009 0.32205430000000085 0.36617680000000075
0.3672424000000009 0.3234529000000009 0.36750880000000075
0.3680416000000009 0.3261169000000009 0.36790840000000075
0.3694735000000009 0.32714920000000086 0.36920710000000073
0.3698731000000009 0.32621680000000086 0.3690406000000007
0.3710386000000009 0.3279817000000009 0.37003960000000075
0.3725038000000009 0.3305458000000009 0.37053910000000073
0.3725371000000009 0.3322108000000009 0.3717046000000007
0.3742021000000009 0.33267700000000094 0.3731365000000007
0.3757672000000009 0.33570730000000093 0.3762334000000007
0.3769993000000009 0.33614020000000094 0.37706590000000073
0.37956340000000094 0.33800500000000094 0.37959670000000073
0.38096200000000097 0.33870430000000096 0.37966330000000076
0.383026600000001 0.33787180000000094 0.3802294000000008
0.383226400000001 0.34006960000000097 0.3829267000000008
0.38422540000000105 0.342001000000001 0.38409220000000077
0.38648980000000105 0.344398600000001 0.38529100000000077
0.38852110000000106 0.346862800000001 0.3859903000000008
0.38958670000000106 0.348727600000001 0.38552410000000076
0.39075220000000105 0.348294700000001 0.3874555000000008
0.38991970000000103 0.347928400000001 0.3896200000000008
0.39225070000000106 0.350958700000001 0.3906523000000008
0.39275020000000105 0.350192800000001 0.39045250000000076
0.39265030000000106 0.351391600000001 0.39218410000000076
0.3926836000000011 0.352590400000001 0.39188440000000074
0.3949813000000011 0.353123200000001 0.39241720000000074
0.3965464000000011 0.35492140000000105 0.39248380000000077
0.39717910000000106 0.35608690000000104 0.39541420000000077
0.3972457000000011 0.35648650000000104 0.39414880000000074
0.3970126000000011 0.35648650000000104 0.39584710000000073
0.3989107000000011 0.35661970000000104 0.39654640000000074
0.39987640000000113 0.35788510000000107 0.39741220000000077
0.40107520000000113 0.3598165000000011 0.3996100000000008
0.4011751000000011 0.3604159000000011 0.4020742000000008
0.4007755000000011 0.36154810000000115 0.40294000000000085
0.4026403000000011 0.36138160000000114 0.40383910000000084
0.4019743000000011 0.36288010000000115 0.40557070000000084
0.4023739000000011 0.36524440000000113 0.40856770000000087
0.40200760000000113 0.3650446000000011 0.4093003000000009
0.40417210000000114 0.36564400000000113 0.4106989000000009
0.40600360000000113 0.3673423000000011 0.4110985000000009
0.40700260000000116 0.3689074000000011 0.4103659000000009
0.40806820000000116 0.3688408000000011 0.4106323000000009
0.40773520000000113 0.3693736000000011 0.4113649000000009
0.41086540000000116 0.3686077000000011 0.4117312000000009
0.41312980000000116 0.3702727000000011 0.4108987000000009
0.4153276000000012 0.3709054000000011 0.4110319000000009
0.4176586000000012 0.3728701000000011 0.4103992000000009
0.41879080000000124 0.3741355000000011 0.4098664000000009
0.4200895000000012 0.37433530000000115 0.4102993000000009
0.4208554000000012 0.37723240000000113 0.41249710000000095
0.4214881000000012 0.38019610000000115 0.41396230000000095
0.4235194000000012 0.38169460000000116 0.41436190000000095
0.4262833000000012 0.38196100000000116 0.4134961000000009
0.4272157000000012 0.38352610000000115 0.4146616000000009
0.4289140000000012 0.38429200000000113 0.4164931000000009
0.42928030000000117 0.3857239000000011 0.4171924000000009
0.42888070000000117 0.38805490000000115 0.4182913000000009
0.42871420000000116 0.38805490000000115 0.42075550000000095
0.43111180000000116 0.38792170000000115 0.422820100000001
0.43034590000000117 0.38952010000000115 0.424018900000001
0.43194430000000117 0.3909187000000012 0.424185400000001
0.43417540000000115 0.39275020000000116 0.425084500000001
0.4355740000000012 0.39241720000000113 0.427082500000001
0.4378717000000012 0.39434860000000116 0.428814100000001
0.4387375000000012 0.3959803000000012 0.430445800000001
0.4401694000000012 0.3971791000000012 0.430445800000001
0.4422673000000012 0.39647980000000116 0.429613300000001
0.4433995000000012 0.39628000000000113 0.432310600000001
0.4433995000000012 0.39681280000000113 0.432743500000001
0.44463160000000124 0.3974455000000011 0.432776800000001
0.44413210000000125 0.3971125000000011 0.43281010000000103
0.4431331000000012 0.3989107000000011 0.433576000000001
0.44409880000000124 0.4003426000000011 0.434874700000001
0.44722900000000126 0.4019743000000011 0.43587370000000103
0.4476952000000013 0.40214080000000113 0.43817140000000104
0.4491271000000013 0.40353940000000116 0.43960330000000103
0.4497265000000013 0.40367260000000116 0.438604300000001
0.4511917000000013 0.40447180000000116 0.438870700000001
0.45338950000000133 0.40607020000000116 0.43920370000000103
0.4529566000000013 0.40756870000000117 0.44123500000000104
0.4552210000000013 0.40940020000000116 0.44180110000000106
0.4554874000000013 0.41033260000000116 0.4434661000000011
0.45512110000000133 0.41076550000000117 0.44369920000000107
0.45585370000000136 0.4098664000000012 0.4464298000000011
0.45715240000000135 0.4117978000000012 0.44583040000000107
0.45612010000000136 0.4128967000000012 0.4454641000000011
0.45598690000000136 0.4119310000000012 0.4469626000000011
0.45661960000000135 0.4141621000000012 0.4488607000000011
0.4584178000000014 0.4149946000000012 0.4508920000000011
0.4571191000000014 0.4157605000000012 0.4502926000000011
0.4568860000000014 0.4177252000000012 0.4504924000000011
0.4576519000000014 0.4191904000000012 0.45105850000000114
0.45691930000000136 0.4194568000000012 0.45269020000000115
0.45945010000000136 0.4216213000000012 0.45172450000000114
0.46221400000000135 0.4230532000000012 0.45362260000000115
0.46194760000000135 0.4248514000000012 0.45495460000000115
0.46231390000000133 0.4259170000000012 0.45691930000000114
0.46301320000000135 0.4271491000000012 0.45602020000000115
0.4638790000000014 0.4271491000000012 0.45605350000000117
0.46288000000000135 0.42868090000000125 0.4551544000000012
0.4644118000000014 0.42984640000000124 0.4575520000000012
0.4656106000000014 0.4297798000000012 0.46004950000000117
0.4656772000000014 0.4300129000000012 0.46071550000000117
0.4672423000000014 0.4291138000000012 0.46254700000000115
0.4681081000000014 0.4285477000000012 0.46317970000000114
0.4680415000000014 0.42754870000000117 0.46451170000000114
0.4680415000000014 0.42754870000000117 0.46630990000000117
0.4688074000000014 0.4293469000000012 0.4679749000000012
0.4702060000000014 0.42834790000000117 0.4676752000000012
0.4703725000000014 0.4274488000000012 0.4696066000000012
0.4726369000000014 0.43034590000000117 0.4705057000000012
0.47426860000000143 0.43191100000000116 0.4694734000000012
0.4762666000000014 0.43334290000000114 0.4704391000000012
0.47899720000000146 0.4335760000000011 0.4724371000000012
0.47956330000000147 0.4343419000000011 0.47233720000000123
0.4816279000000015 0.4361068000000011 0.4749679000000012
0.4828933000000015 0.43723900000000115 0.47713240000000123
0.48292660000000154 0.43803820000000115 0.4790971000000012
0.48292660000000154 0.43953670000000117 0.47979640000000123
0.48375910000000155 0.44100190000000117 0.48206080000000123
0.48535750000000155 0.44180110000000117 0.4810618000000012
0.4842253000000015 0.44136820000000115 0.48272680000000123
0.48332620000000154 0.44313310000000117 0.48319300000000126
0.4827601000000015 0.44429860000000115 0.4856572000000013
0.4826269000000015 0.4463632000000012 0.4865563000000013
0.4832596000000015 0.44589700000000115 0.4868560000000013
0.4848247000000015 0.44816140000000115 0.4890538000000013
0.4862899000000015 0.4480948000000011 0.4893202000000013
0.4854574000000015 0.44799490000000114 0.49081870000000133
0.48432520000000145 0.4479283000000011 0.4929166000000013
0.48645640000000145 0.4485943000000011 0.4942153000000013
0.4859902000000014 0.4494934000000011 0.49681270000000133
0.48682270000000144 0.4493602000000011 0.4982446000000013
0.4873222000000014 0.4505590000000011 0.4995433000000013
0.4875886000000014 0.45022600000000107 0.5013082000000013
0.48628990000000144 0.4522573000000011 0.5011417000000014
0.48782170000000147 0.45368920000000107 0.5012416000000014
0.4881214000000015 0.4549213000000011 0.5028067000000014
0.4883212000000015 0.4552210000000011 0.5026402000000014
0.48971980000000154 0.4562200000000011 0.5028733000000014
0.4892869000000015 0.4576852000000011 0.5043052000000015
0.49161790000000155 0.45775180000000115 0.5031397000000014
0.4931497000000016 0.45785170000000114 0.5037391000000014
0.49218400000000156 0.46024930000000114 0.5050045000000014
0.49361590000000155 0.4595500000000011 0.5066695000000014
0.49324960000000156 0.4608487000000011 0.5089339000000015
0.4942153000000016 0.4601827000000011 0.5103325000000015
0.4943485000000016 0.4604824000000011 0.5115646000000015
0.4947481000000016 0.46104850000000114 0.5122306000000015
0.4954474000000016 0.46164790000000117 0.5146615000000015
0.4955806000000016 0.4640788000000012 0.5149612000000016
0.4971790000000016 0.46311310000000117 0.5171590000000016
0.4963465000000016 0.46427860000000115 0.5162932000000016
0.4972789000000016 0.46587700000000115 0.5162266000000015
0.4978450000000016 0.46757530000000114 0.5150278000000015
0.4998097000000016 0.46797490000000114 0.5161267000000015
0.5002093000000016 0.46867420000000115 0.5160601000000015
0.5015746000000016 0.4710052000000012 0.5158603000000015
0.5014081000000017 0.47230390000000116 0.5174920000000015
0.5030065000000017 0.47310310000000116 0.5199895000000015
0.5033062000000017 0.4742353000000012 0.5198563000000015
0.5021074000000016 0.4770991000000012 0.5193901000000015
0.5041054000000017 0.4774654000000012 0.5204224000000015
0.5049379000000017 0.4766995000000012 0.5218210000000015
0.5063365000000017 0.4781647000000012 0.5237524000000016
0.5082346000000018 0.4798630000000012 0.5265163000000016
0.5101993000000018 0.4817611000000012 0.5272822000000016
0.5103325000000019 0.4830931000000012 0.5256838000000016
0.5096332000000019 0.48259360000000123 0.5251843000000016
0.5104657000000019 0.48222730000000125 0.5267494000000016
0.5106988000000019 0.48146140000000126 0.5281480000000016
0.5097997000000019 0.48262690000000125 0.5288806000000016
0.5096332000000019 0.48405880000000123 0.5289139000000016
0.5112982000000019 0.48449170000000125 0.5312782000000016
0.5125303000000019 0.48648970000000125 0.5301460000000016
0.5140954000000019 0.4884211000000013 0.5317777000000016
0.5141287000000019 0.4902859000000013 0.5332429000000016
0.5142286000000019 0.49198420000000126 0.5358403000000016
0.5138290000000019 0.4922839000000013 0.5377384000000016
0.5166928000000018 0.4927501000000013 0.5373388000000016
0.5161267000000018 0.4937824000000013 0.5398030000000016
0.5169259000000018 0.4962799000000013 0.5400361000000016
0.5187241000000018 0.4973455000000013 0.5394034000000015
0.5177584000000018 0.4985443000000013 0.5405689000000016
0.5173921000000018 0.5004757000000013 0.5417677000000016
0.5189905000000018 0.5001427000000013 0.5429665000000017
0.5180248000000018 0.5012416000000013 0.5443318000000017
0.5180914000000019 0.5009752000000013 0.5467960000000017
0.5196232000000018 0.5029399000000013 0.5493268000000018
0.5191237000000019 0.5027401000000014 0.5490604000000018
0.5194234000000019 0.5036392000000014 0.5486941000000017
0.5190904000000018 0.5042386000000014 0.5495266000000018
0.5200894000000018 0.5045050000000014 0.5508919000000018
0.5226868000000018 0.5065363000000014 0.5524903000000018
0.5226868000000018 0.5080015000000014 0.5542552000000017
0.5238523000000018 0.5100994000000014 0.5540554000000018
0.5251510000000018 0.5125969000000015 0.5546881000000018
0.5276152000000018 0.5139289000000015 0.5553208000000018
0.5293135000000019 0.5159602000000014 0.5559202000000019
0.5297131000000019 0.5164597000000014 0.5575852000000019
0.531078400000002 0.5192902000000014 0.5593501000000018
0.5310451000000019 0.5192236000000013 0.5613148000000019
0.5304124000000019 0.5194900000000013 0.562513600000002
0.530812000000002 0.5214214000000014 0.564511600000002
0.531444700000002 0.5235859000000014 0.563912200000002
0.532210600000002 0.5264164000000013 0.566409700000002
0.533509300000002 0.5282479000000013 0.566576200000002
0.532810000000002 0.5301127000000013 0.566942500000002
0.534341800000002 0.5289472000000013 0.5694400000000021
0.533908900000002 0.5297797000000013 0.570938500000002
0.535240900000002 0.5306122000000013 0.571937500000002
0.535740400000002 0.5309452000000013 0.574734700000002
0.5372056000000021 0.5301460000000013 0.574135300000002
0.539037100000002 0.5306788000000013 0.573202900000002
0.5388040000000021 0.5318110000000014 0.573269500000002
0.5394700000000021 0.5324437000000014 0.573502600000002
0.5392702000000021 0.5338423000000014 0.575101000000002
0.5383711000000021 0.5358403000000015 0.575633800000002
0.5406355000000022 0.5384044000000014 0.576566200000002
0.5405023000000021 0.5382046000000015 0.576865900000002
0.5424337000000021 0.5402026000000015 0.578697400000002
0.5423338000000021 0.5421007000000015 0.5796298000000021
0.5451976000000021 0.5430331000000016 0.5807953000000021
0.5465629000000021 0.5428999000000015 0.5809951000000021
0.5460301000000021 0.5456638000000016 0.5809618000000021
0.546995800000002 0.5475952000000016 0.5812282000000021
0.547428700000002 0.5490271000000017 0.5806621000000021
0.549027100000002 0.5492602000000016 0.5813281000000021
0.549859600000002 0.5504257000000017 0.5823604000000021
0.550558900000002 0.5520574000000017 0.5838256000000022
0.552290500000002 0.5536891000000017 0.5836258000000022
0.553522600000002 0.5537224000000017 0.5850910000000022
0.554588200000002 0.5548879000000018 0.5863231000000022
0.5542219000000019 0.5554540000000018 0.5862232000000022
0.553222900000002 0.5578516000000018 0.5866561000000021
0.552157300000002 0.5603491000000018 0.5894866000000021
0.552956500000002 0.5615146000000019 0.5899861000000021
0.552923200000002 0.5620474000000019 0.589686400000002
0.553189600000002 0.5621806000000019 0.5907853000000021
0.553822300000002 0.565210900000002 0.593915500000002
0.555953500000002 0.566842600000002 0.5926834000000021
0.557452000000002 0.567375400000002 0.5943484000000021
0.559949500000002 0.569073700000002 0.5949145000000021
0.560282500000002 0.570472300000002 0.5961133000000022
0.5617144000000021 0.573569200000002 0.5973121000000022
0.5625469000000021 0.574867900000002 0.6000760000000023
0.5633128000000021 0.574634800000002 0.6013414000000022
0.564012100000002 0.575234200000002 0.6023404000000022
0.562746700000002 0.574201900000002 0.6045715000000023
0.5646781000000021 0.5748679000000021 0.6062032000000023
0.5647780000000021 0.5764663000000021 0.6065362000000023
0.5643118000000021 0.5769991000000021 0.6071356000000023
0.5639122000000021 0.576599500000002 0.6082678000000024
0.5643118000000021 0.5751010000000021 0.6089338000000024
0.5656105000000021 0.5762998000000021 0.6105322000000024
0.5655106000000021 0.5759335000000021 0.6125302000000025
0.5642452000000021 0.5764663000000021 0.6128965000000025
0.5639122000000021 0.5779981000000021 0.6134293000000025
0.5639455000000021 0.578231200000002 0.6136291000000025
0.5660101000000021 0.5779981000000021 0.6131962000000025
0.568574200000002 0.580096000000002 0.6149611000000025
0.571171600000002 0.578697400000002 0.6146614000000025
0.572237200000002 0.578331100000002 0.6148612000000024
0.571704400000002 0.579529900000002 0.6157270000000025
0.571537900000002 0.581827600000002 0.6177916000000024
0.572004100000002 0.582460300000002 0.6175918000000025
0.5721373000000021 0.5849578000000021 0.6183910000000025
0.5732362000000021 0.5868559000000021 0.6184243000000025
0.5738023000000021 0.5869891000000022 0.6212881000000025
0.5756671000000021 0.5899861000000022 0.6218542000000025
0.5749345000000021 0.5890204000000022 0.6237523000000025
0.5746015000000021 0.5899195000000023 0.6267826000000025
0.575034400000002 0.5912515000000023 0.6263164000000025
0.5759668000000021 0.5930164000000022 0.6264496000000026
0.5777650000000021 0.5949478000000022 0.6288472000000026
0.5779981000000021 0.5973121000000022 0.6302125000000026
0.577332100000002 0.5991103000000022 0.6325768000000026
0.577498600000002 0.6000427000000023 0.6317776000000026
0.5773654000000019 0.6016078000000022 0.6317776000000026
0.5789638000000019 0.6024736000000023 0.6318109000000026
0.580928500000002 0.6044050000000023 0.6303457000000026
0.580462300000002 0.6056371000000023 0.6302125000000025
0.581661100000002 0.6054706000000023 0.6309118000000025
0.582460300000002 0.6045049000000023 0.6305455000000024
0.5830930000000021 0.6059368000000024 0.6317110000000025
0.5826601000000021 0.6054706000000024 0.6316444000000024
0.5840587000000022 0.6067360000000024 0.6326101000000024
0.5845915000000022 0.6066694000000024 0.6323770000000024
0.5864896000000022 0.6054373000000024 0.6348079000000024
0.5856904000000022 0.6053041000000023 0.6374719000000024
0.5870224000000022 0.6056038000000024 0.6398029000000024
0.5872555000000022 0.6061699000000024 0.6405688000000024
0.5867560000000022 0.6059701000000024 0.6406354000000024
0.5881213000000022 0.6062365000000024 0.6430996000000024
0.5878216000000022 0.6067693000000024 0.6426001000000024
0.5897197000000022 0.6088006000000024 0.6431662000000025
0.5916511000000022 0.6087673000000023 0.6437323000000025
0.5928166000000022 0.6088672000000024 0.6459301000000025
0.5954473000000022 0.6093334000000024 0.6459301000000025
0.5964463000000022 0.6097663000000023 0.6481612000000025
0.5970790000000022 0.6099328000000023 0.6475951000000025
0.5969125000000023 0.6103657000000022 0.6492601000000026
0.5975452000000023 0.6102325000000022 0.6479281000000026
0.5993434000000023 0.6103657000000022 0.6497263000000025
0.6007087000000023 0.6092335000000022 0.6509251000000026
0.6014413000000023 0.6099994000000022 0.6512914000000026
0.6011749000000023 0.6106654000000022 0.6509251000000026
0.6027400000000023 0.6119641000000022 0.6505255000000025
0.6040054000000022 0.6123304000000023 0.6493933000000025
0.6041719000000022 0.6145615000000023 0.6517243000000025
0.6033394000000022 0.6137290000000023 0.6543217000000024
0.6025402000000022 0.6138955000000023 0.6565528000000025
0.6027733000000022 0.6155605000000023 0.6571522000000025
0.6022072000000022 0.6167926000000022 0.6570190000000025
0.6042718000000021 0.6168592000000023 0.6559534000000025
0.6057703000000021 0.6180913000000022 0.6577516000000024
0.605936800000002 0.6181246000000022 0.6581512000000025
0.606436300000002 0.6178249000000022 0.6587506000000025
0.605870200000002 0.6179248000000023 0.6589837000000025
0.608167900000002 0.6195565000000023 0.6589171000000025
0.607302100000002 0.6225535000000023 0.6613480000000025
0.608101300000002 0.6233527000000023 0.6623803000000025
0.608167900000002 0.6250843000000024 0.6639454000000025
0.609266800000002 0.6270157000000024 0.6643117000000025
0.610831900000002 0.6277816000000024 0.6651109000000025
0.610931800000002 0.6282811000000024 0.6657769000000026
0.6131962000000021 0.6301126000000024 0.6658435000000026
0.615527200000002 0.6323437000000024 0.6674752000000026
0.6167260000000021 0.6335425000000025 0.6674086000000026
0.6180913000000021 0.6332761000000025 0.6678082000000026
0.6201226000000021 0.6362065000000025 0.6685408000000026
0.622153900000002 0.6372721000000025 0.6693400000000026
0.6225202000000021 0.6380047000000024 0.6692734000000026
0.6226534000000021 0.6409684000000024 0.6702391000000025
0.6220207000000021 0.6404023000000024 0.6705055000000025
0.6238855000000021 0.6409018000000024 0.6695398000000026
0.6250843000000021 0.6421339000000024 0.6699394000000026
0.6266827000000021 0.6412015000000023 0.6719374000000027
0.6277150000000021 0.6434992000000023 0.6737023000000026
0.6293800000000022 0.6440986000000023 0.6741019000000027
0.6307453000000022 0.6441319000000023 0.6751675000000027
0.6315445000000022 0.6460966000000024 0.6743683000000027
0.6339088000000022 0.6488938000000024 0.6739021000000027
0.6358069000000022 0.6499594000000024 0.6745681000000028
0.6373387000000021 0.6492934000000024 0.6751675000000028
0.6403357000000022 0.6508252000000023 0.6758002000000028
0.6408019000000021 0.6523570000000023 0.6760999000000029
0.6407020000000021 0.6539554000000023 0.6764329000000029
0.6414346000000021 0.6548878000000024 0.6760666000000028
0.643732300000002 0.6569191000000023 0.6785641000000029
0.6449311000000021 0.6577183000000023 0.6771988000000029
0.6444316000000021 0.6605821000000023 0.6783643000000029
0.6475951000000021 0.6630796000000023 0.6799627000000029
0.6499594000000021 0.6642451000000024 0.680362300000003
0.6497263000000021 0.6641785000000023 0.6791968000000029
0.6521239000000021 0.6662098000000023 0.6779980000000029
0.6533227000000021 0.6664096000000023 0.6770989000000028
0.6530896000000022 0.6660100000000022 0.6798628000000029
0.6532894000000021 0.6678748000000022 0.6811282000000028
0.6543217000000021 0.6680413000000022 0.6827599000000029
0.6541885000000021 0.6666760000000022 0.6844582000000029
0.654355000000002 0.6695731000000021 0.6862231000000029
0.6555538000000021 0.6695398000000021 0.6862897000000029
0.6571189000000021 0.6704722000000022 0.6873220000000029
0.658384300000002 0.6694732000000022 0.6884542000000029
0.657318700000002 0.6714712000000023 0.6874885000000029
0.658351000000002 0.6711049000000022 0.688920400000003
0.658517500000002 0.6705388000000022 0.690252400000003
0.658450900000002 0.6709717000000022 0.689486500000003
0.6570523000000019 0.6724369000000022 0.689053600000003
0.659316700000002 0.6720373000000022 0.688654000000003
0.659150200000002 0.6714046000000021 0.690285700000003
0.659882800000002 0.6713380000000021 0.692383600000003
0.662280400000002 0.6731029000000021 0.693182800000003
0.663179500000002 0.6723037000000021 0.695813500000003
0.6649111000000021 0.6729364000000021 0.695780200000003
0.6663430000000021 0.6742351000000021 0.6954805000000029
0.6662098000000021 0.6752674000000021 0.696313000000003
0.667741600000002 0.6759334000000021 0.696945700000003
0.667675000000002 0.6770656000000022 0.699176800000003
0.667908100000002 0.6778315000000021 0.7011748000000031
0.668807200000002 0.6791968000000022 0.6996763000000031
0.671371300000002 0.6785641000000021 0.6991102000000031
0.673569100000002 0.6797962000000021 0.6990436000000031
0.675467200000002 0.6787306000000021 0.6991102000000031
0.6745015000000021 0.6774652000000021 0.7013080000000032
0.6736357000000021 0.6783310000000021 0.7029397000000032
0.674668000000002 0.6774652000000021 0.7050709000000032
0.677531800000002 0.6780979000000021 0.7043050000000032
0.677465200000002 0.6782311000000022 0.7038055000000032
0.677431900000002 0.6800626000000022 0.7052707000000032
0.676599400000002 0.6796297000000022 0.7079347000000032
0.678830500000002 0.6808951000000022 0.7098328000000033
0.679962700000002 0.6803956000000022 0.7097995000000032
0.6826933000000021 0.6808951000000022 0.7103656000000033
0.684757900000002 0.6832594000000022 0.7118641000000032
0.685024300000002 0.6842584000000022 0.7119307000000032
0.686522800000002 0.6839920000000022 0.7112314000000033
0.687621700000002 0.6841918000000021 0.7105321000000033
0.690019300000002 0.6870223000000021 0.7107985000000033
0.692450200000002 0.6888538000000021 0.7118641000000033
0.693549100000002 0.6878548000000021 0.7131628000000033
0.6928498000000021 0.6891535000000021 0.7145281000000033
0.6941485000000021 0.6910849000000021 0.7139287000000033
0.6942151000000021 0.6924169000000021 0.7159933000000033
0.6963796000000021 0.6935158000000021 0.7180246000000032
0.698144500000002 0.6950476000000021 0.7197229000000033
0.6989770000000021 0.6940819000000021 0.7211548000000033
0.7016743000000021 0.6947812000000021 0.7216876000000033
0.701607700000002 0.6971122000000021 0.7217875000000034
0.702373600000002 0.698077900000002 0.7236856000000034
0.7040386000000021 0.698943700000002 0.7239520000000034
0.7052374000000021 0.699909400000002 0.7246180000000034
0.7069024000000022 0.702273700000002 0.7253506000000034
0.7085674000000022 0.704471500000002 0.7284142000000035
0.7109650000000022 0.7032394000000021 0.7309117000000035
0.7103989000000022 0.7051042000000021 0.7309450000000035
0.7098661000000022 0.705337300000002 0.7325101000000035
0.7115977000000022 0.7065028000000021 0.7339420000000035
0.7114645000000022 0.7078015000000021 0.7345081000000035
0.7110649000000021 0.707135500000002 0.7361398000000036
0.7113646000000021 0.708234400000002 0.7355071000000035
0.7122304000000022 0.709999300000002 0.7369390000000036
0.7125967000000022 0.711464500000002 0.7363063000000035
0.7145947000000022 0.714361600000002 0.7373053000000035
0.7148611000000022 0.7165927000000021 0.7395031000000035
0.7166926000000022 0.718124500000002 0.7403356000000035
0.7194565000000023 0.718324300000002 0.7415344000000036
0.7220872000000023 0.717458500000002 0.7436323000000036
0.7234192000000023 0.717891400000002 0.7440319000000036
0.7234858000000023 0.7189237000000019 0.7455637000000036
0.7234192000000023 0.721088200000002 0.7460965000000036
0.7227532000000022 0.720821800000002 0.7479280000000036
0.7249510000000022 0.722153800000002 0.7499260000000036
0.7256503000000022 0.7242517000000019 0.7492267000000037
0.7262164000000022 0.7236856000000019 0.7523569000000037
0.7262164000000022 0.725350600000002 0.7537222000000037
0.7282144000000023 0.7261165000000019 0.7534558000000037
0.7275151000000023 0.7268158000000019 0.7547212000000036
0.7269490000000023 0.7271155000000019 0.7563862000000037
0.7263496000000023 0.7268491000000019 0.7579846000000037
0.7261831000000023 0.7268491000000019 0.7578514000000036
0.7266826000000023 0.7283809000000019 0.7578181000000036
0.7277482000000023 0.7270156000000019 0.7593166000000036
0.7293799000000023 0.7270489000000019 0.7603156000000035
0.7291135000000023 0.7291468000000019 0.7624135000000035
0.7296130000000023 0.7309783000000019 0.7627465000000035
0.7297129000000023 0.7303789000000018 0.7650442000000035
0.7318441000000023 0.7332094000000018 0.7650442000000035
0.7326766000000023 0.7327765000000018 0.7647778000000035
0.7324435000000024 0.7336756000000019 0.7674418000000035
0.7341418000000024 0.7337422000000019 0.7693399000000035
0.7365061000000024 0.7345414000000019 0.7697395000000036
0.7368724000000024 0.7343416000000019 0.7708051000000036
0.7361731000000025 0.734175100000002 0.7708717000000036
0.7371388000000024 0.735007600000002 0.7722037000000036
0.7376716000000024 0.734275000000002 0.7725034000000036
0.7377382000000025 0.7365394000000021 0.7737688000000036
0.7391368000000025 0.7365727000000021 0.7749010000000036
0.7382044000000024 0.7355071000000021 0.7745347000000036
0.7407019000000025 0.7382044000000021 0.7759999000000036
0.7420006000000025 0.7393699000000021 0.7754671000000036
0.7427332000000024 0.7412014000000021 0.7768657000000037
0.7438654000000025 0.7410349000000022 0.7774651000000037
0.7461298000000025 0.7429663000000022 0.7773652000000036
0.7454305000000025 0.7443316000000022 0.7793299000000037
0.7458634000000025 0.7447645000000022 0.7794964000000036
0.7477282000000025 0.7458301000000022 0.7821937000000037
0.7483609000000025 0.7475617000000022 0.7839586000000036
0.7487938000000025 0.7473952000000023 0.7856902000000037
0.7475617000000025 0.7483609000000022 0.7848244000000036
0.7487605000000026 0.7510249000000022 0.7852240000000037
0.7496596000000026 0.7537555000000022 0.7847245000000037
0.7497262000000027 0.7534558000000022 0.7870222000000037
0.7505920000000027 0.7555204000000022 0.7884874000000037
0.7508251000000027 0.7575850000000022 0.7875550000000037
0.7539553000000027 0.7598161000000022 0.7884208000000037
0.7525567000000026 0.7604488000000023 0.7893865000000037
0.7530229000000026 0.7627465000000022 0.7881211000000037
0.7549876000000026 0.7618474000000022 0.7873219000000037
0.7560865000000027 0.7615477000000022 0.7872553000000037
0.7588504000000027 0.7630129000000022 0.7898194000000036
0.7605154000000027 0.7646113000000022 0.7913179000000036
0.7624801000000028 0.7671088000000023 0.7914844000000035
0.7637788000000028 0.7670755000000022 0.7918507000000036
0.7641118000000028 0.7687738000000023 0.7931494000000036
0.7673086000000028 0.7709716000000023 0.7934824000000036
0.7691401000000028 0.7713712000000024 0.7938820000000036
0.7716376000000028 0.7720039000000024 0.7953139000000037
0.7729363000000028 0.7744015000000024 0.7953805000000037
0.7722703000000027 0.7771654000000024 0.7958134000000037
0.7735024000000027 0.7768657000000024 0.7981111000000036
0.7739686000000027 0.7776982000000024 0.7989769000000037
0.7749676000000026 0.7790968000000025 0.7994764000000036
0.7769656000000027 0.7818607000000025 0.7991101000000036
0.7769323000000027 0.7816276000000025 0.8016742000000036
0.7783642000000027 0.7832926000000026 0.8007751000000035
0.7775650000000027 0.7829596000000025 0.8021404000000035
0.7768657000000028 0.7827931000000026 0.8036722000000035
0.7772653000000028 0.7825267000000026 0.8036722000000035
0.7770655000000029 0.7823935000000025 0.8038720000000035
0.7771987000000029 0.7821604000000025 0.8057701000000035
0.7795297000000029 0.7834591000000025 0.8070688000000035
0.7815277000000029 0.7847245000000025 0.8072353000000034
0.7820272000000029 0.7847245000000025 0.8089336000000035
0.7811281000000029 0.7847911000000025 0.8109316000000035
0.7821604000000029 0.7851574000000026 0.8116975000000035
0.7823602000000028 0.7878214000000026 0.8123635000000036
0.7838254000000029 0.7889869000000026 0.8144281000000035
0.7834258000000028 0.7907851000000026 0.8135956000000035
0.7834591000000029 0.7907518000000026 0.8157601000000035
0.7844581000000028 0.7903522000000025 0.8167924000000035
0.7839919000000029 0.7907518000000026 0.8169256000000036
0.7854904000000028 0.7902190000000026 0.8187571000000036
0.7867225000000028 0.7899193000000025 0.8180245000000036
0.7867891000000028 0.7906519000000025 0.8187571000000036
0.7857568000000028 0.7936156000000025 0.8184574000000036
0.7859899000000028 0.7943149000000025 0.8197228000000035
0.7861897000000028 0.7936822000000024 0.8195230000000036
0.7870888000000028 0.7954804000000024 0.8201890000000036
0.7872220000000029 0.7967791000000024 0.8194231000000036
0.7877548000000029 0.7970455000000024 0.8217874000000036
0.7880878000000029 0.7977448000000024 0.8243848000000036
0.7884541000000029 0.7968124000000023 0.8264161000000035
0.788787100000003 0.7966126000000023 0.8289802000000035
0.788554000000003 0.7981444000000023 0.8286805000000035
0.790452100000003 0.7995430000000023 0.8283808000000035
0.791251300000003 0.7999426000000024 0.8286805000000035
0.793249300000003 0.8019406000000024 0.8314444000000035
0.7960465000000031 0.8028064000000025 0.8332426000000035
0.7957468000000031 0.8032393000000024 0.8355736000000035
0.796712500000003 0.8048044000000024 0.8353738000000035
0.7968457000000031 0.8036056000000024 0.8366392000000035
0.7961464000000031 0.8053039000000024 0.8375050000000035
0.7972786000000032 0.8057368000000024 0.8375716000000035
0.7966792000000031 0.8066026000000024 0.8376382000000036
0.7984441000000031 0.8067691000000023 0.8379712000000036
0.7985107000000031 0.8089669000000024 0.8384041000000035
0.7990102000000031 0.8085673000000023 0.8372386000000035
0.7989103000000031 0.8096995000000023 0.8380711000000035
0.801774100000003 0.8098327000000024 0.8404354000000035
0.8034724000000031 0.8099326000000024 0.8388703000000035
0.8031394000000031 0.8126299000000025 0.8391034000000035
0.804904300000003 0.8142283000000025 0.8392033000000035
0.8063695000000031 0.8162929000000024 0.8408350000000036
0.8068690000000031 0.8163928000000025 0.8437987000000036
0.8084674000000031 0.8175916000000025 0.8443981000000036
0.808367500000003 0.8192233000000025 0.8432659000000036
0.810831700000003 0.8176915000000026 0.8455636000000035
0.8105986000000031 0.8167924000000025 0.8476615000000035
0.810765100000003 0.8185573000000025 0.8484607000000035
0.811864000000003 0.8175583000000025 0.8482942000000036
0.812596600000003 0.8184574000000026 0.8496262000000036
0.814428100000003 0.8186239000000025 0.8499259000000036
0.814228300000003 0.8196562000000025 0.8508583000000036
0.814794400000003 0.8192233000000025 0.8531560000000036
0.816692500000003 0.8213212000000025 0.8529895000000036
0.816459400000003 0.8226199000000025 0.8534890000000036
0.8170921000000031 0.8243182000000026 0.8537221000000036
0.8185240000000031 0.8256502000000026 0.8528230000000036
0.8210881000000031 0.8257168000000026 0.8529895000000035
0.8208217000000031 0.8280145000000025 0.8555536000000035
0.8205220000000031 0.8279479000000025 0.8557867000000035
0.8210215000000031 0.8275816000000025 0.8574517000000035
0.823385800000003 0.8265160000000025 0.8601823000000035
0.823385800000003 0.8271820000000025 0.8600158000000035
0.8221537000000031 0.8286805000000025 0.8611813000000036
0.823119400000003 0.8304121000000025 0.8629129000000036
0.824151700000003 0.8315110000000026 0.8629129000000036
0.823019500000003 0.8333758000000026 0.8619472000000037
0.825050800000003 0.8325100000000025 0.8620804000000037
0.825683500000003 0.8311114000000025 0.8639452000000037
0.826715800000003 0.8310448000000025 0.8658100000000037
0.827182000000003 0.8326432000000025 0.8655436000000037
0.828081100000003 0.8327764000000025 0.8648110000000038
0.830112400000003 0.8329762000000025 0.8655769000000038
0.830412100000003 0.8328763000000025 0.8669422000000038
0.831311200000003 0.8340085000000025 0.8665093000000038
0.831078100000003 0.8351074000000025 0.8684074000000038
0.8314777000000031 0.8381044000000025 0.8711380000000039
0.831078100000003 0.8381044000000025 0.8701390000000039
0.833209300000003 0.8375383000000025 0.8704054000000039
0.833642200000003 0.8393032000000025 0.8719705000000039
0.833009500000003 0.8392699000000025 0.8737354000000038
0.8327098000000029 0.8408683000000025 0.8767324000000039
0.8323435000000029 0.8421670000000024 0.8796961000000039
0.8329762000000029 0.8427997000000025 0.8826265000000039
0.833542300000003 0.8446978000000025 0.8840917000000039
0.8351074000000029 0.8453971000000025 0.8865226000000039
0.8374051000000029 0.8450641000000024 0.8867557000000039
0.8381377000000029 0.8480611000000025 0.886888900000004
0.8396362000000028 0.8491267000000025 0.886722400000004
0.8419672000000028 0.8513578000000025 0.886888900000004
0.8431993000000028 0.8503588000000025 0.888787000000004
0.8442316000000027 0.8511580000000025 0.890851600000004
0.8471953000000028 0.8517241000000025 0.890318800000004
0.8493598000000028 0.8523901000000026 0.891750700000004
0.8509582000000028 0.8543548000000026 0.894081700000004
0.8520238000000028 0.8563528000000027 0.895979800000004
0.8517241000000028 0.8564527000000027 0.898477300000004
0.8529895000000027 0.8576848000000027 0.898177600000004
0.8548543000000027 0.8569855000000027 0.8985772000000041
0.8573518000000028 0.8588503000000027 0.8981110000000041
