0.0131302 0.0091009 0.0106993
0.0141625 0.0095338 0.010333
0.0145621 0.0087013 0.0129637
0.0137629 0.0104662 0.0130636
0.0137296 0.0113986 0.0152614
0.0157942 0.0108658 0.0155944
0.0174259 0.0114985 0.0177256
0.0195571 0.0131635 0.019657
0.0219547 0.0146287 0.0210223
0.0239527 0.0134299 0.0220213
0.0269497 0.0150616 0.0223876
0.0287479 0.0177922 0.0226873
0.0298801 0.0190576 0.0228205
0.0315451 0.018991 0.0226207
0.0317449 0.01999 0.0242857
0.0317449 0.0205228 0.0238528
0.0334432 0.0234532 0.0240193
0.0364402 0.0247519 0.023986
0.0363403 0.0232867 0.0239194
0.0378055 0.0242191 0.0267166
0.0378721 0.0231202 0.0265834
0.0367399 0.0252514 0.0284815
0.036307 0.0262837 0.0277489
0.0386047 0.0251848 0.0295804
0.0390709 0.0266167 0.0290143
0.0407692 0.0288145 0.0306127
0.0412021 0.0290476 0.0318448
0.0419014 0.0289144 0.0335098
0.0432334 0.030979 0.0364069
0.0443323 0.0319114 0.0378721
0.0452314 0.0326107 0.0366067
0.0465301 0.032644 0.0389377
0.0461971 0.0332767 0.0410356
0.0451648 0.0328438 0.0417349
0.0449983 0.0338428 0.0444322
0.0452314 0.0330436 0.0439993
0.0463636 0.0335764 0.0456976
0.0493273 0.0341758 0.0477622
0.0517249 0.0361738 0.0476956
0.0540226 0.0367399 0.0486946
0.0551548 0.0365734 0.0505594
0.0556543 0.03664 0.0507259
0.0553879 0.0377056 0.0527239
0.0564202 0.0393373 0.0531235
0.0558541 0.0390043 0.052957
0.0556876 0.0402364 0.055621
0.0561871 0.0400366 0.0551548
0.0572527 0.0409357 0.0572194
0.058651299999999996 0.0435331 0.0573526
0.059117499999999996 0.0443989 0.0570529
0.060016599999999996 0.0449317 0.059184099999999996
0.062147799999999996 0.0462304 0.059350599999999996
0.0647452 0.0480286 0.060682599999999996
0.0642124 0.0478288 0.060183099999999996
0.0650116 0.0485947 0.060615999999999996
0.0668098 0.0508258 0.0628804
0.0681085 0.0506926 0.0626806
0.0700066 0.0525241 0.0643456
0.0715384 0.0513586 0.0661438
0.0715384 0.051958 0.0665434
0.0717049 0.053956 0.0665767
0.0728371 0.0550882 0.067942
0.0755011 0.0547885 0.0682417
0.0778321 0.055621 0.0690742
0.0799966 0.0578188 0.0695071
0.0827605 0.060982299999999996 0.0688744
0.0845254 0.062614 0.069274
0.0862903 0.0629137 0.0695071
0.0868564 0.0648118 0.0720046
0.0862237 0.064945 0.074602
0.0878887 0.065611 0.0746686
0.0900199 0.0643123 0.0744022
0.0916183 0.0668764 0.0749017
0.091585 0.0694405 0.0734698
0.0909523 0.0703063 0.072937
0.0904861 0.069607 0.0729703
0.090586 0.0710389 0.0744688
0.0907192 0.0727705 0.0773326
0.0911521 0.0744688 0.0768997
0.0904861 0.0763669 0.0777322
0.0923176 0.0774991 0.0789643
0.0916849 0.078931 0.0781651
0.0911188 0.0815617 0.0785647
0.0907192 0.0827938 0.0798301
0.0907525 0.0829603 0.080596
0.0932833 0.0828604 0.0801298
0.094249 0.0852247 0.081928
0.0958141 0.0866233 0.0826273
0.097246 0.0880552 0.0838261
0.0988444 0.0879553 0.0838927
0.0992773 0.0901198 0.085924
0.0979453 0.091585 0.0878221
0.100243 0.0926839 0.0903862
0.1007758 0.0943822 0.0927838
0.0998434 0.0945154 0.0942157
0.1011421 0.0942157 0.095581
0.1021411 0.0934165 0.0961138
0.1019413 0.0928837 0.0959473
0.101908 0.0947485 0.0954811
0.1033732 0.0976789 0.0970795
0.1030402 0.0976123 0.0974458
0.1055044 0.0992107 0.0986446
0.1070029 0.1005427 0.1006759
0.1084681 0.1000432 0.1010755
0.1094338 0.1018747 0.1008091
0.1096003 0.1012087 0.1025074
0.1098334 0.1008091 0.1040392
0.1087678 0.1021078 0.1034065
0.1095004 0.1030069 0.1026406
0.1099 0.1046053 0.1013419
0.1115983 0.1060705 0.1005427
0.113896 0.1087678 0.1013086
0.1143289 0.1110988 0.1028404
0.113896 0.1120978 0.1047052
0.114562 0.1126306 0.1071694
0.1154611 0.1138294 0.1067032
0.1157941 0.1156276 0.1081018
0.1164601 0.1187578 0.1080685
0.1190908 0.1207225 0.1095004
0.1206226 0.1213885 0.1090009
0.1228204 0.122221 0.108568
0.1224208 0.1231867 0.110899
0.1224208 0.123886 0.1114318
0.1243522 0.1260838 0.112564
0.1253179 0.1271161 0.1145287
0.12741580000000002 0.1260838 0.1150282
0.12794860000000002 0.128881 0.1164934
0.12924730000000004 0.1281484 0.1166932
0.13184470000000004 0.129547 0.1156942
0.13107880000000002 0.1298467 0.1174924
0.13074580000000002 0.1299799 0.1178587
0.13321000000000002 0.1309789 0.1183249
0.13261060000000002 0.13261060000000002 0.1201897
0.13201120000000002 0.1319113 0.1213885
0.1315117 0.13380940000000002 0.1219213
0.1330435 0.13281040000000002 0.1237861
0.1323442 0.13430890000000004 0.1236529
0.1323442 0.13534120000000005 0.1244521
0.134875 0.13547440000000005 0.1242856
0.1357741 0.13487500000000005 0.1268164
0.13847140000000002 0.13594060000000005 0.127549
0.1372393 0.13787200000000005 0.1291474
0.1387045 0.14006980000000005 0.1298467
0.1381384 0.13917070000000004 0.13221100000000002
0.1400365 0.14053600000000005 0.13277710000000004
0.1397368 0.14233420000000005 0.13474180000000005
0.1417681 0.14323330000000006 0.13637350000000006
0.14193460000000002 0.14579740000000008 0.13763890000000006
0.14133520000000002 0.14526460000000008 0.13723930000000006
0.14106880000000002 0.1466965000000001 0.13773880000000008
0.14240080000000002 0.1489942000000001 0.13713940000000008
0.14326660000000002 0.1501930000000001 0.13820500000000008
0.14583070000000004 0.15229090000000012 0.13940380000000008
0.14689630000000004 0.15235750000000012 0.14140180000000008
0.14916070000000003 0.15422230000000012 0.1416349000000001
0.15012640000000005 0.15485500000000013 0.1409023000000001
0.15079240000000005 0.15691960000000013 0.1412020000000001
0.15219100000000005 0.15575410000000012 0.1420012000000001
0.15292360000000005 0.15735250000000012 0.14270050000000012
0.15225760000000005 0.15761890000000012 0.14196790000000012
0.15165820000000005 0.1569196000000001 0.14393260000000013
0.15322330000000006 0.1563868000000001 0.14623030000000015
0.15295690000000006 0.15715270000000012 0.14712940000000016
0.15282370000000006 0.15881770000000012 0.14849470000000017
0.15352300000000008 0.16028290000000012 0.15035950000000017
0.1560871000000001 0.16098220000000013 0.1508590000000002
0.1570861000000001 0.16114870000000014 0.1519246000000002
0.1583515000000001 0.16141510000000014 0.1535230000000002
0.1588843000000001 0.16058260000000013 0.1555210000000002
0.1592506000000001 0.16284700000000013 0.15548770000000017
0.16014970000000012 0.16381270000000014 0.15532120000000016
0.16284700000000013 0.16544440000000016 0.15458860000000016
0.16467850000000014 0.16627690000000017 0.15352300000000016
0.16387930000000014 0.16787530000000017 0.15415570000000017
0.16261390000000014 0.16920730000000017 0.15595390000000017
0.16401250000000014 0.17100550000000017 0.15628690000000017
0.16501150000000014 0.17170480000000019 0.15605380000000016
0.16481170000000014 0.1725373000000002 0.15685300000000016
0.16421230000000014 0.17230420000000018 0.15632020000000016
0.16491160000000016 0.17510140000000018 0.15488830000000015
0.16680970000000017 0.17603380000000018 0.15798520000000016
0.16874110000000017 0.17689960000000018 0.15898420000000016
0.16884100000000019 0.1789309000000002 0.16111540000000016
0.16780870000000017 0.17823160000000018 0.16274710000000017
0.17027290000000017 0.1805959000000002 0.16228090000000017
0.17087230000000017 0.1829935000000002 0.16407910000000017
0.16987330000000017 0.1841257000000002 0.16531120000000019
0.16964020000000016 0.1862569000000002 0.16417900000000019
0.16930720000000016 0.18462520000000018 0.16304680000000019
0.17097220000000016 0.1848583000000002 0.16291360000000019
0.17147170000000017 0.1870894000000002 0.16244740000000019
0.17313670000000017 0.18865450000000022 0.16557760000000019
0.17436880000000018 0.18845470000000022 0.1666765000000002
0.17326990000000017 0.18935380000000024 0.1673758000000002
0.17190460000000016 0.19045270000000025 0.1686412000000002
0.17177140000000016 0.19258390000000025 0.1696402000000002
0.17317000000000016 0.19205110000000025 0.17073910000000023
0.17483500000000016 0.19368280000000027 0.17213770000000023
0.17556760000000016 0.19524790000000028 0.17230420000000024
0.17623360000000016 0.19571410000000028 0.17287030000000025
0.17669980000000016 0.1962802000000003 0.17353630000000025
0.17719930000000017 0.1982116000000003 0.17533450000000025
0.17689960000000016 0.1980784000000003 0.17739910000000025
0.17773210000000017 0.1986778000000003 0.17689960000000024
0.18002980000000018 0.2005426000000003 0.17776540000000024
0.18176140000000018 0.2023408000000003 0.17863120000000024
0.18289360000000018 0.2025406000000003 0.18019630000000025
0.1844587000000002 0.2040391000000003 0.17926390000000025
0.1862569000000002 0.2057041000000003 0.17973010000000025
0.1873891000000002 0.2064367000000003 0.17876440000000024
0.1880884000000002 0.20680300000000032 0.18062920000000024
0.18965350000000022 0.20903410000000033 0.18089560000000024
0.19055260000000024 0.20996650000000033 0.18269380000000024
0.19055260000000024 0.20999980000000035 0.18465850000000025
0.19021960000000024 0.21063250000000036 0.18748900000000027
0.19198450000000025 0.21183130000000036 0.18732250000000025
0.19384930000000025 0.21166480000000035 0.18702280000000024
0.19424890000000025 0.21306340000000035 0.18832150000000025
0.19488160000000027 0.21569410000000036 0.18912070000000025
0.19677970000000028 0.21582730000000036 0.19028620000000027
0.19871110000000028 0.21849130000000036 0.18998650000000025
0.19791190000000028 0.22015630000000036 0.19131850000000025
0.20030950000000028 0.22055590000000036 0.19078570000000025
0.20014300000000027 0.22192120000000037 0.19111870000000025
0.19931050000000025 0.22338640000000037 0.19328320000000027
0.19791190000000025 0.22268710000000036 0.19424890000000028
0.19887760000000027 0.22172140000000035 0.19438210000000028
0.19861120000000027 0.22302010000000036 0.1952812000000003
0.19874440000000027 0.22331980000000037 0.1957807000000003
0.20170810000000028 0.22288690000000036 0.1978453000000003
0.20090890000000028 0.22282030000000036 0.1995103000000003
0.19987660000000027 0.22258720000000035 0.1992106000000003
0.20220760000000026 0.22185460000000035 0.2003095000000003
0.20260720000000026 0.22188790000000036 0.20107540000000032
0.20127520000000027 0.22415230000000036 0.20184130000000033
0.20224090000000028 0.22565080000000037 0.20297350000000033
0.2030734000000003 0.22525120000000037 0.20397250000000033
0.2028070000000003 0.22491820000000037 0.20410570000000033
0.2044387000000003 0.2271493000000004 0.20577070000000033
0.2052379000000003 0.2300131000000004 0.20673640000000035
0.2050381000000003 0.2312452000000004 0.20633680000000035
0.20680300000000032 0.2306791000000004 0.20793520000000035
0.20766880000000032 0.2319445000000004 0.20946700000000035
0.21003310000000033 0.2339758000000004 0.21139840000000035
0.21069910000000033 0.23440870000000041 0.21246400000000035
0.21126520000000035 0.23507470000000041 0.21429550000000036
0.21099880000000035 0.2370727000000004 0.21529450000000036
0.21059920000000035 0.24003640000000043 0.21446200000000035
0.20933380000000035 0.2389375000000004 0.21576070000000036
0.20873440000000035 0.2402029000000004 0.21685960000000037
0.20850130000000033 0.24030280000000043 0.21682630000000036
0.20840140000000032 0.24023620000000043 0.21719260000000037
0.20900080000000032 0.24170140000000043 0.21685960000000037
0.20826820000000032 0.24196780000000043 0.21965680000000037
0.20740240000000032 0.24356620000000043 0.21892420000000037
0.20856790000000033 0.24473170000000044 0.21952360000000037
0.20890090000000033 0.24712930000000044 0.2212219000000004
0.20896750000000033 0.24712930000000044 0.2224207000000004
0.21089890000000033 0.24949360000000045 0.22192120000000037
0.21023290000000033 0.25089220000000045 0.22258720000000037
0.20980000000000032 0.25265710000000047 0.2236195000000004
0.20953360000000032 0.2545885000000005 0.2244853000000004
0.21003310000000033 0.2569195000000005 0.2268496000000004
0.21073240000000035 0.2563534000000005 0.2275156000000004
0.20956690000000033 0.2579185000000005 0.2265166000000004
0.20893420000000032 0.25771870000000047 0.2283814000000004
0.20826820000000032 0.2586844000000005 0.22908070000000041
0.2073025000000003 0.25918390000000047 0.2283814000000004
0.20873440000000032 0.2588176000000005 0.23114530000000041
0.20980000000000032 0.2593504000000005 0.23231080000000043
0.2091007000000003 0.2600164000000005 0.23161150000000041
0.20999980000000032 0.26224750000000047 0.23181130000000041
0.21013300000000032 0.26194780000000045 0.23284360000000043
0.20906740000000032 0.2636128000000005 0.23437540000000043
0.21096550000000033 0.2636128000000005 0.23397580000000043
0.21239740000000035 0.2640457000000005 0.23490820000000043
0.21249730000000036 0.2641789000000005 0.23434210000000041
0.21216430000000036 0.26357950000000047 0.23454190000000041
0.21193120000000035 0.26624350000000047 0.2370061000000004
0.21372940000000035 0.2691073000000005 0.2365732000000004
0.21349630000000033 0.2691739000000005 0.2380717000000004
0.21466180000000035 0.2703727000000005 0.2379052000000004
0.21752560000000035 0.27080560000000053 0.2375056000000004
0.21762550000000036 0.27217090000000055 0.23727250000000039
0.21792520000000037 0.27300340000000056 0.2391040000000004
0.21769210000000036 0.2750347000000006 0.2406691000000004
0.21682630000000036 0.2749015000000006 0.2393038000000004
0.21712600000000037 0.27353620000000056 0.2413018000000004
0.21805840000000037 0.2723707000000006 0.2430667000000004
0.2196901000000004 0.2751013000000006 0.2439325000000004
0.21925720000000037 0.27743230000000063 0.2436994000000004
0.21889090000000036 0.27996310000000063 0.2453311000000004
0.22005640000000037 0.28302670000000063 0.2445985000000004
0.2224873000000004 0.28332640000000064 0.2465965000000004
0.2239525000000004 0.28335970000000066 0.24716260000000043
0.2236195000000004 0.2858239000000007 0.24932710000000044
0.2258839000000004 0.2866231000000007 0.24896080000000043
0.2286145000000004 0.28672300000000067 0.24896080000000043
0.2287810000000004 0.28925380000000067 0.24889420000000043
0.2283481000000004 0.29175130000000066 0.24929380000000043
0.2299798000000004 0.29308330000000066 0.2486611000000004
0.23301010000000041 0.29444860000000067 0.2495269000000004
0.2354743000000004 0.2943487000000007 0.2503927000000004
0.23710600000000043 0.29388250000000066 0.2522242000000004
0.23913730000000044 0.29321650000000066 0.2516914000000004
0.24116860000000045 0.29444860000000067 0.2524240000000004
0.24083560000000045 0.2943487000000007 0.25422220000000045
0.24226750000000047 0.2950147000000007 0.25538770000000044
0.24313330000000047 0.29481490000000066 0.25658650000000044
0.24616360000000048 0.29481490000000066 0.25785190000000047
0.24529780000000048 0.29651320000000064 0.2601496000000005
0.2461969000000005 0.29731240000000064 0.2626804000000005
0.2475622000000005 0.30057580000000067 0.26181460000000045
0.2465299000000005 0.30190780000000067 0.26274700000000045
0.2471626000000005 0.30347290000000066 0.26168140000000045
0.2496934000000005 0.30347290000000066 0.26251390000000047
0.2505925000000005 0.30370600000000064 0.2632465000000005
0.2507257000000005 0.30333970000000066 0.2644120000000005
0.2509921000000005 0.3048715000000007 0.2642788000000005
0.2508256000000005 0.3069028000000007 0.26421220000000045
0.2534230000000005 0.3082348000000007 0.2649448000000005
0.2551879000000005 0.3074356000000007 0.2665765000000005
0.2571859000000005 0.3084346000000007 0.2657773000000005
0.2583847000000005 0.30890080000000075 0.2662102000000005
0.26084890000000055 0.31103200000000075 0.2666431000000005
0.26094880000000054 0.3134962000000008 0.26684290000000055
0.26308000000000054 0.3134962000000008 0.26920720000000053
0.26201440000000054 0.3162268000000008 0.26990650000000055
0.26377930000000055 0.3170593000000008 0.26894080000000053
0.26374600000000054 0.3191905000000008 0.26910730000000055
0.26394580000000056 0.3198565000000008 0.26927380000000056
0.26577730000000055 0.3195568000000008 0.2703727000000006
0.26900740000000056 0.3207556000000008 0.2735029000000006
0.26874100000000056 0.3217213000000008 0.2757340000000006
0.26814160000000054 0.32268700000000083 0.2767663000000006
0.26940700000000056 0.32415220000000083 0.2775655000000006
0.27060580000000056 0.3254509000000008 0.2774323000000006
0.27113860000000056 0.3243187000000008 0.2800297000000006
0.2731699000000006 0.3268162000000008 0.2810620000000006
0.27633340000000056 0.3266830000000008 0.2820277000000006
0.27923050000000055 0.32944690000000076 0.2844253000000006
0.27933040000000053 0.3312451000000008 0.2848249000000006
0.2784979000000005 0.3325438000000008 0.2847583000000006
0.2771326000000005 0.33464170000000076 0.2860237000000006
0.2798299000000005 0.3365398000000008 0.2866564000000006
0.2804959000000005 0.3371392000000008 0.2894203000000006
0.2825938000000005 0.33813820000000083 0.2908855000000006
0.2832931000000005 0.33887080000000086 0.2913517000000006
0.2844919000000005 0.34100200000000086 0.2926504000000006
0.2858239000000005 0.34339960000000086 0.2923840000000006
0.28812160000000053 0.34260040000000086 0.2935162000000006
0.28758880000000053 0.34273360000000086 0.2962801000000006
0.28772200000000053 0.34523110000000085 0.2952811000000006
0.2874223000000005 0.3446317000000008 0.2959804000000006
0.2874223000000005 0.34479820000000083 0.2974789000000006
0.2869561000000005 0.3444652000000008 0.2968795000000006
0.2884213000000005 0.3466297000000008 0.2992105000000006
0.2870560000000005 0.34799500000000083 0.3002761000000006
0.2884213000000005 0.34846120000000086 0.2993770000000006
0.2905192000000005 0.3502594000000009 0.3005425000000006
0.2918512000000005 0.3515248000000009 0.2999764000000006
0.29061910000000046 0.3509254000000009 0.3000097000000006
0.29205100000000045 0.3507922000000009 0.3017080000000006
0.29534770000000043 0.3511585000000009 0.3029734000000006
0.2969128000000004 0.3520909000000009 0.3037726000000006
0.29761210000000043 0.3520909000000009 0.3037726000000006
0.29897740000000045 0.3528901000000009 0.3043054000000006
0.30124180000000045 0.3531565000000009 0.30393910000000063
0.30377260000000045 0.35512120000000086 0.30327310000000063
0.30300670000000046 0.35711920000000086 0.30407230000000063
0.3033064000000005 0.35901730000000087 0.3061702000000006
0.3045052000000005 0.36111520000000086 0.30916720000000064
0.3065698000000005 0.36241390000000084 0.30863440000000064
0.3076021000000005 0.36344620000000083 0.30850120000000064
0.3097000000000005 0.36484480000000086 0.31096540000000067
0.30993310000000046 0.36640990000000084 0.31226410000000066
0.31163140000000045 0.36597700000000083 0.31359610000000065
0.31229740000000045 0.36704260000000083 0.31476160000000064
0.31426210000000043 0.3678085000000008 0.31665970000000065
0.31442860000000045 0.3700396000000008 0.31519450000000065
0.31606030000000046 0.3726037000000008 0.31719250000000065
0.3163933000000005 0.37426870000000084 0.31982320000000064
0.3177253000000005 0.37446850000000087 0.32055580000000067
0.3174256000000005 0.37633330000000087 0.3196567000000007
0.31765870000000046 0.37803160000000086 0.32148820000000067
0.3198232000000005 0.37689940000000083 0.3231532000000007
0.31909060000000045 0.38009620000000083 0.3255508000000007
0.32148820000000045 0.38022940000000083 0.3258505000000007
0.32348620000000045 0.38106190000000084 0.32605030000000074
0.32385250000000043 0.38372590000000084 0.32818150000000074
0.32348620000000045 0.38445850000000087 0.32818150000000074
0.32378590000000046 0.38415880000000086 0.3293470000000007
0.3249181000000005 0.38612350000000084 0.32977990000000074
0.3270493000000005 0.3880882000000008 0.33131170000000076
0.3258505000000005 0.3892537000000008 0.33071230000000074
0.3254176000000005 0.3912850000000008 0.3306457000000007
0.3286810000000005 0.3903193000000008 0.3315448000000007
0.3280816000000005 0.3913516000000008 0.3315781000000007
0.3274489000000005 0.3917179000000008 0.33337630000000074
0.3279151000000005 0.39314980000000077 0.3344086000000007
0.3276154000000005 0.3930499000000008 0.33673960000000075
0.3272491000000005 0.3934828000000008 0.33723910000000074
0.3292138000000005 0.3947149000000008 0.33687280000000075
0.3301129000000005 0.39558070000000084 0.33634000000000075
0.3306457000000005 0.3982114000000008 0.33847120000000075
0.3304126000000005 0.3979450000000008 0.33910390000000074
0.3308455000000005 0.39837790000000084 0.3382714000000007
0.3303793000000005 0.40004290000000087 0.33963670000000074
0.3306790000000005 0.3991438000000009 0.3401362000000007
0.3321775000000005 0.39977650000000087 0.34113520000000075
0.3332431000000005 0.39974320000000085 0.34183450000000076
0.3338092000000005 0.39987640000000085 0.34329970000000076
0.3335095000000005 0.40010950000000084 0.34553080000000075
0.3358072000000005 0.4007422000000008 0.3449314000000007
0.33757210000000054 0.4018078000000008 0.3443653000000007
0.3390040000000005 0.4024405000000008 0.3463633000000007
0.3398032000000005 0.4025737000000008 0.3486610000000007
0.34143490000000054 0.4039057000000008 0.3494602000000007
0.34290010000000054 0.4062034000000008 0.35245720000000075
0.34396570000000054 0.4083013000000008 0.35285680000000075
0.3456640000000005 0.4106989000000008 0.35442190000000073
0.3463300000000005 0.4111318000000008 0.35605360000000075
0.3475288000000005 0.41213080000000085 0.35508790000000073
0.3480616000000005 0.41256370000000087 0.35512120000000075
0.3471958000000005 0.4135627000000009 0.3570526000000008
0.3467629000000005 0.4157605000000009 0.3577519000000008
0.3472957000000005 0.4153276000000009 0.3594169000000008
0.3492271000000005 0.4166263000000009 0.3588175000000008
0.3504259000000005 0.4176919000000009 0.3608488000000008
0.3518578000000005 0.4190239000000009 0.3617479000000008
0.3536227000000005 0.4192237000000009 0.3622141000000008
0.3557539000000005 0.42128830000000095 0.3629800000000008
0.35688610000000054 0.421754500000001 0.3634129000000008
0.35771860000000055 0.424152100000001 0.3639124000000008
0.35661970000000054 0.423652600000001 0.3654109000000008
0.35821810000000054 0.424918000000001 0.3645451000000008
0.3608488000000005 0.42538420000000104 0.3650446000000008
0.36101530000000054 0.42724900000000104 0.3680083000000008
0.36361270000000057 0.4281148000000011 0.3695401000000008
0.3639457000000006 0.43011280000000107 0.37157140000000083
0.3653110000000006 0.43101190000000106 0.3715381000000008
0.3667762000000006 0.4334761000000011 0.3728701000000008
0.3662767000000006 0.4355074000000011 0.3724705000000008
0.36900730000000065 0.4352743000000011 0.37383580000000083
0.36980650000000065 0.4350079000000011 0.3735028000000008
0.3709387000000007 0.4370059000000011 0.3735028000000008
0.3706723000000007 0.4388374000000011 0.3729700000000008
0.3696400000000007 0.4406689000000011 0.3736360000000008
0.3699397000000007 0.43980310000000106 0.3757339000000008
0.37000630000000073 0.43966990000000106 0.3764665000000008
0.37193770000000076 0.4398697000000011 0.37853110000000084
0.3726703000000008 0.4410019000000011 0.37869760000000086
0.3737026000000008 0.4405357000000011 0.37933030000000084
0.3728035000000008 0.4415014000000011 0.38089540000000083
0.3749347000000008 0.4426336000000011 0.37996300000000083
0.3750346000000008 0.4424671000000011 0.38079550000000084
0.3749014000000008 0.4438990000000011 0.38345950000000084
0.37606690000000076 0.4459303000000011 0.3834262000000008
0.37776520000000074 0.4466296000000011 0.38439190000000084
0.37933030000000073 0.44829460000000115 0.38658970000000087
0.38216080000000074 0.4486276000000012 0.38579050000000087
0.38332630000000073 0.4498264000000012 0.38532430000000084
0.38455840000000074 0.45032590000000117 0.3852910000000008
0.38529100000000077 0.45229060000000115 0.38642320000000085
0.38515780000000077 0.45438850000000114 0.3882214000000009
0.38449180000000077 0.4563532000000011 0.3898864000000009
0.38512450000000076 0.45841780000000115 0.3894535000000009
0.38562400000000074 0.45895060000000115 0.3904525000000009
0.38565730000000076 0.46014940000000115 0.39051910000000095
0.38688940000000077 0.46294660000000115 0.39235060000000094
0.3882547000000008 0.4636792000000012 0.39401560000000097
0.39008620000000077 0.4638790000000012 0.39534760000000096
0.3907855000000008 0.4649446000000012 0.394315300000001
0.3935161000000008 0.4644784000000012 0.393915700000001
0.3957805000000008 0.46374580000000115 0.393915700000001
0.39598030000000084 0.46397890000000114 0.39384910000000095
0.39711250000000087 0.4637791000000011 0.39611350000000095
0.3988774000000009 0.4642786000000011 0.39757870000000095
0.4005424000000009 0.4646782000000011 0.39714580000000094
0.40207420000000094 0.4643119000000011 0.39864430000000095
0.40140820000000094 0.4632130000000011 0.39974320000000096
0.40307320000000096 0.4637791000000011 0.401275000000001
0.403106500000001 0.4660102000000011 0.401574700000001
0.404038900000001 0.4669093000000011 0.403705900000001
0.40547080000000096 0.4674754000000011 0.404638300000001
0.406736200000001 0.4707388000000011 0.406603000000001
0.407335600000001 0.47356930000000114 0.406636300000001
0.408534400000001 0.47306980000000115 0.406136800000001
0.408934000000001 0.47363590000000116 0.406902700000001
0.41059900000000105 0.4758337000000012 0.40750210000000103
0.41312980000000105 0.4755673000000012 0.409866400000001
0.41462830000000106 0.4766995000000012 0.41046580000000105
0.4173256000000011 0.4773322000000012 0.4105324000000011
0.41725900000000105 0.47766520000000123 0.4118977000000011
0.4177252000000011 0.4771990000000012 0.4128634000000011
0.4185910000000011 0.4782313000000012 0.4145950000000011
0.4194235000000011 0.4782313000000012 0.4166929000000011
0.4200562000000011 0.4802293000000012 0.4177585000000011
0.4196899000000011 0.4832263000000012 0.4179250000000011
0.41879080000000113 0.48499120000000123 0.4180915000000011
0.41962330000000114 0.48605680000000123 0.41839120000000113
0.42138820000000116 0.48619000000000123 0.4187575000000011
0.42228730000000114 0.4853575000000012 0.4204891000000011
0.42278680000000113 0.4858570000000012 0.42278680000000113
0.4227202000000011 0.4873222000000012 0.42285340000000116
0.4232530000000011 0.48792160000000123 0.42521770000000114
0.4247182000000011 0.48875410000000125 0.42531760000000113
0.4269493000000011 0.48818800000000123 0.42671620000000116
0.4268494000000011 0.48832120000000123 0.42724900000000116
0.4287808000000011 0.48978640000000123 0.42821470000000117
0.42921370000000114 0.48985300000000126 0.4289473000000012
0.4298464000000011 0.4886875000000013 0.4296799000000012
0.43044580000000116 0.4910851000000013 0.42987970000000125
0.43214410000000114 0.4942819000000013 0.43241050000000125
0.4320775000000011 0.4963465000000013 0.4356739000000013
0.4330099000000011 0.4994434000000013 0.4343752000000013
0.4330432000000011 0.5003425000000014 0.4347748000000013
0.43320970000000114 0.5009752000000014 0.4371724000000013
0.4330432000000011 0.5036059000000014 0.4371724000000013
0.4328434000000011 0.5028400000000014 0.4399030000000013
0.4334761000000011 0.5022073000000014 0.44033590000000133
0.4330765000000011 0.5020741000000013 0.44293330000000136
0.4332430000000011 0.5032063000000013 0.4440322000000014
0.4363066000000011 0.5038723000000014 0.4434994000000014
0.4385044000000011 0.5035393000000014 0.4455640000000014
0.4384711000000011 0.5032729000000014 0.4472956000000014
0.4377052000000011 0.5030398000000014 0.4476619000000014
0.44030260000000115 0.5025070000000014 0.4486609000000014
0.44299990000000117 0.5037058000000014 0.44869420000000143
0.44220070000000117 0.5050045000000014 0.44846110000000144
0.44153470000000117 0.5048380000000015 0.4485277000000015
0.44220070000000117 0.5054707000000015 0.4504258000000015
0.4428001000000012 0.5074687000000015 0.4512916000000015
0.4425670000000012 0.5074021000000015 0.4525237000000015
0.4433662000000012 0.5079349000000015 0.4519909000000015
0.44423200000000124 0.5082013000000015 0.45312310000000156
0.4455307000000012 0.5080015000000015 0.4541221000000016
0.4474954000000012 0.5081014000000016 0.4541887000000016
0.4477951000000012 0.5096332000000016 0.4558204000000016
0.4473955000000012 0.5113315000000016 0.4557538000000016
0.44876080000000124 0.5131963000000016 0.4565863000000016
0.45055900000000126 0.5120974000000016 0.45798490000000164
0.4515580000000013 0.5137291000000016 0.4590172000000016
0.4520575000000013 0.5159935000000017 0.4618144000000016
0.4538557000000013 0.5159269000000016 0.46268020000000165
0.4540222000000013 0.5145949000000016 0.46284670000000167
0.4542553000000013 0.5162599000000017 0.4634128000000017
0.4566529000000013 0.5176585000000017 0.46334620000000165
0.4559536000000013 0.5188906000000016 0.46557730000000164
0.4575520000000013 0.5196232000000016 0.46637650000000164
0.4594168000000013 0.5219875000000016 0.4668760000000016
0.4608154000000013 0.5250844000000016 0.4692736000000016
0.46351270000000133 0.5244850000000015 0.47063890000000164
0.46484470000000133 0.5245849000000016 0.47200420000000165
0.4637125000000013 0.5241187000000016 0.4714048000000016
0.46524430000000133 0.5249845000000016 0.4732696000000016
0.46637650000000136 0.5263165000000016 0.4748680000000016
0.4677751000000014 0.5278150000000016 0.4746682000000016
0.4685743000000014 0.5288140000000016 0.4769992000000016
0.4695733000000014 0.5281147000000016 0.4773988000000016
0.4722040000000014 0.5301793000000016 0.4761334000000016
0.47333620000000143 0.5310451000000016 0.4764997000000016
0.47560060000000143 0.5305789000000016 0.47523430000000155
0.47560060000000143 0.5333428000000017 0.4779649000000016
0.47533420000000143 0.5346082000000016 0.47966320000000157
0.4766329000000014 0.5370391000000017 0.4813282000000016
0.47749870000000144 0.5371057000000017 0.4825270000000016
0.47876410000000147 0.5392369000000017 0.4818943000000016
0.4804291000000015 0.5395699000000017 0.4829599000000016
0.4819942000000015 0.5405356000000017 0.4830931000000016
0.4811950000000015 0.5419342000000017 0.48395890000000164
0.4825936000000015 0.5425003000000017 0.4855240000000016
0.4817611000000015 0.5428999000000018 0.48798820000000165
0.4837591000000015 0.5418676000000018 0.49061890000000163
0.4831264000000015 0.5419675000000018 0.49225060000000165
0.4840921000000015 0.5435659000000018 0.49275010000000163
0.48439180000000154 0.5437657000000018 0.4936492000000016
0.48452500000000154 0.5448979000000018 0.49541410000000163
0.48345940000000154 0.5458303000000019 0.4979116000000016
0.48269350000000155 0.5451310000000019 0.4981447000000016
0.48415870000000155 0.5469625000000019 0.4993102000000016
0.48559060000000154 0.5483278000000019 0.5011084000000016
0.48559060000000154 0.5501926000000019 0.5004091000000016
0.48685600000000157 0.5510251000000019 0.4991770000000016
0.48802150000000155 0.5528566000000019 0.5012749000000016
0.49031920000000156 0.5546548000000019 0.5028400000000016
0.49015270000000155 0.5559535000000019 0.5034061000000016
0.4912849000000016 0.5557537000000019 0.5044051000000016
0.4938490000000016 0.5585842000000019 0.5068360000000016
0.4936159000000016 0.5592835000000018 0.5074687000000017
0.49434850000000163 0.5592169000000018 0.5073355000000016
0.49581370000000163 0.5609485000000018 0.5072356000000016
0.49827790000000166 0.5612815000000019 0.5058037000000015
0.5000761000000017 0.5614813000000018 0.5070025000000016
0.5001094000000017 0.5610151000000019 0.5071357000000016
0.5027068000000017 0.5612815000000019 0.5074021000000016
0.5036725000000016 0.5623138000000019 0.5086675000000016
0.5058370000000016 0.5611816000000018 0.5087008000000016
0.5078017000000017 0.5622472000000018 0.5096332000000017
0.5079349000000017 0.5620141000000018 0.5103991000000017
0.5067361000000017 0.5615812000000019 0.5122972000000017
0.5060701000000016 0.5605822000000019 0.5153941000000016
0.5086342000000016 0.5621140000000019 0.5152609000000016
0.5110318000000016 0.5636791000000019 0.5156605000000016
0.5118643000000016 0.5649778000000019 0.5180581000000016
0.5130631000000017 0.5644783000000019 0.5189905000000017
0.5127634000000016 0.5650111000000019 0.5203558000000017
0.5133628000000017 0.5657104000000018 0.5206555000000017
0.5146948000000017 0.5666428000000019 0.5221207000000018
0.5150944000000017 0.5681413000000018 0.5232196000000018
0.5172256000000017 0.5691736000000018 0.5245849000000018
0.5182246000000017 0.5683078000000018 0.5272489000000018
0.5190238000000017 0.5684743000000018 0.5267494000000018
0.5202892000000017 0.5690071000000018 0.5289805000000019
0.5228200000000017 0.5708386000000018 0.5293468000000019
0.5227867000000017 0.5725702000000018 0.5308786000000019
0.5228200000000017 0.5718043000000018 0.5325103000000019
0.5228200000000017 0.5727700000000018 0.5326102000000019
0.5247181000000017 0.5744017000000018 0.532676800000002
0.5259835000000017 0.5761333000000018 0.533809000000002
0.5272489000000017 0.5769658000000019 0.534341800000002
0.5269492000000017 0.5798629000000018 0.5353075000000019
0.5275153000000017 0.5827267000000018 0.537005800000002
0.5302792000000017 0.5820940000000018 0.538837300000002
0.5305456000000017 0.5837257000000018 0.540768700000002
0.5304790000000017 0.5862232000000018 0.5406355000000019
0.5303458000000016 0.5876218000000019 0.539869600000002
0.5325436000000017 0.5882212000000019 0.541834300000002
0.5327767000000017 0.5904523000000019 0.543799000000002
0.5330431000000017 0.592450300000002 0.544798000000002
0.5350411000000017 0.593848900000002 0.547395400000002
0.5352076000000017 0.592750000000002 0.547062400000002
0.5354740000000017 0.594781300000002 0.548261200000002
0.5355073000000017 0.5944816000000019 0.5483944000000021
0.5364397000000017 0.5934160000000019 0.5503591000000021
0.5361400000000017 0.5943817000000019 0.5528566000000021
0.5372056000000017 0.5950810000000019 0.5548546000000022
0.5378383000000018 0.5939488000000018 0.5558203000000022
0.5387374000000018 0.5960134000000018 0.5567527000000022
0.5380381000000019 0.5986774000000018 0.5566861000000022
0.5381713000000019 0.5986774000000018 0.5573521000000022
0.5408353000000019 0.5985775000000018 0.5571523000000023
0.5414014000000019 0.5991769000000018 0.5588173000000023
0.5408020000000019 0.6014080000000018 0.5592169000000023
0.5413348000000019 0.6008086000000018 0.5606821000000024
0.5399029000000019 0.6015745000000018 0.5616811000000024
0.5405023000000019 0.6023737000000018 0.5626135000000024
0.5414014000000019 0.6023737000000018 0.5630131000000025
0.5426335000000019 0.6009085000000017 0.5624803000000025
0.5439322000000019 0.6020407000000018 0.5633794000000025
0.5450644000000019 0.6010084000000018 0.5638789000000025
0.5467294000000019 0.6026401000000018 0.5631463000000025
0.5480614000000019 0.6044716000000018 0.5645116000000026
0.5483278000000019 0.6062032000000018 0.5643118000000026
0.5504257000000019 0.6061699000000018 0.5643451000000026
0.5507254000000019 0.6081346000000019 0.5651110000000026
0.5514913000000019 0.6097330000000019 0.5680081000000026
0.5523238000000019 0.6102658000000019 0.5678749000000025
0.5546881000000019 0.6126634000000019 0.5698063000000025
0.555886900000002 0.6116311000000019 0.5715712000000025
0.554588200000002 0.6143284000000019 0.5727700000000026
0.5566195000000019 0.6160267000000019 0.5745349000000025
0.5578516000000019 0.6173920000000019 0.5752675000000025
0.5572189000000018 0.619356700000002 0.5766994000000025
0.5582845000000018 0.619123600000002 0.5793301000000025
0.5586841000000019 0.618923800000002 0.5791969000000025
0.5599495000000019 0.6219541000000021 0.5812948000000024
0.5599162000000019 0.6209551000000021 0.5831596000000024
0.5627134000000019 0.6223870000000021 0.5858569000000025
0.5618143000000019 0.6243850000000022 0.5876551000000024
0.5620807000000019 0.6267826000000022 0.5904856000000024
0.5638456000000018 0.6266494000000021 0.5889538000000024
0.5657437000000018 0.6254839000000021 0.5894200000000024
0.5677417000000019 0.6260833000000021 0.5885209000000023
0.569173600000002 0.6290137000000021 0.5882878000000024
0.5701726000000019 0.6302125000000022 0.5901193000000023
0.5719708000000019 0.6301459000000021 0.5911849000000023
0.5715046000000019 0.6292801000000021 0.5898862000000024
0.5725369000000019 0.6316777000000021 0.5903524000000023
0.5734360000000019 0.6314113000000021 0.5922505000000023
0.573269500000002 0.6331429000000022 0.5918842000000023
0.573336100000002 0.6360067000000021 0.5917843000000023
0.572703400000002 0.6378049000000021 0.5932828000000022
0.573336100000002 0.6384043000000021 0.5943484000000022
0.573036400000002 0.6369724000000021 0.5942485000000022
0.572969800000002 0.6374386000000021 0.5956804000000022
0.573769000000002 0.6384709000000021 0.5982778000000022
0.573069700000002 0.6404356000000021 0.5977450000000022
0.574168600000002 0.6421006000000021 0.5991436000000022
0.5764330000000021 0.6436657000000021 0.6018076000000022
0.5790637000000021 0.6431995000000021 0.6040387000000023
0.580062700000002 0.6431329000000021 0.6054040000000023
0.5820274000000021 0.6443650000000021 0.6064363000000023
0.583559200000002 0.6454972000000021 0.6053707000000023
0.583026400000002 0.645097600000002 0.6059368000000023
0.584558200000002 0.6462631000000021 0.6060700000000023
0.585124300000002 0.6465628000000021 0.6057370000000023
0.5873554000000021 0.6483943000000021 0.6066361000000023
0.589919500000002 0.6477949000000021 0.6084676000000023
0.5913181000000021 0.649060300000002 0.6108985000000023
0.5927833000000021 0.648960400000002 0.6106987000000024
0.5950477000000022 0.650925100000002 0.6103657000000023
0.5942152000000022 0.649992700000002 0.6128632000000024
0.5961133000000022 0.6512248000000019 0.6118975000000024
0.5963464000000022 0.652623400000002 0.6114646000000025
0.5960800000000022 0.6528232000000019 0.6135625000000025
0.5974453000000022 0.6524569000000019 0.6132628000000024
0.5971456000000022 0.6535891000000019 0.6148279000000024
0.5978782000000021 0.6535225000000019 0.6149278000000025
0.5978449000000021 0.6538888000000019 0.6169924000000024
0.5997097000000021 0.656386300000002 0.6184909000000024
0.6014413000000022 0.658317700000002 0.6190237000000024
0.6030064000000022 0.659816200000002 0.6196897000000025
0.6057037000000022 0.661714300000002 0.6191236000000024
0.6053707000000021 0.662513500000002 0.6195565000000024
0.6068359000000022 0.6610483000000019 0.6216211000000024
0.6068692000000022 0.662713300000002 0.6231196000000023
0.6096997000000022 0.6626134000000019 0.6241852000000023
0.6097330000000022 0.6646447000000019 0.6248845000000023
0.6095332000000022 0.6638788000000019 0.6256171000000023
0.6105655000000022 0.6637456000000018 0.6246847000000022
0.6112315000000023 0.6651109000000018 0.6256504000000022
0.6116311000000023 0.6654439000000019 0.6258835000000021
0.6109318000000024 0.6652774000000019 0.6273487000000022
0.6127966000000024 0.6653440000000019 0.6288805000000022
0.6147613000000024 0.666709300000002 0.6303124000000022
0.6140620000000024 0.6693067000000019 0.6305455000000022
0.6140620000000024 0.6706054000000019 0.6307453000000022
0.6140287000000024 0.6729031000000019 0.6305788000000022
0.6154273000000025 0.6734026000000018 0.6310450000000022
0.6161266000000024 0.6741685000000018 0.6303790000000021
0.6169258000000024 0.6760666000000018 0.6311782000000021
0.6187906000000024 0.6783310000000019 0.6325102000000021
0.6179248000000024 0.678997000000002 0.6326767000000021
0.6169591000000024 0.6791635000000019 0.6326101000000021
0.6159601000000025 0.680861800000002 0.633908800000002
0.6181579000000025 0.679563100000002 0.634408300000002
0.6169258000000025 0.6799960000000019 0.634841200000002
0.6163597000000025 0.680928400000002 0.636173200000002
0.6164263000000025 0.682826500000002 0.638137900000002
0.6161599000000025 0.681294700000002 0.640568800000002
0.6179914000000025 0.681061600000002 0.639736300000002
0.6202891000000025 0.682327000000002 0.641068300000002
0.6215878000000025 0.683625700000002 0.642700000000002
0.6235858000000025 0.682293700000002 0.642866500000002
0.6237856000000025 0.681228100000002 0.641567800000002
0.6236857000000025 0.681994000000002 0.6414013000000021
0.6236857000000025 0.681527800000002 0.642100600000002
0.6250843000000025 0.680362300000002 0.642933100000002
0.6276151000000025 0.680895100000002 0.645497200000002
0.6277150000000026 0.680329000000002 0.647928100000002
0.6287806000000026 0.681960700000002 0.648993700000002
0.6291802000000026 0.682260400000002 0.649559800000002
0.6316777000000027 0.682926400000002 0.651924100000002
0.6322438000000027 0.684957700000002 0.655120900000002
0.6333427000000027 0.687621700000002 0.657618400000002
0.6334759000000028 0.689419900000002 0.6593500000000021
0.6356071000000028 0.688620700000002 0.6610816000000022
0.6384709000000027 0.6903856000000019 0.6619474000000022
0.6397363000000027 0.6895531000000019 0.6621472000000022
0.6410350000000027 0.6898528000000019 0.6649777000000021
0.6406354000000026 0.6886540000000019 0.6663430000000021
0.6392368000000026 0.6895198000000019 0.6661765000000022
0.6412681000000026 0.6888871000000019 0.6664762000000022
0.6430663000000025 0.6890203000000019 0.6673753000000022
0.6447313000000026 0.689686300000002 0.6691735000000022
0.6457636000000025 0.690452200000002 0.6701059000000023
0.6480946000000025 0.692849800000002 0.6712048000000023
0.6486940000000025 0.6927832000000019 0.6736690000000023
0.6506587000000026 0.693182800000002 0.6751009000000023
0.6515245000000026 0.693349300000002 0.6758002000000023
0.6526567000000026 0.6924502000000019 0.6784309000000023
0.6547213000000026 0.6923503000000019 0.6795631000000023
0.6545215000000026 0.6931828000000019 0.6823936000000023
0.6551875000000027 0.6935158000000019 0.6847579000000023
0.6568858000000027 0.6951475000000019 0.6865894000000022
0.6573853000000027 0.6969124000000019 0.6865561000000022
0.6567859000000027 0.6965461000000018 0.6859900000000022
0.6590503000000028 0.6990769000000019 0.6874219000000023
0.6604156000000028 0.7009417000000019 0.6890536000000023
0.6611149000000027 0.7031728000000019 0.6906853000000023
0.6609484000000028 0.7036723000000019 0.6925501000000023
0.6621472000000028 0.704305000000002 0.6922171000000023
0.6629464000000028 0.707002300000002 0.6913180000000022
0.6651442000000028 0.707035600000002 0.6926500000000022
0.6639121000000029 0.707801500000002 0.6930163000000022
0.6644782000000029 0.708467500000002 0.6945148000000022
0.6658102000000029 0.709433200000002 0.6945481000000022
0.6665761000000029 0.710365600000002 0.6943816000000023
0.6679414000000029 0.712430200000002 0.6958801000000022
0.6695065000000029 0.714594700000002 0.6952807000000022
0.6704056000000029 0.7149943000000021 0.6971788000000022
0.671271400000003 0.714927700000002 0.6991102000000022
0.6714712000000029 0.714561400000002 0.7017742000000022
0.6709051000000029 0.716359600000002 0.7022404000000022
0.6721372000000029 0.716626000000002 0.7032061000000022
0.6748012000000029 0.718291000000002 0.7032394000000022
0.6739354000000028 0.718923700000002 0.7042384000000022
0.6753673000000029 0.720755200000002 0.7027399000000022
0.6749344000000029 0.721820800000002 0.7022737000000022
0.6745681000000029 0.724451500000002 0.7042717000000023
0.6757003000000029 0.723718900000002 0.7053040000000023
0.676632700000003 0.7240852000000021 0.7067026000000023
0.677265400000003 0.7244182000000021 0.7060366000000022
0.6773986000000031 0.7229863000000021 0.7049377000000022
0.676999000000003 0.7251508000000021 0.7067026000000022
0.676266400000003 0.7260166000000021 0.7058701000000022
0.6779314000000031 0.7267492000000021 0.7078015000000022
0.6786973000000031 0.7284475000000021 0.7074019000000021
0.6806287000000031 0.7292800000000021 0.7066693000000022
0.680229100000003 0.7296463000000022 0.7071688000000022
0.680428900000003 0.7293466000000022 0.7057369000000021
0.681527800000003 0.7289470000000021 0.7056370000000021
0.683359300000003 0.7301458000000022 0.7067692000000021
0.685690300000003 0.7306786000000022 0.7083343000000021
0.686789200000003 0.7324768000000021 0.708800500000002
0.688420900000003 0.7341751000000022 0.709566400000002
0.689686300000003 0.7356736000000021 0.710332300000002
0.690718600000003 0.7349077000000022 0.7114978000000021
0.6916843000000029 0.7370722000000022 0.711397900000002
0.6932161000000029 0.7371388000000022 0.710465500000002
0.6940153000000029 0.7384375000000022 0.7119973000000019
0.6951142000000029 0.7400359000000022 0.715027600000002
0.6967126000000029 0.7409683000000022 0.7162597000000019
0.6985108000000029 0.7434325000000023 0.718524100000002
0.7009084000000029 0.7433992000000023 0.719623000000002
0.7027732000000029 0.7435657000000022 0.7216210000000021
0.7025068000000029 0.7443649000000022 0.721221400000002
0.7035391000000029 0.7459633000000022 0.720788500000002
0.7059700000000029 0.7486273000000022 0.721554400000002
0.7071022000000029 0.7488604000000022 0.7221871000000021
0.7071022000000029 0.7512247000000022 0.7250842000000021
0.7065694000000029 0.7524568000000021 0.7278148000000021
0.7062031000000029 0.7517242000000022 0.7274818000000021
0.7071022000000029 0.7529563000000021 0.727714900000002
0.7084009000000029 0.7546546000000022 0.726849100000002
0.7090336000000029 0.7560199000000022 0.7256170000000021
0.7090003000000029 0.7568191000000022 0.7282810000000021
0.709666300000003 0.7572853000000022 0.727681600000002
0.710165800000003 0.7575517000000022 0.727015600000002
0.710498800000003 0.7596496000000021 0.727348600000002
0.712330300000003 0.7597828000000022 0.7288138000000021
0.712963000000003 0.7592833000000022 0.7283476000000021
0.712630000000003 0.7619806000000022 0.7279147000000021
0.711631000000003 0.7625800000000023 0.7287472000000021
0.712896400000003 0.7649443000000022 0.7279480000000021
0.714061900000003 0.7662763000000022 0.7299127000000022
0.716159800000003 0.7663762000000023 0.7314112000000021
0.7173586000000031 0.7681078000000023 0.7338421000000022
0.7177582000000031 0.7712047000000023 0.7344748000000022
0.7204222000000031 0.7731694000000023 0.7338754000000022
0.7229863000000031 0.7761331000000024 0.7351075000000021
0.7222537000000031 0.7789969000000023 0.7345081000000021
0.7228198000000031 0.7811281000000023 0.7359067000000021
0.7212880000000031 0.7828930000000023 0.7368391000000022
0.7235524000000032 0.7822603000000022 0.7394032000000021
0.7244182000000032 0.7810615000000022 0.7406020000000022
0.7265827000000032 0.7807618000000022 0.7431661000000022
0.7273153000000032 0.7820605000000022 0.7429663000000022
0.7278481000000032 0.7835590000000021 0.7418008000000021
0.7309783000000032 0.7839919000000021 0.7422337000000021
0.7317442000000032 0.7863562000000021 0.7445647000000021
0.7320106000000032 0.786822400000002 0.7456636000000021
0.7325101000000032 0.787555000000002 0.7467958000000021
0.7348411000000031 0.787355200000002 0.7473619000000021
0.7369057000000031 0.787921300000002 0.7498927000000022
0.735973300000003 0.789453100000002 0.7506919000000022
0.7363063000000031 0.790252300000002 0.7518574000000022
0.737272000000003 0.790818400000002 0.7546879000000022
0.738903700000003 0.791850700000002 0.7552873000000022
0.7376383000000031 0.792716500000002 0.7570855000000022
0.739403200000003 0.7922836000000021 0.7566526000000022
0.741834100000003 0.7919839000000021 0.7576849000000022
0.744198400000003 0.790785100000002 0.7601824000000023
0.745030900000003 0.790452100000002 0.7603489000000022
0.743832100000003 0.790918300000002 0.7603822000000022
0.743765500000003 0.791950600000002 0.7617142000000022
0.746229700000003 0.793915300000002 0.7635457000000022
0.746396200000003 0.794681200000002 0.7652107000000022
0.747262000000003 0.796379500000002 0.7668757000000023
0.746429500000003 0.796978900000002 0.7667758000000022
0.7465960000000029 0.797511700000002 0.7688737000000022
0.747262000000003 0.7964794000000021 0.7692733000000023
0.747528400000003 0.7979113000000021 0.7711381000000023
0.746962300000003 0.7990768000000021 0.7709050000000023
0.746695900000003 0.7994098000000022 0.7707052000000023
0.748827100000003 0.8005753000000022 0.7702723000000024
0.748627300000003 0.8016409000000022 0.7695730000000024
0.751391200000003 0.8037721000000022 0.7718374000000024
0.752889700000003 0.8036056000000023 0.7741018000000025
0.753522400000003 0.8028397000000023 0.7756003000000025
0.752889700000003 0.8029396000000023 0.7780312000000025
0.754088500000003 0.8043049000000023 0.7770988000000024
0.754854400000003 0.8043382000000023 0.7776649000000024
0.7544215000000031 0.8051707000000023 0.7779313000000024
0.7555537000000031 0.8054704000000024 0.7803622000000024
0.7551208000000031 0.8067691000000023 0.7810615000000024
0.7544215000000032 0.8092333000000024 0.7801957000000024
0.7545880000000031 0.8108983000000024 0.7806952000000024
0.7550875000000031 0.8124967000000024 0.7831594000000024
0.7574185000000031 0.8150275000000025 0.7842250000000024
0.7586506000000031 0.8154937000000024 0.7856236000000024
0.7581178000000031 0.8171920000000025 0.7882876000000024
0.759383200000003 0.8180911000000025 0.7886872000000025
0.7616143000000031 0.8210548000000025 0.7899526000000024
0.7622803000000031 0.8213545000000025 0.7916509000000025
0.7627465000000031 0.8233192000000026 0.7925500000000025
0.7635790000000031 0.8238520000000026 0.7951807000000025
0.7636789000000032 0.8243515000000026 0.7964794000000025
0.7627465000000031 0.8249842000000026 0.7994098000000025
0.7638454000000031 0.8250841000000027 0.8000758000000026
0.7647112000000031 0.8260831000000026 0.8004421000000026
0.7658434000000032 0.8287471000000026 0.8014744000000026
0.7671088000000031 0.8298460000000026 0.8025067000000026
0.7684075000000031 0.8312779000000027 0.8022070000000026
0.7682410000000032 0.8330428000000026 0.8045713000000025
0.7687738000000032 0.8349742000000027 0.8060032000000026
0.7712713000000032 0.8359732000000026 0.8066359000000026
0.7729363000000032 0.8367058000000026 0.8093665000000027
0.7738354000000033 0.8352739000000026 0.8117308000000026
0.7759999000000033 0.8351074000000026 0.8125300000000026
0.7761331000000034 0.8368057000000027 0.8132959000000026
0.7764661000000034 0.8372386000000026 0.8134624000000026
0.7780645000000034 0.8382709000000026 0.8145946000000026
0.7795297000000034 0.8383042000000026 0.8150608000000026
0.7790302000000034 0.8384374000000027 0.8151607000000026
0.7782643000000035 0.8394031000000026 0.8142616000000026
0.7784974000000034 0.8400691000000027 0.8161264000000026
0.7781977000000034 0.8404687000000027 0.8174251000000026
0.7795297000000034 0.8420005000000027 0.8173918000000026
0.7808284000000034 0.8427664000000027 0.8176249000000025
0.7826599000000034 0.8434657000000026 0.8173585000000025
0.7831594000000034 0.8444314000000026 0.8183575000000025
0.7841584000000034 0.8438653000000026 0.8174917000000025
0.7859566000000033 0.8449642000000026 0.8188570000000025
0.7867558000000033 0.8460631000000026 0.8185906000000025
0.7877215000000033 0.8479945000000026 0.8201890000000025
0.7904188000000033 0.8467957000000026 0.8219539000000025
0.7922503000000033 0.8476948000000026 0.8233192000000025
0.7928497000000033 0.8487271000000026 0.8234191000000025
0.7939819000000033 0.8495929000000026 0.8240185000000025
0.7965127000000034 0.8503255000000026 0.8229862000000026
0.7992100000000034 0.8530894000000027 0.8224201000000025
0.7979113000000034 0.8551540000000026 0.8239852000000025
0.7984441000000034 0.8567524000000026 0.8261164000000025
0.7968790000000034 0.8563861000000026 0.8264827000000026
0.7979446000000034 0.8586505000000026 0.8250508000000025
0.8001424000000035 0.8604154000000026 0.8238187000000026
0.7993099000000035 0.8611813000000026 0.8256502000000026
0.8007085000000035 0.8611813000000026 0.8246845000000026
0.8018407000000035 0.8609815000000026 0.8248510000000026
0.8020405000000035 0.8609815000000026 0.8237521000000025
0.8032726000000034 0.8619472000000026 0.8232859000000026
0.8054371000000035 0.8634790000000026 0.8252506000000026
0.8055370000000035 0.8648443000000026 0.8283475000000026
0.8057701000000035 0.8668756000000025 0.8281477000000026
0.8063029000000035 0.8667091000000026 0.8280145000000025
0.8059366000000034 0.8676415000000026 0.8298127000000025
0.8071021000000035 0.8673418000000026 0.8300125000000025
0.8073352000000035 0.8678413000000026 0.8289136000000025
0.8072686000000034 0.8693731000000026 0.8314777000000024
0.8076682000000035 0.8682742000000025 0.8341084000000024
0.8077681000000035 0.8692066000000026 0.8341084000000024
0.8095330000000035 0.8688070000000025 0.8335090000000024
0.8104987000000035 0.8683741000000026 0.8355070000000024
0.8116642000000035 0.8694397000000026 0.8358733000000025
0.8117308000000035 0.8693065000000025 0.8374051000000025
0.8111647000000035 0.8692066000000025 0.8367724000000024
0.8135290000000035 0.8722369000000025 0.8381377000000024
0.8148610000000035 0.8726365000000026 0.8397361000000024
0.8143615000000035 0.8756002000000026 0.8393698000000024
0.8146279000000035 0.8751673000000026 0.8413345000000024
0.8148277000000035 0.8759665000000026 0.8435656000000025
0.8143282000000035 0.8789302000000027 0.8434324000000024
0.8153605000000035 0.8785639000000026 0.8449975000000024
0.8155936000000035 0.8794630000000027 0.8470621000000024
0.8159599000000035 0.8808616000000027 0.8465959000000024
0.8185573000000035 0.8813944000000027 0.8482276000000024
0.8205886000000034 0.8828929000000026 0.8468623000000024
0.8210215000000034 0.8842249000000026 0.8481943000000024
0.8230195000000035 0.8842915000000027 0.8475949000000024
0.8248177000000034 0.8835589000000027 0.8490601000000024
0.8258500000000034 0.8825599000000027 0.8511913000000024
0.8264494000000034 0.8841583000000027 0.8517907000000025
0.8269822000000034 0.8831260000000027 0.8545546000000025
0.8296462000000034 0.8842915000000028 0.8554537000000025
0.8323435000000035 0.8841250000000028 0.8566858000000025
0.8340418000000035 0.8847910000000029 0.8583175000000025
0.8336422000000034 0.8854237000000029 0.8608483000000026
0.8328430000000034 0.884158300000003 0.8612812000000025
0.8325100000000034 0.884291500000003 0.8620138000000025
0.8339752000000035 0.885590200000003 0.8636122000000025
0.8369389000000035 0.887654800000003 0.8644780000000025
0.8378047000000035 0.886689100000003 0.8648110000000025
0.8367391000000035 0.889619500000003 0.8650108000000025
0.8365060000000035 0.888687100000003 0.8646112000000025
0.8358400000000035 0.8889202000000029 0.8669755000000025
0.8358400000000035 0.888154300000003 0.8691733000000025
0.8364727000000035 0.890418700000003 0.8697727000000025
0.8380045000000035 0.891650800000003 0.8698726000000025
0.8388037000000035 0.894115000000003 0.8710714000000026
0.8384707000000035 0.894181600000003 0.8728363000000026
