0.0119647 0.0103663 0.0101998
0.0139294 0.0122977 0.0128638
0.0138628 0.0138295 0.0119647
0.0134965 0.015994 0.0114652
0.0130303 0.0156943 0.0118981
0.0160939 0.016993 0.0127972
0.015194800000000001 0.0195571 0.0146953
0.0172927 0.0204229 0.0144622
0.0184915 0.0207892 0.0141958
0.0190909 0.020323 0.0140959
0.0197902 0.0204229 0.0147619
0.0207559 0.0202564 0.0148285
0.0226873 0.0219214 0.0156943
0.0219214 0.023986 0.0159274
0.0226207 0.0258175 0.0184582
0.0212554 0.0278155 0.0194239
0.0212221 0.0276157 0.0188245
0.0225874 0.0283816 0.0186247
0.0221878 0.0286813 0.0208558
0.0243856 0.0282817 0.0208225
0.0242857 0.0296137 0.0202564
0.0233533 0.0289144 0.0214885
0.0254179 0.0281818 0.0229537
0.0242857 0.0288478 0.022321
0.0255844 0.0314119 0.0232201
0.0266167 0.0330769 0.0237196
0.0285814 0.033643 0.0235864
0.0298801 0.0354412 0.0245188
0.0313453 0.034642 0.0261172
0.0307459 0.0340093 0.0281152
0.0310456 0.0352081 0.0281818
0.0328438 0.035308 0.0304462
0.0319114 0.0357409 0.0312454
0.0335431 0.0374725 0.0310456
0.0360739 0.037639 0.0334765
0.0388045 0.0396037 0.0345088
0.0412687 0.0404695 0.0358075
0.0419014 0.0408025 0.0366067
0.0418348 0.0430669 0.0381052
0.0425008 0.0419014 0.0378388
0.0419347 0.0418015 0.0380386
0.0443323 0.0439993 0.038971
0.0448651 0.0440326 0.0388045
0.046963 0.0452647 0.0402031
0.0491608 0.0465634 0.0410356
0.0492607 0.0486613 0.0434332
0.0511588 0.0497935 0.0423676
0.0537562 0.0494272 0.044632
0.0565201 0.0525574 0.0450316
0.058384899999999997 0.0527572 0.0470629
0.059150799999999996 0.0514252 0.0471961
0.060715899999999996 0.0533566 0.0494938
0.062014599999999996 0.0532567 0.0521245
0.0634132 0.0551881 0.052291
0.0631468 0.0579853 0.0536563
0.0633466 0.059184099999999996 0.0536896
0.0643123 0.060149799999999996 0.0556543
0.0653113 0.059250699999999996 0.0559873
0.0672094 0.060682599999999996 0.0564202
0.066943 0.062247699999999996 0.055954
0.0677755 0.061648299999999996 0.058318299999999997
0.0673093 0.0630136 0.060449499999999996
0.0687079 0.0639127 0.062181099999999996
0.0683083 0.0640792 0.062314299999999996
0.0693073 0.0638128 0.061515099999999996
0.0712054 0.0639793 0.061182099999999996
0.0706726 0.0638794 0.061348599999999996
0.0725374 0.0656443 0.0634798
0.0733699 0.0660772 0.0655444
0.0733033 0.0686413 0.0670762
0.0739027 0.0698401 0.0679753
0.0756676 0.0693406 0.0678754
0.0754345 0.0702397 0.0663436
0.074602 0.0712054 0.0683083
0.0760006 0.0728038 0.068941
0.0760672 0.0739027 0.0687412
0.0777655 0.0731035 0.0693739
0.0777655 0.0740026 0.0690409
0.0776323 0.0753679 0.0706726
0.0774325 0.0766999 0.0716716
0.0786313 0.0758674 0.0742024
0.0804295 0.0752014 0.0737695
0.0830269 0.0774991 0.0749017
0.0835264 0.0790642 0.0768331
0.0853912 0.0803629 0.0762004
0.0861238 0.0801298 0.0770329
0.0883882 0.0794971 0.0785314
0.0873559 0.0793306 0.0799966
0.0879886 0.0790642 0.0797302
0.0889876 0.078931 0.080929
0.0913519 0.079264 0.0822943
0.092251 0.0820612 0.0828604
0.0926839 0.081928 0.081595
0.0940825 0.0816616 0.0834598
0.0928504 0.0827272 0.084592
0.0940492 0.0830935 0.0858907
0.0943156 0.084259 0.0863569
0.0940492 0.0861904 0.0885214
0.0963469 0.0882883 0.0883882
0.0970462 0.0889543 0.0877555
0.0978787 0.088588 0.0877222
0.1005427 0.0887545 0.0886213
0.0997102 0.0907525 0.0901198
0.1001098 0.0900865 0.0892207
0.1017748 0.0924841 0.0886546
0.1029403 0.0942157 0.0898867
0.1047385 0.0932833 0.0909856
0.1034065 0.0947485 0.0925174
0.1048384 0.0939826 0.0954478
0.1073026 0.0931834 0.0969463
0.1073692 0.0930835 0.0995437
0.1090675 0.095581 0.0998767
0.1087345 0.0943156 0.0997768
0.1083682 0.095581 0.1017748
0.1107658 0.0948484 0.1018414
0.1126972 0.094915 0.1010422
0.1133632 0.0945154 0.1023409
0.1142623 0.0951481 0.1035064
0.115561 0.0963802 0.1046719
0.1159939 0.0974791 0.1063369
0.1165933 0.0973792 0.1083016
0.1171594 0.0985114 0.1074025
0.1179919 0.098578 0.1080019
0.1197568 0.0977455 0.1099666
0.1216549 0.1005094 0.1098334
0.1224541 0.100576 0.1098001
0.1237528 0.1015084 0.1094671
0.1266499 0.1016083 0.1118647
0.1277155 0.1026406 0.1128304
0.12934720000000002 0.1031068 0.1146952
0.13101220000000002 0.1037062 0.1149283
0.13297690000000004 0.1054378 0.1157608
0.13291030000000004 0.1054711 0.1160605
0.13314340000000005 0.1082683 0.117559
0.13394260000000005 0.110233 0.1173592
0.13570750000000006 0.1118647 0.117892
0.13657330000000006 0.1110988 0.1193239
0.13683970000000006 0.1142623 0.1186579
0.13667320000000005 0.1160605 0.1209223
0.13567420000000005 0.1177921 0.1221544
0.13594060000000005 0.1177588 0.1223209
0.13693960000000005 0.1201897 0.1239526
0.13770550000000006 0.1201897 0.1263835
0.13750570000000006 0.1204228 0.12808180000000002
0.13917070000000006 0.1219213 0.13027960000000002
0.14056930000000006 0.1215883 0.13204450000000004
0.14090230000000006 0.1219213 0.13434220000000005
0.14026960000000005 0.1214218 0.13464190000000006
0.14336650000000006 0.1225873 0.13634020000000008
0.14573080000000008 0.1247851 0.13640680000000008
0.14436550000000006 0.1255177 0.1376389000000001
0.14556430000000006 0.12588400000000002 0.1384714000000001
0.14529790000000006 0.12741580000000002 0.13990330000000012
0.14536450000000006 0.12811510000000004 0.13943710000000012
0.14609710000000006 0.12968020000000005 0.14083570000000012
0.14689630000000006 0.13184470000000006 0.14090230000000012
0.14692960000000008 0.13457530000000006 0.13977010000000012
0.1480285000000001 0.13614040000000008 0.14233420000000013
0.1495936000000001 0.1374391000000001 0.14143510000000012
0.15015970000000012 0.13733920000000008 0.14150170000000012
0.15165820000000013 0.1386379000000001 0.14426560000000013
0.15079240000000013 0.1384381000000001 0.14689630000000015
0.15222430000000015 0.1414684000000001 0.14626360000000013
0.15172480000000013 0.14416570000000012 0.14709610000000015
0.15209110000000015 0.14579740000000013 0.14929390000000015
0.15279040000000016 0.14676310000000015 0.15042610000000015
0.15442210000000017 0.14719600000000016 0.14995990000000015
0.15375610000000017 0.14706280000000016 0.15149170000000015
0.15548770000000017 0.14942710000000017 0.15368950000000015
0.15608710000000017 0.14919400000000016 0.15242410000000015
0.1565200000000002 0.14979340000000016 0.15189130000000015
0.1581184000000002 0.15055930000000017 0.15425560000000016
0.1604494000000002 0.1511254000000002 0.15488830000000017
0.1609822000000002 0.1511920000000002 0.15708610000000017
0.1603828000000002 0.1528237000000002 0.15691960000000016
0.1607491000000002 0.15465520000000021 0.15768550000000017
0.1608157000000002 0.15578740000000021 0.15648670000000017
0.1626805000000002 0.15608710000000023 0.1573192000000002
0.1647118000000002 0.15655330000000023 0.1581184000000002
0.16561090000000023 0.15748570000000023 0.1582516000000002
0.16830820000000024 0.15978340000000024 0.1589176000000002
0.17040610000000025 0.16148170000000026 0.1599832000000002
0.17103880000000027 0.16424560000000027 0.1605826000000002
0.17063920000000027 0.16477840000000027 0.15981670000000017
0.17380270000000028 0.16611040000000027 0.16221430000000017
0.1752346000000003 0.16554430000000026 0.16178140000000016
0.1763335000000003 0.16541110000000026 0.16248070000000017
0.17869780000000032 0.16611040000000027 0.16211440000000016
0.18006310000000034 0.16660990000000028 0.16281370000000017
0.18239410000000034 0.1670428000000003 0.16374610000000017
0.18555760000000035 0.1675090000000003 0.16551100000000019
0.18682300000000035 0.1688077000000003 0.16770880000000019
0.18842140000000035 0.16930720000000032 0.1704727000000002
0.18872110000000036 0.17170480000000032 0.1721710000000002
0.19068580000000038 0.17393590000000034 0.17340310000000023
0.19015300000000038 0.17436880000000035 0.17400250000000023
0.18958690000000036 0.17460190000000037 0.17520130000000023
0.19225090000000036 0.17333650000000037 0.17556760000000024
0.19258390000000036 0.17353630000000037 0.17646670000000025
0.19491490000000036 0.17500150000000037 0.17650000000000027
0.19468180000000035 0.17803180000000038 0.17510140000000027
0.19591390000000036 0.17809840000000038 0.17689960000000027
0.19701280000000038 0.1781983000000004 0.17776540000000027
0.1981783000000004 0.1803295000000004 0.17666650000000025
0.1982449000000004 0.1822942000000004 0.17669980000000027
0.1988443000000004 0.18399250000000042 0.17896420000000027
0.1999432000000004 0.18402580000000043 0.18122860000000027
0.1998433000000004 0.18465850000000045 0.18146170000000028
0.1997101000000004 0.18549100000000046 0.1834264000000003
0.2021410000000004 0.18602380000000046 0.1836262000000003
0.2011087000000004 0.18828820000000046 0.1843255000000003
0.2015083000000004 0.19051930000000047 0.18509140000000032
0.2018746000000004 0.18988660000000046 0.1850581000000003
0.20363950000000042 0.18995320000000046 0.1861237000000003
0.20407240000000043 0.18885430000000045 0.1853911000000003
0.20513800000000043 0.18855460000000043 0.1859905000000003
0.20470510000000042 0.18882100000000043 0.1864567000000003
0.20570410000000042 0.19018630000000045 0.1876555000000003
0.20683630000000042 0.18995320000000043 0.18968680000000032
0.20700280000000043 0.19008640000000043 0.18995320000000032
0.20856790000000044 0.19095220000000043 0.19125190000000034
0.20866780000000046 0.19085230000000042 0.19191790000000034
0.20940040000000046 0.19228420000000043 0.19165150000000034
0.21206440000000046 0.19348300000000043 0.19201780000000035
0.21436210000000047 0.19324990000000042 0.19098550000000034
0.21749230000000047 0.19648000000000043 0.19158490000000034
0.21872440000000049 0.19717930000000045 0.19195120000000035
0.21842470000000047 0.19711270000000045 0.19098550000000034
0.21875770000000047 0.19937710000000045 0.18998650000000034
0.22052260000000048 0.20060920000000046 0.18995320000000032
0.22338640000000048 0.20070910000000047 0.19295020000000032
0.2260837000000005 0.20204110000000047 0.1923841000000003
0.2271493000000005 0.20317330000000047 0.1938493000000003
0.2283148000000005 0.2038726000000005 0.19408240000000032
0.2280151000000005 0.20383930000000047 0.1930501000000003
0.22758220000000048 0.2053378000000005 0.1949149000000003
0.22724920000000048 0.2055709000000005 0.1971127000000003
0.2274823000000005 0.2048383000000005 0.1962136000000003
0.2274823000000005 0.2060371000000005 0.1974457000000003
0.22718260000000048 0.2051713000000005 0.1979785000000003
0.2294803000000005 0.20633680000000051 0.1993105000000003
0.2295802000000005 0.20830150000000053 0.19974340000000032
0.2306458000000005 0.20953360000000054 0.20137510000000033
0.2297800000000005 0.21023290000000056 0.20240740000000035
0.22994650000000053 0.20936710000000056 0.20377270000000036
0.23017960000000054 0.20946700000000057 0.20593720000000038
0.23094550000000055 0.20890090000000056 0.2068363000000004
0.23281030000000055 0.20960020000000057 0.2087011000000004
0.23354290000000055 0.21236410000000058 0.20773540000000038
0.23544100000000057 0.2147950000000006 0.20786860000000038
0.23713930000000058 0.2151280000000006 0.20893420000000038
0.23713930000000058 0.2159605000000006 0.2104327000000004
0.2381050000000006 0.2169595000000006 0.2112319000000004
0.2381050000000006 0.2177587000000006 0.2119312000000004
0.2409688000000006 0.2186245000000006 0.2126638000000004
0.2423008000000006 0.2182915000000006 0.2133964000000004
0.2426005000000006 0.2178919000000006 0.2157274000000004
0.2416348000000006 0.2175589000000006 0.2185246000000004
0.2432665000000006 0.21779200000000062 0.2185246000000004
0.2440657000000006 0.21885760000000062 0.2194570000000004
0.2443987000000006 0.22108870000000064 0.2205892000000004
0.2433997000000006 0.22278700000000065 0.2204227000000004
0.2451979000000006 0.22481830000000066 0.21945700000000037
0.2438992000000006 0.22391920000000065 0.21959020000000037
0.2434330000000006 0.22511800000000065 0.21912400000000037
0.2462635000000006 0.22601710000000066 0.2208889000000004
0.2461303000000006 0.22751560000000068 0.2210221000000004
0.2460637000000006 0.22751560000000068 0.2205559000000004
0.2477287000000006 0.22811500000000068 0.2201563000000004
0.2477953000000006 0.22818160000000068 0.2206891000000004
0.2484613000000006 0.22814830000000066 0.2216548000000004
0.2497933000000006 0.23027950000000066 0.2215216000000004
0.25212430000000063 0.22934710000000066 0.2213884000000004
0.2512918000000006 0.23191120000000068 0.22222090000000042
0.25265710000000063 0.23104540000000068 0.22238740000000043
0.25472170000000066 0.2318779000000007 0.22425220000000043
0.2562202000000007 0.2322109000000007 0.22521790000000044
0.2584846000000007 0.2337760000000007 0.22615030000000044
0.2611819000000007 0.2357740000000007 0.22844800000000046
0.2630134000000007 0.2352079000000007 0.23004640000000046
0.2646784000000007 0.23470840000000068 0.23161150000000047
0.26634340000000073 0.23570740000000068 0.23111200000000046
0.26477830000000074 0.23644000000000068 0.23091220000000046
0.26684290000000077 0.23823820000000068 0.23207770000000047
0.2691739000000008 0.23720590000000066 0.23287690000000047
0.2703061000000008 0.23850460000000068 0.23417560000000048
0.2709721000000008 0.2408023000000007 0.2348749000000005
0.27290350000000085 0.2417680000000007 0.2350747000000005
0.27250390000000085 0.2406691000000007 0.2370394000000005
0.2731033000000009 0.2413684000000007 0.2369062000000005
0.2742355000000009 0.2417680000000007 0.23827150000000052
0.2739025000000009 0.2429668000000007 0.2376388000000005
0.2766997000000009 0.2425672000000007 0.2391040000000005
0.2776321000000009 0.24419890000000072 0.2383048000000005
0.27879760000000087 0.2438326000000007 0.2381383000000005
0.2792638000000009 0.2429002000000007 0.2383048000000005
0.2796634000000009 0.2421010000000007 0.2385712000000005
0.2787643000000009 0.2446318000000007 0.24013630000000052
0.2789974000000009 0.2447650000000007 0.24086890000000052
0.2778319000000009 0.24672970000000072 0.24336640000000054
0.27829810000000094 0.24819490000000072 0.24426550000000055
0.27936370000000094 0.24892750000000072 0.24489820000000057
0.2806624000000009 0.24896080000000073 0.24539770000000058
0.28122850000000094 0.2515249000000007 0.2476954000000006
0.28322650000000094 0.25199110000000075 0.2504593000000006
0.28405900000000095 0.2537893000000008 0.2529901000000006
0.285324400000001 0.25455520000000076 0.2533564000000006
0.286856200000001 0.2532565000000008 0.2553544000000006
0.28985320000000103 0.2533897000000008 0.2554876000000006
0.29135170000000105 0.25415560000000076 0.2557873000000006
0.2927503000000011 0.2544553000000008 0.2581849000000006
0.29418220000000106 0.25482160000000076 0.2613484000000006
0.29564740000000106 0.2558206000000008 0.2622142000000006
0.29671300000000106 0.2580184000000008 0.2616148000000006
0.2952811000000011 0.2577187000000008 0.2625472000000006
0.2968795000000011 0.25751890000000077 0.2649781000000006
0.2963800000000011 0.25788520000000076 0.2638792000000006
0.2980117000000011 0.25984990000000074 0.2651446000000006
0.2999098000000011 0.26078230000000074 0.2655442000000006
0.3000097000000011 0.2599165000000007 0.26641000000000065
0.30114190000000113 0.26034940000000073 0.2679418000000007
0.30343960000000114 0.2607157000000007 0.2695735000000007
0.30557080000000114 0.2624473000000007 0.2697400000000007
0.3055375000000011 0.2641456000000007 0.2708056000000007
0.30640330000000116 0.2655775000000007 0.2708056000000007
0.30547090000000116 0.2660437000000007 0.2716048000000007
0.3079351000000012 0.2660437000000007 0.2711386000000007
0.3080017000000012 0.2649448000000007 0.27013960000000065
0.3083680000000012 0.2667763000000007 0.27027280000000065
0.3088675000000012 0.2684746000000007 0.27080560000000065
0.3094669000000012 0.2696068000000007 0.2699398000000006
0.3113317000000012 0.2701729000000007 0.2712718000000006
0.3132964000000012 0.27170470000000074 0.27147160000000065
0.3136960000000012 0.27160480000000076 0.27376930000000066
0.3138625000000012 0.27173800000000076 0.27693280000000065
0.3127303000000012 0.27370270000000074 0.27786520000000065
0.3142621000000012 0.27356950000000074 0.27893080000000064
0.3150280000000012 0.27643330000000077 0.28022950000000063
0.3172591000000012 0.27630010000000077 0.2811286000000006
0.31855780000000117 0.2769994000000008 0.2798965000000006
0.3211219000000012 0.2779318000000008 0.2825938000000006
0.3224539000000012 0.28042930000000077 0.28395910000000063
0.3220543000000012 0.2800630000000008 0.28532440000000064
0.3224539000000012 0.28082890000000077 0.28539100000000067
0.32548420000000117 0.2825938000000008 0.28655650000000066
0.3263167000000012 0.2813950000000008 0.28832140000000067
0.3269161000000012 0.2823274000000008 0.28975330000000066
0.32778190000000124 0.2828935000000008 0.29091880000000064
0.32834800000000125 0.2833264000000008 0.29155150000000063
0.3294802000000013 0.2855575000000008 0.29188450000000066
0.3306790000000013 0.2847250000000008 0.29188450000000066
0.3323440000000013 0.2837926000000008 0.29075230000000063
0.3343420000000013 0.28375930000000077 0.2907190000000006
0.3351412000000013 0.28479160000000076 0.2896534000000006
0.3376720000000013 0.28502470000000074 0.2902861000000006
0.3390373000000013 0.2859238000000007 0.29141830000000063
0.3377053000000013 0.2857240000000007 0.29161810000000066
0.3387376000000013 0.2861236000000007 0.29251720000000064
0.3390040000000013 0.2870560000000007 0.29215090000000066
0.3384046000000013 0.2895202000000007 0.29411560000000064
0.3375055000000013 0.29021950000000074 0.29308330000000066
0.3370726000000013 0.2897866000000007 0.29288350000000063
0.3390706000000013 0.2921509000000007 0.2941822000000006
0.3399364000000013 0.2917513000000007 0.29421550000000063
0.3406357000000013 0.2932165000000007 0.2951146000000006
0.3426004000000013 0.2957140000000007 0.2968462000000006
0.3451645000000013 0.2958472000000007 0.2966797000000006
0.34536430000000135 0.2961802000000007 0.2970793000000006
0.34593040000000136 0.2985778000000007 0.29714590000000063
0.34832800000000136 0.29917720000000075 0.29781190000000063
0.3499930000000014 0.29947690000000077 0.29987650000000066
0.3520243000000014 0.29974330000000077 0.3015415000000007
0.3525238000000014 0.30117520000000075 0.30284020000000067
0.3537892000000014 0.30024280000000075 0.3035395000000007
0.3526903000000014 0.3008422000000008 0.3040723000000007
0.3522574000000014 0.3033064000000008 0.30603700000000067
0.35528770000000137 0.30377260000000084 0.3073024000000007
0.35635330000000137 0.3048049000000008 0.3068695000000007
0.3569527000000014 0.30523780000000084 0.3085012000000007
0.3556540000000014 0.3065365000000008 0.3085678000000007
0.3549547000000014 0.30816820000000084 0.30833470000000074
0.3580183000000014 0.30970000000000086 0.3087010000000007
0.3580183000000014 0.31033270000000085 0.3097333000000007
0.3596500000000014 0.31259710000000085 0.3123640000000007
0.3594502000000014 0.31459510000000085 0.3126970000000007
0.3601495000000014 0.31672630000000085 0.31512790000000074
0.3607822000000014 0.3165265000000008 0.31609360000000075
0.3599830000000014 0.31725910000000085 0.3177586000000008
0.3609487000000014 0.3173257000000009 0.3198898000000008
0.3615814000000014 0.3197899000000009 0.3217546000000008
0.3637459000000014 0.3196900000000009 0.3231532000000008
0.3634462000000014 0.3188908000000009 0.3237859000000008
0.3628135000000014 0.3199231000000009 0.3235195000000008
0.3619144000000014 0.3228868000000009 0.3240190000000008
0.36198100000000144 0.32438530000000093 0.3250180000000008
0.36228070000000145 0.32615020000000094 0.32668300000000083
0.3642121000000015 0.32774860000000094 0.3266497000000008
0.36524440000000147 0.329014000000001 0.32801500000000083
0.36587710000000145 0.32831470000000096 0.32788180000000083
0.3654109000000014 0.33097870000000096 0.33061240000000086
0.3651112000000014 0.33091210000000093 0.3314782000000009
0.3673423000000014 0.33251050000000093 0.33114520000000086
0.3676753000000014 0.3343420000000009 0.33014620000000083
0.36973990000000145 0.3363067000000009 0.3301129000000008
0.37230400000000147 0.3365398000000009 0.3311785000000008
0.3741022000000015 0.33620680000000086 0.33134500000000083
0.3733363000000015 0.33767200000000086 0.33274360000000086
0.3742354000000015 0.33980320000000086 0.3323773000000009
0.3760336000000015 0.3427669000000009 0.33287680000000086
0.37859770000000154 0.34406560000000086 0.33364270000000085
0.37929700000000155 0.34619680000000086 0.33617350000000085
0.38152810000000154 0.34736230000000085 0.3377053000000009
0.3836260000000015 0.34886080000000086 0.3385378000000009
0.3831598000000015 0.34829470000000085 0.3401695000000009
0.3839590000000015 0.34786180000000083 0.3412351000000009
0.3832597000000015 0.34852780000000083 0.3420010000000009
0.3849247000000015 0.3487609000000008 0.3410686000000009
0.3846583000000015 0.3500929000000008 0.3423673000000009
0.3866896000000015 0.3512917000000008 0.3446650000000009
0.3893536000000015 0.35162470000000084 0.3435994000000009
0.3916180000000015 0.35425540000000083 0.3429667000000009
0.39151810000000153 0.35641990000000084 0.3432664000000009
0.3928168000000015 0.35625340000000083 0.34573060000000094
0.3919843000000015 0.3568861000000008 0.3445984000000009
0.3937159000000015 0.35572060000000083 0.34742890000000093
0.39657970000000153 0.35851780000000083 0.34772860000000094
0.3962800000000015 0.3595501000000008 0.34799500000000094
0.39687940000000155 0.35945020000000083 0.34819480000000097
0.39834460000000155 0.36051580000000083 0.348527800000001
0.39731230000000156 0.36178120000000086 0.348661000000001
0.39914380000000155 0.36364600000000086 0.348627700000001
0.40130830000000156 0.36461170000000087 0.34722910000000096
0.4020076000000016 0.3656107000000009 0.34762870000000096
0.4014748000000016 0.3665098000000009 0.34609690000000093
0.40290670000000156 0.36551080000000086 0.34776190000000096
0.40270690000000153 0.36544420000000083 0.349560100000001
0.4030732000000015 0.36414550000000084 0.352124200000001
0.4035727000000015 0.36504460000000083 0.352190800000001
0.4061035000000015 0.36734230000000084 0.35422210000000104
0.4063699000000015 0.36717580000000083 0.35535430000000107
0.4076020000000015 0.3675421000000008 0.35695270000000107
0.40643650000000153 0.36797500000000083 0.35918380000000105
0.4059703000000015 0.36987310000000084 0.36074890000000104
0.4074022000000015 0.37127170000000087 0.36354610000000104
0.4102993000000015 0.37113850000000087 0.36381250000000104
0.4111318000000015 0.37087210000000087 0.36454510000000107
0.4121641000000015 0.37127170000000087 0.36587710000000107
0.4141621000000015 0.3734362000000009 0.36494470000000107
0.41599360000000146 0.3751678000000009 0.3661768000000011
0.4173922000000015 0.3762667000000009 0.36571060000000105
0.4190905000000015 0.3785311000000009 0.36694270000000107
0.41889070000000145 0.3794302000000009 0.3681748000000011
0.42195430000000145 0.38059570000000087 0.3677752000000011
0.42398560000000146 0.38012950000000084 0.3699064000000011
0.42438520000000146 0.38199430000000084 0.3714382000000011
0.42408550000000145 0.3836926000000008 0.3710386000000011
0.42528430000000145 0.3836593000000008 0.3714715000000011
0.4270825000000015 0.3828268000000008 0.37270360000000113
0.4272823000000015 0.3844585000000008 0.37403560000000113
0.4282147000000015 0.3837925000000008 0.37576720000000113
0.4298464000000015 0.3833929000000008 0.3753010000000011
0.43137820000000154 0.3831931000000008 0.3771325000000011
0.43367590000000156 0.3851911000000008 0.3773989000000011
0.43340950000000156 0.3857239000000008 0.3772990000000011
0.43274350000000156 0.38525770000000076 0.3783979000000011
0.43327630000000156 0.38399230000000073 0.3795634000000011
0.43417540000000154 0.3862234000000007 0.3792637000000011
0.43360930000000153 0.38842120000000074 0.3794635000000011
0.43547410000000153 0.38802160000000074 0.3801295000000011
0.4345084000000015 0.38975320000000074 0.3819943000000011
0.43627330000000153 0.39195100000000077 0.38136160000000113
0.43807150000000156 0.39391570000000076 0.38059570000000115
0.43780510000000156 0.3954475000000008 0.38009620000000116
0.43957000000000157 0.3962467000000008 0.37876420000000116
0.4413682000000016 0.39594700000000077 0.38006290000000115
0.4418344000000016 0.39754540000000077 0.38056240000000113
0.4432996000000016 0.39687940000000077 0.38032930000000115
0.4455640000000016 0.3969460000000008 0.38062900000000116
0.4464964000000016 0.3978451000000008 0.38249380000000116
0.44706250000000164 0.3990772000000008 0.3829600000000012
0.44792830000000167 0.3997765000000008 0.3846250000000012
0.44842780000000165 0.3992770000000008 0.38522440000000124
0.44776180000000165 0.40067560000000085 0.38519110000000123
0.44856100000000165 0.40187440000000085 0.38495800000000124
0.4506256000000017 0.4018078000000008 0.38625670000000123
0.45059230000000167 0.4006756000000008 0.38599030000000123
0.45202420000000165 0.4003093000000008 0.38559070000000123
0.45245710000000167 0.3999430000000008 0.38832130000000126
0.4527901000000017 0.4020409000000008 0.3886543000000013
0.4545217000000017 0.4042054000000008 0.3889207000000013
0.4546216000000017 0.4063366000000008 0.3901528000000013
0.4544884000000017 0.4057705000000008 0.3906190000000013
0.4549213000000017 0.4084678000000008 0.39185110000000134
0.4554208000000017 0.4078018000000008 0.3917845000000013
0.4569193000000017 0.4067362000000008 0.39198430000000134
0.4596499000000017 0.4062034000000008 0.3927502000000013
0.4590505000000017 0.4059037000000008 0.39508120000000135
0.45831790000000167 0.40796830000000084 0.39604690000000137
0.45964990000000167 0.40923370000000087 0.39511450000000137
0.4604824000000017 0.4107655000000009 0.3967462000000014
0.46044910000000167 0.4115314000000009 0.3980116000000014
0.46014940000000165 0.4111651000000009 0.39927700000000144
0.46121500000000165 0.4132630000000009 0.39987640000000146
0.4622140000000017 0.41283010000000087 0.3999430000000015
0.4629133000000017 0.4135294000000009 0.4005757000000015
0.4630798000000017 0.4156939000000009 0.4002094000000015
0.4635793000000017 0.4184911000000009 0.4001095000000015
0.4637458000000017 0.4199896000000009 0.4000762000000015
0.4659769000000017 0.4202893000000009 0.4025404000000015
0.4677085000000017 0.4228201000000009 0.40513780000000155
0.4685743000000017 0.42325300000000093 0.40633660000000155
0.4706722000000017 0.42461830000000095 0.40643650000000153
0.4715713000000017 0.424684900000001 0.40780180000000155
0.4738357000000017 0.426716200000001 0.40743550000000156
0.4733029000000017 0.428647600000001 0.41006620000000155
0.4751011000000017 0.430212700000001 0.4099996000000015
0.47530090000000175 0.430845400000001 0.4121308000000015
0.47493460000000176 0.433076500000001 0.41286340000000155
0.47383570000000175 0.433909000000001 0.41402890000000153
0.4756339000000018 0.436173400000001 0.4138624000000015
0.4768327000000018 0.436006900000001 0.4150279000000015
0.4761667000000018 0.437771800000001 0.4151278000000015
0.4771657000000018 0.438271300000001 0.4164931000000015
0.47789830000000183 0.439936300000001 0.41669290000000153
0.4778317000000018 0.439636600000001 0.41855770000000153
0.4799296000000018 0.440102800000001 0.42042250000000153
0.4815613000000018 0.440768800000001 0.4200895000000015
0.4808287000000018 0.441001900000001 0.4203559000000015
0.4811617000000018 0.44173450000000103 0.4229200000000015
0.4815280000000018 0.44283340000000104 0.42311980000000154
0.4808287000000018 0.44313310000000106 0.42355270000000156
0.48359260000000176 0.4435993000000011 0.42355270000000156
0.4863232000000018 0.4436326000000011 0.4226536000000016
0.4877218000000018 0.4439323000000011 0.4228201000000016
0.49081870000000183 0.44692930000000114 0.4234861000000016
0.4935826000000018 0.44806150000000117 0.4235194000000016
0.49418200000000184 0.4488940000000012 0.4251178000000016
0.49301650000000186 0.44792830000000117 0.4250845000000016
0.49351600000000184 0.44909380000000115 0.4272490000000016
0.49401550000000183 0.4490272000000011 0.4275820000000016
0.49408210000000186 0.45079210000000114 0.4270159000000016
0.49551400000000184 0.4522240000000011 0.4280815000000016
0.49761190000000183 0.45239050000000114 0.4288807000000016
0.4985110000000018 0.4512916000000011 0.4290472000000016
0.5004757000000019 0.45269020000000115 0.4294468000000016
0.5027401000000019 0.45192430000000117 0.4285810000000016
0.5036059000000019 0.45229060000000115 0.4291471000000016
0.505504000000002 0.45445510000000117 0.43094530000000164
0.505803700000002 0.45605350000000117 0.43244380000000165
0.5081347000000019 0.45765190000000117 0.43417540000000165
0.510066100000002 0.4602160000000012 0.43467490000000164
0.5091670000000019 0.4604824000000012 0.43524100000000165
0.510299200000002 0.4621141000000012 0.43687270000000167
0.511731100000002 0.4624471000000012 0.4380049000000017
0.513695800000002 0.46304650000000125 0.4394368000000017
0.513362800000002 0.46321300000000126 0.4381381000000017
0.513629200000002 0.46301320000000123 0.4386709000000017
0.515460700000002 0.4641787000000012 0.4399363000000017
0.517092400000002 0.4633129000000012 0.4413682000000017
0.517425400000002 0.4652110000000012 0.4416013000000017
0.516659500000002 0.4655107000000012 0.4428001000000017
0.518491000000002 0.4680415000000012 0.4433995000000017
0.519256900000002 0.4676086000000012 0.4428334000000017
0.518890600000002 0.46954000000000123 0.4420675000000017
0.5211883000000019 0.46997290000000125 0.44280010000000175
0.521254900000002 0.46997290000000125 0.4439323000000018
0.523985500000002 0.4696399000000012 0.44509780000000176
0.523386100000002 0.4700062000000012 0.4455307000000018
0.526050100000002 0.4709053000000012 0.4479616000000018
0.525084400000002 0.4703725000000012 0.4482280000000018
0.526582900000002 0.4707055000000012 0.4509253000000018
0.526649500000002 0.47130490000000125 0.4499263000000018
0.528181300000002 0.47160460000000126 0.4509919000000018
0.528214600000002 0.47400220000000126 0.4519243000000018
0.529480000000002 0.47480140000000126 0.4532896000000018
0.5296798000000019 0.4757671000000013 0.4533895000000018
0.5298463000000019 0.4752343000000013 0.4533895000000018
0.5327767000000019 0.47426860000000126 0.4552543000000018
0.5348746000000019 0.47410210000000125 0.45615340000000176
0.5353408000000018 0.47410210000000125 0.4580515000000018
0.5369392000000018 0.47383570000000125 0.4580515000000018
0.5366395000000018 0.47533420000000126 0.4571191000000018
0.5364064000000018 0.47546740000000126 0.4575187000000018
0.5361400000000018 0.4766995000000013 0.4586509000000018
0.5372389000000019 0.47866420000000126 0.4590505000000018
0.5403025000000019 0.47956330000000125 0.4586509000000018
0.5424670000000019 0.4796299000000013 0.4611484000000018
0.5416345000000019 0.4801627000000013 0.4611484000000018
0.5424004000000019 0.4814281000000013 0.4612483000000018
0.5420674000000019 0.4815946000000013 0.4615147000000018
0.5438323000000018 0.48082870000000133 0.46387900000000176
0.5440987000000018 0.48219400000000134 0.4650112000000018
0.5444650000000019 0.48112840000000134 0.4660435000000018
0.5449645000000019 0.48262690000000136 0.46894060000000176
0.5463631000000019 0.4826935000000014 0.4683079000000018
0.5470291000000019 0.4821940000000014 0.4698397000000018
0.5472955000000019 0.4812949000000014 0.47110510000000183
0.547395400000002 0.4806955000000014 0.4713382000000018
0.546596200000002 0.48119500000000137 0.4710052000000018
0.549393400000002 0.48212740000000137 0.4729033000000018
0.5521240000000021 0.4838923000000014 0.4726036000000018
0.550991800000002 0.4851244000000014 0.47173780000000176
0.5516245000000021 0.4846249000000014 0.4709719000000018
0.551291500000002 0.4852909000000014 0.4711051000000018
0.5514247000000021 0.4845916000000014 0.4723039000000018
0.5500594000000021 0.4844584000000014 0.47267020000000176
0.5506921000000021 0.4848580000000014 0.47490130000000175
0.5506921000000021 0.4855906000000014 0.4757671000000018
0.5511916000000021 0.4868893000000014 0.4757671000000018
0.5534560000000022 0.4879882000000014 0.47639980000000176
0.5538889000000021 0.48762190000000144 0.47716570000000175
0.5550877000000022 0.48938680000000145 0.47926360000000173
0.5558203000000022 0.49035250000000147 0.48046240000000173
0.5572855000000022 0.4922839000000015 0.4797298000000017
0.5578183000000022 0.4921174000000015 0.48206080000000173
0.5581180000000022 0.49221730000000147 0.48342610000000175
0.5598163000000023 0.49484800000000145 0.48312640000000173
0.5592835000000023 0.4959802000000015 0.48552400000000173
0.5612482000000023 0.4959802000000015 0.48772180000000176
0.5633461000000023 0.4970791000000015 0.4897531000000018
0.5650111000000023 0.49687930000000147 0.4893868000000018
0.5644783000000023 0.4971790000000015 0.4896532000000018
0.5645116000000023 0.49821130000000147 0.4924837000000018
0.5656438000000024 0.4982779000000015 0.4938157000000018
0.5650444000000023 0.4996099000000015 0.4943152000000018
0.5650111000000023 0.4994767000000015 0.4958803000000018
0.5652442000000023 0.49941010000000147 0.4967461000000018
0.5666095000000023 0.49844440000000145 0.4986775000000018
0.5687407000000023 0.5007421000000014 0.5016079000000019
0.5705056000000023 0.5012083000000014 0.5017744000000018
0.5712715000000023 0.5021740000000013 0.5021407000000019
0.5724703000000023 0.5030065000000014 0.5036392000000018
0.5740687000000023 0.5046382000000014 0.5046382000000018
0.5760334000000024 0.5066029000000014 0.5063698000000019
0.5751676000000023 0.5082679000000014 0.5086675000000018
0.5759002000000023 0.5088340000000015 0.5081014000000018
0.5766994000000023 0.5094334000000015 0.5085010000000019
0.5782645000000023 0.5115646000000015 0.5100661000000019
0.5802958000000022 0.5122306000000015 0.5092669000000019
0.5799961000000022 0.5120974000000015 0.5094667000000018
0.5813281000000022 0.5131630000000015 0.5089006000000018
0.5808952000000023 0.5152276000000015 0.5107987000000018
0.5796964000000022 0.5168593000000015 0.5126302000000018
0.5794300000000022 0.5186908000000015 0.5117977000000018
0.5807953000000022 0.5198896000000015 0.5132629000000019
0.5810950000000022 0.5215546000000015 0.5129299000000018
0.5824936000000023 0.5212882000000015 0.5142286000000018
0.5853574000000022 0.5225536000000015 0.5131297000000018
0.5858236000000022 0.5249179000000015 0.5147281000000018
0.5875219000000023 0.5243518000000015 0.5170258000000018
0.5891203000000023 0.5230531000000015 0.5165929000000018
0.5905855000000023 0.5244850000000015 0.5160601000000018
0.5898862000000024 0.5263165000000015 0.5178250000000018
0.5923504000000024 0.5277151000000015 0.5177584000000017
0.5949145000000023 0.5288806000000016 0.5167927000000018
0.5951476000000023 0.5293468000000016 0.5198230000000018
0.5983444000000023 0.5289472000000015 0.5200561000000018
0.5989438000000024 0.5287141000000015 0.5210551000000018
0.5997763000000024 0.5313448000000015 0.5223205000000017
0.6002425000000023 0.5326435000000015 0.5232196000000018
0.5998429000000023 0.5322439000000014 0.5264164000000018
0.6025735000000023 0.5340754000000014 0.5281480000000018
0.6045049000000023 0.5365729000000015 0.5297131000000018
0.6048712000000024 0.5378383000000014 0.5309452000000018
0.6058702000000024 0.5384044000000014 0.5297797000000017
0.6075685000000024 0.5393368000000015 0.5305789000000017
0.6079015000000024 0.5402026000000015 0.5299129000000017
0.6110317000000024 0.5401693000000015 0.5311783000000017
0.6117976000000024 0.5410351000000015 0.5314780000000017
0.6108319000000024 0.5430997000000015 0.5338756000000017
0.6127300000000024 0.5440987000000015 0.5351410000000016
0.6133627000000025 0.5454640000000015 0.5378716000000017
0.6159268000000024 0.5468959000000015 0.5372389000000016
0.6150943000000024 0.5494600000000015 0.5397697000000017
0.6153274000000024 0.5505589000000015 0.5388040000000017
0.6149944000000024 0.5515246000000015 0.5413015000000018
0.6156604000000024 0.5513248000000015 0.5422339000000018
0.6156604000000024 0.5505589000000015 0.5424670000000018
0.6158602000000024 0.5499595000000015 0.5430997000000019
0.6152275000000024 0.5495599000000014 0.5453308000000019
0.6161599000000024 0.5507920000000014 0.5439322000000019
0.6155272000000024 0.5521573000000014 0.5438656000000018
0.6155272000000024 0.5549878000000014 0.5448979000000018
0.6167926000000024 0.5542885000000014 0.5452975000000019
0.6157270000000024 0.5545549000000014 0.5481946000000019
0.6169591000000023 0.5563198000000014 0.5503591000000019
0.6167593000000023 0.5563864000000014 0.5502592000000018
0.6183577000000023 0.5567860000000014 0.5514913000000018
0.6185242000000023 0.5572189000000014 0.5517910000000018
0.6199561000000023 0.5583511000000014 0.5512582000000018
0.6212215000000023 0.5598496000000014 0.5528233000000018
0.6215878000000024 0.5622805000000014 0.5525236000000018
0.6208552000000024 0.5635792000000014 0.5523238000000018
0.6205888000000024 0.5640454000000014 0.5530897000000018
0.6219208000000024 0.5655772000000013 0.5548213000000018
0.6214879000000024 0.5655772000000013 0.5551876000000019
0.6229531000000025 0.5674420000000013 0.5567527000000019
0.6242518000000025 0.5682079000000013 0.5590171000000019
0.6259834000000025 0.5683744000000013 0.559882900000002
0.6282478000000026 0.5702059000000013 0.560282500000002
0.6288472000000026 0.5717377000000012 0.561814300000002
0.6276484000000025 0.5737357000000013 0.561880900000002
0.6285808000000026 0.5757004000000013 0.5622805000000021
0.6298129000000026 0.5758336000000014 0.5617477000000021
0.6307453000000026 0.5771656000000014 0.5623804000000021
0.6315445000000026 0.5767660000000013 0.5615479000000021
0.6323770000000026 0.5782645000000013 0.5618143000000021
0.6331429000000026 0.5791636000000013 0.5626468000000021
0.6344416000000026 0.5782312000000013 0.5614147000000022
0.6334759000000026 0.5797630000000012 0.5618809000000021
0.6339088000000026 0.5810617000000012 0.5618476000000021
0.6333094000000026 0.5805622000000012 0.5636125000000021
0.6330430000000026 0.5817610000000013 0.563812300000002
0.6354073000000026 0.5822605000000013 0.5644450000000021
0.6373387000000026 0.5839921000000013 0.5644117000000021
0.6370723000000026 0.5856904000000014 0.5641453000000021
0.6364396000000025 0.5858902000000014 0.564611500000002
0.6354073000000026 0.5874886000000014 0.566476300000002
0.6361732000000025 0.5892202000000014 0.567242200000002
0.6378382000000026 0.5891869000000014 0.5678749000000021
0.6374386000000025 0.5904523000000014 0.5676085000000021
0.6379381000000025 0.5925169000000013 0.5671423000000021
0.6383710000000025 0.5926501000000014 0.5695399000000021
0.6391036000000024 0.5913847000000014 0.5686408000000021
0.6406687000000024 0.5925835000000015 0.568341100000002
0.6422338000000024 0.5941153000000015 0.569673100000002
0.6446314000000024 0.5939155000000015 0.5697730000000021
0.6455305000000024 0.5943151000000015 0.5706055000000021
0.6478948000000024 0.5937823000000015 0.5717044000000021
0.6482944000000025 0.5941486000000016 0.5714047000000021
0.6506587000000025 0.5962465000000016 0.573169600000002
0.6502591000000024 0.5970124000000016 0.574501600000002
0.6519907000000025 0.5974786000000015 0.5758669000000021
0.6540220000000024 0.6003424000000015 0.5769325000000021
0.6547546000000024 0.6012748000000016 0.579263500000002
0.6558535000000024 0.6006754000000015 0.5809951000000021
0.6566527000000024 0.6010750000000016 0.5823604000000021
0.6570856000000024 0.6030064000000016 0.5834926000000021
0.6593833000000023 0.6043384000000016 0.5832262000000021
0.6606487000000023 0.6066694000000016 0.5822272000000022
0.6613147000000024 0.6091336000000016 0.5827267000000022
0.6614146000000024 0.6082678000000016 0.5831929000000021
0.6611482000000024 0.6104989000000016 0.5849245000000022
0.6640120000000024 0.6117310000000016 0.5851909000000022
0.6626134000000024 0.6141952000000016 0.5863231000000022
0.6639121000000023 0.6140620000000016 0.5861566000000022
0.6661432000000024 0.6160267000000016 0.5858902000000022
0.6650110000000024 0.6180247000000016 0.5878882000000023
0.6647446000000024 0.6175585000000017 0.5888872000000023
0.6675085000000024 0.6183910000000017 0.5882545000000022
0.6699061000000024 0.6190903000000016 0.5888872000000023
0.6700726000000023 0.6205222000000017 0.5898196000000023
0.6714046000000023 0.6205222000000017 0.5895199000000023
0.6742351000000023 0.6208552000000017 0.5920840000000023
0.6734692000000023 0.6195232000000017 0.5907520000000023
0.6753340000000023 0.6201559000000018 0.5910850000000023
0.6758002000000023 0.6200227000000017 0.5924170000000023
0.6761332000000023 0.6210217000000017 0.5942485000000023
0.6761998000000023 0.6223204000000017 0.5942152000000023
0.6762331000000024 0.6233527000000016 0.5945149000000023
0.6766993000000023 0.6238855000000016 0.5966794000000023
0.6787972000000023 0.6260833000000017 0.5968792000000023
0.6808618000000023 0.6290803000000017 0.5959468000000022
0.6805954000000023 0.6291469000000017 0.5972122000000022
0.6819607000000023 0.6312781000000017 0.5985442000000022
0.6829264000000023 0.6320440000000017 0.5978782000000021
0.6818608000000023 0.6341419000000017 0.6006754000000022
0.6834259000000023 0.6340420000000017 0.6009085000000022
0.6826267000000023 0.6352075000000017 0.6016078000000021
0.6833260000000022 0.6340753000000017 0.6013414000000021
0.6835591000000022 0.6335758000000017 0.6010750000000021
0.6835591000000022 0.6360400000000017 0.6035059000000021
0.6847912000000022 0.6382378000000017 0.6055705000000021
0.6859234000000022 0.6403357000000017 0.6071023000000021
0.6882877000000022 0.6430330000000017 0.6100993000000021
0.6902857000000022 0.6433327000000018 0.6114313000000021
0.6906520000000023 0.6458968000000017 0.6121306000000021
0.6903523000000023 0.6479947000000017 0.6118309000000021
0.6910849000000022 0.6496264000000017 0.6105655000000021
0.6916510000000022 0.6506920000000017 0.6127966000000021
0.6908185000000022 0.6508585000000017 0.6115645000000022
0.6918175000000022 0.6506920000000017 0.6124303000000022
0.6914845000000022 0.6537889000000017 0.6124303000000022
0.6923503000000022 0.6534892000000017 0.6136957000000022
0.6949477000000022 0.6530896000000016 0.6133960000000022
0.6949144000000022 0.6520240000000016 0.6158935000000022
0.6956137000000021 0.6532894000000016 0.6156604000000022
0.6972787000000021 0.6555871000000015 0.6152608000000022
0.6991435000000021 0.6576184000000015 0.6145615000000022
0.7008751000000022 0.6583177000000014 0.6143950000000022
0.7022404000000022 0.6585508000000014 0.6134293000000023
0.7040386000000022 0.6605821000000014 0.6149944000000023
0.7036390000000021 0.6629797000000014 0.6167260000000023
0.7033060000000021 0.6645115000000014 0.6193900000000023
0.7050043000000021 0.6673420000000013 0.6193900000000023
0.7044049000000021 0.6673753000000013 0.6198562000000023
0.7068025000000021 0.6673420000000013 0.6201559000000023
0.7074019000000021 0.6670423000000013 0.6215212000000023
0.7083010000000022 0.6670756000000013 0.6218542000000024
0.7072687000000022 0.6686740000000013 0.6222871000000023
0.7075684000000022 0.6706387000000014 0.6236191000000023
0.7078015000000022 0.6731029000000014 0.6235192000000023
0.7080346000000022 0.6750010000000014 0.6255172000000023
0.7087339000000021 0.6752341000000014 0.6264496000000024
0.7099660000000021 0.6767659000000014 0.6271822000000024
0.7094998000000021 0.6761332000000013 0.6259501000000024
0.7112314000000022 0.6755005000000013 0.6256171000000024
0.7141285000000022 0.6750676000000013 0.6256504000000024
0.7168591000000022 0.6759001000000013 0.6257170000000024
0.7169923000000022 0.6761665000000013 0.6268492000000024
0.7174585000000022 0.6785641000000013 0.6278482000000024
0.7183243000000022 0.6806620000000013 0.6302125000000024
0.7173586000000023 0.6828265000000013 0.6329764000000024
0.7202890000000023 0.6833926000000013 0.6348412000000024
0.7227865000000023 0.6836590000000013 0.6350743000000024
0.7227532000000023 0.6836257000000013 0.6356071000000024
0.7228864000000024 0.6843916000000013 0.6371722000000024
0.7237855000000024 0.6849910000000013 0.6400693000000024
0.7237855000000024 0.6862231000000013 0.6432994000000024
0.7242850000000024 0.6865561000000013 0.6424336000000024
0.7264828000000024 0.6865561000000013 0.6431995000000024
0.7288138000000024 0.6875551000000013 0.6429331000000024
0.7307452000000024 0.6865561000000013 0.6443317000000024
0.7317109000000024 0.6867226000000013 0.6447979000000024
0.7330096000000024 0.6871222000000013 0.6456304000000024
0.7330429000000024 0.6869557000000014 0.6480280000000024
0.7318108000000024 0.6883543000000014 0.6464962000000024
0.7343416000000025 0.6881212000000014 0.6481945000000024
0.7370722000000025 0.6885874000000014 0.6510250000000024
0.7385707000000025 0.6890869000000014 0.6509251000000024
0.7401358000000025 0.6901525000000014 0.6524236000000023
0.7398028000000024 0.6924835000000014 0.6554539000000024
0.7393699000000025 0.6940486000000013 0.6557536000000024
0.7412680000000025 0.6942817000000013 0.6551209000000023
0.7416010000000025 0.6971788000000013 0.6551209000000023
0.7413679000000025 0.6999094000000013 0.6572188000000023
0.7415677000000025 0.7022737000000013 0.6584509000000023
0.7423336000000025 0.7012414000000013 0.6590170000000023
0.7436656000000025 0.7018741000000014 0.6607486000000024
0.7436656000000025 0.7033393000000014 0.6606154000000023
0.7433992000000025 0.7050376000000015 0.6626800000000023
0.7461964000000025 0.7039720000000015 0.6623803000000023
0.7471288000000026 0.7057369000000014 0.6622471000000022
0.7488937000000025 0.7065028000000014 0.6644116000000022
0.7492267000000026 0.7077682000000014 0.6669424000000023
0.7495597000000026 0.7079347000000014 0.6682411000000023
0.7513246000000026 0.7089337000000013 0.6700393000000022
0.7518907000000026 0.7089004000000013 0.6728032000000023
0.7508917000000026 0.7091668000000013 0.6738355000000023
0.7535890000000026 0.7112647000000013 0.6749344000000023
0.7550542000000027 0.7112980000000013 0.6768991000000023
0.7552873000000027 0.7117642000000013 0.6784642000000023
0.7571521000000027 0.7133959000000013 0.6786307000000023
0.7568191000000026 0.7129297000000013 0.6797962000000023
0.7589836000000026 0.7142617000000013 0.6789304000000023
0.7603489000000027 0.7156270000000013 0.6792634000000023
0.7611481000000027 0.7142950000000013 0.6784642000000023
0.7638787000000027 0.7158934000000013 0.6782311000000023
0.7643116000000026 0.7155271000000013 0.6808285000000023
0.7656769000000027 0.7158268000000013 0.6801958000000022
0.7671754000000026 0.7173253000000013 0.6829930000000023
0.7670089000000027 0.7159600000000013 0.6838588000000023
0.7684075000000027 0.7160599000000013 0.6854239000000023
0.7705054000000027 0.7177915000000014 0.6860899000000024
0.7721038000000027 0.7189570000000014 0.6870223000000024
0.7744681000000027 0.7189570000000014 0.6898528000000024
0.7746679000000026 0.7205887000000014 0.6906520000000024
0.7739353000000027 0.7204888000000014 0.6912847000000024
0.7756003000000027 0.7229197000000014 0.6910183000000024
0.7770322000000027 0.7234192000000014 0.6915511000000024
0.7768657000000028 0.7245514000000014 0.6917509000000024
0.7783642000000027 0.7242850000000014 0.6949477000000024
0.7781977000000028 0.7263496000000014 0.6969790000000023
0.7800292000000028 0.7286473000000013 0.6966460000000023
0.7794631000000027 0.7289470000000013 0.6960133000000023
0.7799959000000027 0.7293799000000013 0.6967126000000022
0.7816609000000028 0.7316443000000014 0.6961132000000022
0.7834258000000027 0.7318441000000013 0.6963463000000022
0.7838587000000027 0.7334425000000013 0.6972787000000022
0.7855237000000027 0.7335091000000014 0.6967126000000022
0.7875550000000027 0.7342417000000013 0.6966793000000022
0.7877881000000027 0.7360066000000013 0.6963463000000022
0.7894864000000027 0.7374052000000013 0.6987439000000022
0.7912846000000027 0.7366060000000013 0.6978781000000022
0.7924834000000027 0.7390369000000013 0.6987772000000022
0.7932160000000027 0.7382710000000013 0.6987772000000022
0.7937821000000027 0.7378048000000014 0.7013746000000022
0.7940152000000027 0.7398028000000014 0.7018741000000022
0.7925833000000027 0.7396363000000015 0.7037389000000022
0.7939819000000027 0.7384042000000015 0.7042384000000022
0.7928830000000027 0.7403689000000016 0.7051042000000022
0.7937821000000027 0.7415344000000016 0.7063696000000022
0.7960465000000028 0.7435324000000016 0.7081678000000021
0.7962796000000028 0.7436656000000017 0.7087006000000021
0.7981111000000027 0.7451974000000017 0.7106320000000022
0.8002756000000028 0.7462963000000017 0.7100992000000022
0.8011747000000028 0.7483942000000017 0.7117309000000022
0.8026066000000028 0.7507585000000017 0.7116310000000021
0.8042383000000028 0.7498594000000016 0.7138954000000022
0.8057035000000029 0.7518241000000017 0.7134292000000022
0.8072020000000029 0.7540552000000017 0.7124302000000022
0.8081677000000028 0.7537555000000017 0.7131295000000022
0.8107651000000028 0.7547212000000016 0.7135291000000022
0.8094997000000028 0.7571854000000017 0.7138954000000023
0.8089669000000028 0.7556869000000017 0.7154272000000023
0.8097994000000028 0.7570522000000017 0.7171921000000022
0.8097328000000028 0.7574518000000018 0.7194232000000023
0.8098993000000028 0.7570189000000018 0.7205221000000023
0.8099659000000028 0.7591501000000018 0.7217875000000022
0.8119306000000028 0.7615477000000018 0.7244515000000022
0.8124301000000028 0.7615810000000018 0.7259833000000022
0.8123635000000028 0.7626799000000019 0.7261165000000023
0.8136955000000028 0.7625467000000018 0.7284475000000022
0.8154271000000028 0.7654438000000018 0.7296463000000023
0.8144947000000028 0.7676749000000018 0.7314778000000023
0.8153605000000028 0.7688404000000019 0.7326100000000023
0.8172253000000028 0.7712047000000019 0.7328431000000023
0.8194231000000028 0.7714045000000018 0.7344415000000023
0.8207551000000028 0.7733359000000019 0.7332427000000022
0.8209549000000028 0.7745680000000018 0.7346080000000023
0.8220538000000028 0.7768324000000019 0.7353739000000022
0.8233525000000028 0.7796296000000019 0.7355404000000022
0.8219539000000028 0.7792300000000019 0.7349410000000022
0.8206219000000028 0.7789636000000019 0.7361731000000021
0.8217874000000028 0.7812613000000018 0.7367059000000021
0.8223535000000028 0.7820272000000018 0.7390036000000021
0.8212546000000028 0.7829596000000019 0.7398694000000021
0.8218873000000029 0.7836589000000018 0.7392034000000021
0.8225866000000028 0.7853905000000019 0.7400026000000021
0.8245180000000029 0.7863229000000019 0.739969300000002
0.8250175000000028 0.787488400000002 0.7414012000000021
0.8266159000000028 0.787821400000002 0.7422337000000021
0.8271487000000028 0.787721500000002 0.7424668000000021
0.8281477000000028 0.788753800000002 0.7435657000000021
0.8307784000000028 0.788554000000002 0.7433326000000021
0.8323768000000028 0.787455100000002 0.7444648000000021
0.8343415000000028 0.789120100000002 0.7460299000000021
0.8353405000000028 0.791884000000002 0.7482610000000022
0.8379379000000028 0.792117100000002 0.7482277000000022
0.8378380000000027 0.793748800000002 0.7481278000000021
0.8393698000000027 0.7951807000000021 0.7479280000000021
0.8387038000000027 0.794281600000002 0.7503922000000022
0.8408350000000027 0.794148400000002 0.7517908000000022
0.8415676000000026 0.796246300000002 0.7522570000000022
0.8404687000000026 0.795780100000002 0.7520905000000022
0.8403355000000026 0.795713500000002 0.7534891000000022
0.8405353000000025 0.795547000000002 0.7537222000000022
0.8395030000000026 0.796013200000002 0.7547545000000022
0.8412346000000026 0.796679200000002 0.7554538000000022
0.8433991000000026 0.797911300000002 0.7547545000000022
0.8453305000000026 0.797844700000002 0.7569523000000022
0.8465293000000027 0.7972453000000019 0.7570855000000023
0.8462296000000027 0.798877000000002 0.7572853000000023
0.8464627000000027 0.801574300000002 0.7569523000000022
0.8466625000000026 0.802673200000002 0.7570189000000023
0.8477281000000026 0.802207000000002 0.7592500000000023
0.8473618000000026 0.802972900000002 0.7583509000000023
0.8492599000000026 0.802007200000002 0.7592833000000023
0.8488270000000027 0.801507700000002 0.7585507000000024
0.8475949000000027 0.803072800000002 0.7594831000000024
0.8483941000000027 0.8037055000000021 0.7605154000000024
0.8500924000000027 0.8050375000000021 0.7603489000000024
0.8508250000000027 0.8063695000000021 0.7627798000000025
0.8512246000000028 0.8066026000000021 0.7631794000000025
0.8516242000000028 0.8082010000000021 0.7637455000000025
0.8535556000000029 0.8077681000000021 0.7659766000000026
0.8553205000000028 0.8091334000000021 0.7647778000000025
0.8564860000000029 0.8078680000000021 0.7648777000000025
0.8562862000000029 0.8093665000000021 0.7645447000000025
0.8560198000000029 0.8113312000000021 0.7650442000000025
0.8555869000000029 0.8125300000000022 0.7648111000000025
0.8566525000000029 0.8125300000000022 0.7658101000000025
0.858350800000003 0.8150941000000022 0.7664428000000025
0.858950200000003 0.8162263000000022 0.7663429000000025
0.861647500000003 0.8149942000000022 0.7672087000000025
0.862912900000003 0.8155603000000022 0.7676749000000025
0.863412400000003 0.8178580000000022 0.7673419000000025
0.865110700000003 0.8185240000000022 0.7681411000000025
0.865310500000003 0.8209549000000023 0.7679080000000025
0.865576900000003 0.8210881000000023 0.7682077000000025
0.8665426000000029 0.8236522000000023 0.7691734000000024
0.866908900000003 0.8246512000000022 0.7703722000000025
0.868540600000003 0.8244181000000023 0.7704721000000025
0.869173300000003 0.8234857000000022 0.7715044000000025
0.8692732000000031 0.8248177000000022 0.7742683000000026
0.868374100000003 0.8262829000000023 0.7737355000000026
0.868873600000003 0.8264494000000022 0.7756336000000026
0.8697727000000031 0.8273818000000023 0.7773319000000026
0.8699059000000031 0.8277148000000023 0.7788970000000026
0.8700058000000032 0.8301790000000023 0.7813612000000026
0.8705386000000032 0.8290135000000023 0.7824601000000027
0.8723701000000031 0.8303788000000023 0.7841251000000027
0.8739352000000031 0.8311114000000023 0.7854571000000027
0.8753671000000032 0.8330095000000023 0.7862230000000027
0.8760997000000031 0.8352739000000023 0.7878547000000027
0.8753671000000032 0.8345413000000024 0.7882210000000027
0.8757667000000032 0.8345746000000024 0.7871887000000027
0.8768323000000032 0.8349076000000024 0.7861897000000028
0.8787970000000033 0.8360731000000025 0.7871887000000027
0.8789968000000032 0.8375716000000024 0.7856569000000028
0.8785639000000033 0.8401690000000024 0.7876549000000028
0.8802955000000033 0.8402356000000024 0.7871221000000028
