0.0104662 0.010333 0.0111322
0.0120979 0.0114985 0.0105661
0.0129304 0.0104995 0.0118981
0.0155278 0.011332 0.0122977
0.0167932 0.01333 0.0117649
0.017326 0.0126973 0.0115984
0.0180919 0.0126307 0.012997
0.0193573 0.0133633 0.0152281
0.0218548 0.0131968 0.0160606
0.0227539 0.0135298 0.015461200000000001
0.0212887 0.0155611 0.015261400000000001
0.0212554 0.0153613 0.0166267
0.0238861 0.01666 0.0188578
0.0230203 0.0162604 0.0192241
0.0234199 0.0179254 0.0190243
0.024319 0.016327 0.0186247
0.0239194 0.0161938 0.0203563
0.0252514 0.0166933 0.0205894
0.0259174 0.0171595 0.0227539
0.0267499 0.018658 0.0226207
0.0281152 0.0187246 0.0221545
0.027316 0.0191575 0.0243523
0.0267499 0.019324 0.0241525
0.0274825 0.0190909 0.0240526
0.0288145 0.0180919 0.0267499
0.0292807 0.0198235 0.0271162
0.0299467 0.0206893 0.0274492
0.0293806 0.0202897 0.028315
0.0293473 0.0224542 0.0294805
0.0292807 0.0230536 0.0306127
0.0308791 0.0258841 0.0316117
0.0324442 0.027982 0.0337096
0.0331435 0.0284815 0.0362071
0.0358075 0.0309457 0.0382717
0.038305 0.0322111 0.0412354
0.0401365 0.0343423 0.0417016
0.0432001 0.0333766 0.0431002
0.042967 0.0341092 0.0430669
0.0444655 0.0354745 0.0432334
0.0470629 0.0360406 0.0434665
0.0464635 0.0382717 0.0451648
0.048628 0.0404029 0.0454645
0.0509257 0.0423676 0.0461305
0.0524242 0.0455311 0.0461305
0.054289 0.0462637 0.0462304
0.0558208 0.0490276 0.0465634
0.0576856 0.0504928 0.0461305
0.0569863 0.0524908 0.045631
0.0576523 0.0528238 0.0444655
0.058285 0.0535231 0.0453646
0.059683599999999996 0.052291 0.0465634
0.058950999999999996 0.053956 0.0486946
0.059983299999999996 0.0548218 0.0511921
0.061248699999999996 0.0559207 0.0513919
0.0625474 0.0565201 0.0531235
0.0645787 0.0553546 0.0527239
0.0644455 0.0557209 0.0546553
0.0656443 0.058384899999999997 0.0541558
0.0659107 0.059417199999999996 0.056953
0.066277 0.058751199999999996 0.0576523
0.068275 0.058451499999999997 0.059783499999999996
0.0710389 0.057619 0.059616999999999996
0.0716383 0.059317299999999996 0.060083199999999996
0.0741025 0.062247699999999996 0.061881399999999996
0.075268 0.0643123 0.0629137
0.0749017 0.0664102 0.0658108
0.0751348 0.0661771 0.0671428
0.0750016 0.0689743 0.0674758
0.0777322 0.0703396 0.0678421
0.0791974 0.0710056 0.0705061
0.0781651 0.0714718 0.0729703
0.0802963 0.0710056 0.0733366
0.0815617 0.0698068 0.0763336
0.0817948 0.0707059 0.0765667
0.0834598 0.0702397 0.0776989
0.0842923 0.0706726 0.0781318
0.0861238 0.0731368 0.0776656
0.0858574 0.0724708 0.0787312
0.0860239 0.072937 0.0789643
0.0888211 0.072937 0.0790309
0.0914518 0.0750016 0.080929
0.09325 0.0736363 0.0807958
0.0932833 0.0747685 0.0824608
0.0935164 0.0770995 0.0842257
0.0937162 0.0795304 0.0838927
0.0943489 0.0792307 0.0834931
0.0953146 0.0808624 0.0846586
0.0957475 0.0820945 0.0843256
0.0959473 0.0811621 0.0850582
0.0952813 0.08326 0.0843256
0.0946819 0.0829603 0.085258
0.0946819 0.0822943 0.085591
0.0943156 0.0830269 0.0857242
0.0965134 0.0858574 0.0842257
0.0975457 0.0865234 0.0835264
0.0996769 0.0880552 0.0858907
0.1018414 0.0905194 0.0886546
0.1022743 0.0916516 0.0890875
0.1044721 0.0926173 0.0911854
0.1053379 0.0917848 0.0922177
0.1054711 0.0924508 0.0950149
0.108235 0.0943156 0.0974458
0.1079353 0.0949816 0.0996436
0.1097668 0.0965134 0.1002763
0.1101331 0.0957808 0.1002097
0.1105327 0.0975124 0.1019746
0.1101664 0.0973126 0.1022077
0.1115983 0.1004095 0.1022077
0.1113985 0.1022743 0.104572
0.1127638 0.1037062 0.1053046
0.1131967 0.103573 0.1048717
0.1125973 0.1054711 0.1067698
0.112231 0.1067698 0.1074691
0.1112986 0.1066366 0.1092007
0.1113319 0.1076689 0.1103995
0.1119979 0.1099666 0.1126639
0.1136962 0.1106659 0.1133965
0.1153945 0.1114984 0.1126639
0.1163935 0.1116982 0.1134631
0.1162936 0.1128304 0.1138294
0.118225 0.1126972 0.1140292
0.1202896 0.1125973 0.1127638
0.1214218 0.1146286 0.1139626
0.1228204 0.1149283 0.1157608
0.1233865 0.1151281 0.1159939
0.1255843 0.1143289 0.115894
0.12475180000000001 0.114229 0.1145287
0.12548440000000002 0.1149283 0.1142956
0.12704950000000004 0.1134631 0.1144621
0.12681640000000002 0.1132633 0.1144288
0.12734920000000002 0.1144621 0.1153279
0.13024630000000004 0.1172926 0.1170262
0.12948040000000002 0.1184581 0.1177921
0.12997990000000004 0.1183249 0.1168597
0.13104550000000004 0.1203229 0.1196902
0.13304350000000004 0.1201897 0.1214218
0.13434220000000005 0.1204228 0.121555
0.13644010000000006 0.1206559 0.1223875
0.13840480000000008 0.1215883 0.1230202
0.1413019000000001 0.122887 0.1236862
0.14113540000000008 0.1243522 0.1246852
0.14280040000000008 0.125884 0.127882
0.14353300000000008 0.126883 0.12718269999999998
0.1444987000000001 0.12655 0.12844809999999998
0.1455976000000001 0.12625029999999998 0.12754899999999997
0.1447984000000001 0.12758229999999998 0.12878109999999998
0.14523130000000012 0.12911409999999998 0.129547
0.14496490000000012 0.12878109999999998 0.1287478
0.14483170000000012 0.1306792 0.1301797
0.14606380000000013 0.1310788 0.1324441
0.14573080000000013 0.13084569999999998 0.1342423
0.14772880000000013 0.13031289999999998 0.13587400000000002
0.14909410000000015 0.13021299999999997 0.1348417
0.14882770000000015 0.13187799999999997 0.134542
0.14796190000000015 0.13207779999999997 0.1351081
0.14829490000000015 0.13324329999999998 0.1371727
0.14902750000000015 0.13510809999999998 0.1360738
0.14752900000000013 0.13490829999999998 0.1368064
0.14699620000000013 0.1363402 0.1370728
0.14802850000000015 0.1367731 0.1375057
0.14926060000000016 0.1371061 0.13873780000000002
0.15035950000000017 0.13654 0.14003650000000004
0.1528570000000002 0.13597389999999998 0.14260060000000005
0.1550881000000002 0.13743909999999998 0.14200120000000005
0.1572859000000002 0.13697289999999998 0.14393260000000005
0.1590841000000002 0.1372726 0.14579740000000005
0.1596835000000002 0.1399033 0.14689630000000006
0.1609489000000002 0.1399033 0.14646340000000005
0.1606159000000002 0.1407691 0.14796190000000006
0.1628137000000002 0.14240080000000002 0.14939380000000008
0.1632799000000002 0.14270050000000004 0.1496269000000001
0.16251400000000019 0.14463190000000004 0.14892760000000008
0.16444540000000019 0.14376610000000004 0.14859460000000008
0.16404580000000019 0.14473180000000005 0.15172480000000008
0.1640791000000002 0.14399920000000005 0.15089230000000006
0.1644787000000002 0.14359960000000005 0.15312340000000008
0.1665766000000002 0.14669650000000006 0.1541557000000001
0.1683748000000002 0.14756230000000006 0.1567198000000001
0.17073910000000023 0.14702950000000006 0.1575856000000001
0.16967350000000023 0.14692960000000005 0.1587844000000001
0.17270380000000024 0.14842810000000006 0.1611154000000001
0.17210440000000024 0.15079240000000008 0.1636462000000001
0.17313670000000025 0.1508257000000001 0.1650448000000001
0.17326990000000025 0.1513585000000001 0.1651780000000001
0.17560090000000025 0.1544221000000001 0.16794190000000012
0.17679970000000025 0.1562203000000001 0.16964020000000013
0.17659990000000025 0.1576855000000001 0.17153830000000014
0.17553430000000025 0.1571527000000001 0.17223760000000016
0.17650000000000027 0.1582849000000001 0.17197120000000016
0.17879770000000028 0.1599166000000001 0.17137180000000016
0.18159490000000028 0.1586512000000001 0.17267050000000017
0.18212770000000028 0.1583182000000001 0.17350300000000018
0.18246070000000028 0.15961690000000012 0.1742023000000002
0.18212770000000028 0.16081570000000012 0.1754011000000002
0.18182800000000027 0.16228090000000012 0.1775656000000002
0.18306010000000028 0.16397920000000013 0.17819830000000023
0.18379270000000028 0.16641010000000014 0.17936380000000024
0.18329320000000027 0.16611040000000013 0.17909740000000024
0.18339310000000028 0.16770880000000013 0.17793190000000023
0.18599050000000028 0.16790860000000013 0.17879770000000023
0.18698950000000028 0.16651000000000013 0.17766550000000023
0.18632350000000028 0.16874110000000014 0.17896420000000024
0.18639010000000028 0.17037280000000016 0.18026290000000025
0.18672310000000028 0.17227090000000017 0.18056260000000027
0.18932050000000028 0.17370280000000018 0.18046270000000025
0.19138510000000028 0.17370280000000018 0.18246070000000025
0.1932832000000003 0.17510140000000018 0.18306010000000025
0.1961803000000003 0.1773325000000002 0.18206110000000025
0.19801180000000032 0.17650000000000018 0.18236080000000027
0.20067580000000032 0.1790641000000002 0.18435880000000027
0.20264050000000033 0.1787977000000002 0.18592390000000028
0.20234080000000032 0.1804294000000002 0.18479170000000028
0.2022409000000003 0.1795636000000002 0.18372610000000028
0.20247400000000032 0.18032950000000023 0.1853578000000003
0.20487160000000032 0.18062920000000024 0.1855243000000003
0.20686960000000032 0.18036280000000024 0.1851580000000003
0.20796850000000033 0.18026290000000023 0.1872559000000003
0.20803510000000033 0.18249400000000024 0.1882549000000003
0.20793520000000032 0.18419230000000025 0.18882100000000032
0.20896750000000033 0.18489160000000027 0.19055260000000032
0.21076570000000033 0.18672310000000028 0.19175140000000032
0.21069910000000033 0.1890874000000003 0.19444870000000034
0.21309670000000033 0.1896535000000003 0.19701280000000035
0.21582730000000033 0.1912519000000003 0.19601380000000035
0.21642670000000033 0.1917847000000003 0.19821160000000035
0.21705940000000035 0.1922509000000003 0.20070910000000036
0.21735910000000036 0.19308340000000032 0.20190790000000036
0.21769210000000036 0.19541440000000032 0.20184130000000036
0.21795850000000036 0.1948483000000003 0.20160820000000035
0.22065580000000037 0.19648000000000032 0.20270710000000036
0.2226871000000004 0.19884430000000033 0.20477170000000036
0.2224873000000004 0.20137510000000033 0.20443870000000036
0.2244853000000004 0.20403910000000033 0.20400580000000035
0.2254843000000004 0.20387260000000032 0.20407240000000035
0.2275489000000004 0.20567080000000032 0.20547100000000035
0.2266165000000004 0.20736910000000033 0.20663650000000036
0.2259505000000004 0.20776870000000033 0.20673640000000038
0.22585060000000037 0.20840140000000035 0.20720260000000038
0.22568410000000036 0.20876770000000036 0.2089009000000004
0.22781530000000036 0.21029950000000036 0.2103661000000004
0.22718260000000035 0.20986660000000035 0.2091673000000004
0.22641670000000033 0.21023290000000036 0.2092672000000004
0.22545100000000032 0.21123190000000036 0.2107324000000004
0.22658320000000032 0.21336310000000036 0.2106325000000004
0.22838140000000032 0.21269710000000036 0.2116981000000004
0.22921390000000033 0.21519460000000037 0.2120644000000004
0.23011300000000035 0.2160937000000004 0.21449530000000042
0.23234410000000036 0.2164600000000004 0.21609370000000042
0.23304340000000037 0.21922390000000042 0.21732580000000043
0.23324320000000037 0.22125520000000043 0.21802510000000044
0.2348083000000004 0.22235410000000044 0.21745900000000043
0.2347417000000004 0.22302010000000044 0.21745900000000043
0.23640670000000039 0.22398580000000046 0.21942370000000044
0.2385046000000004 0.22515130000000047 0.21935710000000044
0.2379718000000004 0.22734910000000047 0.22135510000000044
0.2399032000000004 0.22874770000000047 0.22118860000000043
0.2415016000000004 0.22791520000000046 0.22272040000000043
0.2437327000000004 0.22784860000000046 0.22258720000000043
0.2445985000000004 0.22987990000000047 0.22308670000000044
0.2455309000000004 0.23024620000000048 0.22545100000000046
0.2446318000000004 0.23277700000000048 0.22528450000000044
0.2445652000000004 0.23297680000000048 0.22478500000000043
0.24379930000000039 0.23261050000000047 0.22468510000000042
0.24406570000000039 0.23137840000000046 0.22641670000000041
0.24366610000000039 0.23187790000000047 0.22508470000000041
0.2438992000000004 0.23144500000000046 0.22714930000000041
0.2449648000000004 0.23307670000000047 0.22794850000000041
0.2461303000000004 0.23191120000000046 0.23044600000000043
0.24869440000000043 0.23137840000000046 0.22974670000000041
0.24926050000000044 0.23284360000000046 0.22987990000000041
0.25005970000000044 0.23334310000000047 0.23094550000000041
0.25182460000000045 0.23600710000000047 0.23041270000000041
0.25052590000000047 0.23763880000000048 0.2293138000000004
0.2513917000000005 0.23760550000000047 0.2315782000000004
0.2526238000000005 0.23753890000000047 0.23294350000000041
0.2535895000000005 0.23883760000000048 0.2325772000000004
0.25538770000000055 0.23837140000000048 0.23360950000000041
0.25508800000000054 0.23833810000000047 0.23430880000000043
0.2573191000000005 0.23830480000000046 0.23574070000000044
0.2594170000000005 0.23913730000000047 0.23830480000000046
0.2589175000000005 0.23923720000000048 0.23850460000000046
0.2580517000000005 0.23990320000000048 0.23980330000000047
0.2585179000000005 0.23917060000000048 0.24060250000000047
0.2579518000000005 0.24070240000000048 0.24096880000000048
0.2579851000000005 0.24263380000000048 0.2412019000000005
0.25761880000000054 0.2428003000000005 0.2416015000000005
0.25951690000000055 0.2443987000000005 0.2423341000000005
0.2615815000000006 0.2461969000000005 0.2428003000000005
0.2624473000000006 0.2489941000000005 0.2444653000000005
0.2627470000000006 0.2517580000000005 0.2459305000000005
0.2657773000000006 0.2541889000000005 0.2463967000000005
0.2657107000000006 0.2562202000000005 0.2455309000000005
0.2665765000000006 0.2558872000000005 0.2475289000000005
0.2680084000000006 0.2561869000000005 0.2492605000000005
0.2712052000000006 0.2565532000000005 0.2479951000000005
0.2718712000000006 0.2583514000000005 0.2485612000000005
0.2721376000000006 0.2600830000000005 0.24912730000000052
0.2726371000000006 0.2606158000000005 0.2500930000000005
0.27257050000000055 0.2592838000000005 0.2492938000000005
0.27566740000000056 0.2599831000000005 0.24959350000000052
0.2751679000000006 0.26308000000000054 0.24906070000000052
0.27606700000000056 0.2661103000000005 0.24916060000000054
0.2779984000000006 0.2654443000000005 0.25029280000000054
0.2796634000000006 0.2671426000000005 0.25045930000000055
0.28239400000000064 0.26920720000000053 0.24959350000000055
0.28372600000000064 0.27083890000000055 0.25075900000000056
0.28389250000000066 0.27167140000000056 0.2535895000000006
0.28512460000000067 0.2717380000000006 0.25462180000000056
0.2861236000000007 0.2730367000000006 0.25392250000000055
0.28592380000000067 0.2725039000000006 0.25392250000000055
0.28532440000000064 0.2728036000000006 0.25568740000000056
0.28532440000000064 0.2754343000000006 0.25835140000000056
0.28698940000000067 0.2755675000000006 0.2596168000000006
0.2878552000000007 0.2777320000000006 0.2615482000000006
0.2888875000000007 0.2802961000000006 0.2628802000000006
0.2902528000000007 0.2790307000000006 0.2633797000000006
0.28965340000000067 0.27766540000000056 0.2630800000000006
0.28978660000000067 0.27913060000000056 0.2631133000000006
0.2920843000000007 0.2808955000000006 0.2647117000000006
0.2936827000000007 0.2819944000000006 0.2645452000000006
0.29498140000000067 0.2819611000000006 0.2654110000000006
0.29524780000000067 0.28112860000000056 0.2668762000000006
0.29424880000000064 0.2830267000000006 0.26770870000000063
0.29481490000000066 0.2831932000000006 0.26950690000000066
0.29478160000000064 0.2840590000000006 0.26884090000000066
0.29541430000000063 0.28542430000000063 0.26987320000000065
0.29398240000000064 0.28795510000000063 0.27053920000000065
0.29531440000000064 0.2881882000000006 0.2698066000000006
0.29564740000000067 0.2905525000000006 0.2708722000000006
0.29561410000000066 0.29288350000000063 0.2715049000000006
0.2964799000000007 0.29305000000000064 0.2717380000000006
0.2969461000000007 0.29474830000000063 0.2735695000000006
0.29847790000000074 0.29478160000000064 0.2754343000000006
0.2984446000000007 0.29614690000000066 0.2755675000000006
0.3008089000000007 0.29771200000000064 0.2754676000000006
0.3000430000000007 0.29827810000000066 0.2745352000000006
0.2997766000000007 0.29761210000000066 0.2746684000000006
0.3029734000000007 0.2988775000000007 0.2766997000000006
0.30463840000000075 0.29777860000000067 0.2769994000000006
0.30646990000000074 0.2984779000000007 0.2763001000000006
0.30663640000000075 0.2996101000000007 0.2757007000000006
0.30693610000000077 0.2992105000000007 0.27633340000000056
0.3075022000000008 0.29954350000000074 0.2783647000000006
0.3093670000000008 0.30140830000000074 0.27913060000000056
0.3104992000000008 0.30210760000000075 0.27906400000000053
0.3127969000000008 0.3015082000000007 0.28176130000000055
0.31352950000000085 0.30197440000000075 0.2819611000000006
0.3138625000000009 0.30333970000000077 0.2846251000000006
0.3147283000000009 0.30610360000000075 0.28415890000000055
0.3164932000000009 0.30653650000000077 0.28545760000000053
0.31745890000000093 0.3093670000000008 0.2858239000000005
0.3174256000000009 0.3087343000000008 0.28802170000000055
0.31905730000000093 0.3099331000000008 0.28905400000000053
0.32172130000000093 0.3109987000000008 0.29175130000000055
0.32285350000000096 0.3107323000000008 0.29298340000000056
0.32418550000000096 0.3117979000000008 0.2940823000000006
0.32498470000000096 0.3119644000000008 0.2940823000000006
0.32561740000000094 0.3135628000000008 0.2960137000000006
0.32721580000000094 0.3142288000000008 0.2961136000000006
0.32734900000000094 0.3149947000000008 0.2979784000000006
0.32878090000000093 0.3163933000000008 0.3012085000000006
0.3285811000000009 0.31802500000000083 0.3006091000000006
0.3300463000000009 0.3207889000000008 0.3003760000000006
0.33104530000000093 0.31975660000000083 0.3012751000000006
0.33231070000000096 0.31922380000000083 0.3033397000000006
0.33497470000000096 0.3211885000000008 0.3049381000000006
0.33390910000000096 0.3238192000000008 0.3062701000000006
0.335307700000001 0.32668300000000083 0.3070360000000006
0.335773900000001 0.3250513000000008 0.3091672000000006
0.337405600000001 0.32654980000000083 0.3090340000000006
0.337638700000001 0.32928040000000086 0.3098665000000006
0.338837500000001 0.32938030000000085 0.30926710000000057
0.33943690000000104 0.32928040000000086 0.31029940000000056
0.339403600000001 0.32908060000000083 0.3116980000000006
0.339803200000001 0.32778190000000085 0.3119977000000006
0.34210090000000104 0.32994640000000086 0.3132298000000006
0.34236730000000104 0.32901400000000086 0.31396240000000064
0.343532800000001 0.32834800000000086 0.3161935000000006
0.34369930000000104 0.32698270000000085 0.31822480000000064
0.34463170000000104 0.32601700000000083 0.31812490000000065
0.34529770000000104 0.32535100000000083 0.31942360000000064
0.34802830000000107 0.32804830000000085 0.32025610000000065
0.35095870000000107 0.32738230000000085 0.32175460000000067
0.35042590000000107 0.32588380000000083 0.3227536000000007
0.35345620000000105 0.3245185000000008 0.3256507000000007
0.3535228000000011 0.3240856000000008 0.32601700000000067
0.3543886000000011 0.3260503000000008 0.32585050000000065
0.3550213000000011 0.3251179000000008 0.32784850000000065
0.3566530000000011 0.3266497000000008 0.3268495000000006
0.3565531000000011 0.3270493000000008 0.3262501000000006
0.35781850000000115 0.32831470000000085 0.3274156000000006
0.3568195000000011 0.32908060000000083 0.3294136000000006
0.35875090000000115 0.33147820000000083 0.3287476000000006
0.3585511000000011 0.33137830000000085 0.32791510000000057
0.36061570000000115 0.33084550000000085 0.3283813000000006
0.36248050000000115 0.33221080000000086 0.3292138000000006
0.36407890000000115 0.3317113000000009 0.3321109000000006
0.3657439000000012 0.3328102000000009 0.3336427000000006
0.3668428000000012 0.3337759000000009 0.3336427000000006
0.3669760000000012 0.3360070000000009 0.3357406000000006
0.3666763000000012 0.33580720000000086 0.3358405000000006
0.3662767000000012 0.33737230000000085 0.3354076000000006
0.36704260000000116 0.33800500000000083 0.33590710000000057
0.3694735000000012 0.33947020000000083 0.3362401000000006
0.3696733000000012 0.34180120000000086 0.3389041000000006
0.3721708000000012 0.34126840000000086 0.3397033000000006
0.3741355000000012 0.34270030000000085 0.3425005000000006
0.3752011000000012 0.34429870000000085 0.3444319000000006
0.3760003000000012 0.34616350000000085 0.3459970000000006
0.3775321000000012 0.34652980000000083 0.3456973000000006
0.3763666000000012 0.34656310000000085 0.3458305000000006
0.3770326000000012 0.34669630000000085 0.3463300000000006
0.3787642000000012 0.34899400000000086 0.3470293000000006
0.3789973000000012 0.3495601000000009 0.34616350000000057
0.3780982000000012 0.3521575000000009 0.34666300000000055
0.38016280000000124 0.3544552000000009 0.34679620000000055
0.37909720000000124 0.3566197000000009 0.34856110000000057
0.37826470000000123 0.35878420000000094 0.35025940000000055
0.37846450000000126 0.35905060000000094 0.35122510000000057
0.37869760000000124 0.36068230000000095 0.35122510000000057
0.37896400000000124 0.36174790000000095 0.3512584000000006
0.38076220000000127 0.36161470000000095 0.3508588000000006
0.3822940000000013 0.362746900000001 0.3526237000000006
0.3848914000000013 0.365444200000001 0.3542554000000006
0.38535760000000135 0.367675300000001 0.3563866000000006
0.38509120000000135 0.36844120000000097 0.35805160000000064
0.38682280000000135 0.36934030000000095 0.3575854000000006
0.3884878000000014 0.37143820000000094 0.35898400000000064
0.3898864000000014 0.37227070000000095 0.35994970000000065
0.3911851000000014 0.37490140000000094 0.3594835000000006
0.3914515000000014 0.37560070000000095 0.35965000000000064
0.3904858000000014 0.37653310000000095 0.36238060000000066
0.39191770000000137 0.37703260000000094 0.3632131000000007
0.3928834000000014 0.37786510000000095 0.3640123000000007
0.3934162000000014 0.37813150000000095 0.3653443000000007
0.3943486000000014 0.378597700000001 0.36451180000000066
0.3967462000000014 0.38016280000000097 0.36527770000000065
0.39684610000000137 0.37989640000000097 0.3662767000000007
0.3976786000000014 0.379663300000001 0.3681748000000007
0.3966130000000014 0.38069560000000097 0.3694069000000007
0.3971458000000014 0.381961000000001 0.3678418000000007
0.3988108000000014 0.38096200000000097 0.36880750000000073
0.3999097000000014 0.38049580000000094 0.37060570000000076
0.40184110000000145 0.38262700000000094 0.37283680000000075
0.40373920000000146 0.38475820000000094 0.37336960000000075
0.4040389000000015 0.3837592000000009 0.3742354000000008
0.40397230000000145 0.3853576000000009 0.3757339000000008
0.40407220000000144 0.3860569000000009 0.3753676000000008
0.40383910000000145 0.3858571000000009 0.3741022000000008
0.40473820000000144 0.3860569000000009 0.3763666000000008
0.4056373000000014 0.3864565000000009 0.3782980000000008
0.4049713000000014 0.3882880000000009 0.3770659000000008
0.40553740000000144 0.38862100000000094 0.3764998000000008
0.40423870000000145 0.38981980000000094 0.3787975000000008
0.40367260000000144 0.39121840000000097 0.3790306000000008
0.4048381000000014 0.39278350000000095 0.3785311000000008
0.4044385000000014 0.39408220000000094 0.3780982000000008
0.40610350000000145 0.39681280000000096 0.3803626000000008
0.40676950000000145 0.39664630000000095 0.3813616000000008
0.40666960000000146 0.397512100000001 0.3823939000000008
0.40876750000000145 0.39907720000000096 0.3848248000000008
0.41133160000000146 0.40117510000000095 0.3853243000000008
0.41073220000000144 0.40134160000000096 0.38808820000000077
0.41076550000000145 0.401408200000001 0.3886876000000008
0.41239720000000146 0.401175100000001 0.3905857000000008
0.41426200000000146 0.40190770000000103 0.3903193000000008
0.41519440000000146 0.40460500000000105 0.3918178000000008
0.4152610000000015 0.40597030000000106 0.39215080000000085
0.4175587000000015 0.4080016000000011 0.3943486000000009
0.4174255000000015 0.40836790000000106 0.3939823000000009
0.41882410000000153 0.4084345000000011 0.3944818000000009
0.41805820000000155 0.4089673000000011 0.39524770000000087
0.41882410000000153 0.4093669000000011 0.3972790000000009
0.42008950000000156 0.4103992000000011 0.39751210000000087
0.41912380000000155 0.41049910000000106 0.39744550000000084
0.42085540000000154 0.41126500000000105 0.39917710000000084
0.42055570000000153 0.411198400000001 0.4010086000000008
0.4206556000000015 0.412230700000001 0.4000762000000008
0.4231531000000015 0.411864400000001 0.40107520000000085
0.4231198000000015 0.411598000000001 0.4031398000000009
0.4240522000000015 0.413462800000001 0.40523770000000087
0.4269826000000015 0.41549410000000103 0.4070026000000009
0.4280482000000015 0.41822470000000106 0.4096666000000009
0.4272823000000015 0.4192237000000011 0.4107655000000009
0.4270825000000015 0.4207555000000011 0.4126636000000009
0.4290805000000015 0.4206223000000011 0.4136293000000009
0.42821470000000145 0.4230199000000011 0.41512780000000093
0.43077880000000146 0.42331960000000113 0.41559400000000096
0.43247710000000145 0.42618340000000116 0.41462830000000095
0.4317445000000014 0.4269160000000012 0.41569390000000095
0.43221070000000145 0.4262500000000012 0.41692600000000096
0.43367590000000145 0.4270825000000012 0.41929030000000095
0.43517440000000146 0.4274488000000012 0.41799160000000096
0.43544080000000146 0.4266496000000012 0.41782510000000095
0.4356406000000015 0.4280149000000012 0.41978980000000093
0.4382713000000015 0.4295467000000012 0.41955670000000095
0.4403359000000015 0.4301794000000012 0.422420500000001
0.4418344000000015 0.43304320000000124 0.424285300000001
0.4435327000000015 0.43530760000000124 0.426083500000001
0.4429666000000015 0.4375387000000012 0.428314600000001
0.4439656000000015 0.43947010000000125 0.429513400000001
0.4442320000000015 0.43857100000000127 0.431444800000001
0.44642980000000154 0.4386376000000013 0.432343900000001
0.44682940000000154 0.4374388000000013 0.433376200000001
0.44816140000000154 0.4398364000000013 0.435807100000001
0.44995960000000157 0.4408354000000013 0.435707200000001
0.44909380000000154 0.4411018000000013 0.43747210000000103
0.45002620000000154 0.44143480000000135 0.43847110000000106
0.45012610000000153 0.4407022000000013 0.44006950000000106
0.45189100000000154 0.4416346000000013 0.44296660000000104
0.45388900000000154 0.4418677000000013 0.44549740000000104
0.45378910000000156 0.4425004000000013 0.445164400000001
0.45522100000000154 0.4433995000000013 0.44829460000000104
0.45645310000000155 0.44190100000000127 0.45065890000000103
0.45885070000000155 0.4419676000000013 0.45338950000000106
0.45895060000000154 0.4444318000000013 0.4547881000000011
0.45895060000000154 0.44539750000000133 0.4541221000000011
0.45948340000000154 0.4452310000000013 0.4555207000000011
0.45935020000000154 0.4454641000000013 0.4569859000000011
0.45881740000000154 0.4457305000000013 0.4589506000000011
0.4584844000000015 0.4470625000000013 0.4615480000000011
0.4584511000000015 0.4486276000000013 0.46238050000000114
0.4585843000000015 0.4491604000000013 0.4630132000000011
0.4589506000000015 0.4500595000000013 0.4649779000000011
0.45891730000000147 0.4510585000000013 0.4668427000000011
0.4613815000000015 0.4516912000000013 0.46770850000000114
0.4619809000000015 0.4528900000000013 0.4688740000000011
0.4645117000000015 0.4532563000000013 0.46970650000000114
0.4658437000000015 0.4541221000000013 0.47080540000000115
0.46561060000000154 0.4566862000000013 0.46934020000000115
0.46680940000000154 0.4575853000000013 0.47013940000000115
0.4654441000000015 0.4587508000000013 0.47200420000000115
0.46697590000000155 0.4591837000000013 0.47240380000000115
0.46804150000000155 0.45938350000000133 0.4742020000000012
0.46814140000000154 0.46184770000000136 0.4751344000000012
0.46800820000000154 0.4609486000000014 0.4779649000000012
0.46880740000000154 0.4618810000000014 0.4783978000000012
0.47027260000000154 0.4642786000000014 0.4788307000000012
0.47043910000000155 0.46464490000000136 0.4802959000000012
0.4718377000000016 0.4661434000000014 0.4798963000000012
0.47083870000000155 0.4665430000000014 0.48262690000000125
0.47000620000000154 0.4671424000000014 0.48232720000000123
0.47067220000000154 0.4679083000000014 0.48222730000000125
0.47173780000000154 0.4690738000000014 0.48315970000000125
0.47257030000000155 0.4721707000000014 0.48206080000000123
0.47413540000000154 0.4719376000000014 0.48276010000000125
0.4758337000000015 0.4740355000000014 0.48342610000000125
0.47590030000000155 0.4728700000000014 0.48445840000000123
0.47726560000000157 0.4717045000000014 0.48625660000000126
0.4787641000000016 0.4739356000000014 0.48688930000000125
0.4793302000000016 0.4763998000000014 0.48632320000000123
0.4813615000000016 0.47869750000000144 0.48718900000000126
0.4819942000000016 0.47869750000000144 0.4877884000000013
0.4818277000000016 0.47829790000000144 0.4903858000000013
0.4824271000000016 0.47753200000000146 0.49231720000000134
0.4847914000000016 0.47796490000000147 0.49478140000000137
0.4868227000000016 0.4785310000000015 0.4963132000000014
0.48875410000000163 0.4785310000000015 0.4982446000000014
0.4879216000000016 0.4779982000000015 0.49897720000000145
0.49075210000000163 0.4793968000000015 0.5001760000000015
0.4929832000000016 0.4791304000000015 0.5016079000000015
0.4937824000000016 0.4812949000000015 0.5028733000000015
0.49421530000000163 0.48319300000000154 0.5023738000000015
0.49501450000000163 0.4832929000000015 0.5031730000000015
0.49531420000000165 0.4828267000000015 0.5038057000000016
0.49727890000000163 0.48249370000000147 0.5025070000000016
0.49771180000000165 0.4823938000000015 0.5021740000000016
0.49944340000000165 0.48262690000000147 0.5019076000000016
0.5017411000000016 0.48259360000000145 0.5010418000000015
0.5037724000000016 0.48482470000000144 0.5018077000000015
0.5056372000000016 0.48602350000000144 0.5017411000000015
0.5079349000000015 0.48835450000000147 0.5022406000000015
0.5090671000000015 0.4886542000000015 0.5013082000000014
0.5115646000000016 0.48765520000000145 0.5002093000000014
0.5120308000000016 0.4886542000000015 0.5024404000000015
0.5127301000000015 0.4912516000000015 0.5018743000000014
0.5140288000000015 0.4924504000000015 0.5035393000000015
0.5151610000000015 0.4951144000000015 0.5031397000000014
0.5153608000000015 0.4960801000000015 0.5038723000000014
0.5169259000000015 0.49731220000000154 0.5045050000000014
0.5184910000000015 0.4966129000000015 0.5065030000000015
0.5188573000000015 0.4990105000000015 0.5077018000000015
0.5203891000000015 0.5003425000000016 0.5076685000000015
0.5216878000000015 0.5018410000000015 0.5075686000000015
0.5236525000000015 0.5047381000000015 0.5083345000000015
0.5241187000000015 0.5037058000000015 0.5099329000000015
0.5246515000000015 0.5050378000000015 0.5103325000000015
0.5249845000000015 0.5047381000000015 0.5110651000000015
0.5271157000000015 0.5061367000000015 0.5109985000000015
0.5292802000000015 0.5063032000000015 0.5105989000000014
0.5296798000000016 0.5059369000000015 0.5094667000000014
0.5298130000000016 0.5080015000000014 0.5107654000000014
0.5308786000000016 0.5087674000000014 0.5134294000000014
0.5335093000000016 0.5093335000000014 0.5150944000000014
0.5351077000000016 0.5104990000000015 0.5164264000000014
0.5369725000000016 0.5113315000000015 0.5158936000000014
0.5369725000000016 0.5118643000000015 0.5176585000000014
0.5364064000000016 0.5134627000000015 0.5175586000000013
0.5373055000000017 0.5145949000000015 0.5180581000000013
0.5391037000000016 0.5152276000000016 0.5197897000000014
0.5402026000000016 0.5161267000000016 0.5185243000000014
0.5417677000000016 0.5187574000000016 0.5182579000000014
0.5411350000000016 0.5178583000000015 0.5204557000000014
0.5419342000000016 0.5165929000000016 0.5223538000000014
0.5426335000000015 0.5161933000000015 0.5220541000000014
0.5427001000000016 0.5162932000000016 0.5237191000000014
0.5441986000000015 0.5174920000000016 0.5253508000000014
0.5470291000000015 0.5191237000000016 0.5265163000000015
0.5490604000000014 0.5189239000000017 0.5286142000000015
0.5496931000000015 0.5198563000000017 0.5305789000000015
0.5501260000000014 0.5208220000000017 0.5313448000000015
0.5499928000000014 0.5223871000000017 0.5321773000000015
0.5517910000000014 0.5237524000000017 0.5323438000000015
0.5539555000000014 0.5233528000000016 0.5318110000000015
0.5536558000000014 0.5261500000000017 0.5323438000000015
0.5529898000000013 0.5280148000000017 0.5320441000000015
0.5541553000000013 0.5278150000000017 0.5337091000000015
0.5555539000000014 0.5308786000000018 0.5351410000000015
0.5572189000000014 0.5335759000000018 0.5369725000000015
0.5578849000000015 0.5324437000000017 0.5378050000000015
0.5575519000000014 0.5334760000000017 0.5390704000000015
0.5586175000000014 0.5333095000000018 0.5411350000000015
0.5591503000000014 0.5319442000000018 0.5405356000000014
0.5582179000000014 0.5315779000000017 0.5396698000000014
0.5569192000000014 0.5340088000000017 0.5391037000000014
0.5599162000000014 0.5353408000000017 0.5394034000000014
0.5605156000000014 0.5364064000000017 0.5411017000000015
0.5597830000000015 0.5365396000000018 0.5419675000000015
0.5621473000000015 0.5361400000000017 0.5442652000000014
0.5611816000000015 0.5387707000000017 0.5452309000000014
0.5622805000000015 0.5393035000000017 0.5456638000000014
0.5626468000000016 0.5389372000000017 0.5456638000000014
0.5638456000000016 0.5401693000000016 0.5456638000000014
0.5655439000000017 0.5425669000000016 0.5478949000000014
0.5650111000000017 0.5429998000000016 0.5473621000000014
0.5649112000000016 0.5438989000000016 0.5465962000000014
0.5668093000000016 0.5439988000000017 0.5476951000000014
0.5680081000000017 0.5444317000000016 0.5499928000000014
0.5701726000000017 0.5460301000000016 0.5510251000000014
0.5710051000000017 0.5457304000000016 0.5538223000000014
0.5717710000000017 0.5485276000000017 0.5540887000000014
0.5723038000000017 0.5490271000000017 0.5535559000000014
0.5731363000000017 0.5477284000000017 0.5537224000000014
0.5751010000000017 0.5465629000000016 0.5560201000000013
0.5752342000000018 0.5460634000000016 0.5548546000000013
0.5773321000000018 0.5473621000000016 0.5546548000000013
0.5773987000000018 0.5474287000000017 0.5572189000000013
0.5787307000000018 0.5498929000000017 0.5569525000000013
0.5796964000000018 0.5498929000000017 0.5566861000000013
0.5788306000000017 0.5522905000000017 0.5572855000000013
0.5805955000000017 0.5543218000000016 0.5581846000000014
0.5803291000000017 0.5554873000000017 0.5592502000000014
0.5807953000000017 0.5578849000000017 0.5580847000000013
0.5815945000000017 0.5595832000000017 0.5606155000000014
0.5819608000000017 0.5611483000000017 0.5617144000000014
0.5843584000000017 0.5627467000000017 0.5639455000000014
0.5843917000000017 0.5620474000000018 0.5658103000000014
0.5855905000000018 0.5627467000000017 0.5662432000000014
0.5878216000000018 0.5636458000000018 0.5681080000000014
0.5875219000000018 0.5662765000000017 0.5684077000000014
0.5902525000000018 0.5670424000000017 0.5695732000000014
0.5922172000000019 0.5679415000000018 0.5707387000000015
0.5918509000000018 0.5699395000000018 0.5721040000000015
0.5906854000000018 0.5717377000000018 0.5738689000000015
0.5909518000000018 0.5731696000000018 0.5726701000000014
0.5906521000000018 0.5746681000000018 0.5730697000000015
0.5890870000000018 0.5764996000000018 0.5755006000000015
0.5892535000000018 0.5778316000000018 0.5761999000000014
0.5908186000000017 0.5774986000000017 0.5793967000000014
0.5929498000000017 0.5785975000000018 0.5797297000000015
0.5939155000000017 0.5788306000000017 0.5820607000000014
0.5960800000000017 0.5802292000000018 0.5818609000000015
0.5984110000000017 0.5800294000000018 0.5819941000000015
0.5985442000000017 0.5807620000000018 0.5834926000000015
0.5992102000000018 0.5806954000000017 0.5851909000000015
0.5988772000000018 0.5826601000000018 0.5836591000000015
0.5991436000000018 0.5852242000000017 0.5839588000000016
0.6007420000000018 0.5854240000000017 0.5867560000000016
0.6012748000000018 0.5875552000000017 0.5880214000000016
0.6018409000000018 0.5884876000000018 0.5907520000000016
0.6013414000000018 0.5899528000000018 0.5901526000000016
0.6023404000000018 0.5922505000000018 0.5890870000000016
0.6030730000000017 0.5932828000000018 0.5897197000000016
0.6025735000000018 0.5954140000000018 0.5891536000000016
0.6024070000000018 0.5960134000000018 0.5909185000000016
0.6054040000000018 0.5959468000000018 0.5922505000000016
0.6060034000000019 0.5961466000000017 0.5919841000000016
0.6075352000000018 0.5983111000000018 0.5928832000000016
0.6096664000000018 0.5990104000000017 0.5932495000000017
0.6115978000000019 0.6001759000000018 0.5952142000000017
0.6127633000000019 0.5994100000000018 0.5951143000000017
0.6139954000000019 0.6014746000000017 0.5947147000000016
0.6160600000000018 0.6044050000000017 0.5943151000000015
0.6167260000000019 0.6051376000000017 0.5948146000000015
0.6175918000000019 0.6081679000000018 0.5970124000000016
0.6169258000000019 0.6096664000000017 0.5961466000000015
0.6195898000000019 0.6105322000000017 0.5958469000000015
0.6198562000000019 0.6130630000000018 0.5962465000000016
0.6208552000000018 0.6139954000000019 0.5970124000000016
0.6214879000000019 0.6158602000000019 0.5994100000000016
0.6230197000000018 0.6157936000000018 0.6021073000000016
0.6220207000000019 0.6153940000000018 0.6023737000000016
0.6217876000000019 0.6151942000000018 0.6034393000000016
0.6220540000000019 0.6141619000000018 0.6049045000000016
0.6217210000000019 0.6140620000000018 0.6059701000000016
0.6224536000000018 0.6134293000000017 0.6060034000000016
0.6224869000000018 0.6141619000000017 0.6077350000000017
0.6254173000000018 0.6130963000000017 0.6074686000000017
0.6261832000000018 0.6126967000000016 0.6079348000000017
0.6278149000000018 0.6131296000000016 0.6101326000000017
0.6290803000000018 0.6144283000000016 0.6128965000000017
0.6293800000000018 0.6148279000000016 0.6159268000000018
0.6288139000000018 0.6155272000000016 0.6171589000000017
0.6305788000000018 0.6177583000000016 0.6172588000000018
0.6315445000000017 0.6176584000000016 0.6197230000000018
0.6317110000000017 0.6170257000000016 0.6199561000000018
0.6321106000000017 0.6199894000000016 0.6203890000000017
0.6328099000000017 0.6202225000000016 0.6218209000000018
0.6318775000000016 0.6208219000000016 0.6226201000000018
0.6313780000000017 0.6221872000000016 0.6218209000000018
0.6317443000000017 0.6219874000000016 0.6201892000000018
0.6338755000000017 0.6242851000000016 0.6231529000000018
0.6325768000000017 0.6239188000000015 0.6223204000000018
0.6341419000000017 0.6256171000000016 0.6243850000000017
0.6342751000000018 0.6259834000000016 0.6254839000000018
0.6366727000000018 0.6279481000000017 0.6259501000000017
0.6375385000000018 0.6289804000000017 0.6263830000000017
0.6376051000000018 0.6302791000000016 0.6278815000000016
0.6371389000000018 0.6308452000000017 0.6280813000000016
0.6385708000000019 0.6298129000000017 0.6308452000000017
0.6372721000000019 0.6298795000000017 0.6314779000000017
0.6372721000000019 0.6310117000000017 0.6326101000000017
0.6384376000000019 0.6323104000000017 0.6311116000000018
0.639037000000002 0.6333094000000017 0.6329431000000018
0.641767600000002 0.6342085000000017 0.6331096000000017
0.643632400000002 0.6364729000000018 0.6329764000000017
0.645497200000002 0.6354406000000018 0.6328099000000017
0.646163200000002 0.6352075000000018 0.6338755000000017
0.645796900000002 0.6360400000000018 0.6341419000000017
0.647994700000002 0.6373054000000018 0.6348079000000018
0.649859500000002 0.6382045000000018 0.6363064000000017
0.649326700000002 0.6373720000000018 0.6368725000000017
0.6507919000000021 0.6360400000000018 0.6374719000000018
0.6518908000000021 0.6356071000000019 0.6387706000000017
0.6545881000000021 0.6378715000000019 0.6400360000000017
0.6551542000000021 0.6367393000000019 0.6395032000000017
0.6544549000000022 0.6387706000000019 0.6380047000000018
0.6557203000000021 0.6395032000000018 0.6397696000000017
0.6583177000000021 0.6413680000000018 0.6412015000000018
0.6593833000000021 0.6400360000000018 0.6435325000000017
0.6601825000000021 0.6405355000000018 0.6427666000000017
0.6603823000000021 0.6408352000000018 0.6435658000000017
0.6604822000000021 0.6405688000000018 0.6435658000000017
0.6604822000000021 0.6409018000000019 0.6452641000000018
0.6594499000000021 0.6407686000000018 0.6465961000000018
0.6583843000000021 0.6433993000000018 0.6485608000000018
0.6592834000000022 0.6456304000000018 0.6503923000000018
0.6602491000000021 0.6470623000000019 0.6498928000000018
0.6598495000000021 0.6490936000000018 0.6495598000000018
0.6611815000000021 0.6504922000000019 0.6520240000000018
0.6628465000000021 0.6517576000000018 0.6532228000000019
0.6654106000000021 0.6521239000000019 0.6562531000000019
0.6667426000000021 0.6520573000000018 0.658717300000002
0.668773900000002 0.6542884000000019 0.6597496000000019
0.667375300000002 0.6559201000000019 0.661681000000002
0.668640700000002 0.6576184000000019 0.6610816000000019
0.671005000000002 0.657651700000002 0.661714300000002
0.672903100000002 0.6572854000000019 0.661414600000002
0.673669000000002 0.6584176000000019 0.6610816000000019
0.675400600000002 0.659849500000002 0.6607819000000019
0.674534800000002 0.659350000000002 0.6602158000000019
0.675067600000002 0.660881800000002 0.660349000000002
0.674534800000002 0.659383300000002 0.661181500000002
0.676499500000002 0.662413600000002 0.663445900000002
0.678830500000002 0.662646700000002 0.666409600000002
0.681794200000002 0.661880800000002 0.6665095000000021
0.682826500000002 0.6627466000000021 0.667475200000002
0.682693300000002 0.6624469000000021 0.667974700000002
0.682260400000002 0.661780900000002 0.669739600000002
0.681261400000002 0.661780900000002 0.671371300000002
0.680995000000002 0.662080600000002 0.673469200000002
0.680761900000002 0.6627466000000021 0.675467200000002
0.6816610000000021 0.663978700000002 0.678031300000002
0.6839254000000021 0.664944400000002 0.680695300000002
0.6855571000000021 0.666576100000002 0.682759900000002
0.6854905000000021 0.668141200000002 0.682526800000002
0.6874552000000022 0.668207800000002 0.683292700000002
0.6888205000000022 0.6688738000000021 0.6858568000000019
0.6914845000000022 0.6692734000000021 0.686722600000002
0.6907519000000022 0.6685408000000022 0.6857902000000019
0.6900859000000021 0.6685075000000021 0.6862231000000019
0.6916843000000021 0.6690070000000021 0.6854239000000019
0.6920506000000022 0.6690070000000021 0.6856570000000018
0.6938155000000021 0.6707719000000021 0.6852907000000018
0.6934492000000021 0.6709051000000021 0.6858568000000018
0.6939820000000021 0.6736690000000022 0.6879547000000018
0.6939820000000021 0.6744349000000022 0.6888205000000018
0.6951808000000022 0.6767992000000022 0.6903523000000018
0.6948145000000021 0.6777649000000021 0.6922171000000018
0.6959467000000021 0.6801292000000021 0.6950809000000018
0.6968458000000022 0.6812614000000021 0.6962131000000018
0.6973453000000022 0.6803623000000021 0.6966127000000019
0.6971122000000022 0.682127200000002 0.6985108000000019
0.6970789000000022 0.682027300000002 0.6978115000000019
0.6966127000000022 0.681228100000002 0.6999094000000019
0.6969790000000022 0.682393600000002 0.7014745000000019
0.6980779000000022 0.683892100000002 0.7019740000000019
0.7002757000000023 0.683758900000002 0.7024735000000019
0.6998761000000022 0.686789200000002 0.7036723000000019
0.7011415000000022 0.689086900000002 0.7054372000000019
0.7015411000000022 0.692383600000002 0.7060033000000019
0.7040053000000023 0.693915400000002 0.7075018000000018
0.7036057000000022 0.694514800000002 0.7084342000000019
0.7047379000000022 0.695314000000002 0.7093999000000019
0.7047379000000022 0.695913400000002 0.7112314000000018
0.7064029000000023 0.695080900000002 0.7103989000000018
0.7066027000000022 0.697145500000002 0.7114978000000018
0.7071688000000023 0.697744900000002 0.7114645000000018
0.7064362000000023 0.697312000000002 0.7129297000000019
0.7070023000000023 0.698044600000002 0.7140286000000019
0.7081345000000023 0.699643000000002 0.7164595000000019
0.7092334000000023 0.698743900000002 0.7190236000000019
0.7099327000000023 0.699809500000002 0.7213213000000018
0.7099993000000023 0.701541100000002 0.7227865000000019
0.7095664000000024 0.7043050000000021 0.7228198000000019
0.7101658000000024 0.7067359000000021 0.723752200000002
0.7099993000000024 0.7079347000000021 0.7233526000000019
0.7107985000000024 0.7093999000000022 0.7229197000000019
0.7100659000000025 0.7114978000000022 0.724118500000002
0.7097329000000024 0.7113646000000021 0.724384900000002
0.7099993000000024 0.7112980000000021 0.723385900000002
0.7106986000000024 0.7121971000000021 0.7245514000000021
0.7121638000000025 0.7127965000000022 0.7250842000000021
0.7118974000000025 0.7117975000000022 0.727714900000002
0.7123636000000024 0.7114645000000022 0.727714900000002
0.7131961000000024 0.7112314000000022 0.728214400000002
0.7155937000000024 0.7137622000000022 0.728747200000002
0.7168924000000024 0.7158268000000022 0.731044900000002
0.7184242000000024 0.7176916000000022 0.731511100000002
0.7205887000000024 0.7204222000000022 0.730945000000002
0.7212880000000024 0.7200892000000022 0.7314445000000019
0.7223203000000024 0.7217875000000022 0.7327765000000019
0.7221871000000023 0.7230862000000022 0.733642300000002
0.7234525000000023 0.7237522000000023 0.733875400000002
0.7243183000000023 0.7268824000000023 0.7343749000000019
0.7245514000000023 0.7273486000000022 0.736905700000002
0.7244848000000023 0.7271155000000022 0.736839100000002
0.7255504000000023 0.7267492000000022 0.737904700000002
0.7245847000000023 0.7290802000000022 0.738570700000002
0.7233859000000022 0.7317109000000022 0.739869400000002
0.7237855000000023 0.7343416000000021 0.742733200000002
0.7249510000000023 0.7347745000000021 0.742833100000002
0.7264828000000023 0.7353406000000021 0.742300300000002
0.7281145000000023 0.7366726000000021 0.741567700000002
0.7311781000000024 0.7372054000000021 0.7437988000000021
0.7338088000000024 0.7364395000000021 0.7450642000000021
0.7335424000000024 0.7382710000000021 0.7461631000000021
0.7329763000000024 0.7379047000000021 0.7472287000000021
0.7333426000000024 0.7393366000000021 0.7486939000000021
0.7335091000000024 0.7383376000000021 0.7507918000000021
0.7352407000000024 0.7390036000000022 0.7537222000000021
0.7353406000000025 0.7383376000000021 0.7535224000000021
0.7383376000000025 0.7409017000000021 0.7554205000000022
0.7381711000000025 0.7437988000000021 0.7541551000000022
0.7395697000000026 0.7449643000000021 0.7556536000000021
0.7425667000000026 0.7472287000000022 0.7565194000000022
0.7426333000000026 0.7465960000000021 0.7565527000000022
0.7440652000000026 0.7457968000000021 0.7558534000000022
0.7468291000000027 0.7459300000000022 0.7587838000000022
0.7492267000000027 0.7479946000000022 0.7608817000000022
0.7517575000000027 0.7487272000000021 0.7597828000000022
0.7516243000000027 0.7486939000000021 0.7590169000000022
0.7528897000000027 0.7505587000000021 0.7611814000000022
0.7545547000000027 0.7516243000000021 0.7620805000000023
0.7562197000000027 0.7528564000000021 0.7652440000000023
0.7570522000000027 0.7546879000000021 0.7657768000000023
0.7567525000000027 0.7565194000000021 0.7645447000000023
0.7584175000000027 0.756419500000002 0.7658767000000023
0.7584508000000028 0.754854400000002 0.7666426000000023
0.7585507000000028 0.754821100000002 0.7685407000000023
0.7607485000000028 0.756919000000002 0.7676749000000023
0.7617475000000028 0.757418500000002 0.7682077000000023
0.7627798000000028 0.756286300000002 0.7687738000000023
0.7624135000000027 0.757585000000002 0.7713379000000022
0.7625134000000028 0.758450800000002 0.7729696000000023
0.7628464000000028 0.759516400000002 0.7735024000000023
0.7617142000000028 0.762646600000002 0.7733359000000023
0.7610149000000028 0.763479100000002 0.7726699000000022
0.7622470000000028 0.764644600000002 0.7742683000000022
0.7639120000000028 0.7658434000000021 0.7745680000000023
0.7655770000000028 0.767874700000002 0.7747012000000023
0.7676083000000028 0.770039200000002 0.7750009000000023
0.7671421000000028 0.772336900000002 0.7754338000000023
0.7668424000000028 0.773269300000002 0.7756336000000023
0.7673419000000028 0.773802100000002 0.7776649000000022
0.7669090000000028 0.7736023000000021 0.7803289000000022
0.7680745000000029 0.775100800000002 0.7825267000000022
0.7691734000000029 0.776632600000002 0.7836922000000023
0.7700392000000029 0.775833400000002 0.7864561000000023
0.7699393000000029 0.776099800000002 0.7887871000000023
0.7701058000000028 0.776599300000002 0.7914178000000023
0.7719373000000028 0.778930300000002 0.7907185000000023
0.7726366000000028 0.779596300000002 0.7935490000000023
0.7741351000000027 0.780562000000002 0.7930828000000023
0.7745680000000027 0.781228000000002 0.7947811000000023
0.7736356000000026 0.781161400000002 0.7942150000000023
0.7749010000000026 0.780462100000002 0.7961464000000024
0.7764661000000026 0.7804954000000021 0.7958134000000023
0.7757335000000026 0.7829596000000021 0.7952806000000023
0.7755004000000026 0.7821937000000021 0.7979113000000023
0.7776982000000027 0.7819273000000021 0.7989436000000023
0.7787971000000027 0.7821271000000021 0.8016409000000023
0.7804288000000027 0.7820938000000021 0.8010748000000023
0.7811947000000027 0.7848577000000021 0.8010748000000023
0.7838254000000027 0.7862563000000021 0.8034058000000023
0.7855903000000026 0.7866226000000022 0.8049709000000023
0.7859899000000027 0.7879546000000022 0.8046046000000022
0.7858567000000026 0.7876549000000022 0.8055703000000022
0.7851574000000027 0.7896862000000021 0.8053372000000022
0.7881544000000027 0.7901524000000021 0.8058367000000022
0.7884874000000027 0.7908850000000021 0.8063362000000022
0.7904854000000028 0.7904521000000021 0.8074351000000022
0.7907851000000028 0.7904854000000021 0.8083675000000022
0.7927831000000028 0.7917175000000021 0.8072020000000022
0.7934158000000029 0.791584300000002 0.8081344000000023
0.7935157000000029 0.793615600000002 0.8095330000000023
0.7929496000000029 0.794414800000002 0.8083009000000023
0.792483400000003 0.795247300000002 0.8094997000000024
0.7931827000000029 0.794548000000002 0.8119306000000024
0.7948477000000029 0.794714500000002 0.8127298000000024
0.794647900000003 0.795547000000002 0.8126965000000024
0.7948477000000029 0.7959466000000021 0.8141950000000023
0.7956469000000029 0.7971121000000021 0.8147611000000023
0.797644900000003 0.7961464000000021 0.8158600000000024
0.798077800000003 0.7956136000000021 0.8171254000000023
0.798144400000003 0.7949476000000021 0.8172919000000023
0.800575300000003 0.7974451000000021 0.8173585000000023
0.800375500000003 0.7969123000000021 0.8160598000000023
0.802406800000003 0.7970455000000022 0.8183575000000023
0.801973900000003 0.7960465000000022 0.8181244000000023
0.803605600000003 0.7958467000000022 0.8191900000000023
0.8053039000000031 0.7979446000000022 0.8210548000000023
0.8056369000000031 0.8005753000000022 0.8231527000000023
0.8052706000000031 0.7999759000000022 0.8252173000000023
0.804937600000003 0.8014078000000022 0.8258833000000023
0.8055370000000031 0.8037388000000022 0.8275816000000024
0.805736800000003 0.8055370000000022 0.8269822000000023
0.806735800000003 0.8065693000000022 0.8269489000000023
0.809233300000003 0.8090335000000022 0.8281477000000024
0.8080012000000031 0.8087671000000022 0.8285140000000024
0.8092666000000031 0.8106985000000022 0.8283142000000024
0.8101324000000031 0.8117641000000022 0.8281144000000025
0.8120305000000031 0.8106652000000022 0.8283142000000024
0.8111980000000031 0.8110981000000022 0.8285806000000024
0.8131627000000031 0.8126299000000021 0.8297461000000025
0.8132959000000032 0.8116642000000022 0.8289136000000025
0.8144281000000032 0.8139952000000021 0.8292133000000025
0.8162263000000032 0.8167591000000022 0.8304787000000025
0.8184574000000032 0.8172919000000022 0.8297461000000025
0.8187571000000032 0.8181244000000022 0.8310448000000025
0.8198560000000032 0.8194897000000022 0.8304121000000024
0.8217208000000032 0.8207884000000022 0.8297461000000024
0.8229196000000033 0.8227864000000022 0.8318107000000023
0.8223535000000033 0.8252506000000023 0.8338087000000024
0.8222536000000032 0.8252506000000023 0.8358400000000024
0.8229529000000032 0.8264161000000023 0.8378713000000023
0.8250175000000032 0.8272486000000023 0.8374051000000023
0.8271820000000032 0.8283475000000023 0.8378047000000024
0.8277814000000032 0.8289802000000024 0.8405686000000024
0.8276482000000032 0.8278480000000024 0.8406019000000025
0.8276815000000032 0.8273152000000024 0.8410681000000024
0.8283475000000032 0.8261164000000023 0.8428996000000024
0.8304454000000032 0.8266825000000023 0.8421670000000024
0.8319439000000032 0.8280145000000023 0.8430994000000025
0.8331094000000032 0.8271487000000023 0.8444647000000025
0.8319772000000032 0.8277814000000023 0.8446978000000025
0.8312446000000032 0.8300458000000024 0.8450974000000026
0.8315110000000032 0.8300125000000024 0.8466958000000026
0.8311447000000032 0.8319772000000024 0.8482276000000025
0.8316775000000032 0.8323435000000025 0.8481943000000025
0.8320105000000032 0.8328097000000024 0.8474950000000026
0.8348077000000033 0.8328097000000024 0.8481610000000026
0.8346412000000033 0.8318440000000025 0.8493598000000027
0.8360065000000033 0.8315110000000024 0.8506585000000026
0.8347744000000034 0.8306785000000024 0.8503921000000026
0.8336422000000033 0.8296129000000024 0.8511247000000026
0.8324767000000033 0.8320438000000024 0.8528563000000027
0.8350408000000032 0.8335756000000024 0.8541217000000026
0.8352406000000032 0.8349409000000024 0.8545546000000026
0.8347411000000032 0.8350741000000025 0.8554537000000026
0.8355070000000032 0.8358067000000025 0.8550208000000027
0.8378713000000032 0.8361064000000025 0.8553871000000027
0.8401024000000032 0.8360398000000024 0.8553538000000027
0.8404687000000033 0.8362063000000024 0.8565859000000027
0.8431993000000033 0.8360398000000024 0.8593831000000027
0.8436322000000033 0.8361064000000025 0.8597161000000028
0.8428996000000033 0.8381710000000024 0.8596828000000027
0.8442316000000033 0.8390701000000025 0.8585173000000027
0.8443648000000034 0.8391034000000025 0.8602156000000027
0.8438653000000034 0.8375716000000025 0.8610814000000028
0.8439319000000034 0.8380378000000025 0.8600158000000028
0.8444647000000034 0.8408017000000025 0.8610814000000028
