0.009001 0.0095338 0.0103663
0.0106993 0.0120313 0.0118315
0.012997 0.0134632 0.014329
0.0159274 0.0131968 0.015661
0.0158275 0.0142624 0.015661
0.0182251 0.0163936 0.0170596
0.01999 0.0159607 0.0173593
0.0200566 0.0177256 0.0170929
0.0218215 0.0182917 0.0172594
0.0243856 0.0187246 0.0176923
0.0259174 0.0190576 0.0189244
0.0257842 0.0198235 0.0200899
0.0275158 0.0197902 0.0208891
0.0300799 0.0195904 0.0236197
0.0312121 0.021655 0.0258508
0.0328771 0.0233533 0.0263836
0.035641 0.024985 0.0281152
0.0373726 0.0259174 0.0276157
0.0400366 0.0260506 0.028981
0.038638 0.0261172 0.0282151
0.039304 0.0278155 0.0289144
0.0395704 0.030313 0.0282484
0.040636 0.0324109 0.0277822
0.0395371 0.0333766 0.0278488
0.0408025 0.0332767 0.0287479
0.0408691 0.0348751 0.028315
0.041968 0.0369064 0.0290143
0.0442324 0.038638 0.028981
0.0456976 0.0382051 0.0313453
0.046963 0.0378721 0.030979
0.0498601 0.0383383 0.0312454
0.0495937 0.0407026 0.0334765
0.051958 0.0422344 0.035974
0.0514252 0.0414352 0.0365734
0.0530902 0.0427339 0.0362071
0.0542224 0.0432001 0.0384382
0.0556876 0.0441658 0.0398368
0.0570529 0.0427672 0.0404362
0.059150799999999996 0.0424342 0.0411022
0.060482799999999996 0.0444988 0.042634
0.059916699999999996 0.0460306 0.0430003
0.060449499999999996 0.0466633 0.0433333
0.059117499999999996 0.0485614 0.0452314
0.060083199999999996 0.0490609 0.0466966
0.062247699999999996 0.0510922 0.0490609
0.0631801 0.0520579 0.0494938
0.0661771 0.054289 0.0506926
0.0663436 0.0568198 0.0516916
0.0665434 0.0559207 0.0506926
0.0654778 0.057286 0.0502597
0.0660439 0.0568864 0.0523243
0.0676756 0.059184099999999996 0.0531235
0.0692074 0.061148799999999996 0.053956
0.0695071 0.0634798 0.0551215
0.0691741 0.0637795 0.0563869
0.0698734 0.0631135 0.0580186
0.0715051 0.0654778 0.059417199999999996
0.0731035 0.0678421 0.060682599999999996
0.0734698 0.067609 0.060982299999999996
0.0750016 0.0693406 0.060049899999999996
0.0776323 0.0683416 0.062380899999999996
0.0772993 0.069607 0.0642457
0.0773326 0.06994 0.0649117
0.076933 0.0697402 0.0656443
0.0764335 0.0707392 0.0683083
0.0773326 0.0717049 0.0683083
0.0791308 0.074269 0.0686746
0.0792973 0.0759007 0.0704062
0.0799633 0.0753346 0.0705061
0.0810622 0.0769663 0.0716716
0.0801298 0.0787645 0.0740692
0.0823942 0.0803629 0.0753013
0.084925 0.0810622 0.0772993
0.0855244 0.0836596 0.0791308
0.084925 0.0860572 0.081595
0.086923 0.0868231 0.0829936
0.0875557 0.0881884 0.0836929
0.0885547 0.0884548 0.0848584
0.0876223 0.0885547 0.0850915
0.0902197 0.0870562 0.084259
0.0923842 0.0880885 0.0857908
0.0933166 0.0878221 0.0884548
0.0961804 0.0889543 0.0906526
0.0971794 0.0894205 0.0921511
0.099244 0.0906193 0.0947818
0.1002097 0.0926506 0.0948484
0.0997102 0.0931168 0.0973459
0.0986779 0.0922843 0.0994105
0.1015084 0.0930835 0.1009423
0.1007758 0.093583 0.1018081
0.1017082 0.0945154 0.1029403
0.1024075 0.0944488 0.1032067
0.1038727 0.0942157 0.1026739
0.1067032 0.0927172 0.1039726
0.1079353 0.0948484 0.1033066
0.1082683 0.0966466 0.1042057
0.1088344 0.0991774 0.1045054
0.1091008 0.1021744 0.1058707
0.1111321 0.1033399 0.1045054
0.111898 0.1056376 0.1050382
0.1139959 0.1063036 0.105904
0.1139293 0.1084681 0.1081684
0.1165267 0.1104994 0.1098334
0.1181584 0.1105993 0.1099999
0.1192573 0.1118647 0.1096003
0.1191907 0.1136962 0.1121311
0.1203895 0.1129969 0.1139959
0.1208224 0.1124974 0.1156942
0.1214551 0.1144954 0.1182583
0.1224208 0.1155943 0.1171594
0.1218547 0.1161937 0.1162603
0.1238194 0.1153612 0.1178254
0.1264168 0.1176922 0.1197235
0.1285813 0.119224 0.1196569
0.1281151 0.1189576 0.1211221
0.12874780000000002 0.1218547 0.1229203
0.12991330000000004 0.1215217 0.1252513
0.12984670000000004 0.1230535 0.1273159
0.13064590000000004 0.1257508 0.12841480000000002
0.13214440000000005 0.1274158 0.1282483
0.13417570000000006 0.1275157 0.12888100000000002
0.13460860000000008 0.12814840000000002 0.12808180000000002
0.1369729000000001 0.13047940000000002 0.12944710000000004
0.1394704000000001 0.13274380000000002 0.13141180000000005
0.14096890000000012 0.13444210000000004 0.13184470000000006
0.14180140000000013 0.13580740000000005 0.13247740000000008
0.14369950000000015 0.13440880000000005 0.13454200000000008
0.14320000000000013 0.13380940000000005 0.1345753000000001
0.14519800000000013 0.13370950000000004 0.1364734000000001
0.14756230000000015 0.13397590000000004 0.13870450000000012
0.14846140000000016 0.13507480000000005 0.1381384000000001
0.14966020000000016 0.13697290000000006 0.1386046000000001
0.15095890000000017 0.13893760000000008 0.13990330000000012
0.1520578000000002 0.14046940000000008 0.14010310000000012
0.15149170000000017 0.1423009000000001 0.14240080000000013
0.15155830000000017 0.1446652000000001 0.14453200000000013
0.1522576000000002 0.14662990000000012 0.14619700000000013
0.1528237000000002 0.14629690000000012 0.14709610000000015
0.1519912000000002 0.14503150000000012 0.14846140000000016
0.1531900000000002 0.14782870000000012 0.14886100000000016
0.1534897000000002 0.14949370000000012 0.14932720000000016
0.1528570000000002 0.15049270000000012 0.15075910000000017
0.1536562000000002 0.1501264000000001 0.15155830000000017
0.1554877000000002 0.1523908000000001 0.15202450000000017
0.15731920000000021 0.15302350000000012 0.1536562000000002
0.15941710000000023 0.1517248000000001 0.1550548000000002
0.16058260000000024 0.15322330000000012 0.1556875000000002
0.16134850000000026 0.15465520000000013 0.15745240000000021
0.16321330000000026 0.15518800000000013 0.15841810000000023
0.16581070000000026 0.15645340000000013 0.15861790000000023
0.16547770000000026 0.15548770000000012 0.15765220000000021
0.16604380000000027 0.15705280000000013 0.15831820000000021
0.16694290000000028 0.15795190000000014 0.15838480000000021
0.1678420000000003 0.15878440000000016 0.15891760000000021
0.1682416000000003 0.16028290000000017 0.16151500000000021
0.1685413000000003 0.1606492000000002 0.16254730000000023
0.1686745000000003 0.1606825000000002 0.16178140000000021
0.1686745000000003 0.1631800000000002 0.16394590000000023
0.1713385000000003 0.1627471000000002 0.16467850000000023
0.1721377000000003 0.1627804000000002 0.16511140000000024
0.17483500000000032 0.1627804000000002 0.16597720000000024
0.17470180000000032 0.16407910000000023 0.16641010000000026
0.17749900000000032 0.16464520000000024 0.16631020000000024
0.17789860000000032 0.16724260000000024 0.16847470000000025
0.17989660000000032 0.16950700000000024 0.16867450000000025
0.18152830000000034 0.16997320000000024 0.16897420000000027
0.18209440000000035 0.17070580000000024 0.17103880000000027
0.18246070000000036 0.17010640000000024 0.17297020000000027
0.18422560000000038 0.17160490000000025 0.17333650000000028
0.18482500000000038 0.17250400000000027 0.1755676000000003
0.18462520000000038 0.17170480000000027 0.1772992000000003
0.18489160000000038 0.17210440000000027 0.1774324000000003
0.18629020000000038 0.17197120000000027 0.1784980000000003
0.18625690000000036 0.17313670000000028 0.1798300000000003
0.18805510000000036 0.17420230000000028 0.1821610000000003
0.18998650000000036 0.1759006000000003 0.1825939000000003
0.19085230000000036 0.1774657000000003 0.1827271000000003
0.19101880000000038 0.1767664000000003 0.1837261000000003
0.19248400000000038 0.1797301000000003 0.1835596000000003
0.19261720000000038 0.1813951000000003 0.1846918000000003
0.1927171000000004 0.1819945000000003 0.1873558000000003
0.1952146000000004 0.1838593000000003 0.1880218000000003
0.1948150000000004 0.18575740000000032 0.1884880000000003
0.1939159000000004 0.18612370000000034 0.1893871000000003
0.1937827000000004 0.18565750000000034 0.19201780000000032
0.1956475000000004 0.18569080000000035 0.19404910000000034
0.1967464000000004 0.18835480000000035 0.19371610000000034
0.1976788000000004 0.18835480000000035 0.19681300000000035
0.19777870000000042 0.18845470000000036 0.19628020000000035
0.19857790000000042 0.18882100000000038 0.19857790000000036
0.19947700000000043 0.18935380000000038 0.20160820000000038
0.20024290000000045 0.19161820000000038 0.2035729000000004
0.20267380000000046 0.1925173000000004 0.20333980000000038
0.20247400000000046 0.19248400000000038 0.2040391000000004
0.20427220000000046 0.1941157000000004 0.20300680000000038
0.20597050000000047 0.1929835000000004 0.20264050000000036
0.2065366000000005 0.1917847000000004 0.20363950000000036
0.2056708000000005 0.1925173000000004 0.20314000000000035
0.2058706000000005 0.19235080000000038 0.20523790000000036
0.2063368000000005 0.19118530000000036 0.20746900000000038
0.2065033000000005 0.19241740000000038 0.20786860000000038
0.2077687000000005 0.19171810000000036 0.21013300000000038
0.20840140000000051 0.19198450000000036 0.20936710000000036
0.20900080000000051 0.19368280000000038 0.21069910000000036
0.20833480000000051 0.19541440000000038 0.21163150000000036
0.20950030000000053 0.1977121000000004 0.21249730000000036
0.20963350000000053 0.1973125000000004 0.21286360000000037
0.20883430000000053 0.1998433000000004 0.2132965000000004
0.21089890000000053 0.2015416000000004 0.2126305000000004
0.20989990000000053 0.20250730000000042 0.2115649000000004
0.21166480000000054 0.20217430000000042 0.21066580000000037
0.21316330000000056 0.20317330000000042 0.21059920000000037
0.21459520000000057 0.20480500000000043 0.2116981000000004
0.21709270000000058 0.20497150000000045 0.21133180000000037
0.2193238000000006 0.20430550000000045 0.21016630000000036
0.2217880000000006 0.20473840000000046 0.21029950000000036
0.22108870000000058 0.20550430000000047 0.21249730000000036
0.22242070000000058 0.20743570000000047 0.21429550000000036
0.2242522000000006 0.20830150000000047 0.21669310000000036
0.2260504000000006 0.21019960000000049 0.21722590000000036
0.22481830000000058 0.21039940000000049 0.21769210000000036
0.2262502000000006 0.21139840000000049 0.21955690000000036
0.2288476000000006 0.21293020000000049 0.22058920000000037
0.2294470000000006 0.21379600000000049 0.22178800000000037
0.2302462000000006 0.21552760000000049 0.2232199000000004
0.2315449000000006 0.21646000000000049 0.2236861000000004
0.2314783000000006 0.2179585000000005 0.2246518000000004
0.23291020000000062 0.2197567000000005 0.2234863000000004
0.23307670000000064 0.2203894000000005 0.22265380000000037
0.23490820000000065 0.2221876000000005 0.22105540000000037
0.23487490000000064 0.2227204000000005 0.2212885000000004
0.23370940000000062 0.2226538000000005 0.2238193000000004
0.2326105000000006 0.2235196000000005 0.2258173000000004
0.23284360000000062 0.22595050000000053 0.22445200000000037
0.23384260000000062 0.22828150000000053 0.22391920000000037
0.23324320000000062 0.22914730000000053 0.22571740000000037
0.23480830000000064 0.23034610000000053 0.22758220000000037
0.23554090000000064 0.23087890000000053 0.22664980000000037
0.23590720000000065 0.23394250000000053 0.2292805000000004
0.23634010000000066 0.23477500000000054 0.2317114000000004
0.23860450000000066 0.23574070000000055 0.2304793000000004
0.23910400000000068 0.23760550000000055 0.2300131000000004
0.23813830000000066 0.23803840000000057 0.22924720000000037
0.23950360000000068 0.23887090000000058 0.2318113000000004
0.2409355000000007 0.24080230000000058 0.2323441000000004
0.24023620000000068 0.2413684000000006 0.2319445000000004
0.24010300000000068 0.2422009000000006 0.2315449000000004
0.24143500000000068 0.2438659000000006 0.2330767000000004
0.2430667000000007 0.2444653000000006 0.23277700000000037
0.2433331000000007 0.24516460000000062 0.23261050000000036
0.2450980000000007 0.24729580000000062 0.23457520000000037
0.2458306000000007 0.24912730000000063 0.23667310000000039
0.24659650000000072 0.24779530000000063 0.23663980000000037
0.2460304000000007 0.24856120000000065 0.23847130000000039
0.24626350000000072 0.24799510000000063 0.23810500000000037
0.24629680000000073 0.24966010000000063 0.23850460000000037
0.24862780000000073 0.25082560000000065 0.23727250000000036
0.24939370000000075 0.2527570000000007 0.23947030000000036
0.25082560000000076 0.2523574000000007 0.23937040000000034
0.25212430000000075 0.25445530000000066 0.24156820000000034
0.25532110000000074 0.25655320000000065 0.24190120000000034
0.25628680000000076 0.25575400000000065 0.24183460000000034
0.25718590000000074 0.25745230000000063 0.24163480000000034
0.25845130000000077 0.25984990000000063 0.24130180000000034
0.25975000000000076 0.26214760000000065 0.24043600000000034
0.2626138000000008 0.26264710000000063 0.24110200000000034
0.2623474000000008 0.26451190000000063 0.24106870000000033
0.2624806000000008 0.26614360000000065 0.24306670000000033
0.2648782000000008 0.26894080000000065 0.24213430000000033
0.26670970000000077 0.2699398000000007 0.24326650000000033
0.2681083000000008 0.2690407000000007 0.24329980000000034
0.2701063000000008 0.2713717000000007 0.24396580000000034
0.2717047000000008 0.2706391000000007 0.24453190000000036
0.2719711000000008 0.2723041000000007 0.24419890000000036
0.2724040000000008 0.27303670000000074 0.24423220000000037
0.2733697000000008 0.27513460000000073 0.24373270000000036
0.27473500000000084 0.27526780000000073 0.24310000000000034
0.27593380000000084 0.2743021000000007 0.24273370000000033
0.2748349000000008 0.2748349000000007 0.24270040000000032
0.2760004000000008 0.27593380000000073 0.24359950000000033
0.2757340000000008 0.27530110000000074 0.24523120000000034
0.2776987000000008 0.27616690000000077 0.24802840000000034
0.2792638000000008 0.27573400000000076 0.24989320000000034
0.2795968000000008 0.27653320000000076 0.24956020000000034
0.2817613000000008 0.27630010000000077 0.25072570000000033
0.2842588000000008 0.27586720000000076 0.25092550000000036
0.2836594000000008 0.27676630000000074 0.25332310000000036
0.2841256000000008 0.27706600000000076 0.25568740000000034
0.2827270000000008 0.2783314000000008 0.25651990000000036
0.2838259000000008 0.27723250000000077 0.25865110000000036
0.2857573000000008 0.27986320000000076 0.2593837000000004
0.28645660000000084 0.28026280000000076 0.25921720000000037
0.28758880000000087 0.28029610000000077 0.2608822000000004
0.28782190000000085 0.2808622000000008 0.2625139000000004
0.28822150000000085 0.28016290000000077 0.2625472000000004
0.29118520000000087 0.2808955000000008 0.2633464000000004
0.29071900000000084 0.2834263000000008 0.26564410000000044
0.29394910000000085 0.2844919000000008 0.26797510000000047
0.29391580000000084 0.2848582000000008 0.26797510000000047
0.29404900000000084 0.2855908000000008 0.26644330000000044
0.29644660000000084 0.2869228000000008 0.2656108000000004
0.29714590000000085 0.2876887000000008 0.2679751000000004
0.30034270000000085 0.2904526000000008 0.2674090000000004
0.30144160000000086 0.29028610000000077 0.2681749000000004
0.3022741000000009 0.29078560000000075 0.2696734000000004
0.30410560000000086 0.2903194000000007 0.2694403000000004
0.3051046000000009 0.29141830000000074 0.27030610000000044
0.3044386000000009 0.2901862000000007 0.27270370000000044
0.3045718000000009 0.2917513000000007 0.27353620000000045
0.3071026000000009 0.2925505000000007 0.27336970000000044
0.3073024000000009 0.2930500000000007 0.2761336000000004
0.3077020000000009 0.2924173000000007 0.27806500000000045
0.30866770000000093 0.29448190000000074 0.27903070000000046
0.30933370000000093 0.29628010000000077 0.27903070000000046
0.31043260000000095 0.29628010000000077 0.28102870000000046
0.3102328000000009 0.2967463000000008 0.28169470000000046
0.3102328000000009 0.2968462000000008 0.2840257000000005
0.3115648000000009 0.2983114000000008 0.2842921000000005
0.3103327000000009 0.2982115000000008 0.2865232000000005
0.3108322000000009 0.2993770000000008 0.2873557000000005
0.3126970000000009 0.2979118000000008 0.2866897000000005
0.3127969000000009 0.29907730000000077 0.2867230000000005
0.3147283000000009 0.29894410000000077 0.2883547000000005
0.3156274000000009 0.29904400000000075 0.2887543000000005
0.3164932000000009 0.30024280000000075 0.2879218000000005
0.3192571000000009 0.29927710000000074 0.2890873000000005
0.32158810000000093 0.30007630000000074 0.2901862000000005
0.32198770000000093 0.3008422000000007 0.2920510000000005
0.32162140000000095 0.3023074000000007 0.2914849000000005
0.32438530000000093 0.3045718000000007 0.2939158000000005
0.3235195000000009 0.30570400000000075 0.29571400000000053
0.32411890000000093 0.30766870000000074 0.2971459000000005
0.32654980000000094 0.3074689000000007 0.2964466000000005
0.32854780000000094 0.30793510000000074 0.2966797000000005
0.32904730000000093 0.3068362000000007 0.2991772000000005
0.32911390000000096 0.30740230000000074 0.3008422000000005
0.32871430000000096 0.30953350000000074 0.3007756000000005
0.329280400000001 0.31206430000000074 0.3017413000000005
0.328914100000001 0.31436200000000075 0.3035062000000005
0.330645700000001 0.31539430000000074 0.3045385000000005
0.330978700000001 0.3151945000000007 0.3070027000000005
0.330512500000001 0.3158605000000007 0.3068695000000005
0.331911100000001 0.3166597000000007 0.30863440000000053
0.33304330000000104 0.3159937000000007 0.30963340000000056
0.33317650000000104 0.3157273000000007 0.31226410000000054
0.332743600000001 0.3181249000000007 0.31319650000000054
0.332710300000001 0.3181582000000007 0.31426210000000054
0.332943400000001 0.31832470000000074 0.31522780000000056
0.333942400000001 0.31839130000000077 0.31669300000000056
0.33317650000000104 0.31942360000000075 0.31695940000000056
0.33291010000000104 0.31998970000000077 0.3176920000000006
0.33440860000000106 0.32248720000000075 0.31965670000000057
0.33574060000000105 0.3234862000000008 0.3206224000000006
0.3360736000000011 0.3259171000000008 0.32085550000000057
0.3365065000000011 0.3262834000000008 0.31972330000000054
0.3378385000000011 0.32678290000000076 0.31929040000000053
0.3389374000000011 0.32904730000000076 0.31879090000000054
0.3388708000000011 0.3299131000000008 0.31959010000000054
0.3417013000000011 0.3296467000000008 0.32018950000000057
0.3423007000000011 0.3310120000000008 0.3207556000000006
0.3426670000000011 0.3309454000000008 0.32245390000000057
0.34300000000000114 0.3311452000000008 0.3227869000000006
0.3446983000000011 0.3317113000000008 0.3244186000000006
0.3472291000000011 0.3329101000000008 0.32501800000000064
0.34822810000000115 0.3327103000000008 0.32531770000000065
0.34849450000000115 0.3344086000000008 0.32478490000000065
0.35112520000000114 0.3345751000000008 0.3235195000000006
0.35292340000000116 0.33450850000000076 0.32545090000000065
0.35542090000000115 0.33650650000000076 0.32595040000000064
0.35745220000000116 0.33713920000000075 0.3269827000000006
0.35798500000000116 0.33673960000000075 0.3279151000000006
0.3584512000000012 0.33757210000000076 0.3278818000000006
0.3607822000000012 0.34060240000000075 0.3285145000000006
0.36191440000000125 0.3397366000000007 0.3298798000000006
0.36347950000000123 0.3385378000000007 0.3290473000000006
0.36541090000000126 0.3406690000000007 0.3311452000000006
0.3662767000000013 0.34150150000000074 0.33054580000000056
0.3685411000000013 0.34283350000000073 0.3314116000000006
0.3692071000000013 0.34436530000000076 0.3316114000000006
0.3714715000000013 0.3454642000000008 0.3316114000000006
0.3709387000000013 0.34459840000000075 0.3327769000000006
0.3722041000000013 0.34379920000000075 0.3331432000000006
0.37333630000000134 0.34339960000000075 0.3346750000000006
0.37450180000000133 0.34233400000000075 0.3344752000000006
0.37583380000000133 0.34436530000000076 0.3360070000000006
0.37590040000000136 0.34463170000000076 0.33620680000000064
0.37570060000000133 0.3468295000000008 0.33530770000000065
0.37636660000000133 0.3476953000000008 0.33394240000000064
0.3769993000000013 0.3492604000000008 0.33460840000000064
0.3780316000000013 0.3519577000000008 0.3355075000000006
0.37756540000000127 0.3543553000000008 0.33730570000000065
0.37873090000000126 0.35562070000000084 0.33933700000000067
0.3810619000000013 0.35505460000000083 0.34066900000000067
0.3830599000000013 0.3549880000000008 0.34116850000000065
0.38409220000000127 0.35678620000000083 0.34343290000000065
0.38619010000000126 0.35825140000000083 0.34233400000000064
0.38632330000000126 0.35868430000000084 0.34326640000000064
0.3883879000000013 0.35831800000000086 0.34426540000000067
0.3888541000000013 0.3597166000000009 0.34586380000000067
0.3877219000000013 0.3604159000000009 0.3478951000000007
0.38795500000000127 0.36034930000000087 0.3489940000000007
0.38942020000000127 0.3605158000000009 0.34879420000000066
0.3900196000000013 0.35938360000000086 0.34852780000000066
0.3910852000000013 0.36124840000000086 0.34942690000000065
0.3912517000000013 0.36188110000000084 0.34859440000000064
0.3903193000000013 0.36171460000000083 0.34782850000000065
0.3914848000000013 0.36294670000000084 0.3502927000000007
0.3933829000000013 0.36527770000000087 0.3506923000000007
0.39571390000000134 0.3647782000000009 0.35062570000000065
0.3956473000000013 0.3655774000000009 0.35195770000000065
0.39691270000000134 0.3663100000000009 0.35235730000000065
0.3999430000000013 0.3656107000000009 0.35382250000000065
0.3994768000000013 0.3660436000000009 0.35392240000000064
0.3983779000000013 0.3679084000000009 0.35355610000000065
0.4003093000000013 0.36970660000000094 0.35592040000000064
0.4013749000000013 0.3722041000000009 0.35512120000000064
0.4026736000000013 0.3724372000000009 0.35612020000000066
0.4050046000000013 0.3708721000000009 0.35598700000000066
0.40437190000000134 0.3721708000000009 0.3570859000000007
0.40523770000000137 0.3721375000000009 0.3584179000000007
0.40523770000000137 0.3730033000000009 0.3584179000000007
0.40437190000000134 0.3728701000000009 0.35838460000000066
0.40693600000000135 0.3756673000000009 0.3592171000000007
0.40610350000000134 0.3758005000000009 0.3601828000000007
0.40763530000000137 0.37530100000000094 0.3598831000000007
0.4100662000000014 0.37666630000000095 0.3609820000000007
0.4122307000000014 0.37823140000000094 0.3626803000000007
0.4123639000000014 0.37933030000000095 0.3647116000000007
0.4141288000000014 0.37949680000000097 0.3660103000000007
0.4150945000000014 0.379929700000001 0.36717580000000066
0.4149613000000014 0.37946350000000095 0.3680416000000007
0.4143619000000014 0.38132830000000095 0.3698065000000007
0.4145284000000014 0.38236060000000094 0.3701062000000007
0.4153609000000014 0.38345950000000095 0.37137160000000075
0.41632660000000143 0.3828601000000009 0.3743686000000008
0.41805820000000143 0.3820276000000009 0.3762667000000008
0.42065560000000146 0.3812617000000009 0.3773323000000008
0.41955670000000145 0.3840589000000009 0.3774655000000008
0.42062230000000145 0.38678950000000095 0.3789307000000008
0.42172120000000146 0.387255700000001 0.3817945000000008
0.42222070000000145 0.38908720000000097 0.3842254000000008
0.42421870000000145 0.39001960000000097 0.38469160000000086
0.42408550000000145 0.39135160000000097 0.38539090000000087
0.42398560000000146 0.39175120000000097 0.3854575000000009
0.4240189000000015 0.390985300000001 0.3862567000000009
0.4248514000000015 0.392783500000001 0.3870559000000009
0.4253509000000015 0.394648300000001 0.3893869000000009
0.4283479000000015 0.396146800000001 0.3892537000000009
0.4300462000000015 0.39817810000000103 0.3906856000000009
0.4301128000000015 0.398411200000001 0.3938491000000009
0.42961330000000153 0.401175100000001 0.3942820000000009
0.4310452000000015 0.401707900000001 0.3940156000000009
0.43320970000000153 0.402873400000001 0.39581380000000094
0.43294330000000153 0.404371900000001 0.3953809000000009
0.43407550000000156 0.405404200000001 0.39714580000000094
0.4350745000000016 0.404838100000001 0.3970792000000009
0.4350745000000016 0.40640320000000096 0.39767860000000094
0.4364065000000016 0.407368900000001 0.39994300000000094
0.4390039000000016 0.408234700000001 0.40197430000000095
0.4415347000000016 0.41069890000000103 0.40167460000000094
0.4409020000000016 0.41083210000000103 0.40170790000000095
0.4428667000000016 0.40936690000000103 0.40064230000000095
0.4437658000000016 0.40856770000000103 0.40184110000000095
0.4439323000000016 0.41176450000000103 0.40047580000000094
0.4446316000000016 0.41269690000000103 0.4017745000000009
0.44746210000000164 0.412363900000001 0.4020409000000009
0.44946010000000164 0.411631300000001 0.40180780000000094
0.4485943000000016 0.41386240000000096 0.40287340000000094
0.4477285000000016 0.41306320000000096 0.40517110000000095
0.4479283000000016 0.41219740000000094 0.40690270000000095
0.4491604000000016 0.41196430000000095 0.40650310000000095
0.4499263000000016 0.41452840000000096 0.406702900000001
0.4516912000000016 0.41702590000000095 0.408168100000001
0.4536559000000016 0.41845780000000093 0.40840120000000096
0.45478810000000164 0.41899060000000093 0.410332600000001
0.45668620000000165 0.4194901000000009 0.409966300000001
0.45711910000000167 0.4202893000000009 0.411065200000001
0.4590172000000017 0.4232197000000009 0.41286340000000105
0.4618810000000017 0.4229533000000009 0.41419540000000105
0.4608820000000017 0.4260169000000009 0.41339620000000105
0.4610152000000017 0.42751540000000093 0.41223070000000106
0.4638124000000017 0.42751540000000093 0.41352940000000105
0.4630465000000017 0.42851440000000096 0.41566060000000105
0.4618810000000017 0.43087870000000095 0.41472820000000105
0.4625803000000017 0.432543700000001 0.413862400000001
0.4638790000000017 0.43251040000000096 0.413795800000001
0.4660102000000017 0.434708200000001 0.415327600000001
0.4663099000000017 0.434874700000001 0.414628300000001
0.4681747000000017 0.43640650000000103 0.415294300000001
0.4688074000000017 0.43737220000000104 0.415660600000001
0.4681747000000017 0.43813810000000103 0.41519440000000096
0.4701394000000017 0.437971600000001 0.41702590000000095
0.47180440000000173 0.43787170000000103 0.418291300000001
0.47423530000000175 0.43870420000000104 0.419157100000001
0.47556730000000175 0.43840450000000103 0.420256000000001
0.47600020000000176 0.44110180000000104 0.42218740000000105
0.4759003000000018 0.44303320000000107 0.4237192000000011
0.4779649000000018 0.4424005000000011 0.4258504000000011
0.47923030000000183 0.4450645000000011 0.42621670000000106
0.48072880000000184 0.4474621000000011 0.4272157000000011
0.47969650000000186 0.4468294000000011 0.4267162000000011
0.48212740000000187 0.4481614000000011 0.4284145000000011
0.48212740000000187 0.4512916000000011 0.4284478000000011
0.4835260000000019 0.45052570000000114 0.4308787000000011
0.4830931000000019 0.4499596000000011 0.4295800000000011
0.48319300000000187 0.45109180000000115 0.4294135000000011
0.48439180000000187 0.45052570000000114 0.4302460000000011
0.48365920000000184 0.4503592000000011 0.4300462000000011
0.48435850000000186 0.4519243000000011 0.4287475000000011
0.48449170000000186 0.4532563000000011 0.4304458000000011
0.4845583000000019 0.45372250000000114 0.4304125000000011
0.4830931000000019 0.45465490000000114 0.4312783000000011
0.4830931000000019 0.45308980000000115 0.4303792000000011
0.4839589000000019 0.45442180000000115 0.43084540000000116
0.48469150000000194 0.4546216000000012 0.43191100000000116
0.48675610000000197 0.4556206000000012 0.4327768000000012
0.488021500000002 0.4580515000000012 0.43261030000000117
0.488587600000002 0.4580515000000012 0.43474150000000117
0.487655200000002 0.4592170000000012 0.43500790000000117
0.488021500000002 0.4599163000000012 0.43467490000000114
0.489719800000002 0.46211410000000125 0.43474150000000117
0.492383800000002 0.46268020000000126 0.4367728000000012
0.492417100000002 0.4639456000000013 0.4369060000000012
0.492650200000002 0.4664764000000013 0.4365397000000012
0.49474810000000197 0.4686742000000013 0.4391038000000012
0.495980200000002 0.46884070000000133 0.4396366000000012
0.496812700000002 0.46937350000000133 0.4397698000000012
0.497345500000002 0.46844110000000133 0.4409353000000012
0.499177000000002 0.4700062000000013 0.4409353000000012
0.501008500000002 0.4693402000000013 0.4429000000000012
0.5033395000000019 0.47137150000000133 0.4435993000000012
0.505004500000002 0.4724038000000013 0.4452976000000012
0.507202300000002 0.47366920000000134 0.4473622000000012
0.506602900000002 0.47353600000000134 0.4486609000000012
0.507368800000002 0.47356930000000136 0.4500595000000012
0.509366800000002 0.47393560000000134 0.45035920000000124
0.511464700000002 0.47410210000000136 0.45149140000000126
0.512497000000002 0.4752010000000014 0.45265690000000125
0.515094400000002 0.4777984000000014 0.45322300000000126
0.5150611000000019 0.4781647000000014 0.4536559000000013
0.5152276000000019 0.4793968000000014 0.4559536000000013
0.5166262000000019 0.4818610000000014 0.4566196000000013
0.5173588000000019 0.48429190000000144 0.4576186000000013
0.5187574000000019 0.48552400000000145 0.4564198000000013
0.5197897000000019 0.48722230000000144 0.4563865000000013
0.5209219000000019 0.4870558000000014 0.4568860000000013
0.5233195000000019 0.4874221000000014 0.4574854000000013
0.5232529000000019 0.4874554000000014 0.4574188000000013
0.5250511000000019 0.4891870000000014 0.4573855000000013
0.5254507000000019 0.4922173000000014 0.4594168000000013
0.5256172000000019 0.4935826000000014 0.4582180000000013
0.5252176000000018 0.49321630000000144 0.4599163000000013
0.5272489000000018 0.4934494000000014 0.4600828000000013
0.5275153000000018 0.4946482000000014 0.4593169000000013
0.5284810000000018 0.4940821000000014 0.4586509000000013
0.5298130000000018 0.4940488000000014 0.46058230000000133
0.5314114000000018 0.4958803000000014 0.46297990000000133
0.5338090000000018 0.49581370000000136 0.46524430000000133
0.5333761000000018 0.49478140000000137 0.46557730000000136
0.5342419000000018 0.4957471000000014 0.4676086000000014
0.5342419000000018 0.4948480000000014 0.46664290000000136
0.5346415000000019 0.4968793000000014 0.46740880000000135
0.5354407000000019 0.4969126000000014 0.46930690000000136
0.5362399000000019 0.4970125000000014 0.46837450000000136
0.5377051000000019 0.4972789000000014 0.46940680000000135
0.5373055000000019 0.5000761000000015 0.4692070000000013
0.5384377000000019 0.4999762000000015 0.46954000000000135
0.5414014000000019 0.5015413000000015 0.46937350000000133
0.5426335000000019 0.5031397000000015 0.4683745000000013
0.5457304000000018 0.5030065000000015 0.4689406000000013
0.5453308000000018 0.5024404000000015 0.46927360000000135
0.5451976000000017 0.5041054000000015 0.47123830000000133
0.5469958000000017 0.5061034000000015 0.4725370000000013
0.5486608000000017 0.5072023000000015 0.47536750000000133
0.5484610000000018 0.5097997000000015 0.4756006000000013
0.5480281000000018 0.5113981000000015 0.4762333000000013
0.5494933000000018 0.5104990000000015 0.47803150000000133
0.5491936000000018 0.5096665000000015 0.47982970000000136
0.5497597000000018 0.5106322000000014 0.48019600000000134
0.5511583000000019 0.5120641000000015 0.48106180000000137
0.5538556000000019 0.5136292000000015 0.4817611000000014
0.5533228000000019 0.5150944000000015 0.4837591000000014
0.5552542000000019 0.5164264000000015 0.4855573000000014
0.555920200000002 0.5165596000000016 0.48735550000000144
0.557119000000002 0.5170924000000016 0.48748870000000144
0.558084700000002 0.5161600000000015 0.4889206000000014
0.560349100000002 0.5151943000000015 0.4887208000000014
0.5630797000000021 0.5173921000000016 0.4911184000000014
0.5645449000000021 0.5195233000000016 0.4914181000000014
0.5653774000000021 0.5197897000000016 0.4915513000000014
0.5680081000000021 0.5196898000000015 0.4908520000000014
0.5670091000000022 0.5194567000000015 0.4926835000000014
0.5682412000000021 0.5196565000000015 0.49195090000000136
0.5686741000000021 0.5219875000000015 0.49195090000000136
0.568341100000002 0.5240854000000015 0.49291660000000137
0.567175600000002 0.5249512000000015 0.4944484000000014
0.569506600000002 0.5250844000000016 0.4966462000000014
0.569240200000002 0.5264497000000016 0.4971457000000014
0.569173600000002 0.5261167000000015 0.4964131000000014
0.569306800000002 0.5265829000000015 0.4983445000000014
0.570472300000002 0.5264164000000016 0.5008087000000014
0.572503600000002 0.5266495000000015 0.5022739000000015
0.573369400000002 0.5293468000000016 0.5053375000000015
0.575167600000002 0.5304790000000016 0.5050711000000015
0.574967800000002 0.5332762000000016 0.5081680000000015
0.5772322000000021 0.5350744000000016 0.5098663000000015
0.5777983000000021 0.5340421000000016 0.5095000000000015
0.5770657000000021 0.5357071000000017 0.5093002000000015
0.5776651000000022 0.5375053000000016 0.5099995000000015
0.5804956000000021 0.5381713000000017 0.5121307000000015
0.5831929000000021 0.5372056000000017 0.5138290000000015
0.5846914000000021 0.5388706000000018 0.5151610000000015
0.5851909000000021 0.5413015000000018 0.5169925000000015
0.584591500000002 0.5416678000000018 0.5194900000000016
0.5865562000000021 0.5440987000000018 0.5200894000000016
0.585424000000002 0.5452642000000019 0.5229199000000015
0.584758000000002 0.5464963000000018 0.5240521000000016
0.585257500000002 0.5495599000000019 0.5244184000000016
0.586689400000002 0.5510251000000019 0.5260834000000016
0.587655100000002 0.5533894000000019 0.5259835000000016
0.587954800000002 0.553789000000002 0.5273488000000016
0.588187900000002 0.554588200000002 0.5288140000000017
0.588254500000002 0.555620500000002 0.5289139000000017
0.589286800000002 0.556253200000002 0.5308453000000017
0.588387700000002 0.559083700000002 0.5323771000000017
0.590119300000002 0.559383400000002 0.5322772000000017
0.5918509000000021 0.560815300000002 0.5336425000000017
0.5934493000000021 0.563212900000002 0.5357404000000017
0.5943151000000021 0.563279500000002 0.5344750000000017
0.5949811000000021 0.564811300000002 0.5337091000000017
0.5961466000000022 0.564145300000002 0.5336758000000017
0.5964796000000022 0.566309800000002 0.5334094000000017
0.5978116000000022 0.567941500000002 0.5342419000000017
0.5985775000000022 0.570006100000002 0.5364064000000017
0.5995432000000022 0.5702059000000019 0.5352742000000017
0.6017077000000022 0.5701060000000019 0.5365063000000017
0.6028732000000022 0.570239200000002 0.5388706000000016
0.6027400000000022 0.570339100000002 0.5386708000000017
0.6022072000000022 0.570538900000002 0.5389372000000017
0.6024070000000021 0.572803300000002 0.5401360000000017
0.6027067000000021 0.574201900000002 0.5404690000000018
0.6053374000000021 0.575167600000002 0.5427001000000018
0.6076684000000021 0.577398700000002 0.5448313000000018
0.6094000000000022 0.5780314000000021 0.5472289000000018
0.6098995000000021 0.5805622000000021 0.5469292000000018
0.6094333000000022 0.5818276000000021 0.5480614000000018
0.6118975000000022 0.5838922000000021 0.5487607000000018
0.6111316000000022 0.5852908000000021 0.5499595000000018
0.6108319000000022 0.5868559000000021 0.5529565000000018
0.6100327000000022 0.5870557000000021 0.5547214000000018
0.6117310000000022 0.5894533000000021 0.5545216000000018
0.6128965000000023 0.589952800000002 0.5557537000000018
0.6154606000000022 0.5906188000000021 0.5554207000000018
0.6146281000000022 0.5916511000000021 0.5559202000000018
0.6163597000000023 0.5912182000000021 0.5559535000000018
0.6155938000000023 0.5919175000000021 0.5582512000000017
0.6155272000000023 0.5921839000000021 0.5592835000000017
0.6177583000000023 0.5942485000000021 0.5588173000000017
0.6172255000000023 0.5964463000000021 0.5603824000000017
0.6185908000000023 0.598211200000002 0.5609152000000017
0.6187240000000024 0.598977100000002 0.5615479000000018
0.6195898000000024 0.598144600000002 0.5617810000000018
0.6223204000000024 0.600275800000002 0.5611150000000017
0.6231529000000025 0.600742000000002 0.5632129000000017
0.6228199000000024 0.601008400000002 0.5645116000000017
0.6239521000000025 0.601641100000002 0.5644783000000017
0.6255172000000024 0.6027733000000021 0.5666095000000017
0.6263497000000025 0.604871200000002 0.5685742000000017
0.6271156000000024 0.6049378000000021 0.5697730000000018
0.6281146000000024 0.6041719000000021 0.5709718000000018
0.6273487000000024 0.6059701000000021 0.5708386000000018
0.6281146000000024 0.605071000000002 0.5702725000000017
0.6268825000000025 0.604438300000002 0.5707054000000017
0.6285808000000025 0.606003400000002 0.5716045000000017
0.6303457000000025 0.608634100000002 0.5730364000000018
0.6300460000000024 0.6085342000000019 0.5721706000000018
0.6314113000000025 0.6084010000000019 0.5724037000000017
0.6327766000000025 0.6096997000000018 0.5753341000000017
0.6330097000000025 0.6118309000000018 0.5779315000000017
0.6322438000000025 0.6129631000000019 0.5782978000000017
0.6324769000000025 0.6145948000000019 0.5796631000000018
0.6342085000000025 0.6155938000000019 0.5816944000000017
0.6329764000000025 0.6164263000000019 0.5835592000000017
0.6351076000000025 0.6168259000000019 0.5828599000000018
0.6346081000000026 0.6178582000000019 0.5838589000000017
0.6358402000000025 0.617425300000002 0.5861233000000018
0.6353407000000025 0.617725000000002 0.5863897000000018
0.6367393000000026 0.619856200000002 0.5883211000000018
0.6376384000000026 0.621321400000002 0.5869891000000018
0.6388372000000027 0.621221500000002 0.5864896000000018
0.6391369000000027 0.622287100000002 0.5861566000000018
0.6409684000000027 0.621721000000002 0.5859568000000018
0.6423004000000027 0.624118600000002 0.5864563000000018
0.6444649000000027 0.624684700000002 0.5857237000000018
0.6472621000000027 0.6253840000000019 0.5865562000000019
0.6499261000000027 0.625683700000002 0.5865562000000019
0.6515578000000027 0.625717000000002 0.5873554000000019
0.6525901000000027 0.627715000000002 0.5883877000000018
0.6520573000000027 0.626815900000002 0.5905522000000019
0.6544216000000027 0.629146900000002 0.5925502000000019
0.6569191000000028 0.628680700000002 0.5943151000000019
0.6593500000000028 0.628347700000002 0.5945482000000019
0.6598828000000028 0.6309451000000019 0.5936158000000018
0.6596164000000028 0.6308785000000019 0.5951476000000018
0.6599827000000028 0.6307120000000019 0.5964796000000018
0.6619474000000029 0.6312115000000019 0.5974453000000017
0.6635125000000028 0.6316777000000019 0.5977450000000017
0.6629797000000028 0.633942100000002 0.5967460000000018
0.6631129000000029 0.6368059000000019 0.5961133000000017
0.6657103000000029 0.6375385000000019 0.5952475000000017
0.6663430000000029 0.6378382000000019 0.5954140000000017
0.6677083000000029 0.6370390000000019 0.5957803000000017
0.6681745000000029 0.6388039000000019 0.5944816000000017
0.6670423000000029 0.6401359000000019 0.5955805000000017
0.6671755000000029 0.6428332000000019 0.5983444000000018
0.665943400000003 0.6424336000000018 0.5989771000000018
0.665710300000003 0.6452641000000018 0.6018076000000018
0.667941400000003 0.6463963000000018 0.6026401000000018
0.667641700000003 0.6490270000000018 0.6041053000000018
0.669173500000003 0.6482944000000018 0.6036724000000019
0.669972700000003 0.6472954000000019 0.6040720000000019
0.670538800000003 0.6472621000000018 0.6051376000000019
0.672869800000003 0.6477283000000018 0.6063697000000019
0.672703300000003 0.6488272000000018 0.6074686000000019
0.673069600000003 0.6494599000000019 0.6103324000000019
0.675733600000003 0.6499594000000019 0.6133627000000019
0.6782311000000031 0.6497596000000019 0.6141952000000019
0.6795298000000031 0.6497929000000019 0.614295100000002
0.6792301000000031 0.6497929000000019 0.6139288000000019
0.6806953000000031 0.650991700000002 0.6157270000000019
0.6822937000000031 0.649459900000002 0.6184243000000019
0.6837922000000031 0.649126900000002 0.6197563000000019
0.685823500000003 0.6500926000000019 0.6197563000000019
0.685457200000003 0.6495265000000019 0.6223204000000019
0.686356300000003 0.6494266000000019 0.6212881000000019
0.686822500000003 0.6487606000000018 0.6239188000000019
0.686323000000003 0.6489937000000018 0.6244183000000019
0.6856237000000031 0.6497596000000018 0.6265162000000019
0.6856570000000031 0.6510250000000017 0.6265495000000019
0.6883876000000031 0.6527233000000018 0.6256504000000018
0.6904522000000031 0.6536890000000017 0.6284809000000018
0.6894199000000031 0.6533227000000017 0.6302125000000018
0.6907852000000031 0.6523570000000017 0.6317443000000018
0.6919174000000031 0.6531895000000018 0.6316444000000018
0.6920506000000032 0.6528565000000017 0.6319774000000018
0.6942151000000032 0.6535891000000017 0.6310783000000018
0.6964129000000032 0.6523237000000017 0.6315778000000017
0.6964795000000032 0.6540220000000018 0.6311116000000018
0.6967459000000032 0.6533560000000017 0.6307786000000017
0.6977116000000032 0.6560533000000017 0.6292468000000018
0.6988105000000032 0.6568192000000017 0.6312115000000018
0.7001092000000032 0.6567193000000017 0.6328765000000018
0.6996430000000032 0.6592501000000017 0.6350743000000019
0.7018741000000033 0.6586840000000017 0.6359734000000019
0.7011082000000033 0.6587173000000017 0.6367393000000019
0.7004089000000033 0.6596497000000018 0.6362065000000019
0.7011082000000033 0.6602491000000018 0.6378049000000019
0.7009417000000033 0.6603490000000019 0.638737300000002
0.7006087000000033 0.6625801000000019 0.640868500000002
0.7024069000000033 0.6658102000000019 0.639636400000002
0.7029397000000033 0.6650110000000019 0.640302400000002
0.7035724000000033 0.6654772000000019 0.641634400000002
0.7061698000000033 0.6668425000000019 0.6414679000000021
0.7088671000000033 0.6671422000000019 0.641101600000002
0.7088338000000033 0.6664096000000019 0.643166200000002
0.7076017000000033 0.667508500000002 0.646096600000002
0.7094332000000033 0.666742600000002 0.6459301000000021
0.7099660000000033 0.666975700000002 0.6463297000000021
0.7095664000000033 0.6682411000000019 0.6469957000000022
0.7117975000000033 0.6682744000000019 0.6462631000000022
0.7137289000000033 0.669639700000002 0.6467626000000022
0.7137289000000033 0.672170500000002 0.6454639000000022
0.7124635000000034 0.671604400000002 0.6448312000000022
0.7144282000000034 0.671304700000002 0.6448312000000022
0.7168591000000034 0.672370300000002 0.6447646000000021
0.7187905000000034 0.673569100000002 0.6468958000000021
0.7213213000000035 0.673868800000002 0.6489937000000021
0.7223536000000035 0.672503500000002 0.6489604000000021
0.7233193000000034 0.6742018000000021 0.6498928000000022
0.7258501000000035 0.6752674000000021 0.6486274000000022
0.7248844000000035 0.6761332000000021 0.6490603000000021
0.7250842000000035 0.6778981000000021 0.6487939000000021
0.7242184000000035 0.6776650000000021 0.6506920000000022
0.7246180000000035 0.6798628000000021 0.6527899000000021
0.7270489000000036 0.6817942000000021 0.6545881000000021
0.7273819000000036 0.6827932000000021 0.6543550000000021
0.7271488000000036 0.6831262000000021 0.6569191000000021
0.7282810000000036 0.6825601000000021 0.6569524000000021
0.7297462000000037 0.6821605000000021 0.6565195000000021
0.7302124000000036 0.682327000000002 0.6580180000000021
0.7319107000000037 0.683692300000002 0.6595498000000021
0.7324102000000037 0.6837589000000021 0.6595831000000021
0.7330096000000037 0.6860233000000021 0.6588172000000021
0.7355404000000038 0.6874552000000022 0.6605821000000021
0.7343083000000038 0.6891868000000022 0.6601492000000021
0.7352407000000039 0.6882544000000022 0.6610150000000021
0.7351075000000038 0.6881545000000021 0.6610816000000022
0.7353739000000038 0.6891535000000021 0.6634459000000021
0.7363063000000039 0.6895198000000021 0.6641452000000021
0.7390702000000039 0.6905521000000021 0.6669091000000021
0.7385707000000039 0.6905854000000021 0.6688405000000022
0.7384375000000039 0.6921172000000021 0.6710050000000022
0.7386040000000038 0.6924502000000021 0.6727033000000022
0.7398028000000039 0.6938155000000021 0.6731695000000022
0.7410016000000039 0.6950809000000021 0.6730030000000022
0.7417675000000039 0.6959467000000021 0.6734692000000022
0.741601000000004 0.6973786000000022 0.6721705000000022
0.7420339000000039 0.6964795000000021 0.6717709000000022
0.7427332000000039 0.6961465000000021 0.6730030000000021
0.7443982000000039 0.6960466000000021 0.6729031000000021
0.7437655000000039 0.695114200000002 0.6755005000000021
0.7448977000000039 0.696546100000002 0.6759001000000021
0.7469956000000039 0.697245400000002 0.6782644000000021
0.7459633000000039 0.697578400000002 0.6784642000000021
0.7470289000000039 0.697778200000002 0.6796297000000021
0.7484275000000039 0.697611700000002 0.6803623000000021
0.7500925000000039 0.6984442000000021 0.682127200000002
0.7508251000000039 0.700209100000002 0.684491500000002
0.7532893000000039 0.700275700000002 0.687122200000002
0.7554205000000039 0.7033393000000021 0.688254400000002
0.7574518000000039 0.7030396000000021 0.6880879000000021
0.7587505000000039 0.7054705000000021 0.688254400000002
0.7591168000000039 0.7067692000000021 0.687588400000002
0.7596163000000039 0.708001300000002 0.687921400000002
0.7591168000000039 0.7091668000000021 0.688121200000002
0.7612147000000039 0.7112647000000021 0.689786200000002
0.7602157000000039 0.714128500000002 0.689220100000002
0.7617475000000039 0.716459500000002 0.691084900000002
0.7637788000000039 0.717292000000002 0.693815500000002
0.7638121000000039 0.716759200000002 0.693449200000002
0.7643116000000039 0.717258700000002 0.694015300000002
0.7645114000000038 0.718790500000002 0.695047600000002
0.7647445000000038 0.719956000000002 0.693615700000002
0.7646113000000038 0.721754200000002 0.695846800000002
0.7655770000000037 0.723652300000002 0.6978781000000019
0.7687072000000037 0.723552400000002 0.698710600000002
0.7703056000000037 0.724185100000002 0.699010300000002
0.7700392000000037 0.725483800000002 0.699076900000002
0.7716709000000037 0.728247700000002 0.698777200000002
0.7742350000000037 0.7277815000000021 0.7008085000000019
0.7734025000000037 0.7279147000000021 0.7020739000000019
0.7741351000000036 0.7277815000000021 0.7023403000000019
0.7756669000000036 0.7274818000000021 0.7025734000000019
0.7779979000000036 0.7294132000000021 0.7028065000000019
0.7799626000000036 0.731710900000002 0.7025734000000019
0.7786972000000036 0.7312447000000021 0.7031728000000019
0.7796629000000036 0.7312780000000021 0.7039387000000019
0.7802623000000036 0.7323103000000021 0.7036390000000019
0.7812280000000036 0.7334092000000021 0.7039387000000019
0.7820272000000036 0.7350409000000021 0.7063030000000019
0.7828930000000036 0.7372720000000021 0.7071355000000019
0.7836589000000036 0.7392034000000022 0.7060699000000019
0.7854904000000036 0.7394698000000022 0.7060366000000019
0.7847578000000036 0.7407352000000021 0.7081678000000019
0.7865227000000036 0.7435657000000021 0.7103989000000019
0.7876216000000036 0.7459300000000021 0.710498800000002
0.7878214000000036 0.7480612000000021 0.7100992000000019
0.7897528000000036 0.7483942000000021 0.7130296000000019
0.7903855000000036 0.7497262000000021 0.7126966000000019
0.7927165000000036 0.7507252000000021 0.7131295000000019
0.7943149000000036 0.7526566000000021 0.7144282000000018
0.7942816000000036 0.7529896000000021 0.7148278000000019
0.7960465000000035 0.7534225000000021 0.716026600000002
0.7970122000000035 0.7552540000000021 0.716059900000002
0.7961797000000035 0.7555870000000021 0.7154605000000019
0.7967125000000035 0.7555204000000021 0.716925700000002
0.7987105000000035 0.7562863000000021 0.718857100000002
0.8000758000000036 0.757285300000002 0.718790500000002
0.8016409000000035 0.7586506000000021 0.718757200000002
0.8012080000000036 0.7593166000000021 0.718557400000002
0.8017075000000036 0.7595830000000021 0.720488800000002
0.8020738000000036 0.7607152000000021 0.723052900000002
0.8031394000000036 0.7613146000000022 0.723718900000002
0.8031061000000036 0.7628464000000021 0.722553400000002
0.8046379000000036 0.7632127000000022 0.723552400000002
0.8058034000000036 0.7639453000000022 0.724285000000002
0.8059366000000037 0.7632793000000021 0.723752200000002
0.8076016000000037 0.7650442000000021 0.723519100000002
0.8077015000000037 0.766875700000002 0.7250176000000019
0.8080345000000038 0.768474100000002 0.725150800000002
0.8109316000000037 0.770039200000002 0.728014600000002
0.8129629000000037 0.770305600000002 0.729479800000002
0.8129629000000037 0.771571000000002 0.732077200000002
0.8138620000000037 0.774601300000002 0.733409200000002
0.8145280000000038 0.776965600000002 0.734574700000002
0.8158600000000038 0.7770988000000021 0.7373386000000021
0.8166592000000038 0.7796962000000021 0.736939000000002
0.8158600000000038 0.7816609000000021 0.738970300000002
0.8157268000000037 0.7817275000000021 0.7385707000000019
0.8185240000000038 0.7816942000000021 0.738670600000002
0.8207218000000038 0.7832260000000021 0.7402024000000019
0.8224534000000039 0.7843249000000021 0.7427665000000019
0.8237521000000039 0.7869889000000021 0.7430329000000019
0.8231860000000039 0.7881211000000021 0.7417342000000019
0.8257834000000038 0.7904521000000021 0.7413679000000019
0.8258167000000038 0.7893199000000021 0.7426333000000018
0.8261497000000039 0.7903522000000021 0.7440652000000019
0.8255836000000039 0.7916842000000021 0.7442650000000018
0.8263162000000038 0.794015200000002 0.7469290000000018
0.8264161000000039 0.795047500000002 0.7484941000000018
0.8276815000000038 0.797178700000002 0.7482610000000018
0.8293132000000039 0.7983442000000021 0.7491934000000019
0.8305453000000038 0.7992766000000021 0.7503589000000019
0.8323768000000038 0.8015410000000022 0.7510582000000019
0.8334757000000038 0.8020405000000022 0.7517908000000019
0.8330428000000039 0.8019073000000021 0.7528897000000019
0.8332759000000038 0.8012080000000021 0.7524568000000019
0.8331760000000038 0.8022403000000021 0.752823100000002
0.8324767000000038 0.8039053000000022 0.7530229000000019
0.8346079000000038 0.8046379000000021 0.7526899000000019
0.8370721000000039 0.8034724000000021 0.7523902000000019
0.8373718000000039 0.8042716000000021 0.753056200000002
0.8373052000000039 0.8059033000000021 0.755187400000002
0.8367058000000038 0.8077348000000021 0.756852400000002
0.8372719000000038 0.8074018000000021 0.759016900000002
0.8393365000000038 0.808134400000002 0.760681900000002
0.8397361000000039 0.810498700000002 0.761014900000002
0.8404687000000038 0.812396800000002 0.763645600000002
0.8409349000000038 0.8141284000000021 0.766209700000002
0.8435989000000038 0.8146279000000021 0.768540700000002
0.8421670000000038 0.813695500000002 0.769140100000002
0.8415676000000037 0.8143282000000021 0.768707200000002
0.8405020000000037 0.814261600000002 0.769539700000002
0.8408017000000038 0.8173252000000021 0.7719706000000021
0.8425333000000038 0.818857000000002 0.7704388000000021
0.8421004000000039 0.8205220000000021 0.7710049000000021
0.8446645000000038 0.8215543000000021 0.7700392000000021
0.8442982000000038 0.822853000000002 0.7704721000000021
0.8429329000000038 0.823119400000002 0.7689403000000021
0.8442982000000038 0.826049800000002 0.7718707000000021
0.8453638000000038 0.827315200000002 0.7727032000000021
0.8461963000000038 0.829146700000002 0.7741018000000022
0.8469622000000038 0.8316775000000021 0.7756336000000021
0.8490268000000037 0.833708800000002 0.7783642000000022
0.8513911000000037 0.8346079000000021 0.7783309000000022
0.8510914000000037 0.8356735000000021 0.7798627000000021
0.8521237000000037 0.8366059000000021 0.7818274000000022
0.8531560000000037 0.8365060000000021 0.7826266000000022
0.8539219000000037 0.8387704000000021 0.7851574000000022
0.8556868000000036 0.8384707000000021 0.7842250000000022
0.8554537000000036 0.8395363000000021 0.7836589000000022
0.8568523000000037 0.8415676000000021 0.7846246000000021
0.8587504000000037 0.8433991000000021 0.7861231000000021
0.8608150000000037 0.8433991000000021 0.7859566000000021
0.8618806000000037 0.842200300000002 0.7880878000000021
0.8637787000000037 0.841434400000002 0.7888537000000021
0.8641117000000037 0.8423668000000021 0.7897528000000021
0.8643781000000037 0.8427664000000021 0.7897528000000021
0.8663095000000037 0.8449309000000021 0.7917508000000022
0.8668090000000037 0.8453305000000022 0.7935823000000022
0.8666425000000038 0.8448643000000022 0.7944481000000022
0.8676748000000037 0.8447311000000022 0.7951141000000023
0.8664427000000038 0.8459299000000022 0.7958800000000023
0.8685073000000038 0.8478613000000023 0.7973119000000023
0.8691067000000038 0.8486605000000023 0.7975450000000023
0.8691733000000038 0.8491933000000023 0.7977448000000023
0.8707384000000038 0.8504920000000022 0.7970122000000023
0.8723035000000038 0.8517907000000022 0.7963129000000023
0.8727364000000037 0.8538553000000022 0.7984108000000023
0.8733691000000038 0.8534890000000022 0.7995430000000023
0.8750341000000038 0.8520238000000021 0.8001424000000024
0.8761663000000038 0.8529895000000021 0.8000092000000023
0.8763661000000038 0.853489000000002 0.8017741000000023
0.8771653000000038 0.8549209000000021 0.8014744000000023
0.8786305000000039 0.8563528000000021 0.8019406000000022
0.8794630000000039 0.8575183000000022 0.8043715000000022
0.8790634000000038 0.8589169000000022 0.8050042000000023
0.8779312000000038 0.8591833000000022 0.8040385000000023
0.8796628000000039 0.8604154000000022 0.8060032000000024
0.8795962000000038 0.8614477000000021 0.8091334000000023
0.8793964000000039 0.8620138000000022 0.8115643000000023
0.8812945000000039 0.8614810000000022 0.8119972000000023
0.8826265000000039 0.8636788000000022 0.8137621000000023
0.8832925000000039 0.8627797000000021 0.8137288000000023
0.8853571000000039 0.8612479000000022 0.8159266000000023
0.8867557000000039 0.8615809000000022 0.8152606000000022
0.886322800000004 0.8627797000000023 0.8167591000000022
0.886089700000004 0.8620138000000023 0.8179912000000021
0.886822300000004 0.8624134000000023 0.8190568000000021
0.887421700000004 0.8637787000000023 0.8183242000000022
0.8889202000000039 0.8643448000000024 0.8198560000000021
0.888953500000004 0.8643448000000024 0.8207218000000022
0.890884900000004 0.8634790000000023 0.8208883000000021
0.889919200000004 0.8626798000000023 0.8196895000000021
0.889885900000004 0.8634457000000023 0.8226199000000021
0.889786000000004 0.8640784000000024 0.8238187000000021
0.890818300000004 0.8652439000000024 0.8245513000000021
0.8907184000000039 0.8674084000000024 0.8248510000000021
0.8914177000000039 0.8696395000000025 0.8258167000000021
0.8918506000000038 0.8719372000000024 0.8271820000000021
0.8925499000000038 0.8732026000000024 0.8290801000000021
0.8931160000000038 0.8735689000000024 0.8288470000000021
0.8928163000000038 0.8733025000000024 0.8287471000000021
0.8949475000000038 0.8719705000000024 0.8288803000000021
0.8953471000000038 0.8742682000000024 0.8319772000000021
0.8962795000000039 0.8755336000000024 0.834274900000002
0.8956135000000038 0.8758000000000024 0.835107400000002
0.8949808000000038 0.8771653000000024 0.8368390000000021
0.8958466000000038 0.8758000000000024 0.8370388000000021
0.8950807000000038 0.8756002000000024 0.8385040000000021
0.8974450000000038 0.8772319000000024 0.8393698000000022
0.8975449000000039 0.8782309000000024 0.8398360000000021
