0.0103663 0.0104995 0.010333
0.0091009 0.0100999 0.0128638
0.0111655 0.0111322 0.0136963
0.0111988 0.0137296 0.0149617
0.0136297 0.0137962 0.0166267
0.0139294 0.0126307 0.0186913
0.0156277 0.0126973 0.0205561
0.01666 0.0139294 0.0203563
0.0197902 0.0142291 0.0219214
0.0217549 0.0148951 0.0236863
0.0222211 0.0158275 0.0246187
0.0241192 0.0180253 0.0252847
0.0228871 0.0180253 0.0253846
0.0235198 0.0184582 0.0251515
0.025318 0.0174925 0.0254512
0.0264835 0.0174259 0.0258175
0.0288478 0.0187246 0.0277489
0.0296803 0.0191908 0.0283816
0.0310789 0.0185581 0.0292474
0.031978 0.0192907 0.028648
0.0337762 0.020989 0.0280153
0.0346087 0.0210223 0.0293806
0.0370396 0.0235864 0.0297469
0.0380053 0.0258508 0.0301798
0.0379387 0.0265501 0.0314785
0.0389377 0.0284149 0.0310123
0.0385714 0.0307792 0.0322444
0.0375391 0.0310123 0.0337096
0.0394372 0.0318781 0.0335764
0.0418015 0.0336763 0.0341092
0.0430669 0.0340426 0.0349084
0.0433 0.0328438 0.0355078
0.0457975 0.033976 0.0343756
0.0468298 0.0340093 0.035308
0.0457309 0.0347419 0.0367066
0.0450649 0.0378388 0.0380386
0.0465967 0.0398035 0.0399367
0.0455977 0.0408025 0.0394705
0.0444988 0.0406027 0.040636
0.0456976 0.0401032 0.040636
0.0468631 0.0422344 0.0408025
0.0489277 0.0414019 0.0429337
0.0493606 0.0416683 0.0445321
0.050626 0.0415351 0.0437329
0.0494605 0.0425341 0.0449317
0.0506593 0.0434665 0.0446653
0.0521911 0.0430336 0.0457975
0.0531901 0.0440326 0.0468298
0.0520579 0.0438661 0.0471628
0.0530902 0.0450316 0.0480952
0.0555544 0.0457975 0.0482284
0.055288 0.0455311 0.0505927
0.0559873 0.045298 0.0537229
0.0567532 0.0455311 0.0557542
0.0576523 0.0465634 0.0565201
0.059550399999999996 0.0470296 0.057619
0.059417199999999996 0.0475624 0.059084199999999996
0.059783499999999996 0.0468964 0.058784499999999996
0.061748199999999996 0.0490609 0.059550399999999996
0.060982299999999996 0.051625 0.062380899999999996
0.060682599999999996 0.0529903 0.0627472
0.061015599999999996 0.0529237 0.0650116
0.0632467 0.0541891 0.0641125
0.0644455 0.054622 0.0660106
0.0656443 0.056953 0.0658774
0.0663769 0.058318299999999997 0.0664768
0.068608 0.059350599999999996 0.0664102
0.069607 0.059517099999999996 0.066943
0.0702397 0.060849099999999996 0.0685081
0.0729703 0.0625474 0.0713719
0.0747352 0.0638461 0.0740692
0.0749683 0.0659773 0.0746353
0.0745021 0.0682084 0.0753013
0.074269 0.0695737 0.0764668
0.0754678 0.0684082 0.076933
0.0757009 0.0682084 0.0765001
0.0760339 0.0683083 0.0780319
0.0754012 0.069274 0.0806959
0.0775324 0.0702064 0.0823276
0.0785647 0.0725374 0.0839926
0.0787978 0.0718048 0.0847585
0.0799633 0.0717049 0.0860239
0.0808624 0.0722377 0.0858241
0.0816949 0.0742357 0.0871561
0.0829603 0.0736363 0.087256
0.0833599 0.0759007 0.0889543
0.0828604 0.0750682 0.0883549
0.0836929 0.0753013 0.0883216
0.0848584 0.0763336 0.0887878
0.0844921 0.0783982 0.0891208
0.0866233 0.0809623 0.0911188
0.0876889 0.0797302 0.0934498
0.0884548 0.0801964 0.0936829
0.0889876 0.0804295 0.093916
0.0886213 0.07993 0.0938161
0.0918847 0.0813286 0.0934831
0.0926506 0.0820279 0.0925174
0.0924841 0.0817282 0.0947152
0.0927838 0.0825607 0.0947152
0.0932167 0.084925 0.0942823
0.0928504 0.0857908 0.0952147
0.0917515 0.0850915 0.0980119
0.0933166 0.0863569 0.0997768
0.0949483 0.085924 0.0995437
0.0945154 0.086923 0.1020745
0.0958141 0.0870229 0.1034065
0.0967132 0.08992 0.1038061
0.0987445 0.0908191 0.1057375
0.0995437 0.0908524 0.10657
0.1004095 0.0911188 0.1083349
0.102241 0.0902197 0.1090009
0.1033732 0.0920845 0.1104661
0.1040059 0.094915 0.1100665
0.1040392 0.095248 0.1100665
0.1065034 0.0938827 0.1121977
0.108568 0.0941491 0.114895
0.1075357 0.096913 0.1163602
0.1066033 0.0968131 0.1156942
0.1058041 0.0986113 0.1159606
0.1071028 0.1008091 0.1170928
0.106903 0.1012087 0.1188577
0.1070695 0.1025074 0.1179586
0.1062703 0.1038727 0.120889
0.1066366 0.1048384 0.1228537
0.1069363 0.104905 0.1248184
0.1074025 0.1051714 0.1275823
0.108568 0.1058707 0.12854800000000002
0.1117648 0.1061371 0.13014640000000002
0.1147951 0.1060372 0.13271050000000004
0.1155277 0.107902 0.13397590000000004
0.1165267 0.1100665 0.13404250000000004
0.1159606 0.1095337 0.13434220000000005
0.11656 0.1112986 0.13357630000000004
0.117226 0.1125307 0.13337650000000004
0.1179919 0.1128304 0.13367620000000005
0.1169929 0.1131967 0.13317670000000004
0.1177255 0.1141291 0.13427560000000005
0.1190575 0.1144954 0.13407580000000005
0.1190575 0.1140625 0.13424230000000006
0.1193572 0.1148284 0.13500820000000008
0.1210555 0.1165267 0.13574080000000008
0.1200565 0.1186246 0.13537450000000006
0.1229536 0.1212553 0.13504150000000006
0.1236196 0.121555 0.13670650000000006
0.1250515 0.1232866 0.13953700000000008
0.12575080000000002 0.1225873 0.13857130000000006
0.12641680000000002 0.1251181 0.13787200000000005
0.12844810000000004 0.1253179 0.13977010000000006
0.13024630000000004 0.12768220000000002 0.14160160000000008
0.13031290000000004 0.12864790000000004 0.14160160000000008
0.13141180000000005 0.13094560000000005 0.1443655000000001
0.13214440000000005 0.13154500000000005 0.1454644000000001
0.13227760000000005 0.13267720000000005 0.14729590000000012
0.13307680000000005 0.13447540000000005 0.14769550000000012
0.13470850000000006 0.13347640000000005 0.14966020000000013
0.13617370000000006 0.13417570000000006 0.15149170000000015
0.13693960000000008 0.13417570000000006 0.15129190000000015
0.13833820000000008 0.13447540000000008 0.15045940000000013
0.1411687000000001 0.13607380000000008 0.14946040000000013
0.1425007000000001 0.1367065000000001 0.15265720000000013
0.1456642000000001 0.1383382000000001 0.15209110000000012
0.1453312000000001 0.1402696000000001 0.15328990000000012
0.1448317000000001 0.1397035000000001 0.15229090000000012
0.1467964000000001 0.1401031000000001 0.15452200000000013
0.14869450000000012 0.13947040000000008 0.15701950000000015
0.14879440000000013 0.1395703000000001 0.15785200000000016
0.14909410000000015 0.1406692000000001 0.15878440000000016
0.15109210000000015 0.14223430000000012 0.15911740000000016
0.15205780000000016 0.14250070000000012 0.16074910000000017
0.15315670000000017 0.14303350000000012 0.16128190000000017
0.15252400000000016 0.14339980000000013 0.16377940000000019
0.15358960000000016 0.14553100000000013 0.16511140000000019
0.15455530000000017 0.14772880000000013 0.16461190000000017
0.15448870000000017 0.14712940000000013 0.16554430000000017
0.15615370000000017 0.14689630000000012 0.16641010000000017
0.15808510000000017 0.14692960000000013 0.16720930000000017
0.1591174000000002 0.14719600000000013 0.16854130000000017
0.1617148000000002 0.14792860000000013 0.16984000000000019
0.1617148000000002 0.14872780000000013 0.1717381000000002
0.1632799000000002 0.14849470000000012 0.1742356000000002
0.1657774000000002 0.14962690000000012 0.17606710000000023
0.16734250000000023 0.15152500000000013 0.17659990000000023
0.16897420000000024 0.15092560000000013 0.17573410000000023
0.16894090000000023 0.15139180000000013 0.17600050000000023
0.17033950000000023 0.15335650000000015 0.17666650000000023
0.17253730000000023 0.15535450000000015 0.17733250000000023
0.17340310000000023 0.15492160000000013 0.1765000000000002
0.1729036000000002 0.15495490000000015 0.17866450000000023
0.17453530000000023 0.15602050000000015 0.17939710000000023
0.17576740000000024 0.15598720000000013 0.18039610000000023
0.17523460000000024 0.15558760000000013 0.18259390000000023
0.17560090000000025 0.15768550000000014 0.18226090000000023
0.17446870000000025 0.15865120000000016 0.1814284000000002
0.17630020000000027 0.15865120000000016 0.1835596000000002
0.17556760000000027 0.15875110000000017 0.1824607000000002
0.17699950000000028 0.16088230000000017 0.1832266000000002
0.17873110000000028 0.1611154000000002 0.1830934000000002
0.18072910000000028 0.1622809000000002 0.1851580000000002
0.18016300000000027 0.1640125000000002 0.18698950000000022
0.18019630000000028 0.1636129000000002 0.18898750000000022
0.1803628000000003 0.1647118000000002 0.19155160000000024
0.1817614000000003 0.1643455000000002 0.19221760000000024
0.1828603000000003 0.1663768000000002 0.19338310000000025
0.1843255000000003 0.16707610000000023 0.19538110000000025
0.18662320000000032 0.16937380000000024 0.19471510000000025
0.18708940000000032 0.17153830000000025 0.19784530000000025
0.18762220000000032 0.17336980000000027 0.19954360000000027
0.1875223000000003 0.17317000000000027 0.20234080000000026
0.18855460000000032 0.17376940000000027 0.20247400000000026
0.18978670000000034 0.17623360000000027 0.20204110000000025
0.18975340000000032 0.17699950000000028 0.20124190000000025
0.18902080000000032 0.1786978000000003 0.20127520000000027
0.18855460000000032 0.1802629000000003 0.20114200000000027
0.19038610000000034 0.18049600000000032 0.20130850000000028
0.19095220000000035 0.1797301000000003 0.2020744000000003
0.19178470000000036 0.1788643000000003 0.2046718000000003
0.19181800000000038 0.17923060000000032 0.2050714000000003
0.19201780000000038 0.17999650000000034 0.2057041000000003
0.19488160000000038 0.18192790000000034 0.20633680000000032
0.1967797000000004 0.18492490000000034 0.20633680000000032
0.1982782000000004 0.18422560000000032 0.20706940000000032
0.1981783000000004 0.18535780000000032 0.2069029000000003
0.2005426000000004 0.18622360000000032 0.20740240000000032
0.2023408000000004 0.18629020000000032 0.20800180000000032
0.2051380000000004 0.18575740000000032 0.20950030000000033
0.20683630000000042 0.18569080000000032 0.20793520000000032
0.20800180000000043 0.18482500000000032 0.2078353000000003
0.21026620000000043 0.1842589000000003 0.20880100000000032
0.21226420000000043 0.18549100000000032 0.21129850000000033
0.21392920000000043 0.18572410000000034 0.21113200000000032
0.21549430000000044 0.18682300000000035 0.21219760000000032
0.21509470000000044 0.18629020000000035 0.21396250000000033
0.21542770000000044 0.18602380000000035 0.21266380000000032
0.21609370000000044 0.18632350000000036 0.21239740000000032
0.21819160000000046 0.18589060000000035 0.2116981000000003
0.21689290000000044 0.18668980000000035 0.2130301000000003
0.21822490000000044 0.18805510000000036 0.2137627000000003
0.22088890000000044 0.18945370000000036 0.21459520000000032
0.22275370000000044 0.19091890000000036 0.21486160000000032
0.22415230000000044 0.19311670000000036 0.2146285000000003
0.22664980000000046 0.19331650000000036 0.2141956000000003
0.22874770000000047 0.19321660000000035 0.2137294000000003
0.23151160000000048 0.19514800000000035 0.2161270000000003
0.23284360000000048 0.19578070000000036 0.2158606000000003
0.2350081000000005 0.19757890000000036 0.2159938000000003
0.23457520000000048 0.19744570000000036 0.2166598000000003
0.2366065000000005 0.20040940000000038 0.21522790000000028
0.2367730000000005 0.2010421000000004 0.21642670000000028
0.2390374000000005 0.2007757000000004 0.2171926000000003
0.2407024000000005 0.2009089000000004 0.2174923000000003
0.2399032000000005 0.2012086000000004 0.2185579000000003
0.24180130000000052 0.2012752000000004 0.21925720000000032
0.24369940000000054 0.2025406000000004 0.22002310000000033
0.24589720000000054 0.2022742000000004 0.22148830000000033
0.24519790000000052 0.2034730000000004 0.22168810000000033
0.24583060000000054 0.20390590000000042 0.22238740000000035
0.24556420000000054 0.2036728000000004 0.22528450000000036
0.24886090000000055 0.2055376000000004 0.22435210000000036
0.25019290000000055 0.20656990000000042 0.22684960000000037
0.24916060000000054 0.20770210000000042 0.22858120000000037
0.24886090000000052 0.20820160000000043 0.2313451000000004
0.2484946000000005 0.20773540000000043 0.2338093000000004
0.2473624000000005 0.20803510000000044 0.2341756000000004
0.24832810000000052 0.20866780000000046 0.2372725000000004
0.24929380000000054 0.20890090000000047 0.23890420000000043
0.24959350000000055 0.21073240000000049 0.2375389000000004
0.24922720000000054 0.2130301000000005 0.2390041000000004
0.2511919000000005 0.2137627000000005 0.2419345000000004
0.2531899000000005 0.2128969000000005 0.2407357000000004
0.2548882000000005 0.2143954000000005 0.24136840000000043
0.2564533000000005 0.21576070000000053 0.2407357000000004
0.2585179000000005 0.21646000000000054 0.2407024000000004
0.25925050000000055 0.21582730000000053 0.24046930000000039
0.25991650000000055 0.21775870000000053 0.2418346000000004
0.2622475000000006 0.2175922000000005 0.2428669000000004
0.2629135000000006 0.2195902000000005 0.2434663000000004
0.26314660000000056 0.2212552000000005 0.24543100000000043
0.2638459000000006 0.2236528000000005 0.24706270000000044
0.2665432000000006 0.22488490000000053 0.24839470000000044
0.2660104000000006 0.22605040000000054 0.24859450000000044
0.2655109000000006 0.22571740000000054 0.24836140000000043
0.2678752000000006 0.22561750000000053 0.25045930000000044
0.2687077000000006 0.2253178000000005 0.25032610000000044
0.2704726000000006 0.2282482000000005 0.24899410000000044
0.2700730000000006 0.22974670000000053 0.25182460000000045
0.27280360000000065 0.23071240000000054 0.2516248000000004
0.27290350000000063 0.23177800000000054 0.2524240000000004
0.2754010000000006 0.23034610000000053 0.2542555000000004
0.27586720000000065 0.23007970000000053 0.2562535000000004
0.27796510000000063 0.2299798000000005 0.2562868000000004
0.27799840000000064 0.2291140000000005 0.25831810000000044
0.2785978000000007 0.23107870000000053 0.25861780000000045
0.2796634000000007 0.23194450000000053 0.25968340000000045
0.2795635000000007 0.23121190000000053 0.25978330000000044
0.2795635000000007 0.23314330000000053 0.26138170000000044
0.2809288000000007 0.23544100000000054 0.2625472000000004
0.2812951000000007 0.23740570000000055 0.2642788000000004
0.2820610000000007 0.23947030000000055 0.2658439000000004
0.2818279000000007 0.23833810000000055 0.2686744000000004
0.2826604000000007 0.23743900000000054 0.2684080000000004
0.2847916000000007 0.23957020000000054 0.26980660000000045
0.2864899000000007 0.23943700000000054 0.26884090000000044
0.28645660000000067 0.23823820000000054 0.26900740000000045
0.28632340000000067 0.23947030000000055 0.27077230000000047
0.28802170000000066 0.24106870000000055 0.2717713000000005
0.28775530000000066 0.23977000000000054 0.2713384000000005
0.28765540000000067 0.23853790000000052 0.2731366000000005
0.28925380000000067 0.24033610000000052 0.2745019000000005
0.28962010000000066 0.24220090000000052 0.2773990000000005
0.29228410000000066 0.24073570000000052 0.2763334000000005
0.29384920000000064 0.24283360000000054 0.2753677000000005
0.29488150000000063 0.24230080000000054 0.2752012000000005
0.2939158000000006 0.24426550000000055 0.27500140000000045
0.29531440000000064 0.24556420000000057 0.27566740000000045
0.29578060000000067 0.24676300000000057 0.2746684000000004
0.29844460000000067 0.24769540000000057 0.2771659000000004
0.29911060000000067 0.24862780000000057 0.2763667000000004
0.3011419000000007 0.24812830000000055 0.2760004000000004
0.30070900000000067 0.24886090000000055 0.27833140000000045
0.3016747000000007 0.24776200000000054 0.2783980000000005
0.30443860000000067 0.24952690000000055 0.2801629000000005
0.30307330000000066 0.25189120000000054 0.27969670000000046
0.30520450000000066 0.2538559000000005 0.2822941000000005
0.30597040000000064 0.25645330000000055 0.2844253000000005
0.3083347000000006 0.25895080000000054 0.2844919000000005
0.30780190000000063 0.26044930000000055 0.28372600000000053
0.30813490000000066 0.26031610000000055 0.2832931000000005
0.31063240000000064 0.25938370000000055 0.28589050000000055
0.31089880000000064 0.26054920000000054 0.2882215000000006
0.31399570000000065 0.26058250000000055 0.29018620000000056
0.3132631000000006 0.26181460000000056 0.2894203000000006
0.3144619000000006 0.26234740000000056 0.28908730000000055
0.3140290000000006 0.2618479000000006 0.29058580000000056
0.3135295000000006 0.26058250000000055 0.29045260000000056
0.31372930000000065 0.26288020000000056 0.2922508000000006
0.31372930000000065 0.2639791000000006 0.2932831000000006
0.31436200000000064 0.26527780000000056 0.2952145000000006
0.3152611000000006 0.26780860000000056 0.2946484000000006
0.3152611000000006 0.2702728000000006 0.2949814000000006
0.31755880000000064 0.2734696000000006 0.2969461000000006
0.31962340000000067 0.2757673000000006 0.2969128000000006
0.31945690000000065 0.2771326000000006 0.2982781000000006
0.3195235000000007 0.2764333000000006 0.2972125000000006
0.3207556000000007 0.27663310000000063 0.2962468000000006
0.3219544000000007 0.27676630000000063 0.2965465000000006
0.3217213000000007 0.2795302000000006 0.2966797000000006
0.3232864000000007 0.28182790000000063 0.2983114000000006
0.3248848000000007 0.28276030000000063 0.29861110000000063
0.3276487000000007 0.2844586000000006 0.29771200000000064
0.3277819000000007 0.28465840000000064 0.30004300000000067
0.3295468000000007 0.28425880000000064 0.30040930000000066
0.3313450000000007 0.28678960000000064 0.30307330000000066
0.3327769000000007 0.28895410000000066 0.3052711000000007
0.3344086000000007 0.28945360000000064 0.3042388000000007
0.3358738000000007 0.28802170000000066 0.3060037000000007
0.3358738000000007 0.29065240000000064 0.3071692000000007
0.3343753000000007 0.28942030000000063 0.3068029000000007
0.3362401000000007 0.29038600000000064 0.3072025000000007
0.3369061000000007 0.29148490000000066 0.3068362000000007
0.3396700000000007 0.29438200000000064 0.30690280000000075
0.3403360000000007 0.29484820000000067 0.30786850000000077
0.3405025000000007 0.29468170000000066 0.3082015000000008
0.3406690000000007 0.29498140000000067 0.3081016000000008
0.3405025000000007 0.2971792000000007 0.3110653000000008
0.34243390000000073 0.2982781000000007 0.3124972000000008
0.34326640000000075 0.2993104000000007 0.3137959000000008
0.34286680000000075 0.3022075000000007 0.3140623000000008
0.3439990000000008 0.3033064000000007 0.3146284000000008
0.3453310000000008 0.3047383000000007 0.31616020000000084
0.34702930000000076 0.3035395000000007 0.31709260000000083
0.34716250000000076 0.3049048000000007 0.3186577000000008
0.34603030000000073 0.3049381000000007 0.3207889000000008
0.3453310000000007 0.3043720000000007 0.3219877000000008
0.3463966000000007 0.3042055000000007 0.32282020000000083
0.3475621000000007 0.30337300000000067 0.32245390000000085
0.3498265000000007 0.3061036000000007 0.32468500000000083
0.3494602000000007 0.3061702000000007 0.32654980000000083
0.3496933000000007 0.30637000000000075 0.3253177000000008
0.35015950000000073 0.30746890000000077 0.32605030000000085
0.35219080000000075 0.30700270000000074 0.32694940000000083
0.35219080000000075 0.3098998000000007 0.32778190000000085
0.35302330000000076 0.31036600000000075 0.32994640000000086
0.35235730000000076 0.3120310000000008 0.3306790000000009
0.3526903000000008 0.3127636000000008 0.3308788000000009
0.3537892000000008 0.3135295000000008 0.3328435000000009
0.3536560000000008 0.3158938000000008 0.3350746000000009
0.3535228000000008 0.3172924000000008 0.3344086000000009
0.35398900000000083 0.31735900000000083 0.3366397000000009
0.3542221000000008 0.31922380000000083 0.3373723000000009
0.35612020000000083 0.31909060000000083 0.3388375000000009
0.35695270000000084 0.32188780000000083 0.3396700000000009
0.35708590000000084 0.32338630000000085 0.34196770000000093
0.35681950000000084 0.3242521000000009 0.34423210000000093
0.35885080000000086 0.3252178000000009 0.34466500000000094
0.3597166000000009 0.3243853000000009 0.34596370000000093
0.3613150000000009 0.3264499000000009 0.34596370000000093
0.3605491000000009 0.3278818000000009 0.34689610000000093
0.3623806000000009 0.3298132000000009 0.3479284000000009
0.3647116000000009 0.33051250000000093 0.3492604000000009
0.3651445000000009 0.3312784000000009 0.3488608000000009
0.36677620000000094 0.3308122000000009 0.34956010000000093
0.36737560000000097 0.3326104000000009 0.34876090000000093
0.36894070000000095 0.33184450000000093 0.35022610000000093
0.3683413000000009 0.33257710000000096 0.3499264000000009
0.3680749000000009 0.33390910000000096 0.34956010000000093
0.3692737000000009 0.33614020000000094 0.3488275000000009
0.3688741000000009 0.33740560000000097 0.3497266000000009
0.37010620000000094 0.340003000000001 0.3497599000000009
0.3718045000000009 0.339836500000001 0.35249050000000093
0.37343620000000094 0.340902100000001 0.3523240000000009
0.3733696000000009 0.342567100000001 0.3515914000000009
0.3751345000000009 0.344132200000001 0.3522907000000009
0.37733230000000095 0.343632700000001 0.3531232000000009
0.37729900000000094 0.34369930000000104 0.3525238000000009
0.37813150000000095 0.34609690000000104 0.3536893000000009
0.37803160000000097 0.346330000000001 0.35595370000000087
0.377132500000001 0.348960700000001 0.3562867000000009
0.378464500000001 0.348461200000001 0.3577852000000009
0.379063900000001 0.34889410000000104 0.3576520000000009
0.379829800000001 0.35042590000000107 0.3580516000000009
0.381594700000001 0.35255710000000107 0.3594835000000009
0.381561400000001 0.35492140000000105 0.3609487000000009
0.38149480000000097 0.35475490000000104 0.3610819000000009
0.38252710000000095 0.35542090000000104 0.3631132000000009
0.38216080000000097 0.35628670000000107 0.3647449000000009
0.38305990000000095 0.3568861000000011 0.36491140000000094
0.38482480000000097 0.3555874000000011 0.36524440000000097
0.38509120000000097 0.3586177000000011 0.36521110000000095
0.38519110000000095 0.3600829000000011 0.3644785000000009
0.38465830000000095 0.3594502000000011 0.36491140000000094
0.385257700000001 0.36178120000000114 0.36414550000000095
0.38668960000000097 0.36484480000000113 0.36524440000000097
0.38722240000000097 0.36664300000000116 0.36787510000000095
0.38715580000000094 0.3674755000000012 0.36640990000000095
0.38902060000000094 0.36784180000000116 0.36810820000000094
0.39208420000000094 0.36710920000000113 0.3695401000000009
0.3925837000000009 0.36977320000000113 0.3686077000000009
0.3935161000000009 0.37010620000000116 0.36810820000000094
0.39275020000000094 0.37090540000000116 0.36864100000000094
0.39321640000000097 0.37020610000000115 0.36827470000000095
0.39534760000000096 0.37190440000000113 0.369673300000001
0.39421540000000094 0.3718711000000011 0.370938700000001
0.39634660000000094 0.3730366000000011 0.372270700000001
0.3973789000000009 0.3748015000000011 0.374901400000001
0.3973456000000009 0.37456840000000113 0.375867100000001
0.3978451000000009 0.37363600000000113 0.375534100000001
0.4003093000000009 0.3730366000000011 0.37496800000000097
0.39980980000000094 0.3729367000000011 0.37470160000000097
0.40007620000000094 0.3730699000000011 0.375400900000001
0.40264030000000095 0.3734695000000011 0.375301000000001
0.40180780000000094 0.37483480000000113 0.375634000000001
0.40300660000000094 0.3742687000000011 0.37689940000000105
0.40347280000000096 0.3731365000000011 0.37773190000000106
0.404738200000001 0.3736360000000011 0.3789973000000011
0.40467160000000096 0.3762001000000011 0.3810286000000011
0.40360600000000096 0.37506790000000106 0.3822274000000011
0.404738200000001 0.3755341000000011 0.38429200000000113
0.405271000000001 0.3769660000000011 0.38592370000000115
0.404904700000001 0.3778318000000011 0.38775520000000113
0.406603000000001 0.3787309000000011 0.3902527000000011
0.40573720000000096 0.3813616000000011 0.3900529000000011
0.40480480000000096 0.3806956000000011 0.3904192000000011
0.40627000000000096 0.38239390000000106 0.3908854000000011
0.406836100000001 0.38502460000000105 0.3899863000000011
0.408301300000001 0.38395900000000105 0.39218410000000115
0.409133800000001 0.38542420000000105 0.39231730000000115
0.410732200000001 0.3874888000000011 0.39148480000000113
0.410565700000001 0.38785510000000106 0.3911851000000011
0.409799800000001 0.3892537000000011 0.3940822000000011
0.410365900000001 0.38918710000000106 0.39561400000000113
0.411265000000001 0.3885544000000011 0.39654640000000113
0.412630300000001 0.38945350000000106 0.3981115000000011
0.414361900000001 0.3890872000000011 0.3973123000000011
0.414595000000001 0.3922174000000011 0.39831130000000114
0.415494100000001 0.39468160000000113 0.39804490000000115
0.41439520000000096 0.39601360000000113 0.39871090000000114
0.41289670000000095 0.39827800000000113 0.39847780000000116
0.41569390000000095 0.39711250000000115 0.39994300000000116
0.41502790000000095 0.3959803000000011 0.40070890000000114
0.41685940000000093 0.3954142000000011 0.40114180000000116
0.4180249000000009 0.39654640000000113 0.40100860000000116
0.41899060000000093 0.3981115000000011 0.40067560000000113
0.41972320000000096 0.3977785000000011 0.40323970000000114
0.42168790000000095 0.3982780000000011 0.40427200000000113
0.423086500000001 0.3973456000000011 0.40513780000000116
0.42262030000000095 0.3971125000000011 0.40530430000000117
0.42371920000000096 0.3979450000000011 0.4057705000000012
0.42328630000000095 0.39987640000000113 0.4067362000000012
0.4222873000000009 0.39884410000000114 0.4074022000000012
0.4221208000000009 0.39914380000000116 0.4096666000000012
0.4234861000000009 0.39871090000000114 0.4101661000000012
0.4254841000000009 0.40027600000000113 0.4112983000000012
0.4268161000000009 0.40164130000000114 0.4121974000000012
0.4289140000000009 0.40413880000000113 0.41399560000000124
0.43044580000000093 0.4062367000000011 0.41579380000000127
0.4326769000000009 0.4055707000000011 0.4172923000000013
0.43457500000000093 0.40603690000000114 0.41699260000000127
0.43633990000000095 0.40640320000000113 0.41952340000000127
0.43717240000000096 0.40643650000000114 0.42178780000000127
0.43993630000000095 0.40560400000000113 0.42458500000000127
0.44070220000000093 0.4055707000000011 0.42525100000000127
0.44166790000000095 0.4052377000000011 0.42468490000000125
0.44356600000000096 0.4038724000000011 0.42411880000000124
0.444398500000001 0.40543750000000106 0.42678280000000124
0.443998900000001 0.40700260000000105 0.4283479000000012
0.44303320000000096 0.40783510000000106 0.4298131000000012
0.44383240000000096 0.4085344000000011 0.4297798000000012
0.445364200000001 0.4100662000000011 0.43197760000000124
0.446662900000001 0.4095001000000011 0.43457500000000127
0.44689600000000096 0.4119643000000011 0.4351744000000013
0.446929300000001 0.4143286000000011 0.4346416000000013
0.448394500000001 0.4153942000000011 0.4372390000000013
0.449127100000001 0.4155274000000011 0.43820470000000133
0.449060500000001 0.4160602000000011 0.4376053000000013
0.450592300000001 0.4168261000000011 0.4373722000000013
0.449992900000001 0.4178917000000011 0.43863760000000135
0.450991900000001 0.4182247000000011 0.4404358000000014
0.452024200000001 0.41855770000000114 0.44240050000000136
0.45089200000000096 0.42108850000000114 0.4444651000000014
0.45232390000000094 0.42072220000000116 0.4437658000000014
0.45348940000000093 0.42002290000000114 0.44329960000000135
0.45402220000000093 0.41895730000000114 0.4450978000000014
0.45512110000000094 0.42085540000000116 0.44373250000000136
0.45678610000000097 0.42015610000000114 0.4449979000000014
0.45585370000000097 0.42292000000000113 0.4461634000000014
0.45745210000000097 0.42471820000000116 0.4480282000000014
0.45878410000000097 0.42441850000000114 0.44959330000000136
0.45928360000000096 0.42501790000000117 0.4493602000000014
0.45915040000000096 0.42448510000000117 0.4509919000000014
0.45838450000000097 0.42565060000000116 0.4530232000000014
0.459516700000001 0.42591700000000116 0.4535893000000014
0.45891730000000097 0.42495130000000114 0.45282340000000143
0.461215000000001 0.42664960000000113 0.45502120000000146
0.45971650000000097 0.4287808000000011 0.45578710000000144
0.46104850000000097 0.43044580000000116 0.45565390000000144
0.46078210000000097 0.43247710000000117 0.4551877000000014
0.462280600000001 0.43434190000000117 0.4551544000000014
0.464345200000001 0.4353409000000012 0.4547215000000014
0.464744800000001 0.4341754000000012 0.4567861000000014
0.463479400000001 0.4329766000000012 0.45655300000000143
0.462447100000001 0.4327435000000012 0.45858430000000144
0.464511700000001 0.43490800000000124 0.45918370000000147
0.465144400000001 0.4360735000000012 0.45941680000000146
0.467109100000001 0.4355407000000012 0.4613482000000015
0.470206000000001 0.4348081000000012 0.46038250000000147
0.469873000000001 0.4366396000000012 0.46221400000000146
0.469906300000001 0.4357072000000012 0.46171450000000147
0.471538000000001 0.43740550000000117 0.46317970000000147
0.470971900000001 0.43697260000000115 0.4655107000000015
0.470672200000001 0.43777180000000115 0.4683412000000015
0.47277010000000097 0.43960330000000114 0.4681081000000015
0.47380240000000096 0.44016940000000115 0.46937350000000155
0.47646640000000096 0.4393036000000011 0.47013940000000154
0.47639980000000093 0.4394368000000011 0.47083870000000155
0.47523430000000094 0.4397032000000011 0.4707721000000015
0.47719900000000093 0.4393702000000011 0.4719709000000015
0.4797298000000009 0.4406023000000011 0.4712716000000015
0.4802293000000009 0.4415680000000011 0.4727701000000015
0.4811950000000009 0.44216740000000115 0.47306980000000154
0.48389230000000094 0.4419676000000011 0.47267020000000154
0.48555730000000097 0.4429000000000011 0.47203750000000155
0.485757100000001 0.4433995000000011 0.4725037000000016
0.486822700000001 0.4418344000000011 0.4735027000000016
0.488587600000001 0.44399890000000114 0.4752676000000016
0.487788400000001 0.44439850000000114 0.47573380000000165
0.490885300000001 0.44736220000000115 0.47616670000000166
0.49198420000000104 0.44892730000000114 0.47749870000000166
0.491384800000001 0.45015940000000115 0.4783312000000017
0.491284900000001 0.45099190000000117 0.4780981000000017
0.492883300000001 0.45375580000000115 0.4771324000000017
0.49424860000000104 0.45512110000000117 0.4786642000000017
0.49561390000000105 0.45525430000000117 0.4791637000000017
0.49531420000000104 0.45592030000000117 0.4782646000000017
0.49651300000000104 0.45681940000000115 0.4801294000000017
0.49761190000000105 0.45625330000000114 0.4799962000000017
0.49857760000000106 0.45711910000000117 0.4808953000000017
0.49747870000000105 0.45705250000000114 0.4812616000000017
0.4982113000000011 0.46011610000000114 0.4823938000000017
0.500142700000001 0.46018270000000117 0.4824271000000017
0.499676500000001 0.46041580000000115 0.4841587000000017
0.5004424000000011 0.4632796000000012 0.4840255000000017
0.5023072000000011 0.4619809000000012 0.48565720000000173
0.5010418000000011 0.4614148000000012 0.4845250000000017
0.5021740000000011 0.4631797000000012 0.4836259000000017
0.5036392000000012 0.4627801000000012 0.4854574000000017
0.5057038000000011 0.4642453000000012 0.4856239000000017
0.5066362000000012 0.4637125000000012 0.4867894000000017
0.5082346000000012 0.4642786000000012 0.4861567000000017
0.5082679000000012 0.46461160000000123 0.4850578000000017
0.5074354000000012 0.46707580000000126 0.4874887000000017
0.5079682000000012 0.46707580000000126 0.4890538000000017
0.5086675000000012 0.4698064000000013 0.4890205000000017
0.5100661000000012 0.4713715000000013 0.4903525000000017
0.5116312000000012 0.4726036000000013 0.4897864000000017
0.5135293000000012 0.47213740000000126 0.4903192000000017
0.5152276000000012 0.4723372000000013 0.49041910000000166
0.5153608000000013 0.4723372000000013 0.4914181000000017
0.5173255000000013 0.4735693000000013 0.4912516000000017
0.5196232000000013 0.4738690000000013 0.4909852000000017
0.5198563000000013 0.4741021000000013 0.49038580000000165
0.5186908000000012 0.4742020000000013 0.49281670000000166
0.5208553000000012 0.4731697000000013 0.49574710000000166
0.5206888000000013 0.4725037000000013 0.49664620000000165
0.5228866000000013 0.4738357000000013 0.49824460000000165
0.5234194000000013 0.4755340000000013 0.4997764000000017
0.5244850000000013 0.4753675000000013 0.5023405000000016
0.5265829000000013 0.47490130000000125 0.5045383000000017
0.5268493000000013 0.47699920000000123 0.5055373000000016
0.5269825000000014 0.47986300000000126 0.5054041000000016
0.5279482000000013 0.4797631000000013 0.5055040000000016
0.5296798000000014 0.4824271000000013 0.5065363000000016
0.5288473000000014 0.4855240000000013 0.5069692000000016
0.5301127000000013 0.4871890000000013 0.5061367000000015
0.5315113000000014 0.48818800000000134 0.5064031000000015
0.5341087000000013 0.48688930000000136 0.5056039000000015
0.5337091000000013 0.48692260000000137 0.5082679000000015
0.5341087000000013 0.4871224000000014 0.5081347000000015
0.5373721000000014 0.4886875000000014 0.5101660000000015
0.5373055000000013 0.4888207000000014 0.5127967000000014
0.5386042000000013 0.4887208000000014 0.5132629000000014
0.5404357000000013 0.4881880000000014 0.5139289000000015
0.5395033000000012 0.4894867000000014 0.5147947000000015
0.5404024000000013 0.4917844000000014 0.5161267000000015
0.5412682000000013 0.4935160000000014 0.5169925000000015
0.5416345000000014 0.4934827000000014 0.5174920000000015
0.5417677000000014 0.4948147000000014 0.5173255000000015
0.5443984000000014 0.4959469000000014 0.5184910000000016
0.5442985000000014 0.4956472000000014 0.5192569000000016
0.5427001000000014 0.4972789000000014 0.5197231000000015
0.5445316000000013 0.49867750000000144 0.5227534000000016
0.5449645000000013 0.5004091000000015 0.5249845000000016
0.5454973000000013 0.5009752000000015 0.5257837000000016
0.5462632000000013 0.5004091000000015 0.5283811000000016
0.5469958000000013 0.5013082000000015 0.5271823000000015
0.5462632000000013 0.5017411000000015 0.5274487000000015
0.5477617000000012 0.5044051000000015 0.5271157000000015
0.5472289000000012 0.5044384000000015 0.5263831000000015
0.5469958000000013 0.5042386000000015 0.5268493000000015
0.5476285000000013 0.5049379000000015 0.5277151000000015
0.5488939000000013 0.5056705000000015 0.5284810000000015
0.5500594000000013 0.5056705000000015 0.5271490000000015
0.5505922000000013 0.5063032000000015 0.5279482000000015
0.5494600000000013 0.5082346000000015 0.5277817000000016
0.5489272000000013 0.5071024000000015 0.5278483000000016
0.5492602000000013 0.5093002000000015 0.5274487000000015
0.5497264000000013 0.5092003000000015 0.5276485000000015
0.5504923000000013 0.5079682000000015 0.5285476000000016
0.5524570000000013 0.5080015000000015 0.5287141000000015
0.5518576000000013 0.5080681000000016 0.5276818000000015
0.5511916000000012 0.5102992000000016 0.5274820000000016
0.5520574000000013 0.5120308000000017 0.5285476000000016
0.5536558000000013 0.5143285000000016 0.5305456000000016
0.5567860000000012 0.5158936000000016 0.5308120000000016
0.5575852000000012 0.5160601000000016 0.5330098000000016
0.5569858000000012 0.5190238000000016 0.5337424000000016
0.5573854000000013 0.5178583000000015 0.5362399000000017
0.5589172000000012 0.5208220000000016 0.5380381000000016
0.5593834000000012 0.5229199000000015 0.5390038000000016
0.5607820000000012 0.5237524000000016 0.5396032000000016
0.5604157000000012 0.5243185000000016 0.5396365000000016
0.5611483000000012 0.5239522000000015 0.5396365000000016
0.5617477000000012 0.5258170000000015 0.5387707000000016
0.5635459000000012 0.5276485000000015 0.5407354000000016
0.5646781000000012 0.5280814000000015 0.5423671000000017
0.5652442000000012 0.5289139000000015 0.5438989000000016
0.5647114000000012 0.5279815000000014 0.5439655000000017
0.5672422000000013 0.5287141000000014 0.5448646000000017
0.5679415000000012 0.5309452000000014 0.5465962000000018
0.5669425000000012 0.5335093000000014 0.5473621000000017
0.5676418000000012 0.5352742000000014 0.5488273000000018
0.5663764000000012 0.5339089000000014 0.5512582000000018
0.5685409000000012 0.5345083000000014 0.5533894000000018
0.5694400000000013 0.5365729000000014 0.5552875000000018
0.5688739000000013 0.5353741000000013 0.5555872000000018
0.5698063000000013 0.5367061000000013 0.5549545000000018
0.5695399000000013 0.5359402000000013 0.5553208000000018
0.5699395000000014 0.5354074000000013 0.5568193000000018
0.5722705000000013 0.5368726000000014 0.5574853000000018
0.5735359000000013 0.5373055000000013 0.5588506000000019
0.5741686000000014 0.5394034000000013 0.5594833000000019
0.5746681000000013 0.5417011000000013 0.5590171000000019
0.5749678000000014 0.5411350000000013 0.5600827000000019
0.5759002000000014 0.5434660000000012 0.5608486000000019
0.5768659000000014 0.5430664000000012 0.5602825000000019
0.5784643000000014 0.5428000000000012 0.561747700000002
0.5808286000000014 0.5436658000000012 0.564445000000002
0.5820607000000013 0.5447647000000012 0.566010100000002
0.5816944000000013 0.5460967000000012 0.566909200000002
0.5817610000000013 0.5488273000000012 0.566309800000002
0.5819275000000013 0.5501593000000012 0.567175600000002
0.5821273000000012 0.5496265000000012 0.567042400000002
0.5831929000000012 0.5491936000000013 0.5664097000000019
0.5855572000000012 0.5488939000000013 0.5685409000000019
0.5848912000000012 0.5502592000000013 0.5703391000000019
0.5840254000000011 0.5513248000000013 0.5725702000000019
0.5859568000000012 0.5525569000000012 0.5727367000000019
0.5872888000000012 0.5541886000000013 0.5722039000000019
0.5884876000000012 0.5540221000000013 0.5748679000000019
0.5901859000000013 0.5553874000000013 0.5768659000000019
0.5899195000000013 0.5572189000000013 0.578863900000002
0.5907853000000013 0.5562199000000013 0.578297800000002
0.5912848000000013 0.5569525000000013 0.5778982000000019
0.5936158000000012 0.5590837000000013 0.5805622000000019
0.5948812000000012 0.5616145000000013 0.5807620000000019
0.5951143000000012 0.5638123000000014 0.5810284000000019
0.5972788000000012 0.5644450000000014 0.5819608000000019
0.5981113000000012 0.5657770000000014 0.5819275000000019
0.5975452000000012 0.5670424000000014 0.5817943000000019
0.5974453000000012 0.5674087000000014 0.5843917000000018
0.5991436000000012 0.5691070000000015 0.5866228000000019
0.6003424000000013 0.5676085000000015 0.5879215000000019
0.6024403000000013 0.5691070000000015 0.5890204000000019
0.6025069000000013 0.5688406000000015 0.5892868000000019
0.6032728000000013 0.5708053000000015 0.5889538000000019
0.6023071000000013 0.5714047000000015 0.5887540000000019
0.6037390000000014 0.5703391000000015 0.5891869000000018
0.6049045000000014 0.5702725000000015 0.5902525000000018
0.6072022000000014 0.5712382000000015 0.5895865000000018
0.6089005000000014 0.5716378000000015 0.5920840000000018
0.6115978000000014 0.5714380000000016 0.5938156000000019
0.6128299000000014 0.5738356000000016 0.5946148000000019
0.6140953000000013 0.5743684000000016 0.5951476000000019
0.6143284000000013 0.5745016000000016 0.5952808000000019
0.6165262000000014 0.5751343000000017 0.5963464000000019
0.6152275000000014 0.5761333000000016 0.5978449000000019
0.6155605000000014 0.5768326000000016 0.6006754000000019
0.6172921000000015 0.5764996000000016 0.6018076000000019
0.6188239000000014 0.5781646000000016 0.6033727000000019
0.6198562000000014 0.5787973000000016 0.6057370000000019
0.6199228000000014 0.5798629000000016 0.6068359000000019
0.6215212000000014 0.5796631000000017 0.6070690000000019
0.6219541000000014 0.5812615000000017 0.6080347000000018
0.6221872000000014 0.5812948000000017 0.6094666000000019
0.6219208000000014 0.5813947000000017 0.6100660000000019
0.6219874000000014 0.5816944000000017 0.6097996000000019
0.6231529000000015 0.5804956000000017 0.6119974000000019
0.6236857000000015 0.5803291000000017 0.6129964000000019
0.6247846000000015 0.5804956000000017 0.6150943000000019
0.6256837000000015 0.5820274000000016 0.6148279000000019
0.6252175000000015 0.5841586000000016 0.6172588000000019
0.6272488000000015 0.5862565000000016 0.6195898000000019
0.6299461000000015 0.5861899000000016 0.6195232000000018
0.6320440000000015 0.5859901000000016 0.6199561000000018
0.6326101000000015 0.5864563000000016 0.6209218000000017
0.6347080000000015 0.5878549000000016 0.6213547000000017
0.6362731000000015 0.5884876000000017 0.6214213000000017
0.6359734000000015 0.5894200000000017 0.6216211000000017
0.6389704000000015 0.5887540000000017 0.6203890000000017
0.6401026000000015 0.5888206000000017 0.6232861000000017
0.6395032000000015 0.5906521000000017 0.6217543000000018
0.6411349000000015 0.5909185000000017 0.6203224000000017
0.6433993000000016 0.5928499000000017 0.6207886000000017
0.6437656000000016 0.5950810000000017 0.6215212000000017
0.6453973000000016 0.5962798000000018 0.6213214000000017
0.6447979000000016 0.5963797000000018 0.6227200000000017
0.6450976000000016 0.5969125000000018 0.6223537000000017
0.6461965000000016 0.5979115000000018 0.6243184000000017
0.6477616000000016 0.6000760000000018 0.6242851000000017
0.6468292000000015 0.6003424000000018 0.6238189000000017
0.6483943000000015 0.6015412000000019 0.6245848000000017
0.6505588000000015 0.6034726000000019 0.6261166000000017
0.6520906000000015 0.606269800000002 0.6277816000000017
0.6532561000000016 0.6075019000000019 0.6294466000000017
0.6560866000000015 0.608401000000002 0.6281479000000018
0.6571189000000015 0.610332400000002 0.6291136000000017
0.6571522000000015 0.611731000000002 0.6294133000000017
0.6590170000000015 0.6126301000000021 0.6295798000000017
0.6594832000000015 0.613329400000002 0.6307120000000017
0.6594166000000015 0.612197200000002 0.6324103000000018
0.6597163000000015 0.614861200000002 0.6322438000000018
0.6610483000000015 0.614694700000002 0.6342085000000018
0.6632128000000015 0.617292100000002 0.6357403000000018
0.6624469000000015 0.618291100000002 0.6371389000000018
0.6626800000000015 0.620155900000002 0.6379381000000018
0.6631795000000015 0.620622100000002 0.6393367000000019
0.6639787000000015 0.619922800000002 0.6404023000000019
0.6639121000000014 0.621288100000002 0.6412015000000019
0.6652774000000015 0.6216877000000021 0.6438655000000019
0.6659434000000015 0.623719000000002 0.6426334000000019
0.6683410000000015 0.625284100000002 0.6428998000000019
0.6677749000000015 0.625617100000002 0.642999700000002
0.6708718000000015 0.6273487000000021 0.6447979000000019
0.6736357000000015 0.6282811000000021 0.6463630000000019
0.6757669000000015 0.6274819000000021 0.6463297000000019
0.6767326000000015 0.6270157000000022 0.6483943000000019
0.6787639000000014 0.6270823000000022 0.6499594000000019
0.6807619000000015 0.6273487000000022 0.6512581000000018
0.6802624000000015 0.6290803000000023 0.6514579000000018
0.6797629000000015 0.6308785000000022 0.6524569000000018
0.6804289000000016 0.6316111000000022 0.6518908000000018
0.6805288000000016 0.6326101000000022 0.6538555000000018
0.6801292000000015 0.6344083000000021 0.6524236000000018
0.6796297000000016 0.6339088000000022 0.6536890000000017
0.6816610000000015 0.6338755000000021 0.6534892000000018
0.6822937000000016 0.6323770000000022 0.6542218000000017
0.6822271000000015 0.6315445000000022 0.6554206000000018
0.6851242000000015 0.6335092000000022 0.6556204000000018
0.6857902000000016 0.6364729000000022 0.6554872000000017
0.6875218000000016 0.6351409000000022 0.6557869000000017
0.6863896000000016 0.6359401000000022 0.6561865000000018
0.6891868000000017 0.6373720000000023 0.6575518000000018
0.6906853000000016 0.6369391000000023 0.6583177000000018
0.6922504000000016 0.6377716000000023 0.6607819000000018
0.6929830000000016 0.6398029000000023 0.6614479000000019
0.6942151000000015 0.6406687000000023 0.6621472000000018
0.6945481000000016 0.6423337000000023 0.6627133000000018
0.6957469000000016 0.6432994000000023 0.6622138000000019
0.6957136000000016 0.6445648000000023 0.6638455000000019
0.6957136000000016 0.6434659000000023 0.6661765000000018
0.6962131000000016 0.6432661000000023 0.6682411000000018
0.6983776000000016 0.6431662000000022 0.6674752000000018
0.6986773000000016 0.6424336000000023 0.6684409000000018
0.6989437000000016 0.6417010000000023 0.6695065000000018
0.7010749000000016 0.6434659000000023 0.6704389000000018
0.7024402000000016 0.6453640000000023 0.6705388000000019
0.7051375000000016 0.6452974000000022 0.6710716000000019
0.7053373000000016 0.6460966000000022 0.6739021000000018
0.7065361000000017 0.6482944000000023 0.6737023000000019
0.7072021000000017 0.6467293000000023 0.6747013000000018
0.7089670000000017 0.6494599000000023 0.6753007000000019
0.7085674000000016 0.6497596000000023 0.6762664000000018
0.7090003000000016 0.6503257000000023 0.6767326000000018
0.7101991000000016 0.6521572000000023 0.6777649000000018
0.7106320000000016 0.6524569000000023 0.6793966000000018
0.7099993000000016 0.6544882000000023 0.6783976000000018
0.7109650000000015 0.6544216000000023 0.6793966000000018
0.7131961000000016 0.6556870000000022 0.6793300000000018
0.7149610000000015 0.6572188000000022 0.6810949000000017
0.7152274000000015 0.6562198000000022 0.6822604000000018
0.7157602000000015 0.6573520000000023 0.6843250000000017
0.7190236000000015 0.6576517000000023 0.6849910000000018
0.7190236000000015 0.6600160000000023 0.6857902000000018
0.7203889000000016 0.6592501000000023 0.6873220000000018
0.7218874000000015 0.6608152000000023 0.6887872000000018
0.7219540000000015 0.6621472000000023 0.6887872000000018
0.7234858000000015 0.6616810000000023 0.6895198000000018
0.7233859000000015 0.6622138000000023 0.6898195000000018
0.7245181000000015 0.6633127000000023 0.6906520000000018
0.7265161000000016 0.6634459000000024 0.6928165000000018
0.7289470000000016 0.6629464000000024 0.6937489000000019
0.7310782000000016 0.6634126000000024 0.6954805000000019
0.7334092000000015 0.6644116000000023 0.694781200000002
0.7338754000000015 0.6646114000000023 0.697278700000002
0.7364062000000016 0.6651775000000023 0.697711600000002
0.7379713000000016 0.6666094000000024 0.696712600000002
0.7383376000000016 0.6672088000000024 0.698344300000002
0.7397029000000016 0.6695065000000023 0.697611700000002
0.7409017000000017 0.6692068000000023 0.699176800000002
0.7438654000000017 0.6682078000000023 0.700808500000002
0.7435324000000016 0.6689404000000023 0.699709600000002
0.7436656000000017 0.6690070000000023 0.699876100000002
0.7433992000000017 0.6721705000000023 0.699942700000002
0.7441651000000017 0.6742684000000023 0.700642000000002
0.7440985000000017 0.6747679000000023 0.702340300000002
0.7444315000000017 0.6741352000000023 0.703172800000002
0.7459633000000017 0.6729364000000022 0.705004300000002
0.7467625000000017 0.6722371000000023 0.705970000000002
0.7479946000000016 0.6718042000000023 0.708567400000002
0.7490269000000016 0.6713713000000023 0.7111981000000019
0.7493932000000016 0.6714046000000023 0.713429200000002
0.7506919000000016 0.6708718000000023 0.713162800000002
0.7535890000000016 0.6716044000000023 0.7143949000000019
0.7532560000000016 0.6711382000000023 0.7172254000000019
0.7550875000000016 0.6718042000000024 0.7201558000000019
0.7561198000000016 0.6724702000000025 0.7214545000000019
0.7567858000000016 0.6752341000000025 0.7207552000000019
0.7589836000000016 0.6740353000000024 0.7222537000000019
0.7588171000000017 0.6733027000000025 0.7244848000000019
0.7599826000000017 0.6732694000000025 0.7251841000000019
0.7614478000000018 0.6739687000000024 0.7278814000000019
0.7641451000000018 0.6729364000000024 0.7268158000000019
0.7657768000000018 0.6736690000000024 0.7278148000000019
0.7662097000000018 0.6755671000000024 0.7275817000000019
0.7680745000000018 0.6777982000000025 0.7299793000000019
0.7673086000000018 0.6774985000000024 0.7295797000000018
0.7689403000000018 0.6767326000000025 0.7312114000000018
0.7706719000000019 0.6779980000000024 0.7316776000000018
0.7709383000000019 0.6788971000000025 0.7326433000000018
0.7738687000000019 0.6808618000000025 0.7345081000000018
0.7761331000000019 0.6809950000000026 0.7351408000000018
0.775700200000002 0.6810949000000026 0.7356070000000018
0.777132100000002 0.6823936000000026 0.7365061000000018
0.777165400000002 0.6828598000000026 0.7361065000000018
0.778031200000002 0.6857569000000026 0.7382377000000018
0.776899000000002 0.6870889000000026 0.7381045000000017
0.778330900000002 0.6870889000000026 0.7402024000000017
0.779896000000002 0.6877549000000026 0.7422337000000017
0.778763800000002 0.6888538000000026 0.7425001000000017
0.777565000000002 0.6915178000000026 0.7441984000000017
0.779230000000002 0.6932827000000026 0.7461631000000017
0.778497400000002 0.6941152000000026 0.7454305000000018
0.778564000000002 0.6949810000000026 0.7463962000000017
0.7775650000000021 0.6967792000000026 0.7487938000000017
0.7789303000000021 0.6973120000000026 0.7490602000000017
0.7790302000000021 0.6976450000000026 0.7506253000000017
0.7799626000000022 0.6977449000000027 0.7519573000000017
0.7820605000000022 0.6986107000000027 0.7541884000000018
0.7832593000000022 0.7000759000000027 0.7545880000000018
0.7846246000000022 0.6996097000000028 0.7545214000000018
0.7845580000000022 0.7004755000000028 0.7556536000000018
0.7854238000000022 0.7007752000000028 0.7551541000000018
0.7878214000000022 0.7004089000000028 0.7568857000000019
0.7881544000000023 0.6995431000000027 0.7585840000000019
0.7886206000000022 0.7000426000000027 0.7583176000000019
0.7893199000000022 0.6998761000000028 0.7583176000000019
0.7898527000000022 0.7005421000000028 0.7596163000000019
0.7921837000000022 0.7004089000000028 0.7627132000000019
0.7923835000000021 0.7028065000000028 0.7641784000000019
0.7937488000000021 0.7011748000000028 0.765910000000002
0.7944814000000021 0.7026067000000028 0.764844400000002
0.7954804000000021 0.7024402000000028 0.7658101000000019
0.7961464000000021 0.7038388000000029 0.765577000000002
0.7990435000000021 0.7051042000000028 0.768107800000002
0.8014078000000021 0.7066693000000028 0.7690402000000021
0.8029063000000021 0.7055038000000028 0.770605300000002
0.8045047000000021 0.7065361000000028 0.7701058000000021
0.8046046000000021 0.7079014000000028 0.7704721000000021
0.8036389000000022 0.7100659000000028 0.769539700000002
0.8036389000000022 0.7118308000000028 0.769806100000002
0.8039053000000022 0.7116310000000028 0.769772800000002
0.8046379000000021 0.7112647000000027 0.771138100000002
0.8053705000000021 0.7112980000000028 0.7707052000000021
0.8070355000000021 0.7097995000000028 0.7714378000000021
0.8077348000000021 0.7098994000000028 0.773269300000002
0.8099659000000021 0.7117309000000028 0.7733026000000021
0.8106319000000022 0.7110649000000028 0.772170400000002
0.8109649000000022 0.7123969000000028 0.772969600000002
0.8096662000000022 0.7140952000000028 0.7722370000000021
0.8102656000000023 0.7144282000000028 0.7720372000000021
0.8112646000000022 0.7151941000000028 0.771404500000002
0.8132959000000022 0.7152607000000029 0.772436800000002
0.8124634000000022 0.7153606000000029 0.772903000000002
0.8136622000000022 0.716293000000003 0.774501400000002
0.8128963000000022 0.716626000000003 0.774268300000002
0.8137621000000023 0.717924700000003 0.7757002000000021
0.8128297000000022 0.7189237000000029 0.7776982000000021
0.8119639000000022 0.7189237000000029 0.7769323000000021
0.8118640000000021 0.7194565000000029 0.7772653000000022
0.8114644000000021 0.719290000000003 0.7790968000000021
0.8124967000000021 0.720289000000003 0.7799293000000022
0.8120305000000021 0.7223536000000029 0.7802956000000022
0.8112313000000021 0.7234525000000029 0.7804288000000023
0.8125300000000021 0.723219400000003 0.7807618000000023
0.8125966000000021 0.724351600000003 0.7821271000000023
0.8135956000000021 0.724984300000003 0.7840252000000023
0.8143948000000021 0.726016600000003 0.7845913000000023
0.8146612000000021 0.7285474000000031 0.7859566000000023
0.8158267000000021 0.7274818000000031 0.7877548000000023
0.8171587000000021 0.7277815000000031 0.7867225000000023
0.8202556000000021 0.7272487000000031 0.7875883000000024
0.8203555000000021 0.730079200000003 0.7877881000000023
0.8203888000000021 0.732243700000003 0.7873219000000024
0.8226532000000022 0.7323436000000031 0.7871887000000023
0.8226199000000022 0.7328431000000031 0.7873552000000023
0.8224867000000021 0.7352074000000031 0.7904854000000022
0.8227531000000021 0.734574700000003 0.7912513000000022
0.8219539000000021 0.735007600000003 0.7916842000000022
0.8207551000000021 0.7346413000000029 0.7927498000000022
0.823885300000002 0.7375384000000029 0.7938820000000022
0.823652200000002 0.7364062000000029 0.7930828000000022
0.8261497000000021 0.7378381000000029 0.7933159000000022
0.8256169000000021 0.740368900000003 0.7924168000000021
0.825517000000002 0.739203400000003 0.7935490000000022
0.827315200000002 0.7417675000000029 0.7925500000000022
0.829180000000002 0.7433326000000029 0.7956136000000023
0.828414100000002 0.7437655000000029 0.7951474000000023
0.828380800000002 0.7424002000000028 0.7948810000000023
0.828713800000002 0.7444981000000028 0.7958467000000022
0.829679500000002 0.7443982000000028 0.7976449000000022
0.830412100000002 0.7469290000000028 0.8003755000000022
0.832543300000002 0.7467958000000028 0.8020738000000023
0.835473700000002 0.7458301000000028 0.8041051000000022
0.837704800000002 0.7450642000000028 0.8037055000000022
0.8394364000000021 0.7441984000000028 0.8051041000000022
0.8405020000000021 0.7440319000000029 0.8059366000000022
0.8394031000000021 0.7463629000000028 0.8051041000000022
0.840169000000002 0.7469956000000029 0.8059366000000022
0.8397028000000021 0.7463962000000028 0.8077681000000022
0.838570600000002 0.7465627000000028 0.8088337000000022
0.839636200000002 0.7468624000000028 0.8102656000000023
0.839303200000002 0.7474618000000028 0.8097994000000023
0.839602900000002 0.7479946000000028 0.8096662000000022
0.840601900000002 0.7509250000000028 0.8106985000000022
0.841034800000002 0.7523902000000029 0.8099659000000022
0.839536300000002 0.7545547000000029 0.8105653000000023
0.838870300000002 0.7547878000000029 0.8110315000000022
0.840302200000002 0.7553539000000029 0.8130961000000022
0.841334500000002 0.7553872000000029 0.8131960000000023
0.844065100000002 0.758450800000003 0.8126632000000023
0.846795700000002 0.760615300000003 0.8137954000000023
0.845696800000002 0.761714200000003 0.8163595000000022
0.845463700000002 0.764278300000003 0.8186572000000022
0.847028800000002 0.7650109000000029 0.8207551000000022
0.8495263000000021 0.7643449000000029 0.8205886000000022
0.8492599000000021 0.7654438000000029 0.8232193000000022
0.849692800000002 0.7672087000000029 0.8220538000000022
0.849459700000002 0.7666759000000029 0.8237521000000022
0.8511913000000021 0.7667425000000029 0.8234191000000022
0.850791700000002 0.7670422000000029 0.8260831000000022
0.8527897000000021 0.767441800000003 0.8268157000000022
0.8543548000000021 0.767974600000003 0.8284141000000022
0.854021800000002 0.770105800000003 0.8304787000000021
