0.0112987 0.0129304 0.0092674
0.0121312 0.0146953 0.0095005
0.0123976 0.0165268 0.0091342
0.0122644 0.0165601 0.0094672
0.0136297 0.017659 0.0105328
0.0137296 0.0180919 0.012664
0.013996 0.0190909 0.0148618
0.015328 0.0188911 0.0141292
0.0178921 0.0186247 0.0151615
0.0185248 0.0178255 0.0148951
0.0190243 0.0181252 0.0142957
0.0203563 0.0187912 0.0158608
0.0206227 0.0184249 0.0178921
0.0192241 0.0194572 0.0180253
0.0211888 0.0224875 0.0178588
0.0224875 0.0228205 0.0183583
0.0231202 0.0233866 0.0180586
0.0235531 0.0237529 0.0173926
0.0245854 0.026317 0.0185914
0.0242857 0.0264835 0.0184582
0.0245188 0.0287812 0.0183916
0.0268831 0.0292474 0.0193906
0.0290809 0.0290143 0.021322
0.0300799 0.0302797 0.0235864
0.0321445 0.0308791 0.0228871
0.0340759 0.0317782 0.0227206
0.0371728 0.0323776 0.0248518
0.0371062 0.0339427 0.0253513
0.0384382 0.0350416 0.0249517
0.036973 0.0340093 0.0247519
0.0375724 0.0337762 0.0254179
0.0379054 0.0340759 0.0248518
0.0392374 0.0357076 0.0259507
0.0388045 0.0369397 0.025651
0.0404695 0.0384049 0.0282484
0.0405361 0.0394039 0.0281152
0.0423343 0.0389044 0.0296137
0.0413686 0.0392707 0.0311122
0.0408358 0.0396037 0.0318781
0.0411688 0.0384382 0.0343423
0.0435997 0.0397702 0.0349084
0.0430336 0.0401698 0.0348751
0.0454978 0.0398701 0.0356077
0.0450316 0.0406027 0.0367399
0.0441991 0.03997 0.0388045
0.0438994 0.0401698 0.0391375
0.0450649 0.0423676 0.0392707
0.0460306 0.0436663 0.0420679
0.0474958 0.0432001 0.042634
0.0487612 0.0459973 0.0433999
0.0481951 0.0454312 0.0452314
0.0483283 0.047629 0.0471961
0.0474625 0.0482284 0.0481951
0.047296 0.0511255 0.0494272
0.0480952 0.0537562 0.0511921
0.0487945 0.0537229 0.0517582
0.0493606 0.0557209 0.0535897
0.0517249 0.0574525 0.0530569
0.0513919 0.059317299999999996 0.0535897
0.0502264 0.060882399999999996 0.0534898
0.0515584 0.061814799999999996 0.0537895
0.0520579 0.0634798 0.0541891
0.0541225 0.0633133 0.0556876
0.0541558 0.06328 0.0555211
0.0561538 0.0629803 0.0567532
0.0550216 0.062614 0.0559873
0.0573193 0.0621478 0.0577855
0.058518099999999997 0.0621478 0.057286
0.058717899999999996 0.0626806 0.0575857
0.0578521 0.0643456 0.058984299999999996
0.059017599999999996 0.065278 0.061714899999999996
0.058418199999999997 0.0665101 0.060882399999999996
0.059283999999999996 0.0675091 0.061182099999999996
0.060183099999999996 0.067942 0.061814799999999996
0.059283999999999996 0.0675091 0.0631468
0.060349599999999996 0.0666766 0.0637795
0.062114499999999996 0.067609 0.0641458
0.060715899999999996 0.0687079 0.0629803
0.060715899999999996 0.0687079 0.0632467
0.059816799999999996 0.0694738 0.0642457
0.061714899999999996 0.0687745 0.0630136
0.061781499999999996 0.068608 0.0642457
0.062280999999999996 0.0697735 0.0643456
0.0628471 0.0722044 0.0662437
0.0633133 0.0738028 0.0689743
0.0637462 0.074269 0.0687745
0.0650116 0.0751015 0.0716383
0.0646453 0.0753013 0.072604
0.0632467 0.0769996 0.0732034
0.0640126 0.0780985 0.0740026
0.0660106 0.0784981 0.0768997
0.0665767 0.0780652 0.078265
0.0655777 0.0801298 0.0794305
0.0670096 0.0827605 0.0810622
0.0700066 0.0830602 0.0801631
0.0716716 0.0847918 0.0818614
0.0710389 0.0868231 0.0809956
0.0715384 0.0862237 0.0822277
0.0722377 0.088255 0.0824608
0.0737029 0.0887878 0.0817948
0.0759007 0.0901864 0.0841591
0.076267 0.0903862 0.0848917
0.0765667 0.089254 0.0841591
0.0757342 0.0909523 0.0866233
0.0758674 0.0927838 0.0864901
0.0764668 0.0939826 0.0892873
0.0768664 0.0941824 0.0908524
0.0785314 0.0963802 0.0913186
0.0788644 0.0971794 0.0922177
0.0786313 0.0978454 0.0943489
0.0796636 0.0978121 0.0944155
0.0811954 0.0991441 0.0953146
0.0831268 0.1011754 0.097912
0.0834931 0.102907 0.0990775
0.0833266 0.103906 0.0985114
0.0836596 0.1035397 0.0987445
0.0860239 0.1058041 0.0998434
0.0863236 0.1082683 0.0988777
0.0874891 0.1095004 0.097912
0.0867565 0.1084681 0.0984115
0.0868564 0.1098334 0.0985114
0.0868564 0.1106992 0.0993106
0.0873892 0.1101997 0.0993772
0.0880552 0.1124308 0.1021744
0.0894871 0.1147618 0.1028737
0.0909856 0.1160938 0.1026739
0.0909856 0.1170595 0.1016749
0.0920179 0.1184248 0.1010755
0.0918181 0.1190242 0.1017415
0.0917515 0.1207558 0.1034065
0.0916183 0.1216216 0.1022077
0.0917515 0.1237528 0.1031068
0.0945487 0.1259506 0.1043722
0.096247 0.1283482 0.1042723
0.0975124 0.1309456 0.106903
0.0983449 0.1321111 0.1078021
0.1006093 0.1321777 0.1089343
0.1013086 0.13334320000000002 0.1096669
0.1011088 0.13424230000000004 0.1104661
0.102574 0.13517470000000004 0.1104328
0.1021078 0.13713940000000005 0.1102663
0.1033732 0.13927060000000005 0.1123975
0.1045054 0.13897090000000004 0.111565
0.1062703 0.13900420000000005 0.112897
0.1087678 0.13967020000000005 0.1153612
0.1082683 0.14086900000000005 0.1176256
0.1099666 0.14369950000000006 0.1175257
0.1086013 0.14526460000000008 0.1185913
0.1089676 0.1458307000000001 0.1189909
0.1102663 0.1471960000000001 0.1184248
0.1087012 0.1474624000000001 0.1186912
0.1075024 0.14889430000000012 0.1174258
0.108568 0.15009310000000012 0.1187911
0.1078354 0.15165820000000013 0.1198234
0.1091341 0.15215770000000015 0.1203895
0.1084681 0.15232420000000016 0.1214551
0.1103662 0.15505480000000016 0.1220212
0.1109656 0.15508810000000017 0.1246852
0.1118314 0.15362290000000017 0.1249849
0.1119313 0.15475510000000017 0.1243855
0.1116649 0.15432220000000016 0.1243855
0.113563 0.15605380000000016 0.1254511
0.1154611 0.15685300000000016 0.1263169
0.1147285 0.15625360000000016 0.1260838
0.115228 0.15668650000000017 0.1257508
0.113896 0.15658660000000016 0.1272493
0.1140625 0.15931720000000016 0.1288477
0.115894 0.16104880000000016 0.1282816
0.1172593 0.16384600000000016 0.1287811
0.1166932 0.16444540000000016 0.12948040000000002
0.1157275 0.16571080000000016 0.13001320000000002
0.1159939 0.16757560000000016 0.13194460000000002
0.1163602 0.16797520000000016 0.13284370000000004
0.11656 0.16807510000000017 0.13314340000000005
0.119557 0.16890760000000019 0.13267720000000005
0.1213552 0.1702063000000002 0.13231090000000004
0.1201897 0.1700065000000002 0.13297690000000004
0.1201897 0.1713718000000002 0.13514140000000005
0.1203895 0.17240410000000023 0.13717270000000006
0.1212886 0.1722376000000002 0.13830490000000006
0.1224874 0.1731700000000002 0.13830490000000006
0.1226872 0.1741024000000002 0.13937050000000006
0.1227538 0.1739692000000002 0.13987000000000008
0.124552 0.1755010000000002 0.14266720000000008
0.1263169 0.1756342000000002 0.14346640000000008
0.1285147 0.1765666000000002 0.14306680000000008
0.12914740000000002 0.17666650000000023 0.1439659000000001
0.13187800000000002 0.17833150000000023 0.1462636000000001
0.1313785 0.17899750000000023 0.14722930000000012
0.1305793 0.18112870000000023 0.14656330000000012
0.1296469 0.1800298000000002 0.14666320000000013
0.1312453 0.1807624000000002 0.14643010000000012
0.1307125 0.1805626000000002 0.14869450000000012
0.1315117 0.18112870000000023 0.1483282000000001
0.13340980000000002 0.18219430000000023 0.1491274000000001
0.13387600000000002 0.18375940000000024 0.1494604000000001
0.13564090000000004 0.18379270000000025 0.15122530000000012
0.13514140000000002 0.18492490000000025 0.15282370000000012
0.13700620000000002 0.18522460000000027 0.15448870000000012
0.13760560000000002 0.18748900000000027 0.15472180000000013
0.14006980000000002 0.18805510000000028 0.15432220000000013
0.1399033 0.18792190000000028 0.15458860000000013
0.14220100000000002 0.18885430000000028 0.15365620000000013
0.14433220000000002 0.1892206000000003 0.15378940000000013
0.14479840000000002 0.1897201000000003 0.15608710000000015
0.14656330000000004 0.1887877000000003 0.15681970000000015
0.14739580000000005 0.18988660000000032 0.15542110000000015
0.14909410000000006 0.19145170000000034 0.15715270000000015
0.14889430000000006 0.19225090000000034 0.15735250000000015
0.15129190000000006 0.19151830000000034 0.15798520000000016
0.15102550000000006 0.19288360000000035 0.15961690000000017
0.15155830000000006 0.19288360000000035 0.15961690000000017
0.15139180000000005 0.19261720000000035 0.15975010000000017
0.15325660000000005 0.19471510000000036 0.1616482000000002
0.15425560000000005 0.19731250000000036 0.16224760000000019
0.15562090000000006 0.19801180000000038 0.16417900000000019
0.15741910000000006 0.19687960000000038 0.16531120000000019
0.15711940000000005 0.1993771000000004 0.16457860000000019
0.15928390000000006 0.2000764000000004 0.16424560000000019
0.16104880000000008 0.2016748000000004 0.16374610000000017
0.1616149000000001 0.2020078000000004 0.16264720000000016
0.1620145000000001 0.20237410000000042 0.16261390000000014
0.16171480000000008 0.20260720000000043 0.16218100000000013
0.16244740000000008 0.20383930000000045 0.16427890000000014
0.16344640000000007 0.20503810000000045 0.16414570000000014
0.16444540000000007 0.20510470000000044 0.16288030000000014
0.1652779000000001 0.20723590000000044 0.16477840000000016
0.1661437000000001 0.21036610000000044 0.16504480000000016
0.1660105000000001 0.21053260000000046 0.16634350000000017
0.1688743000000001 0.21009970000000044 0.16684300000000019
0.16837480000000007 0.21189790000000044 0.16631020000000019
0.16904080000000007 0.21113200000000043 0.16617700000000019
0.16910740000000007 0.21273040000000043 0.16467850000000017
0.1703395000000001 0.21166480000000043 0.16544440000000019
0.1724041000000001 0.21183130000000044 0.16677640000000019
0.1727704000000001 0.21322990000000044 0.16624360000000019
0.1721044000000001 0.21416230000000044 0.16531120000000019
0.1717381000000001 0.21366280000000043 0.1673425000000002
0.1741690000000001 0.21259720000000043 0.1677754000000002
0.1732033000000001 0.21379600000000043 0.16807510000000023
0.1763335000000001 0.21649330000000044 0.17060590000000023
0.1777321000000001 0.21729250000000044 0.16967350000000023
0.1807957000000001 0.21942370000000044 0.17170480000000024
0.1835929000000001 0.22112200000000046 0.17163820000000024
0.1851913000000001 0.22408570000000047 0.17366950000000025
0.1861570000000001 0.22272040000000046 0.17370280000000027
0.1855576000000001 0.22478500000000046 0.17390260000000027
0.1856908000000001 0.22535110000000047 0.17623360000000027
0.1856908000000001 0.22808170000000047 0.17663320000000027
0.1881550000000001 0.22874770000000047 0.17550100000000027
0.1905859000000001 0.22971340000000048 0.17699950000000028
0.1902529000000001 0.22964680000000048 0.17759890000000028
0.1912519000000001 0.2298133000000005 0.17893090000000028
0.1939159000000001 0.2284813000000005 0.1796302000000003
0.1953811000000001 0.2300131000000005 0.1818280000000003
0.1969795000000001 0.2300464000000005 0.1818946000000003
0.19707940000000013 0.23147830000000053 0.1824607000000003
0.19817830000000014 0.23257720000000054 0.1828603000000003
0.19984330000000014 0.23434210000000055 0.1834597000000003
0.20154160000000015 0.23370940000000054 0.1858573000000003
0.20220760000000015 0.23454190000000055 0.1867231000000003
0.20307340000000015 0.23737240000000057 0.18888760000000032
0.20487160000000015 0.23727250000000055 0.19101880000000032
0.20470510000000014 0.23887090000000055 0.18968680000000032
0.20483830000000014 0.23993650000000055 0.19085230000000034
0.20423890000000014 0.24140170000000055 0.19161820000000035
0.20620360000000015 0.24343300000000057 0.19145170000000034
0.20640340000000015 0.24246730000000055 0.19228420000000035
0.20780200000000015 0.24386590000000055 0.19398250000000036
0.20913400000000015 0.24496480000000057 0.19401580000000038
0.21073240000000015 0.24413230000000055 0.1956475000000004
0.21009970000000014 0.24469840000000057 0.19494820000000038
0.20989990000000014 0.24762880000000057 0.19608040000000038
0.21216430000000014 0.24752890000000055 0.19551430000000036
0.21296350000000014 0.24912730000000055 0.19771210000000036
0.21226420000000013 0.25129180000000056 0.19994320000000038
0.21306340000000012 0.2521576000000006 0.20147500000000038
0.21409570000000014 0.25062580000000056 0.20090890000000036
0.21412900000000015 0.25209100000000056 0.20120860000000038
0.21396250000000014 0.25232410000000055 0.20054260000000038
0.21382930000000014 0.25175800000000054 0.19961020000000038
0.21536110000000014 0.25285690000000055 0.1998433000000004
0.21592720000000015 0.25285690000000055 0.19947700000000038
0.21612700000000015 0.25275700000000056 0.20107540000000038
0.21865780000000015 0.2536228000000006 0.20247400000000038
0.21972340000000015 0.2563867000000006 0.20287360000000038
0.22105540000000015 0.2587843000000006 0.20507140000000038
0.22125520000000015 0.2593171000000006 0.20580400000000038
0.22282030000000017 0.2624473000000006 0.20793520000000038
0.22308670000000017 0.2652778000000006 0.2099665000000004
0.22185460000000015 0.2658106000000006 0.2100664000000004
0.22315330000000017 0.2653777000000006 0.2098999000000004
0.22361950000000017 0.2676088000000006 0.20980000000000038
0.22385260000000018 0.2697067000000006 0.20930050000000036
0.22451860000000018 0.26897410000000055 0.21043270000000036
0.2258173000000002 0.27160480000000053 0.21039940000000035
0.22465180000000018 0.27280360000000053 0.21043270000000036
0.22458520000000018 0.27456850000000055 0.21149830000000036
0.2262169000000002 0.27606700000000056 0.21003310000000036
0.2279485000000002 0.27620020000000056 0.21006640000000038
0.2290474000000002 0.2762668000000006 0.2100997000000004
0.2307790000000002 0.2789308000000006 0.20966680000000038
0.2298799000000002 0.2812618000000006 0.20956690000000036
0.2294803000000002 0.2824606000000006 0.21006640000000038
0.2302462000000002 0.28422550000000063 0.2112319000000004
0.2322442000000002 0.28559080000000064 0.2120644000000004
0.2341756000000002 0.28615690000000066 0.2111653000000004
0.23440870000000022 0.28672300000000067 0.2141956000000004
0.23594050000000022 0.2882215000000007 0.21616030000000042
0.2355076000000002 0.2895868000000007 0.2159272000000004
0.2379052000000002 0.2917513000000007 0.21596050000000042
0.2379718000000002 0.2937160000000007 0.21679300000000043
0.23980330000000022 0.2951479000000007 0.21812500000000043
0.24133510000000022 0.2968129000000007 0.21975670000000044
0.2399698000000002 0.29861110000000074 0.21892420000000043
0.24253390000000022 0.30014290000000077 0.21872440000000043
0.24423220000000023 0.30054250000000077 0.21862450000000042
0.24596380000000023 0.30160810000000077 0.21915730000000042
0.24776200000000023 0.30264040000000075 0.21959020000000043
0.24912730000000025 0.30450520000000075 0.22155490000000044
0.25025950000000025 0.30533770000000077 0.22331980000000046
0.25145830000000025 0.3053710000000008 0.22535110000000047
0.2531233000000003 0.30463840000000075 0.22451860000000046
0.2517913000000003 0.30440530000000077 0.22468510000000047
0.2543887000000003 0.30480490000000077 0.22585060000000048
0.2573191000000003 0.3063034000000008 0.22698280000000048
0.2565199000000003 0.3079018000000008 0.22864780000000048
0.2584180000000003 0.3095668000000008 0.2300131000000005
0.2588176000000003 0.3093670000000008 0.2309788000000005
0.25751890000000033 0.3109987000000008 0.2313784000000005
0.25685290000000033 0.3103327000000008 0.2302462000000005
0.25765210000000033 0.3122641000000008 0.2302129000000005
0.2585512000000003 0.31246390000000085 0.2324773000000005
0.25765210000000033 0.31193110000000085 0.2325106000000005
0.2580184000000003 0.3125305000000009 0.2324773000000005
0.26031610000000033 0.31396240000000086 0.23224420000000048
0.26051590000000036 0.3135961000000009 0.23214430000000047
0.26224750000000036 0.3162934000000009 0.23117860000000046
0.26128180000000034 0.3178585000000009 0.23151160000000046
0.26201440000000037 0.3202894000000009 0.23207770000000047
0.2615149000000004 0.3211552000000009 0.23241070000000047
0.26104870000000036 0.3233863000000009 0.23144500000000046
0.26174800000000037 0.3241522000000009 0.23334310000000047
0.26291350000000036 0.3249847000000009 0.23274370000000047
0.26384590000000036 0.3267163000000009 0.23517460000000048
0.26567740000000034 0.32704930000000093 0.2355409000000005
0.26680960000000037 0.3276820000000009 0.23524120000000048
0.2668762000000004 0.3276487000000009 0.23397580000000048
0.2671426000000004 0.3293803000000009 0.23317660000000048
0.2676088000000004 0.3295135000000009 0.2347417000000005
0.26834140000000045 0.3307456000000009 0.2367730000000005
0.2682748000000004 0.33081220000000094 0.23700610000000052
0.26927380000000045 0.33194440000000097 0.23727250000000052
0.26997310000000047 0.332776900000001 0.2369728000000005
0.2697400000000005 0.33207760000000097 0.2367730000000005
0.27103870000000047 0.33217750000000096 0.2370394000000005
0.2712052000000005 0.334242100000001 0.2357407000000005
0.2720377000000005 0.335041300000001 0.2351413000000005
0.2723707000000005 0.337239100000001 0.2347417000000005
0.27297010000000055 0.337105900000001 0.2353411000000005
0.27267040000000053 0.338471200000001 0.2359738000000005
0.27520120000000053 0.33996970000000104 0.2347417000000005
0.2763667000000005 0.341002000000001 0.2349082000000005
0.27640000000000053 0.34103530000000104 0.23673970000000052
0.27923050000000055 0.34130170000000104 0.23980330000000052
0.2788975000000005 0.34386580000000105 0.24106870000000052
0.2817946000000005 0.34336630000000107 0.24270040000000054
0.28306000000000053 0.3443320000000011 0.24356620000000054
0.28279360000000053 0.34319980000000105 0.24439870000000055
0.28549090000000055 0.34389910000000107 0.24453190000000055
0.28469170000000055 0.3440656000000011 0.24573070000000055
0.28479160000000053 0.3443986000000011 0.24543100000000054
0.2845918000000005 0.3472291000000011 0.24519790000000052
0.2836594000000005 0.3479950000000011 0.24549760000000054
0.28372600000000053 0.3472624000000011 0.24696280000000054
0.28392580000000056 0.34802830000000107 0.24836140000000054
0.2856907000000006 0.34802830000000107 0.24839470000000055
0.2876887000000006 0.34972660000000105 0.2507923000000006
0.2887876000000006 0.34922710000000107 0.25005970000000055
0.2902195000000006 0.3503593000000011 0.24982660000000054
0.2921176000000006 0.3528568000000011 0.2523907000000005
0.2939824000000006 0.3540556000000011 0.25482160000000054
0.2951479000000006 0.3546217000000011 0.25582060000000056
0.2952145000000006 0.3553543000000011 0.2572192000000006
0.2942488000000006 0.3577519000000011 0.2559871000000006
0.2951812000000006 0.35871760000000114 0.2549548000000006
0.2967130000000006 0.35978320000000114 0.2546884000000006
0.2980117000000006 0.36044920000000114 0.25315660000000056
0.29821150000000063 0.36058240000000114 0.2554543000000006
0.29984320000000064 0.3598498000000011 0.2559871000000006
0.30180790000000063 0.3591838000000011 0.2565199000000006
0.3010753000000006 0.3601495000000011 0.2585845000000006
0.3027736000000006 0.3614815000000011 0.2587177000000006
0.3035395000000006 0.36234730000000115 0.2599498000000006
0.30350620000000056 0.36341290000000115 0.2621809000000006
0.30430540000000056 0.36377920000000113 0.2627470000000006
0.30423880000000053 0.3664099000000011 0.2618146000000006
0.30650320000000053 0.36807490000000115 0.26224750000000063
0.3074023000000005 0.3702727000000012 0.26251390000000063
0.3075355000000005 0.3721708000000012 0.26377930000000066
0.30970000000000053 0.3732697000000012 0.26654320000000065
0.3104659000000005 0.3746017000000012 0.26627680000000065
0.3127303000000005 0.3776986000000012 0.26747560000000065
0.31462840000000053 0.3768328000000012 0.26840800000000065
0.3138958000000005 0.3759337000000012 0.26804170000000066
0.3165598000000005 0.3778984000000012 0.26797510000000063
0.3163267000000005 0.3791971000000012 0.26757550000000063
0.31719250000000054 0.38062900000000116 0.26987320000000065
0.31789180000000056 0.38156140000000116 0.27027280000000065
0.31799170000000054 0.3838924000000012 0.26947360000000065
0.31988980000000056 0.3841921000000012 0.27093880000000065
0.31959010000000054 0.3833596000000012 0.27137170000000066
0.32065570000000054 0.3854242000000012 0.27187120000000065
0.32305330000000054 0.3874222000000012 0.27336970000000066
0.3223207000000005 0.3876553000000012 0.27626680000000065
0.32328640000000053 0.3890206000000012 0.27816490000000066
0.32438530000000054 0.38908720000000124 0.27703270000000063
0.32361940000000056 0.38832130000000126 0.27876430000000063
0.32268700000000056 0.38818810000000126 0.27909730000000066
0.3227536000000006 0.38755540000000127 0.28162810000000066
0.3236860000000006 0.38858770000000126 0.28415890000000066
0.32365270000000057 0.38858770000000126 0.2846251000000007
0.3260836000000006 0.3903859000000013 0.2859904000000007
0.32644990000000057 0.39061900000000127 0.2848915000000007
0.32618350000000057 0.3913516000000013 0.2839924000000007
0.3274489000000006 0.3918511000000013 0.2843254000000007
0.3286810000000006 0.3933829000000013 0.28622350000000074
0.33127840000000064 0.3922840000000013 0.28878760000000075
0.3324439000000006 0.3929833000000013 0.29078560000000075
0.3349747000000006 0.39451510000000134 0.29215090000000077
0.3346750000000006 0.39491470000000134 0.2936494000000008
0.33713920000000064 0.39538090000000137 0.2943820000000008
0.33873760000000064 0.3965131000000014 0.2947483000000008
0.3388375000000006 0.3976453000000014 0.2954809000000008
0.34033600000000064 0.3989440000000014 0.29817820000000084
0.34196770000000065 0.3994768000000014 0.2979784000000008
0.34300000000000064 0.40100860000000144 0.2999764000000008
0.34553080000000064 0.40254040000000146 0.2995102000000008
0.34606360000000064 0.40277350000000145 0.2997100000000008
0.3457306000000006 0.40333960000000146 0.3000763000000008
0.3485611000000006 0.4036726000000015 0.3009754000000008
0.3506923000000006 0.4050379000000015 0.30160810000000077
0.35152480000000064 0.4042054000000015 0.30280690000000077
0.3536227000000006 0.4044385000000015 0.30200770000000077
0.35448850000000065 0.4062034000000015 0.30144160000000075
0.35395570000000065 0.4071025000000015 0.30074230000000074
0.35542090000000065 0.4078018000000015 0.29971000000000075
0.35605360000000064 0.4086343000000015 0.30154150000000074
0.3565531000000006 0.4104658000000015 0.30340630000000074
0.3570859000000006 0.4110319000000015 0.30427210000000077
0.35861770000000065 0.4108987000000015 0.30613690000000077
0.36144820000000066 0.4118311000000015 0.3086011000000008
0.3633796000000007 0.4138291000000015 0.3097000000000008
0.3658438000000007 0.41416210000000153 0.3099331000000008
0.36654310000000073 0.41592700000000155 0.3103993000000008
0.36674290000000076 0.41596030000000156 0.31312990000000085
0.36820810000000076 0.41589370000000153 0.3153277000000009
0.3691738000000008 0.41589370000000153 0.3150946000000009
0.3686410000000008 0.4170592000000015 0.3168928000000009
0.3705724000000008 0.4163932000000015 0.3177919000000009
0.3728035000000008 0.4158604000000015 0.3186910000000009
0.3738358000000008 0.4182247000000015 0.3193570000000009
0.3757006000000008 0.4194568000000015 0.3201229000000009
0.3771991000000008 0.4191571000000015 0.32075560000000086
0.3777652000000008 0.42042250000000153 0.32222080000000086
0.3774655000000008 0.4196899000000015 0.3233530000000009
0.37673290000000076 0.42028930000000153 0.3234862000000009
0.3790306000000008 0.42195430000000156 0.3231199000000009
0.3808288000000008 0.4240189000000016 0.3232864000000009
0.3812617000000008 0.4245850000000016 0.32252050000000093
0.3821608000000008 0.4257838000000016 0.32318650000000093
0.3835261000000008 0.4288807000000016 0.32478490000000093
0.3839257000000008 0.4298464000000016 0.32441860000000095
0.3854242000000008 0.4287142000000016 0.32445190000000096
0.3875554000000008 0.4291138000000016 0.32548420000000094
0.3864232000000008 0.4301128000000016 0.32398570000000093
0.3881548000000008 0.4311784000000016 0.3244852000000009
0.3881548000000008 0.43187770000000164 0.3259504000000009
0.38755540000000077 0.43480810000000164 0.32784850000000093
0.38858770000000076 0.43620670000000167 0.32721580000000094
0.3893203000000008 0.43687270000000167 0.32911390000000096
0.3897532000000008 0.4390372000000017 0.329446900000001
0.3925171000000008 0.44086870000000167 0.328214800000001
0.39501460000000077 0.44140150000000167 0.330279400000001
0.39454840000000074 0.44153470000000167 0.329713300000001
0.39691270000000073 0.44083540000000165 0.332577100000001
0.39894400000000074 0.44140150000000167 0.334009000000001
0.39854440000000074 0.4421008000000017 0.333209800000001
0.39837790000000073 0.44459830000000167 0.335374300000001
0.39974320000000074 0.4459969000000017 0.337505500000001
0.40147480000000074 0.4462633000000017 0.337172500000001
0.40144150000000073 0.4470958000000017 0.335707300000001
0.40373920000000074 0.4478950000000017 0.335574100000001
0.40370590000000073 0.4477618000000017 0.336639700000001
0.40347280000000074 0.44929360000000174 0.336140200000001
0.40587040000000074 0.4489939000000017 0.337006000000001
0.40583710000000073 0.4519243000000017 0.336939400000001
0.4087342000000007 0.45235720000000174 0.337205800000001
0.4119643000000007 0.4521574000000017 0.336972700000001
0.41283010000000075 0.45448840000000174 0.337771900000001
0.41452840000000074 0.4553875000000017 0.338471200000001
0.41652640000000074 0.4579183000000017 0.340835500000001
0.41722570000000075 0.45811810000000175 0.342134200000001
0.4190239000000008 0.45905050000000175 0.342766900000001
0.4180915000000008 0.4596499000000018 0.344764900000001
0.4191571000000008 0.46134820000000176 0.346663000000001
0.4191904000000008 0.4609819000000018 0.349426900000001
0.4216546000000008 0.4599496000000018 0.349859800000001
0.42288670000000084 0.4601161000000018 0.351691300000001
0.42348610000000086 0.4626136000000018 0.352790200000001
0.4225870000000009 0.4627468000000018 0.354355300000001
0.4230199000000009 0.4635460000000018 0.35658640000000097
0.4248847000000009 0.4634128000000018 0.356353300000001
0.42415210000000086 0.4646449000000018 0.356386600000001
0.42451840000000085 0.4658104000000018 0.35592040000000097
0.42648310000000084 0.4655773000000018 0.35565400000000097
0.42758200000000085 0.4647115000000018 0.35708590000000096
0.43027930000000086 0.46574380000000176 0.35961670000000096
0.4318111000000009 0.4683079000000018 0.359816500000001
0.4329433000000009 0.46960660000000176 0.361548100000001
0.43447510000000095 0.47173780000000176 0.360748900000001
0.43643980000000093 0.4728700000000018 0.360382600000001
0.4378717000000009 0.4732696000000018 0.362014300000001
0.43820470000000095 0.4730032000000018 0.362547100000001
0.4381381000000009 0.4739023000000018 0.362980000000001
0.43940350000000095 0.4756339000000018 0.364811500000001
0.43996960000000096 0.4761667000000018 0.367375600000001
0.440002900000001 0.4761667000000018 0.37023940000000105
0.441468100000001 0.4760668000000018 0.37063900000000105
0.444132100000001 0.4780315000000018 0.3715048000000011
0.44463160000000096 0.47906380000000176 0.3740689000000011
0.44583040000000096 0.47863090000000175 0.3751678000000011
0.447895000000001 0.4798963000000018 0.3753343000000011
0.448228000000001 0.4817611000000018 0.37793170000000115
0.44922700000000104 0.4836925000000018 0.38009620000000116
0.44929360000000107 0.4830931000000018 0.37899730000000115
0.4497598000000011 0.48236050000000175 0.37939690000000115
0.4509919000000011 0.48342610000000175 0.37829800000000113
0.4520575000000011 0.4838923000000018 0.37886410000000115
0.4517245000000011 0.48638980000000176 0.3783979000000011
0.4530898000000011 0.48485800000000173 0.3790306000000011
0.4527235000000011 0.48582370000000175 0.3791971000000011
0.4531231000000011 0.48755530000000175 0.3807622000000011
0.4514914000000011 0.48892060000000176 0.3791638000000011
0.4543219000000011 0.49155130000000175 0.37976320000000113
0.4556872000000011 0.49314970000000174 0.38076220000000116
0.45545410000000114 0.49314970000000174 0.3826936000000012
0.4545883000000011 0.49318300000000176 0.3830599000000012
0.45478810000000114 0.49464820000000176 0.3844585000000012
0.45575380000000115 0.49518100000000176 0.3863566000000012
0.45655300000000115 0.4952476000000018 0.3870226000000012
0.45811810000000114 0.4970791000000018 0.3883213000000012
0.45908380000000115 0.49704580000000176 0.38998630000000123
0.45878410000000114 0.49644640000000173 0.39151810000000126
0.45878410000000114 0.49781170000000174 0.39105190000000123
0.4618144000000011 0.5006422000000017 0.39051910000000123
0.4625803000000011 0.5005756000000017 0.3910186000000012
0.4635460000000011 0.5025736000000017 0.3929833000000012
0.46504450000000114 0.5021074000000018 0.3919177000000012
0.4658104000000011 0.5014081000000018 0.3945484000000012
0.4664764000000011 0.5008087000000018 0.3953143000000012
0.4661434000000011 0.5008087000000018 0.3969793000000012
0.4677085000000011 0.5027401000000018 0.3962467000000012
0.4688407000000011 0.5037391000000018 0.3950479000000012
0.47103850000000114 0.5065696000000017 0.39404890000000115
0.47130490000000114 0.5079016000000017 0.39434860000000116
0.47163790000000116 0.5072023000000018 0.39684610000000115
0.4734028000000012 0.5071357000000017 0.3967795000000011
0.47563390000000116 0.5063698000000018 0.3982114000000011
0.47490130000000114 0.5082679000000018 0.3999097000000011
0.47523430000000116 0.5091004000000018 0.3995101000000011
0.4750012000000012 0.5110318000000018 0.3997099000000011
0.4767328000000012 0.5136292000000018 0.40137490000000114
0.4785976000000012 0.5163931000000018 0.40313980000000116
0.4786642000000012 0.5169925000000019 0.40383910000000117
0.47926360000000123 0.5176585000000019 0.40580380000000116
0.47956330000000125 0.5192569000000019 0.40660300000000116
0.4786975000000012 0.5189239000000019 0.40633660000000116
0.48022930000000125 0.5217877000000019 0.4084012000000012
0.48052900000000126 0.5229532000000019 0.4099996000000012
0.48116170000000125 0.5239522000000019 0.4103992000000012
0.48022930000000125 0.5242519000000019 0.41156470000000117
0.47929690000000125 0.5250178000000019 0.4119976000000012
0.48046240000000123 0.5267161000000019 0.4121974000000012
0.48049570000000125 0.527348800000002 0.4110652000000012
0.48112840000000123 0.527382100000002 0.4126969000000012
0.48169450000000125 0.528181300000002 0.4123972000000012
0.4833595000000013 0.527415400000002 0.4149946000000012
0.4850245000000013 0.528314500000002 0.4168261000000012
0.4844584000000013 0.5278816000000021 0.4183912000000012
0.4855906000000013 0.5276152000000021 0.4177585000000012
0.48509110000000133 0.528847300000002 0.4190239000000012
0.48778840000000134 0.529380100000002 0.42212080000000124
0.48998620000000137 0.529013800000002 0.42311980000000127
0.48998620000000137 0.528547600000002 0.42348610000000125
0.49008610000000136 0.530911900000002 0.4248847000000013
0.4901527000000014 0.531078400000002 0.4261168000000013
0.4915180000000014 0.531711100000002 0.4267495000000013
0.4930165000000014 0.533709100000002 0.42654970000000125
0.4941154000000014 0.533875600000002 0.42871420000000127
0.4932829000000014 0.536006800000002 0.4297132000000013
0.49494790000000144 0.536073400000002 0.4293469000000013
0.49548070000000144 0.536639500000002 0.4305790000000013
0.49727890000000147 0.5388040000000021 0.4305124000000013
0.49701250000000147 0.5401360000000021 0.4330765000000013
0.4991770000000015 0.5396698000000021 0.4347082000000013
0.4987774000000015 0.5405356000000021 0.43567390000000134
0.5016079000000014 0.5413015000000021 0.4357738000000013
0.5035393000000015 0.5405356000000021 0.4347082000000013
0.5019409000000015 0.5391370000000021 0.43624000000000135
0.5040388000000015 0.5414014000000021 0.4361734000000013
0.5050378000000014 0.5430997000000022 0.4358737000000013
0.5067028000000015 0.5444650000000022 0.4369393000000013
0.5088673000000015 0.5451976000000022 0.43993630000000133
0.5090338000000014 0.5459968000000022 0.44066890000000136
0.5083345000000015 0.5470624000000022 0.4423006000000014
0.5095000000000015 0.5476285000000022 0.4438324000000014
0.5093668000000015 0.5485609000000022 0.4422340000000014
0.5116978000000014 0.5514580000000022 0.44483140000000143
0.5110318000000014 0.5522905000000022 0.4465297000000014
0.5115979000000014 0.5523904000000023 0.44779510000000144
0.5105656000000014 0.5536558000000023 0.44809480000000146
0.5134627000000014 0.5557537000000022 0.44819470000000144
0.5130298000000014 0.5551543000000022 0.44782840000000146
0.5141953000000015 0.5543218000000022 0.4481281000000015
0.5154940000000015 0.5559868000000022 0.44849440000000146
0.5160934000000015 0.5566861000000022 0.4488274000000015
0.5169925000000015 0.5565196000000022 0.4500262000000015
0.5184577000000016 0.5571856000000023 0.45239050000000147
0.5185576000000016 0.5577850000000023 0.45279010000000147
0.5213215000000017 0.5579848000000023 0.45209080000000146
0.5230198000000017 0.5596498000000023 0.45149140000000143
0.5234860000000017 0.5625802000000023 0.45418870000000144
0.5250178000000016 0.5652109000000023 0.4527901000000014
0.5271157000000016 0.5677750000000023 0.45308980000000143
0.5287474000000016 0.5698063000000022 0.45192430000000144
0.5284810000000016 0.5719042000000022 0.45182440000000146
0.5301460000000017 0.5734027000000022 0.45385570000000147
0.5288473000000017 0.5725702000000021 0.4536226000000015
0.5299795000000017 0.5740021000000022 0.45612010000000147
0.5316112000000017 0.5755339000000022 0.4550878000000015
0.5345083000000017 0.5745016000000022 0.45638650000000147
0.5360401000000017 0.5769658000000022 0.4573855000000015
0.5369392000000017 0.5780980000000022 0.4580848000000015
0.5364064000000017 0.5792302000000022 0.46054900000000154
0.5373055000000018 0.5798629000000023 0.4619809000000015
0.5371390000000018 0.5815612000000023 0.46231390000000155
0.5385709000000019 0.5831263000000023 0.46354600000000157
0.5375386000000019 0.5851909000000023 0.4642453000000016
0.5402026000000019 0.5860567000000023 0.4668427000000016
0.5404690000000019 0.5876218000000023 0.4655773000000016
0.5416012000000019 0.5877883000000023 0.46404550000000155
0.5422006000000019 0.5901859000000023 0.4666429000000016
0.5426668000000019 0.5923837000000023 0.4691071000000016
0.5426002000000019 0.5911516000000023 0.4703392000000016
0.5448646000000019 0.5902858000000023 0.4712383000000016
0.547362100000002 0.5892535000000023 0.47290330000000164
0.5469958000000019 0.5899195000000024 0.47440180000000165
0.547661800000002 0.5922838000000024 0.47373580000000165
0.5483611000000019 0.5928166000000024 0.4732696000000016
0.5477284000000019 0.5950144000000024 0.4747015000000016
0.5482279000000019 0.5952142000000024 0.4738024000000016
0.5472622000000019 0.5984443000000024 0.4735027000000016
0.547595200000002 0.5998429000000024 0.4733695000000016
0.547894900000002 0.6022072000000024 0.47476810000000164
0.5486275000000019 0.6013747000000024 0.47520100000000165
0.5499595000000019 0.6039721000000023 0.47533420000000165
0.549759700000002 0.6047047000000023 0.47476810000000164
0.5515246000000019 0.6077350000000024 0.47596690000000164
0.5516911000000019 0.6092668000000023 0.47616670000000166
0.5506921000000019 0.6108319000000023 0.47719900000000165
0.5514913000000019 0.6092335000000023 0.4784644000000017
0.5524570000000019 0.6089338000000023 0.4796632000000017
0.5528899000000018 0.6107320000000023 0.4827601000000017
0.5548546000000019 0.6116977000000022 0.4837924000000017
0.5552542000000019 0.6112648000000023 0.4848580000000017
0.557718400000002 0.6138955000000023 0.4855573000000017
0.5567860000000019 0.6155605000000023 0.4859236000000017
0.556919200000002 0.6152941000000023 0.4879549000000017
0.5568526000000019 0.6161266000000023 0.4894867000000017
0.5567860000000019 0.6180913000000023 0.4912183000000017
0.5562865000000019 0.6197230000000024 0.49141810000000175
0.5554540000000019 0.6224536000000024 0.49344940000000176
0.5559868000000019 0.6248845000000024 0.49501450000000174
0.557185600000002 0.6268825000000025 0.49514770000000174
0.559616500000002 0.6274153000000025 0.49478140000000176
0.560782000000002 0.6296797000000025 0.49444840000000173
0.561681100000002 0.6323770000000025 0.49571380000000176
0.561947500000002 0.6317776000000025 0.49661290000000174
0.563179600000002 0.6327100000000025 0.4956139000000017
0.5657104000000021 0.6357736000000026 0.4983778000000017
0.5652442000000021 0.6366061000000026 0.4976452000000017
0.5671756000000021 0.6359068000000027 0.49787830000000166
0.5699062000000021 0.6368059000000027 0.49691260000000165
0.5695066000000021 0.6388039000000028 0.4981780000000017
0.5709385000000021 0.6380047000000028 0.5005423000000017
0.5713381000000022 0.6383044000000028 0.5016745000000017
0.5717710000000021 0.6392368000000028 0.5036725000000017
0.5725702000000021 0.6420673000000028 0.5037391000000018
0.5729365000000022 0.6437989000000028 0.5043385000000018
0.5736691000000022 0.6434326000000028 0.5050045000000019
0.5752009000000021 0.6436657000000028 0.5064697000000019
0.5773987000000022 0.6449977000000028 0.506836000000002
0.5778649000000021 0.6450643000000028 0.5094667000000019
0.5775652000000021 0.6465628000000028 0.5106988000000019
0.5788972000000021 0.6464296000000027 0.5109319000000019
0.5812282000000021 0.6477949000000027 0.5098330000000019
0.5814946000000021 0.6474286000000027 0.5114980000000019
0.5841919000000021 0.6483610000000027 0.5128300000000019
0.5846914000000021 0.6484276000000028 0.5130964000000019
0.586456300000002 0.6503923000000028 0.5143951000000019
0.587988100000002 0.6528565000000028 0.5152276000000019
0.589153600000002 0.6523237000000028 0.517225600000002
0.589320100000002 0.6547879000000029 0.518424400000002
0.5921173000000021 0.6545215000000029 0.517492000000002
0.593349400000002 0.6566194000000029 0.5179915000000019
0.5958802000000021 0.6579181000000028 0.518557600000002
0.5977450000000021 0.6584176000000028 0.518557600000002
0.5994433000000021 0.6612148000000029 0.519956200000002
0.5989771000000021 0.6614812000000029 0.522154000000002
0.5990770000000022 0.6624802000000029 0.522187300000002
0.6016078000000022 0.6647779000000028 0.522487000000002
0.6032728000000023 0.6676084000000028 0.523552600000002
0.6048712000000023 0.6682744000000028 0.524618200000002
0.6060034000000023 0.6686740000000029 0.525051100000002
0.6078349000000023 0.6701392000000029 0.526016800000002
0.6100327000000023 0.6709051000000029 0.527648500000002
0.6115645000000023 0.6730363000000029 0.526915900000002
0.6122305000000023 0.6748012000000029 0.528614200000002
0.6132295000000023 0.6757003000000029 0.530445700000002
0.6140287000000023 0.6777982000000029 0.531278200000002
0.6149278000000024 0.680329000000003 0.532810000000002
0.6163264000000024 0.6807619000000029 0.531977500000002
0.6180247000000024 0.6833926000000029 0.531211600000002
0.6189571000000025 0.683492500000003 0.532610200000002
0.6215212000000024 0.685390600000003 0.533376100000002
0.6236191000000024 0.685124200000003 0.5329432000000021
0.6242185000000025 0.6852907000000029 0.5322106000000021
0.6240853000000024 0.6866560000000029 0.5324437000000021
0.6260500000000024 0.6860233000000029 0.5333095000000021
0.6249844000000024 0.6856903000000029 0.532377100000002
0.6262165000000024 0.6853240000000028 0.5324104000000021
0.6277483000000024 0.6853573000000028 0.5340754000000021
0.6287473000000023 0.6850909000000028 0.5366728000000021
0.6296464000000024 0.6850576000000028 0.5383045000000021
0.6295798000000024 0.6859567000000029 0.5400361000000021
0.6318109000000024 0.6876883000000029 0.5402692000000021
0.6337423000000024 0.6877216000000029 0.5408020000000021
0.6340087000000024 0.6873553000000029 0.5420341000000021
0.6348412000000024 0.6882544000000029 0.5434660000000021
0.6365395000000025 0.6868225000000029 0.5426002000000021
0.6391036000000024 0.6884209000000029 0.5418010000000021
0.6393034000000024 0.6910849000000029 0.5407021000000021
0.6410350000000025 0.6909517000000028 0.5415346000000021
0.6425002000000025 0.6900193000000028 0.5405356000000021
0.6431995000000025 0.6894865000000028 0.5404024000000021
0.6448312000000025 0.6912181000000028 0.539769700000002
0.6461299000000025 0.6924502000000028 0.541701100000002
0.6458968000000025 0.6918175000000027 0.541667800000002
0.6486607000000025 0.6927832000000027 0.541101700000002
0.6498595000000026 0.6918508000000027 0.541334800000002
0.6516910000000026 0.6924169000000027 0.540935200000002
0.6522571000000026 0.6943150000000027 0.5424337000000019
0.6529897000000026 0.6963463000000026 0.5443651000000019
0.6551875000000026 0.6970123000000027 0.5445982000000019
0.6559534000000026 0.6997429000000027 0.544698100000002
0.6562198000000026 0.6997762000000027 0.545996800000002
0.6582178000000026 0.7017742000000028 0.545197600000002
0.6583843000000026 0.7013746000000027 0.546130000000002
0.6573853000000026 0.7023403000000027 0.547029100000002
0.6583843000000026 0.7034059000000027 0.548361100000002
0.6589171000000026 0.7046713000000027 0.547195600000002
0.6582844000000025 0.7070689000000027 0.5489272000000021
0.6591169000000026 0.7093666000000026 0.5476951000000021
0.6591169000000026 0.7107985000000027 0.5498929000000021
0.6594166000000026 0.7118308000000027 0.5497264000000022
0.6584176000000026 0.7123636000000027 0.5503924000000022
0.6576850000000026 0.7126966000000027 0.5512915000000023
0.6569857000000027 0.7141285000000027 0.5536558000000023
0.6597496000000027 0.7127632000000027 0.5542885000000023
0.6601825000000027 0.7142284000000028 0.5539888000000023
0.6611815000000026 0.7148611000000028 0.5559202000000023
0.6621805000000026 0.7151608000000028 0.5586508000000023
0.6632128000000026 0.7169923000000028 0.5587507000000024
0.6637789000000026 0.7176916000000028 0.5591503000000024
0.6669424000000026 0.7180579000000028 0.5594500000000024
0.6701725000000026 0.7181578000000028 0.5621473000000025
0.6705388000000027 0.7192567000000029 0.5622139000000025
0.6727699000000027 0.7181245000000028 0.5639122000000025
0.6743350000000027 0.7193566000000028 0.5656771000000025
0.6737689000000027 0.7201558000000028 0.5678416000000025
0.6731362000000026 0.7223203000000028 0.5682745000000025
0.6743017000000027 0.7228198000000028 0.5691070000000025
0.6772987000000027 0.7221538000000027 0.5690737000000025
0.6805288000000027 0.7237189000000027 0.5713381000000025
0.6806287000000028 0.7252174000000027 0.5726035000000025
0.6796630000000028 0.7266826000000027 0.5742352000000025
0.6816610000000028 0.7296463000000027 0.5760001000000025
0.6842917000000028 0.7308784000000027 0.5774320000000025
0.6862231000000029 0.7323769000000027 0.5776318000000025
0.6870889000000029 0.7339420000000026 0.5764330000000024
0.6893200000000029 0.7356070000000027 0.5765662000000025
0.6893533000000029 0.7350076000000026 0.5768326000000025
0.689952700000003 0.7363396000000026 0.5783977000000025
0.6925501000000029 0.7358068000000026 0.5789305000000025
0.694181800000003 0.7370056000000027 0.5805622000000025
0.696446200000003 0.7397695000000027 0.5820940000000024
0.697778200000003 0.7406020000000028 0.5824936000000025
0.699043600000003 0.7405687000000027 0.5814613000000025
0.700642000000003 0.7414678000000028 0.5843584000000025
0.701441200000003 0.7428331000000028 0.5830930000000025
0.7010416000000029 0.7418341000000028 0.5830597000000025
0.7025734000000029 0.7422670000000028 0.5843584000000025
0.7035724000000029 0.7437655000000027 0.5855572000000026
0.7064695000000029 0.7463962000000027 0.5863564000000026
0.7079680000000028 0.7453972000000028 0.5883877000000025
0.7097329000000028 0.7478281000000028 0.5904523000000025
0.7116310000000028 0.7489936000000028 0.5903524000000024
0.7124635000000028 0.7509583000000029 0.5891869000000024
0.7140286000000028 0.7537888000000028 0.5900860000000024
0.7157269000000028 0.7556536000000028 0.5903191000000024
0.7167925000000028 0.7573519000000029 0.5896864000000024
0.7185241000000029 0.7582510000000029 0.5922172000000024
0.7193233000000029 0.7588504000000029 0.5942152000000025
0.7210549000000029 0.760548700000003 0.5939488000000025
0.721654300000003 0.7610149000000029 0.5945815000000025
0.723219400000003 0.7601824000000029 0.5953474000000025
0.7249843000000029 0.7612480000000029 0.5964796000000026
0.7247512000000029 0.7618141000000029 0.5964463000000025
0.7235524000000029 0.762913000000003 0.5974453000000025
0.7257502000000029 0.764511400000003 0.5979115000000025
0.7283809000000029 0.764777800000003 0.5983111000000025
0.7280812000000029 0.7668424000000029 0.5993767000000025
0.7277815000000029 0.7673752000000029 0.5999761000000026
0.7274152000000028 0.7695397000000029 0.5994100000000026
0.7296463000000029 0.7715710000000029 0.6015079000000025
0.7292467000000028 0.7732360000000029 0.6021739000000026
0.7278148000000028 0.7736689000000029 0.6034060000000026
0.7276150000000028 0.7748344000000029 0.6040720000000026
0.7295797000000028 0.775733500000003 0.6036391000000026
0.7303789000000028 0.7759000000000029 0.6040054000000027
0.7304788000000029 0.7765993000000029 0.6045382000000027
0.7327099000000029 0.7754338000000028 0.6059035000000027
0.733342600000003 0.7765327000000029 0.6068692000000027
0.7349077000000029 0.7767325000000028 0.6074020000000027
0.7342417000000029 0.7784641000000029 0.6098329000000027
0.7355404000000029 0.7783309000000028 0.6125302000000027
0.7363729000000029 0.7801624000000028 0.6149278000000027
0.7383709000000029 0.7812946000000028 0.6170590000000027
0.7407352000000029 0.7804288000000028 0.6171589000000027
0.7404022000000029 0.7793965000000028 0.6163264000000027
0.7399693000000029 0.7787638000000028 0.6172921000000027
0.741134800000003 0.7789969000000028 0.6170923000000027
0.742933000000003 0.7805287000000027 0.6179581000000027
0.743199400000003 0.7796629000000027 0.6166594000000027
0.745663600000003 0.7785307000000027 0.6154273000000028
0.745930000000003 0.7813279000000027 0.6145948000000028
0.746729200000003 0.7828597000000027 0.6149611000000028
0.747328600000003 0.7844248000000027 0.6146281000000028
0.748227700000003 0.7852240000000027 0.6168259000000028
0.7504255000000031 0.7882876000000028 0.6174253000000028
0.7499926000000031 0.7898527000000027 0.6178249000000029
0.7501258000000032 0.7920838000000028 0.6186907000000029
0.7506253000000032 0.7943482000000028 0.6192235000000029
0.7518241000000032 0.7962130000000028 0.6212881000000029
0.7516576000000033 0.7969123000000028 0.6215545000000029
0.7532893000000033 0.7999759000000028 0.6229864000000029
0.7545547000000032 0.8008750000000029 0.6242185000000029
0.7547878000000032 0.802073800000003 0.6260167000000029
0.7554205000000033 0.804571300000003 0.6246181000000028
0.7569856000000033 0.806569300000003 0.6235858000000029
0.7575850000000033 0.8080012000000031 0.6224869000000028
0.7600492000000033 0.8077015000000031 0.6217543000000029
0.7590169000000033 0.8095996000000031 0.6223537000000029
0.7606153000000033 0.8104321000000031 0.622753300000003
0.7631794000000033 0.8117641000000031 0.6237190000000029
0.7633459000000032 0.810831700000003 0.6258502000000029
0.7645114000000033 0.811264600000003 0.6267160000000029
0.7635790000000032 0.812863000000003 0.628714000000003
0.7637788000000032 0.813196000000003 0.630112600000003
0.7647112000000033 0.812863000000003 0.631244800000003
0.7636456000000033 0.813895300000003 0.630645400000003
0.7640452000000033 0.815826700000003 0.632044000000003
0.7652107000000034 0.817325200000003 0.6323770000000031
0.7668424000000034 0.819856000000003 0.6343084000000031
0.7671754000000034 0.820888300000003 0.633908800000003
0.7670089000000034 0.822187000000003 0.635973400000003
0.7669090000000034 0.821587600000003 0.6374053000000031
0.7676083000000034 0.822353500000003 0.6396697000000031
0.7680079000000034 0.8225200000000029 0.6418675000000031
0.7701724000000034 0.8243515000000029 0.6426001000000031
0.7701058000000034 0.8253505000000029 0.6440653000000032
0.7731694000000034 0.8242183000000028 0.6450643000000031
0.7729696000000035 0.8227864000000028 0.6458302000000031
0.7736356000000035 0.8224867000000028 0.6473287000000031
0.7740019000000036 0.8228530000000028 0.6488605000000031
0.7760998000000036 0.8225533000000028 0.6499594000000031
0.7775317000000036 0.8233858000000028 0.6501925000000031
0.7777315000000036 0.8244514000000028 0.650425600000003
0.7781977000000035 0.8249509000000028 0.650159200000003
0.7784974000000036 0.8278813000000028 0.652290400000003
0.7797295000000035 0.8294797000000028 0.653322700000003
0.7816276000000035 0.8284807000000028 0.655986700000003
0.7822603000000036 0.8308783000000028 0.657085600000003
0.7831594000000036 0.8323102000000029 0.6587506000000031
0.7835590000000037 0.8312779000000029 0.6598495000000031
0.7851574000000037 0.8326432000000029 0.6598828000000031
0.7867225000000037 0.831943900000003 0.6606487000000031
0.7889869000000037 0.833875300000003 0.662680000000003
0.7879213000000037 0.834274900000003 0.6633127000000031
0.7875550000000037 0.834807700000003 0.6630463000000031
0.7877548000000036 0.834741100000003 0.6636790000000031
0.7903189000000036 0.836506000000003 0.6662098000000032
0.7908850000000036 0.837871300000003 0.6666760000000032
0.7924501000000036 0.837538300000003 0.6678748000000032
0.7925500000000036 0.8382709000000029 0.6678082000000032
0.7942483000000037 0.8376382000000029 0.6682744000000032
0.7940818000000037 0.8397694000000029 0.6678748000000031
0.7961131000000037 0.8425000000000029 0.6684409000000031
0.7981444000000036 0.8440984000000029 0.6689404000000031
0.7983775000000036 0.8454304000000029 0.6692401000000031
0.7998427000000037 0.847395100000003 0.6694399000000031
0.8009083000000037 0.8473618000000029 0.6713380000000031
0.8039053000000037 0.8465293000000029 0.6734692000000031
0.8053372000000038 0.8468290000000029 0.673069600000003
0.8066692000000037 0.848460700000003 0.6731362000000031
0.8084341000000037 0.848494000000003 0.672736600000003
0.8095663000000037 0.849559600000003 0.673702300000003
0.8119306000000037 0.851724100000003 0.675800200000003
0.8115976000000037 0.8513245000000029 0.6757336000000029
0.8137288000000037 0.852523300000003 0.675833500000003
0.8163595000000037 0.855520300000003 0.675667000000003
0.8183242000000037 0.854787700000003 0.6768325000000031
0.8191900000000037 0.853688800000003 0.677265400000003
0.8187238000000038 0.854155000000003 0.678564100000003
0.8191567000000037 0.856719100000003 0.6792301000000031
0.8214211000000038 0.8582842000000029 0.6808285000000031
0.8216542000000038 0.857851300000003 0.6808285000000031
0.8219539000000038 0.8590834000000029 0.6830929000000031
0.8247178000000038 0.861347800000003 0.6856237000000032
0.8265160000000038 0.862446700000003 0.6854572000000032
0.8262829000000038 0.864045100000003 0.6871888000000033
0.8275816000000038 0.865443700000003 0.6899527000000033
0.8286472000000038 0.867541600000003 0.6923836000000033
0.8303788000000039 0.867608200000003 0.6915178000000033
0.8291800000000038 0.8663095000000031 0.6926167000000033
0.8293798000000038 0.866209600000003 0.6931162000000033
0.8302456000000038 0.8663428000000031 0.6943816000000033
0.8314777000000038 0.867608200000003 0.6964795000000032
0.8324434000000037 0.8679079000000031 0.6965461000000033
0.8320438000000037 0.8669089000000031 0.6982111000000033
0.8324434000000037 0.8686405000000031 0.6972454000000033
0.8342749000000037 0.8713711000000032 0.6989437000000034
0.8361064000000037 0.8735023000000032 0.6992434000000034
0.8362729000000036 0.8723035000000031 0.6999427000000034
0.8371720000000037 0.8742349000000031 0.7001758000000033
0.8370055000000037 0.8751007000000032 0.7022071000000033
0.8383042000000037 0.8771986000000032 0.7023736000000033
0.8373718000000037 0.8767324000000032 0.7023736000000033
0.8378713000000036 0.8788636000000032 0.7044049000000032
0.8393032000000037 0.8799958000000032 0.7039720000000033
0.8388037000000037 0.8794630000000032 0.7061698000000033
0.8410348000000037 0.8802622000000032 0.7075351000000033
0.8424667000000038 0.8815942000000032 0.7072021000000033
0.8452306000000038 0.8838253000000033 0.7076683000000032
0.8462962000000038 0.8832259000000032 0.7086007000000033
0.8464960000000038 0.8839252000000032 0.7111315000000034
0.8478280000000038 0.8829595000000032 0.7098328000000034
0.8492266000000038 0.8845912000000032 0.7100326000000033
0.8501257000000039 0.8840584000000032 0.7092667000000034
0.8523901000000039 0.8831926000000032 0.7094332000000033
0.8552206000000039 0.8845912000000032 0.7107652000000033
0.8543548000000039 0.8868223000000033 0.7101658000000033
0.8547544000000039 0.8863228000000033 0.7091002000000033
0.857018800000004 0.8864227000000033 0.7081678000000032
0.855520300000004 0.8855236000000033 0.7091668000000032
0.856053100000004 0.8877547000000033 0.7095331000000032
0.856785700000004 0.8894863000000034 0.7121305000000032
0.858217600000004 0.8887870000000034 0.7118308000000032
0.860049100000004 0.8899858000000035 0.7112647000000032
0.860781700000004 0.8899192000000035 0.7117642000000032
0.861314500000004 0.8886205000000035 0.7129963000000031
0.861247900000004 0.8898526000000034 0.7120306000000032
0.8606152000000039 0.8915509000000035 0.7139953000000032
0.862047100000004 0.8944480000000035 0.7153606000000032
0.861880600000004 0.8961796000000035 0.7160266000000033
0.862480000000004 0.8964793000000035 0.7167259000000032
0.864011800000004 0.8993098000000035 0.7157935000000032
0.866875600000004 0.8998426000000035 0.7155937000000032
0.869073400000004 0.9009082000000035 0.7148611000000032
0.870904900000004 0.9028729000000035 0.7159600000000033
0.870971500000004 0.9036388000000035 0.7171255000000033
0.872370100000004 0.9034057000000035 0.7195564000000033
0.873602200000004 0.9036721000000035 0.7200559000000033
0.873335800000004 0.9042715000000036 0.7191901000000033
0.875233900000004 0.9030061000000036 0.7187905000000032
0.877265200000004 0.9032725000000036 0.7182244000000032
0.876799000000004 0.9035722000000036 0.7189237000000032
0.877698100000004 0.9042049000000036 0.7206220000000032
0.879529600000004 0.9032725000000036 0.7207885000000032
0.8807284000000041 0.9037387000000036 0.7221871000000032
0.8820271000000041 0.9042715000000036 0.7216876000000032
