0.0102997 0.0118648 0.0090343
0.0112321 0.0137296 0.0104995
0.0122644 0.0151615 0.0120646
0.0130303 0.0160273 0.0124642
0.0130636 0.015294700000000001 0.0134965
0.0134632 0.0161272 0.015328
0.0153613 0.0176257 0.015994
0.0179254 0.0194239 0.014961700000000001
0.0175924 0.0195238 0.015328000000000001
0.0194905 0.0192574 0.0159274
0.0189577 0.0196237 0.0169597
0.019657 0.0192907 0.016993
0.0204562 0.0208891 0.0171262
0.0210223 0.0203896 0.0187579
0.0205561 0.020656 0.018991
0.0222544 0.0235198 0.0218215
0.0243856 0.0242857 0.0215884
0.0245521 0.0247519 0.022321
0.0270496 0.0243856 0.0242524
0.0295471 0.0247852 0.0244855
0.029647 0.0264502 0.0241858
0.0290143 0.0274492 0.0243523
0.0312121 0.0290809 0.0255844
0.0318781 0.0284149 0.027982
0.0328438 0.0306127 0.0295804
0.0336097 0.0333433 0.0288478
0.0344755 0.0345421 0.0313786
0.0368065 0.0369397 0.031978
0.0363403 0.0399367 0.0341758
0.0381718 0.041635 0.036307
0.0378055 0.0415018 0.0374059
0.0375724 0.0429337 0.0377722
0.038971 0.0447652 0.0401032
0.038305 0.0462637 0.0403696
0.0400033 0.0478954 0.0410689
0.0418015 0.050293 0.0424675
0.0417349 0.0497602 0.0434332
0.0427006 0.0511588 0.0447985
0.0449317 0.0530236 0.0463969
0.043633 0.0545554 0.0485614
0.0432667 0.05662 0.0495604
0.0430669 0.059217399999999996 0.0498601
0.044632 0.0578521 0.0509923
0.044299 0.0578854 0.0513253
0.0431668 0.058285 0.0521911
0.0431335 0.058384899999999997 0.0523909
0.0451315 0.059850099999999996 0.0537895
0.0465967 0.061481799999999996 0.0539227
0.045298 0.061714899999999996 0.0553879
0.0467965 0.0634465 0.0547885
0.0488611 0.0650782 0.0572527
0.0488944 0.0662104 0.0571861
0.048961 0.0664435 0.0577522
0.0481951 0.0674758 0.0578188
0.0482284 0.0671428 0.058418199999999997
0.0490276 0.0687412 0.0573193
0.0500599 0.0706393 0.0565201
0.0494938 0.0727372 0.0581851
0.049627 0.0738361 0.059383899999999996
0.0502264 0.0743023 0.061348599999999996
0.0513586 0.0759673 0.061648299999999996
0.0530236 0.0773659 0.0634798
0.0550549 0.0804628 0.0630802
0.0551881 0.0812953 0.0629137
0.0557542 0.0840259 0.0648451
0.0577522 0.0856909 0.0675424
0.059050899999999996 0.0844921 0.0688411
0.058451499999999997 0.0866899 0.0703063
0.058717899999999996 0.0863902 0.0708724
0.059550399999999996 0.0864235 0.0732367
0.061947999999999996 0.0866566 0.0737695
0.0631801 0.087256 0.0754012
0.0642457 0.0874558 0.0781984
0.0655111 0.0878554 0.0782983
0.065611 0.087256 0.078265
0.0678088 0.0868897 0.0781651
0.0673759 0.0885214 0.0798634
0.0684415 0.0914185 0.0816616
0.0712054 0.0913186 0.0833266
0.0720046 0.0931834 0.0834598
0.0730702 0.095914 0.0837262
0.0758341 0.095914 0.0826606
0.0748351 0.0951814 0.0830602
0.076933 0.0970795 0.0831268
0.0782317 0.0985447 0.0835264
0.0798634 0.0978121 0.0852913
0.0819613 0.1004095 0.0867565
0.0843256 0.09991 0.0887545
0.085258 0.1028071 0.0894871
0.0873892 0.1056043 0.0896203
0.0886879 0.1084015 0.091585
0.0890209 0.1080352 0.0929503
0.0879553 0.108568 0.0949483
0.0865234 0.1110655 0.0968131
0.0880885 0.1112986 0.0977455
0.0890209 0.110566 0.0974791
0.0895204 0.111565 0.0979786
0.090253 0.1136629 0.0973126
0.0923509 0.1153279 0.0982117
0.0925507 0.1150615 0.0992107
0.0942823 0.1164934 0.1007092
0.0948484 0.1158607 0.1022743
0.0960139 0.1159606 0.1033066
0.0971794 0.1154278 0.1017415
0.0996769 0.1180918 0.1023076
0.1015417 0.1176589 0.1043722
0.1017082 0.1177588 0.1037395
0.1026739 0.1203229 0.1037395
0.1026073 0.1217881 0.1031068
0.102907 0.1228204 0.1033066
0.1028404 0.1244188 0.105571
0.1052713 0.1237861 0.106237
0.1053379 0.124885 0.106237
0.1065034 0.1241524 0.1073692
0.1049383 0.1263169 0.1083016
0.1051381 0.1258174 0.1096336
0.1061371 0.1267831 0.1121644
0.107236 0.12934720000000002 0.1121311
0.1083349 0.13004650000000004 0.112564
0.1096003 0.13111210000000004 0.1131634
0.1096003 0.13021300000000002 0.1154611
0.1083016 0.13197790000000004 0.1180252
0.1078021 0.13287700000000005 0.1201231
0.1086013 0.13191130000000004 0.120223
0.1099999 0.13311010000000004 0.1217881
0.1101331 0.13450870000000004 0.1218547
0.1123309 0.13637350000000004 0.1239859
0.1143955 0.13830490000000004 0.1237861
0.1142956 0.14020300000000005 0.1250515
0.116227 0.14243410000000006 0.1273159
0.1149949 0.14213440000000005 0.1267165
0.11656 0.14329990000000006 0.1279153
0.116227 0.14293360000000005 0.13054600000000002
0.1168597 0.14443210000000006 0.13104550000000004
0.1195903 0.14383270000000006 0.13307680000000005
0.1212886 0.14623030000000006 0.13470850000000006
0.1215883 0.14929390000000006 0.13557430000000006
0.1232533 0.15089230000000006 0.13837150000000006
0.1247851 0.15272380000000008 0.13940380000000008
0.124885 0.15252400000000008 0.14066920000000008
0.1263169 0.1526905000000001 0.14240080000000008
0.1262503 0.1531234000000001 0.14533120000000008
0.12681640000000002 0.1539226000000001 0.1467631000000001
0.1263835 0.15395590000000012 0.1469629000000001
0.12661660000000002 0.15678640000000013 0.1472626000000001
0.12944710000000004 0.15851800000000013 0.14776210000000012
0.12934720000000002 0.15811840000000013 0.14716270000000012
0.12971350000000004 0.15941710000000014 0.14759560000000013
0.13194460000000005 0.15875110000000014 0.14789530000000015
0.13344310000000006 0.15981670000000014 0.14856130000000015
0.13514140000000008 0.16121530000000014 0.14989330000000015
0.13580740000000008 0.16061590000000014 0.14922730000000015
0.13627360000000008 0.16094890000000014 0.15102550000000015
0.1363069000000001 0.16108210000000014 0.15162490000000015
0.1390708000000001 0.16288030000000014 0.15418900000000016
0.13983670000000012 0.16524460000000016 0.15532120000000016
0.14183470000000012 0.16541110000000017 0.15598720000000016
0.14373280000000013 0.16694290000000017 0.15658660000000016
0.14349970000000012 0.16790860000000019 0.15708610000000017
0.14403250000000012 0.17063920000000019 0.15705280000000016
0.14270050000000012 0.16937380000000019 0.15845140000000016
0.1420012000000001 0.16927390000000017 0.15821830000000014
0.14416570000000012 0.17100550000000017 0.15901750000000014
0.14423230000000012 0.17303680000000018 0.15931720000000016
0.14489830000000012 0.17423560000000018 0.15935050000000017
0.14633020000000013 0.1744021000000002 0.15781870000000017
0.14563090000000012 0.1760671000000002 0.15975010000000017
0.14566420000000013 0.17590060000000018 0.16224760000000019
0.14672980000000013 0.1763335000000002 0.16284700000000019
0.14636350000000012 0.1787977000000002 0.16331320000000019
0.14529790000000012 0.1789642000000002 0.16188130000000017
0.14732920000000013 0.17999650000000023 0.16414570000000017
0.14852800000000013 0.18189460000000024 0.16597720000000019
0.14842810000000012 0.18286030000000025 0.16757560000000019
0.14902750000000012 0.18489160000000027 0.1691407000000002
0.14912740000000013 0.18522460000000027 0.1702396000000002
0.14979340000000013 0.18732250000000028 0.17213770000000023
0.15079240000000013 0.18642340000000027 0.17386930000000023
0.15195790000000015 0.18565750000000025 0.17430220000000024
0.15272380000000016 0.18738910000000025 0.17560090000000025
0.15328990000000017 0.18872110000000025 0.17613370000000025
0.15475510000000017 0.18965350000000025 0.17490160000000024
0.15395590000000017 0.19091890000000025 0.17580070000000025
0.15528790000000017 0.19178470000000025 0.17739910000000025
0.1571194000000002 0.19378270000000025 0.17846470000000025
0.1573192000000002 0.19491490000000025 0.18086230000000025
0.1582849000000002 0.19388260000000024 0.18112870000000025
0.15858460000000021 0.19464850000000025 0.18129520000000027
0.15945040000000021 0.19564750000000025 0.18349300000000027
0.16038280000000021 0.19628020000000027 0.18572410000000028
0.16131520000000021 0.19817830000000028 0.18752230000000028
0.1635796000000002 0.2000098000000003 0.18958690000000028
0.1634464000000002 0.2001430000000003 0.19078570000000028
0.1642456000000002 0.1996102000000003 0.18948700000000027
0.1633132000000002 0.2016748000000003 0.18985330000000028
0.1626472000000002 0.2016082000000003 0.1915516000000003
0.16434550000000023 0.20097550000000028 0.1915849000000003
0.16451200000000024 0.2024074000000003 0.1916515000000003
0.16657660000000024 0.2027404000000003 0.19241740000000032
0.16694290000000025 0.2051047000000003 0.19295020000000032
0.16631020000000024 0.2061703000000003 0.19181800000000032
0.16611040000000024 0.2068363000000003 0.19261720000000032
0.16900750000000025 0.20686960000000032 0.19321660000000032
0.17133850000000025 0.2067697000000003 0.19334980000000032
0.17050600000000024 0.2058373000000003 0.19504810000000034
0.17167150000000025 0.20607040000000032 0.19488160000000032
0.17217100000000027 0.20643670000000033 0.19421560000000032
0.17260390000000028 0.20760220000000035 0.19444870000000034
0.17307010000000028 0.20710270000000033 0.19697950000000033
0.17333650000000028 0.20673640000000032 0.19827820000000035
0.1739026000000003 0.20706940000000032 0.19911070000000036
0.1750348000000003 0.20607040000000032 0.20034280000000038
0.17413570000000028 0.20600380000000032 0.2023741000000004
0.1743022000000003 0.20816830000000033 0.2036062000000004
0.1762669000000003 0.20860120000000035 0.2032066000000004
0.17676640000000032 0.20900080000000035 0.20503810000000042
0.17956360000000032 0.20883430000000033 0.20503810000000042
0.17983000000000032 0.20816830000000033 0.20533780000000043
0.18042940000000032 0.20750230000000033 0.20527120000000043
0.1797301000000003 0.20780200000000035 0.20580400000000043
0.1792639000000003 0.20666980000000035 0.20620360000000043
0.18102880000000032 0.20843470000000036 0.20816830000000044
0.18282700000000032 0.20770210000000036 0.20766880000000043
0.1821277000000003 0.20730250000000036 0.20716930000000042
0.18276040000000032 0.20703610000000036 0.20890090000000042
0.18335980000000032 0.20906740000000038 0.21043270000000042
0.18609040000000032 0.2104993000000004 0.21126520000000043
0.18762220000000032 0.2113651000000004 0.21273040000000043
0.18708940000000032 0.2127970000000004 0.21416230000000044
0.18805510000000034 0.2126971000000004 0.21735910000000044
0.18905410000000034 0.2125639000000004 0.21792520000000046
0.18982000000000035 0.2117647000000004 0.21859120000000046
0.18995320000000035 0.2128303000000004 0.21842470000000044
0.19208440000000035 0.21186460000000037 0.21862450000000044
0.19275040000000035 0.21153160000000037 0.22022290000000044
0.19431550000000036 0.2125639000000004 0.22062250000000044
0.19654660000000038 0.21246400000000037 0.22102210000000044
0.1966465000000004 0.2148283000000004 0.22308670000000044
0.1993105000000004 0.2140291000000004 0.22461850000000044
0.1998433000000004 0.2141290000000004 0.22435210000000044
0.2003428000000004 0.2151280000000004 0.22621690000000044
0.20197450000000042 0.2139958000000004 0.22708270000000044
0.20330650000000042 0.2133298000000004 0.22768210000000044
0.2030734000000004 0.2135296000000004 0.22635010000000044
0.2027404000000004 0.21522790000000042 0.22615030000000044
0.20343970000000042 0.21739240000000043 0.22575070000000044
0.20623690000000042 0.22048930000000044 0.22515130000000044
0.20753560000000043 0.22212100000000046 0.22664980000000046
0.21006640000000043 0.22431880000000046 0.22638340000000046
0.21226420000000043 0.22451860000000046 0.22678300000000046
0.21209770000000042 0.22441870000000044 0.22688290000000047
0.21223090000000042 0.22421890000000044 0.22748230000000047
0.2116648000000004 0.22465180000000046 0.22881430000000047
0.2135962000000004 0.22481830000000047 0.22908070000000047
0.2129968000000004 0.22615030000000047 0.22801510000000047
0.21496150000000042 0.22784860000000048 0.22658320000000046
0.21552760000000043 0.22811500000000048 0.22824820000000046
0.21429550000000042 0.22741570000000047 0.22811500000000046
0.21665980000000043 0.22878100000000048 0.22824820000000046
0.21889090000000044 0.23037940000000048 0.22808170000000044
0.21955690000000044 0.2304127000000005 0.22645000000000043
0.21949030000000044 0.2293471000000005 0.22771540000000043
0.22122190000000044 0.2284147000000005 0.22828150000000044
0.22182130000000044 0.2305792000000005 0.23007970000000044
0.22065580000000043 0.2326438000000005 0.23081230000000044
0.22182130000000044 0.23267710000000053 0.23044600000000043
0.22165480000000043 0.23524120000000054 0.22921390000000041
0.22338640000000043 0.23597380000000054 0.23014630000000041
0.22205440000000043 0.23857120000000054 0.22954690000000041
0.22411900000000043 0.23970340000000054 0.22908070000000041
0.22375270000000042 0.24053590000000055 0.23047930000000041
0.22381930000000042 0.23950360000000054 0.23257720000000043
0.2233198000000004 0.23963680000000054 0.23427550000000044
0.2222209000000004 0.23910400000000054 0.23434210000000044
0.2236528000000004 0.24106870000000055 0.23384260000000043
0.22535110000000041 0.24223420000000057 0.23380930000000041
0.22778200000000043 0.24399910000000058 0.23590720000000043
0.22904740000000043 0.24439870000000058 0.23604040000000043
0.23057920000000043 0.24416560000000057 0.23640670000000044
0.23054590000000041 0.24483160000000057 0.23827150000000044
0.23281030000000041 0.24529780000000057 0.23993650000000044
0.2327104000000004 0.24569740000000057 0.24173470000000044
0.2341756000000004 0.24679630000000058 0.24196780000000045
0.2359072000000004 0.2476954000000006 0.24156820000000045
0.2360404000000004 0.2475622000000006 0.24326650000000047
0.2370394000000004 0.2475622000000006 0.24619690000000047
0.2383714000000004 0.24719590000000058 0.24539770000000047
0.2391706000000004 0.2485612000000006 0.24486490000000047
0.2408356000000004 0.2510587000000006 0.24606370000000047
0.2412685000000004 0.2513917000000006 0.24556420000000045
0.2433331000000004 0.2529901000000006 0.24692950000000047
0.24469840000000043 0.25478830000000063 0.24809500000000048
0.24709600000000043 0.25552090000000066 0.2510920000000005
0.2462635000000004 0.25565410000000066 0.2526904000000005
0.2457973000000004 0.2583514000000007 0.2528569000000005
0.2475289000000004 0.25858450000000066 0.2559538000000005
0.2472292000000004 0.26121520000000065 0.2559871000000005
0.2476288000000004 0.2628802000000007 0.2552878000000005
0.2481283000000004 0.2642788000000007 0.2576854000000005
0.24856120000000043 0.2654443000000007 0.2592505000000005
0.2505259000000004 0.2666431000000007 0.2621476000000005
0.2504593000000004 0.2688076000000007 0.2632132000000005
0.2522575000000004 0.2692072000000007 0.2657440000000005
0.2512585000000004 0.2698399000000007 0.2671426000000005
0.2518246000000004 0.2687743000000007 0.2665432000000005
0.2535895000000004 0.2698732000000007 0.2676754000000005
0.2523574000000004 0.27087220000000073 0.2692405000000005
0.2536228000000004 0.27250390000000074 0.2707390000000005
0.25618690000000044 0.27380260000000073 0.2712718000000005
0.25565410000000044 0.27526780000000073 0.2720377000000005
0.2561536000000004 0.27663310000000074 0.2736694000000005
0.2578852000000004 0.27806500000000073 0.2752345000000005
0.2596168000000004 0.28039600000000076 0.2770993000000005
0.2606824000000004 0.28169470000000074 0.2764000000000005
0.26218090000000044 0.28169470000000074 0.2775322000000005
0.26204770000000044 0.28362610000000077 0.2786311000000005
0.26234740000000045 0.2859571000000008 0.28106200000000053
0.26404570000000044 0.2867230000000008 0.28126180000000056
0.2648116000000004 0.28655650000000077 0.2816947000000006
0.2632798000000004 0.2888542000000008 0.28206100000000056
0.2630467000000004 0.2891206000000008 0.2820943000000006
0.2651446000000004 0.2894536000000008 0.2818279000000006
0.2669428000000004 0.2903860000000008 0.28219420000000056
0.2663434000000004 0.2916181000000008 0.2825272000000006
0.2689408000000004 0.2933164000000008 0.2853577000000006
0.2698732000000004 0.2952811000000008 0.2881882000000006
0.2701063000000004 0.2956474000000008 0.2877886000000006
0.2717047000000004 0.29654650000000077 0.28968670000000063
0.27257050000000044 0.2989774000000008 0.28981990000000063
0.27363610000000044 0.29851120000000075 0.29041930000000066
0.27656650000000044 0.29917720000000075 0.28965340000000067
0.2759671000000004 0.29917720000000075 0.2899531000000007
0.2751346000000004 0.29814490000000077 0.2910187000000007
0.2763667000000004 0.29767870000000074 0.2930500000000007
0.2773324000000004 0.2999098000000007 0.2927836000000007
0.27833140000000045 0.30114190000000074 0.2933164000000007
0.27982990000000046 0.3001762000000007 0.2929501000000007
0.28086220000000045 0.29994310000000074 0.2957473000000007
0.28286020000000045 0.30227410000000077 0.2967796000000007
0.28469170000000044 0.3024406000000008 0.2996101000000007
0.28622350000000046 0.3043720000000008 0.2990107000000007
0.28662310000000046 0.3042388000000008 0.2991772000000007
0.28875430000000046 0.3034396000000008 0.2992105000000007
0.28855450000000044 0.3061369000000008 0.3017746000000007
0.29015290000000044 0.30713590000000085 0.30357280000000075
0.29208430000000046 0.3085345000000009 0.30220750000000074
0.29258380000000045 0.3079018000000009 0.30367270000000074
0.2921176000000004 0.3067030000000009 0.30620350000000074
0.2951812000000004 0.3081349000000009 0.30720250000000077
0.29631340000000045 0.3095335000000009 0.30810160000000075
0.29901070000000046 0.3099331000000009 0.30863440000000075
0.29951020000000045 0.3104992000000009 0.30933370000000077
0.30087550000000046 0.3120643000000009 0.3111319000000008
0.3002428000000005 0.3110653000000009 0.3116980000000008
0.30154150000000046 0.31129840000000086 0.3132631000000008
0.30327310000000046 0.31366270000000085 0.3146950000000008
0.30257380000000045 0.31562740000000084 0.31626010000000077
0.30177460000000045 0.3186577000000008 0.31539430000000074
0.30363940000000045 0.3202228000000008 0.3162934000000007
0.30523780000000045 0.32215420000000083 0.3174589000000007
0.30527110000000046 0.32348620000000083 0.31872430000000074
0.30487150000000046 0.3231865000000008 0.31998970000000077
0.30656980000000045 0.32365270000000085 0.3205558000000008
0.30643660000000045 0.32605030000000085 0.3209887000000008
0.30706930000000043 0.3261169000000009 0.3226204000000008
0.30966670000000046 0.3277153000000009 0.3231199000000008
0.3123973000000005 0.3288142000000009 0.3245851000000008
0.3123640000000005 0.3294469000000009 0.32371930000000076
0.3133297000000005 0.33021280000000086 0.32262040000000075
0.3143620000000005 0.33071230000000085 0.32478490000000076
0.3145618000000005 0.33087880000000086 0.3245518000000008
0.31529440000000053 0.33124510000000085 0.3248848000000008
0.3155275000000005 0.3334429000000009 0.3278152000000008
0.3160270000000005 0.3343753000000009 0.3275488000000008
0.3167263000000005 0.3375721000000009 0.3291805000000008
0.31849120000000053 0.3379717000000009 0.33004630000000085
0.3200563000000005 0.3398698000000009 0.33164470000000085
0.32088880000000053 0.3425671000000009 0.33204430000000085
0.32228740000000056 0.3446650000000009 0.3325105000000009
0.32138830000000057 0.3452977000000009 0.3334429000000009
0.32028940000000056 0.3461302000000009 0.33527440000000086
0.32252050000000054 0.3468295000000009 0.3357073000000009
0.32415220000000056 0.3476287000000009 0.33487480000000086
0.32605030000000057 0.3481282000000009 0.3361069000000009
0.3279817000000006 0.3481948000000009 0.3368395000000009
0.3302128000000006 0.3473623000000009 0.33850450000000093
0.3300796000000006 0.3488275000000009 0.33853780000000094
0.32871430000000057 0.3509587000000009 0.33913720000000097
0.32814820000000056 0.3537892000000009 0.339303700000001
0.33091210000000054 0.3560536000000009 0.34033600000000097
0.3299131000000005 0.3561868000000009 0.34163470000000096
0.33104530000000054 0.3585511000000009 0.34220080000000097
0.33107860000000056 0.3613816000000009 0.34486480000000097
0.33257710000000057 0.3608155000000009 0.34669630000000096
0.3326437000000006 0.3601495000000009 0.34826140000000094
0.3347749000000006 0.3615481000000009 0.34916050000000093
0.3358072000000006 0.36064900000000094 0.34959340000000094
0.3389041000000006 0.36028270000000095 0.35019280000000097
0.3392371000000006 0.36071560000000097 0.351458200000001
0.34023610000000065 0.36138160000000097 0.351524800000001
0.33970330000000065 0.362746900000001 0.350459200000001
0.34080220000000067 0.36337960000000097 0.349893100000001
0.3412351000000007 0.36294670000000095 0.350159500000001
0.3425005000000007 0.36537760000000097 0.350525800000001
0.34456510000000073 0.363945700000001 0.351491500000001
0.34623010000000076 0.364212100000001 0.353889100000001
0.3474622000000008 0.365810500000001 0.353689300000001
0.3493603000000008 0.366343300000001 0.35512120000000097
0.3500263000000008 0.366210100000001 0.35671960000000097
0.3527236000000008 0.365277700000001 0.357552100000001
0.3551212000000008 0.366110200000001 0.358517800000001
0.3564532000000008 0.368074900000001 0.358651000000001
0.3567529000000008 0.369573400000001 0.359516800000001
0.35878420000000083 0.372137500000001 0.36118180000000105
0.35865100000000083 0.374135500000001 0.36254710000000107
0.35898400000000086 0.374002300000001 0.3631465000000011
0.35835130000000087 0.374135500000001 0.3637126000000011
0.35875090000000087 0.375201100000001 0.3637126000000011
0.36138160000000086 0.376366600000001 0.3664765000000011
0.3614482000000009 0.377299000000001 0.3671425000000011
0.3626470000000009 0.37669960000000097 0.3682414000000011
0.3630799000000009 0.37603360000000097 0.36937360000000113
0.3645451000000009 0.376899400000001 0.37043920000000113
0.3668095000000009 0.377265700000001 0.37193770000000115
0.3679084000000009 0.378997300000001 0.37277020000000116
0.36970660000000094 0.382094200000001 0.37566730000000115
0.36997300000000094 0.381328300000001 0.37620010000000115
0.3722041000000009 0.383592700000001 0.37739890000000115
0.3720709000000009 0.383459500000001 0.37819810000000115
0.3728368000000009 0.382826800000001 0.37929700000000116
0.37383580000000094 0.38232730000000104 0.37909720000000113
0.37630000000000097 0.38419210000000104 0.3809287000000011
0.37573390000000095 0.38592370000000104 0.38136160000000113
0.37616680000000097 0.38499130000000104 0.38405890000000115
0.376066900000001 0.383725900000001 0.38515780000000116
0.375301000000001 0.384958000000001 0.38499130000000115
0.377831800000001 0.384625000000001 0.38722240000000113
0.377798500000001 0.386722900000001 0.38788840000000113
0.37936360000000097 0.386789500000001 0.3897199000000011
0.379430200000001 0.386589700000001 0.3918511000000011
0.381494800000001 0.387155800000001 0.39215080000000113
0.38325970000000104 0.386623000000001 0.39388240000000113
0.38485810000000104 0.387888400000001 0.39538090000000115
0.38675620000000105 0.38978650000000103 0.3945151000000011
0.38622340000000105 0.389353600000001 0.39631330000000115
0.38662300000000105 0.39031930000000103 0.3974455000000012
0.3876220000000011 0.389753200000001 0.3996100000000012
0.3880882000000011 0.391584700000001 0.4003093000000012
0.3882214000000011 0.394282000000001 0.3996433000000012
0.3903859000000011 0.39364930000000103 0.40024270000000123
0.39081880000000113 0.39621340000000105 0.40137490000000126
0.39161800000000113 0.39861100000000105 0.40310650000000126
0.39081880000000113 0.39997630000000106 0.40513780000000127
0.3903859000000011 0.4000096000000011 0.40550410000000126
0.3899197000000011 0.40117510000000106 0.40430530000000126
0.3914182000000011 0.4013749000000011 0.4054375000000013
0.3912850000000011 0.4032730000000011 0.4071025000000013
0.39228400000000113 0.4031731000000011 0.40930030000000134
0.39378250000000115 0.4046050000000011 0.40840120000000135
0.39348280000000113 0.4038058000000011 0.41043250000000137
0.39391570000000115 0.40413880000000113 0.40930030000000134
0.3945151000000012 0.40457170000000114 0.4088341000000013
0.39394900000000116 0.40537090000000114 0.4113982000000013
0.39431530000000115 0.40513780000000116 0.4125637000000013
0.39694600000000113 0.40793500000000116 0.4143286000000013
0.39807820000000116 0.41006620000000116 0.41556070000000134
0.39857770000000114 0.41099860000000116 0.41709250000000136
0.39781180000000116 0.41123170000000114 0.41635990000000134
0.3986776000000012 0.41189770000000114 0.41915710000000134
0.3991105000000012 0.4111651000000011 0.41922370000000136
0.3998098000000012 0.4123639000000011 0.42025600000000135
0.3993769000000012 0.4135294000000011 0.42065560000000135
0.3984445000000012 0.4130632000000011 0.42288670000000134
0.3996766000000012 0.4141621000000011 0.42315310000000134
0.4016746000000012 0.4145950000000011 0.4259170000000013
0.4011418000000012 0.4158271000000011 0.42674950000000134
0.4020409000000012 0.4161934000000011 0.42758200000000135
0.4011751000000012 0.4181914000000011 0.42908050000000136
0.40397230000000117 0.42012280000000113 0.43064560000000135
0.4044385000000012 0.42082210000000114 0.43061230000000134
0.4057705000000012 0.42118840000000113 0.43101190000000134
0.4061701000000012 0.42092200000000113 0.43117840000000135
0.4077019000000012 0.42112180000000116 0.43041250000000136
0.4087342000000012 0.42182110000000117 0.4306123000000014
0.4086676000000012 0.42395230000000117 0.4311118000000014
0.4101994000000012 0.4244185000000012 0.4315780000000014
0.4127635000000012 0.4265164000000012 0.4327768000000014
0.4118977000000012 0.4264165000000012 0.4317445000000014
0.4107322000000012 0.42608350000000117 0.4330432000000014
0.4098664000000012 0.42658300000000116 0.4348081000000014
0.4091005000000012 0.42601690000000114 0.43740550000000145
0.4081681000000012 0.42615010000000114 0.43740550000000145
0.4109320000000012 0.42621670000000117 0.43927030000000145
0.4132630000000012 0.42551740000000116 0.43900390000000145
0.4151611000000012 0.42831460000000116 0.43897060000000143
0.41695930000000125 0.4287808000000012 0.43990300000000143
0.4179583000000013 0.4296133000000012 0.44060230000000145
0.4193236000000013 0.4313449000000012 0.44316640000000146
0.4208221000000013 0.4330099000000012 0.4434994000000015
0.4225870000000013 0.4327102000000012 0.4429999000000015
0.42318640000000135 0.4324438000000012 0.4427335000000015
0.42535090000000136 0.43370920000000124 0.4453642000000015
0.42441850000000136 0.43624000000000124 0.4451977000000015
0.42465160000000135 0.43683940000000127 0.4462966000000015
0.42678280000000135 0.4366063000000013 0.4486609000000015
0.42704920000000135 0.4372057000000013 0.44809480000000146
0.42575050000000136 0.4378384000000013 0.4493602000000015
0.42555070000000134 0.4383046000000013 0.4496932000000015
0.4253509000000013 0.43966990000000133 0.44959330000000153
0.4243186000000013 0.44210080000000135 0.45042580000000154
0.42381910000000134 0.44253370000000136 0.44936020000000154
0.4229533000000013 0.44253370000000136 0.4486276000000015
0.4250845000000013 0.44263360000000135 0.4477618000000015
0.4244851000000013 0.44379910000000133 0.4485610000000015
0.4247515000000013 0.44343280000000135 0.4495933000000015
0.42684940000000127 0.44519770000000136 0.4517911000000015
0.4273156000000013 0.44559730000000136 0.45119170000000147
0.4283146000000013 0.44662960000000135 0.45225730000000147
0.42888070000000134 0.44609680000000135 0.45315640000000146
0.43007950000000134 0.44692930000000136 0.4542886000000015
0.43121170000000136 0.44746210000000136 0.4552543000000015
0.43134490000000136 0.4485943000000014 0.4566196000000015
0.4335427000000014 0.4507921000000014 0.4556872000000015
0.4336426000000014 0.4510252000000014 0.4554541000000015
0.4355740000000014 0.4509919000000014 0.4569193000000015
0.4357405000000014 0.4517911000000014 0.4570192000000015
0.43660630000000145 0.4538557000000014 0.4593169000000015
0.43793830000000145 0.45335620000000143 0.46151470000000155
0.43830460000000143 0.4523905000000014 0.46281340000000154
0.44036920000000146 0.45405550000000144 0.46474480000000157
0.4415014000000015 0.45538750000000144 0.4653442000000016
0.4416346000000015 0.45738550000000144 0.4654441000000016
0.4418011000000015 0.45681940000000143 0.4653109000000016
0.4428334000000015 0.45641980000000143 0.4655773000000016
0.4423006000000015 0.45565390000000144 0.46860760000000157
0.4451977000000015 0.45605350000000144 0.47110510000000155
0.44449840000000146 0.45728560000000146 0.47017270000000155
0.4453309000000015 0.45685270000000144 0.4711717000000016
0.44529760000000146 0.45562060000000143 0.4729033000000016
0.44473150000000145 0.45595360000000146 0.47380240000000157
0.4455973000000015 0.45575380000000143 0.4755673000000016
0.4456306000000015 0.4561201000000014 0.4766662000000016
0.4451311000000015 0.4553875000000014 0.4766995000000016
0.44692930000000153 0.4570858000000014 0.4787308000000016
0.44919370000000153 0.4567195000000014 0.48079540000000165
0.4498264000000015 0.4586842000000014 0.48372580000000165
0.4507921000000015 0.45931690000000136 0.48429190000000166
0.45122500000000154 0.46118170000000136 0.4844917000000017
0.45045910000000156 0.46314640000000135 0.4855240000000017
0.4527901000000016 0.46501120000000135 0.4874554000000017
0.45259030000000156 0.46517770000000136 0.4864564000000017
0.45435520000000157 0.46660960000000135 0.4867894000000017
0.45645310000000155 0.4672090000000014 0.48978640000000173
0.45698590000000155 0.4672090000000014 0.49131820000000176
0.4598497000000016 0.46581040000000135 0.4942819000000018
0.4610485000000016 0.46594360000000135 0.4938823000000018
0.4633462000000016 0.46724230000000133 0.4948813000000018
0.4637458000000016 0.46937350000000133 0.4946482000000018
0.4651777000000016 0.4721374000000013 0.4970458000000018
0.4660102000000016 0.4724038000000013 0.4983778000000018
0.4676752000000016 0.4722373000000013 0.4986109000000018
0.4689739000000016 0.4740688000000013 0.4982446000000018
0.4687741000000016 0.4754674000000013 0.4999762000000018
0.46857430000000155 0.4770325000000013 0.4991437000000018
0.47027260000000154 0.47909710000000133 0.4984777000000018
0.47150470000000155 0.48099520000000134 0.4991104000000018
0.47470150000000155 0.48152800000000134 0.4996432000000018
0.4758337000000016 0.48315970000000136 0.4992436000000018
0.4762666000000016 0.48262690000000136 0.5004424000000018
0.4770658000000016 0.48209410000000136 0.5032063000000019
0.4760335000000016 0.48276010000000136 0.5060035000000019
0.4760335000000016 0.48222730000000136 0.507435400000002
0.4779982000000016 0.48292660000000137 0.5097331000000019
0.4811284000000016 0.4852243000000014 0.5117977000000019
0.48239380000000165 0.4861900000000014 0.5119642000000019
0.48345940000000165 0.4855573000000014 0.5128300000000019
0.48355930000000164 0.4868560000000014 0.5122639000000019
0.4829932000000016 0.48652300000000137 0.5125636000000019
0.4821940000000016 0.4877551000000014 0.5139622000000019
0.4835260000000016 0.4898197000000014 0.5153275000000019
0.48515770000000163 0.4889539000000014 0.516160000000002
0.48549070000000166 0.48932020000000137 0.517825000000002
0.4874221000000017 0.48958660000000137 0.519623200000002
0.4877884000000017 0.4917511000000014 0.521488000000002
0.4879549000000017 0.4942819000000014 0.522387100000002
0.4884211000000017 0.4969459000000014 0.522520300000002
0.4901527000000017 0.4987441000000014 0.5242186000000021
0.4898197000000017 0.4987774000000014 0.5232196000000021
0.4903858000000017 0.5004424000000014 0.5240521000000021
0.4905523000000017 0.5017744000000014 0.5237191000000021
0.4895533000000017 0.5008753000000014 0.5236858000000021
0.4917178000000017 0.5012416000000014 0.5231197000000021
0.4935493000000017 0.5027734000000014 0.524618200000002
0.4954141000000017 0.5034727000000013 0.5265496000000021
0.4957138000000017 0.5046049000000014 0.5281813000000021
0.4967461000000017 0.5062699000000014 0.530745400000002
0.49614670000000166 0.5073355000000014 0.531577900000002
0.49548070000000166 0.5084011000000014 0.531478000000002
0.49641310000000166 0.5075020000000013 0.530112700000002
0.4980781000000017 0.5085010000000013 0.530578900000002
0.4977118000000017 0.5096665000000014 0.529813000000002
0.49777840000000173 0.5112982000000014 0.531910900000002
0.5001760000000017 0.5124304000000014 0.532177300000002
0.5024737000000017 0.5141287000000014 0.5328766000000019
0.5038057000000017 0.5156938000000014 0.5325769000000019
0.5050045000000017 0.5164597000000014 0.5333761000000019
0.5072689000000018 0.5166262000000014 0.5324770000000019
0.5077018000000018 0.5183578000000014 0.5320441000000019
0.5105989000000017 0.5184244000000015 0.531877600000002
0.5095000000000017 0.5190571000000015 0.533575900000002
0.5096665000000017 0.5176585000000015 0.535440700000002
0.5124970000000016 0.5172589000000014 0.535707100000002
0.5120641000000017 0.5177251000000014 0.536639500000002
0.5124970000000016 0.5179915000000014 0.5378050000000021
0.5144950000000017 0.5179915000000014 0.5399362000000021
0.5149612000000017 0.5190571000000014 0.5414680000000021
0.5171257000000017 0.5188906000000014 0.5435992000000021
0.5192569000000017 0.5208886000000015 0.5444983000000021
0.5184910000000017 0.5228533000000015 0.5455639000000021
0.5182579000000017 0.5221873000000015 0.5469625000000021
0.5190238000000017 0.5248513000000015 0.5466628000000021
0.5196565000000017 0.5264497000000015 0.5484943000000021
0.5219542000000017 0.5257837000000014 0.5490271000000021
0.5223871000000017 0.5269825000000015 0.5497930000000021
0.5229865000000017 0.5260834000000014 0.5502592000000021
0.5225203000000017 0.5246848000000014 0.5516245000000021
0.5242519000000018 0.5244517000000014 0.5522239000000021
0.5259169000000018 0.5247514000000014 0.5535226000000021
0.5248846000000018 0.5261833000000015 0.5548546000000021
0.5257504000000018 0.5257171000000015 0.5551543000000021
0.5258170000000019 0.5252509000000015 0.555021100000002
0.5256505000000019 0.5274154000000015 0.5577184000000021
0.5260834000000019 0.5267161000000016 0.5567527000000021
0.5267494000000019 0.5285809000000016 0.5559202000000021
0.5291137000000019 0.5301793000000016 0.5559535000000021
0.5291470000000019 0.5313448000000016 0.5579515000000022
0.530545600000002 0.5320108000000017 0.5572522000000022
0.5307121000000019 0.5340754000000016 0.5580181000000022
0.5301793000000019 0.5348746000000016 0.5579515000000022
0.5288473000000019 0.5342086000000016 0.5596165000000022
0.5287474000000019 0.5370391000000015 0.5596831000000022
0.5302459000000018 0.5396698000000015 0.5611483000000023
0.5310118000000018 0.5410018000000015 0.5628466000000023
0.5331763000000018 0.5423005000000015 0.5644783000000023
0.5341087000000019 0.5435659000000015 0.5667427000000024
0.5329432000000018 0.5442319000000015 0.5684077000000024
0.5340088000000018 0.5466628000000016 0.5686408000000024
0.5368060000000019 0.5463631000000015 0.5702725000000024
0.5365396000000019 0.5469958000000016 0.5704390000000024
0.5376385000000019 0.5476951000000015 0.5707387000000024
0.5387707000000019 0.5507920000000015 0.5707387000000024
0.5386375000000019 0.5528233000000015 0.5726701000000024
0.5399029000000019 0.5515579000000015 0.5739688000000024
0.5399362000000019 0.5520907000000015 0.5744017000000023
0.5390704000000018 0.5520241000000015 0.5747347000000024
0.5408353000000018 0.5517910000000015 0.5751343000000024
0.5411350000000018 0.5535559000000014 0.5754340000000024
0.5426002000000019 0.5562865000000015 0.5767327000000024
0.5419009000000019 0.5567860000000014 0.5774320000000024
0.5417011000000019 0.5583178000000014 0.5791303000000024
0.542367100000002 0.5578516000000014 0.5798629000000024
0.545064400000002 0.5581180000000014 0.5799628000000024
0.546962500000002 0.5585176000000015 0.5800960000000025
0.545797000000002 0.5585509000000015 0.5809951000000025
0.548128000000002 0.5579182000000015 0.5811616000000025
0.5496598000000019 0.5580514000000015 0.5802958000000025
0.550026100000002 0.5579515000000015 0.5805622000000025
0.551724400000002 0.5577517000000015 0.5801959000000024
0.553955500000002 0.5587840000000015 0.5817943000000024
0.556819300000002 0.5603824000000015 0.5840587000000025
0.556752700000002 0.5607820000000016 0.5858236000000024
0.557252200000002 0.5605822000000016 0.5890204000000024
0.557252200000002 0.5622805000000016 0.5901526000000025
0.558517600000002 0.5641453000000016 0.5921506000000025
0.559450000000002 0.5641453000000016 0.5925502000000026
0.560415700000002 0.5651110000000016 0.5955139000000026
0.562147300000002 0.5662099000000016 0.5941486000000026
0.561681100000002 0.5674420000000016 0.5959468000000026
0.5636458000000021 0.5686075000000016 0.5974120000000026
0.563246200000002 0.5695399000000017 0.6001426000000026
0.565377400000002 0.5689405000000016 0.6031396000000027
0.567541900000002 0.5718709000000016 0.6048379000000027
0.5670424000000021 0.5712382000000016 0.6059701000000027
0.5678416000000021 0.5711383000000015 0.6076018000000027
0.568807300000002 0.5732362000000015 0.6078349000000027
0.571371400000002 0.5755339000000015 0.6089005000000027
0.572203900000002 0.5774986000000015 0.6118975000000028
0.574534900000002 0.5791303000000015 0.6124303000000028
0.573269500000002 0.5813947000000016 0.6132295000000028
0.575533900000002 0.5815945000000016 0.6143617000000028
0.577332100000002 0.5830264000000016 0.6139288000000028
0.576199900000002 0.5840254000000016 0.6144283000000028
0.575334100000002 0.5844250000000016 0.6145615000000029
0.5752342000000019 0.5839921000000017 0.6161932000000029
0.5770324000000019 0.5850910000000017 0.6177250000000029
0.5798629000000018 0.5856904000000017 0.6198229000000028
0.5798629000000018 0.5850577000000017 0.6204556000000029
0.5821606000000018 0.5863897000000017 0.6233194000000029
0.5821273000000018 0.5857570000000016 0.6253507000000028
0.5832595000000018 0.5876218000000016 0.6257170000000029
0.5823271000000018 0.5903857000000017 0.6266494000000029
0.5820274000000017 0.5899528000000017 0.6264163000000029
0.5831263000000018 0.5883544000000017 0.626549500000003
0.5822272000000017 0.5881879000000018 0.627748300000003
0.5840254000000017 0.5878216000000017 0.626949100000003
0.5831263000000017 0.5892535000000018 0.625750300000003
0.5854906000000016 0.5906854000000018 0.626149900000003
0.5871223000000017 0.5919175000000018 0.625883500000003
0.5895865000000017 0.5908519000000018 0.626083300000003
0.5917843000000017 0.5919841000000018 0.6262165000000031
0.5917843000000017 0.5934826000000017 0.6276484000000031
0.5933494000000017 0.5939488000000017 0.6287806000000031
0.5950144000000017 0.5949811000000017 0.6313447000000031
0.5968459000000017 0.5954473000000017 0.634175200000003
0.5979781000000017 0.5940820000000017 0.636273100000003
0.5998096000000017 0.5960467000000017 0.638837200000003
0.6003757000000017 0.5979781000000017 0.638237800000003
0.6022738000000017 0.5995765000000017 0.639070300000003
0.6021406000000017 0.6004423000000018 0.640369000000003
0.6027400000000017 0.5998762000000017 0.640901800000003
0.6042718000000017 0.6008086000000018 0.6421672000000029
0.6063364000000017 0.6003091000000018 0.6421339000000029
0.6090004000000017 0.5998096000000018 0.6434992000000029
0.6102991000000016 0.5990437000000018 0.6455971000000029
0.6116644000000017 0.5987107000000018 0.6460300000000029
0.6109318000000017 0.5998429000000018 0.6455305000000029
0.6117976000000017 0.6007087000000019 0.6452974000000029
0.6115645000000017 0.6031396000000019 0.6467959000000029
0.6111982000000017 0.6035392000000019 0.6475285000000028
0.6107653000000017 0.604171900000002 0.6498595000000028
0.6127966000000017 0.605304100000002 0.6515911000000029
0.6148945000000017 0.607235500000002 0.6532561000000029
0.6166594000000016 0.607801600000002 0.6536890000000029
0.6166261000000016 0.6099661000000021 0.6543883000000028
0.6180580000000017 0.6110983000000021 0.6568192000000028
0.6184243000000017 0.610732000000002 0.6563530000000029
0.6183910000000017 0.610965100000002 0.6561199000000029
0.6200560000000017 0.610898500000002 0.6550210000000029
0.6218209000000017 0.6112981000000021 0.6555871000000029
0.6221206000000017 0.6129298000000021 0.6576850000000029
0.6231196000000017 0.613895500000002 0.6571855000000029
0.6239854000000017 0.6142285000000021 0.6562864000000028
0.6236524000000017 0.6156604000000021 0.6567193000000028
0.6235858000000016 0.6143617000000021 0.6590170000000027
0.6245515000000016 0.6167260000000021 0.6602158000000028
0.6253174000000016 0.6166594000000021 0.6621472000000028
0.6280147000000016 0.617658400000002 0.6623137000000028
0.6287140000000015 0.618957100000002 0.6647446000000028
0.6292468000000015 0.6204223000000021 0.6655771000000028
0.6292468000000015 0.6227866000000021 0.6648778000000028
0.6287473000000016 0.6228199000000021 0.6650110000000029
0.6283810000000015 0.6231196000000021 0.6643450000000028
0.6314446000000016 0.6248179000000021 0.6628798000000028
0.6328099000000016 0.6260500000000021 0.6641785000000028
0.6352075000000016 0.6268492000000021 0.6657103000000028
0.6375385000000016 0.626449600000002 0.6660433000000028
0.6372721000000016 0.626050000000002 0.6669091000000028
0.6393367000000015 0.625517200000002 0.6668425000000028
0.6391036000000015 0.626949100000002 0.6700726000000028
0.6395032000000016 0.628980400000002 0.6708718000000028
0.6401026000000016 0.627948100000002 0.6712714000000028
0.6430330000000016 0.627615100000002 0.6726700000000029
0.6440986000000016 0.627015700000002 0.6726367000000029
0.6445315000000016 0.627315400000002 0.6744682000000028
0.6438988000000015 0.629679700000002 0.6740686000000028
0.6438655000000015 0.628913800000002 0.6744682000000028
0.6441652000000015 0.6288472000000019 0.6736024000000028
0.6440653000000015 0.6296464000000019 0.6737689000000028
0.6455638000000015 0.630512200000002 0.6742018000000027
0.6456304000000015 0.6323104000000019 0.6757669000000027
0.6474286000000015 0.632443600000002 0.6769657000000028
0.6469957000000015 0.634008700000002 0.6762331000000028
0.6474286000000015 0.633709000000002 0.6766327000000029
0.6500260000000014 0.636339700000002 0.6778981000000028
0.6500926000000015 0.6368059000000019 0.6785974000000028
0.6491269000000015 0.6366727000000019 0.6811615000000028
0.6491935000000015 0.6368392000000018 0.6829597000000027
0.6494266000000015 0.6376717000000018 0.6821605000000027
0.6509584000000015 0.6379381000000018 0.6826267000000027
0.6514579000000015 0.6390370000000019 0.6844915000000027
0.6522238000000015 0.6384709000000018 0.6842917000000027
0.6531229000000015 0.6394366000000018 0.6847246000000027
0.6529897000000014 0.6397030000000018 0.6852907000000027
0.6541552000000015 0.6400360000000018 0.6841918000000027
0.6554872000000015 0.6415345000000018 0.6871555000000027
0.6562864000000015 0.6436990000000018 0.6884875000000027
0.6583510000000015 0.6442984000000018 0.6888538000000027
0.6613147000000015 0.6449311000000019 0.6911182000000028
0.6613147000000015 0.6460966000000019 0.6914179000000028
0.6600826000000015 0.6455638000000019 0.6923170000000028
0.6597496000000015 0.6447313000000019 0.6911848000000028
0.6601825000000014 0.646462900000002 0.6924835000000028
0.6622138000000014 0.647894800000002 0.6937489000000028
0.6622804000000014 0.649992700000002 0.6948478000000028
0.6634792000000015 0.651025000000002 0.6970789000000028
0.6632128000000015 0.652756600000002 0.6988105000000029
0.6636457000000014 0.654921100000002 0.7008418000000028
0.6644116000000014 0.6560533000000021 0.7023736000000028
0.6640786000000014 0.657851500000002 0.7052707000000028
0.6646780000000014 0.6592834000000021 0.7044715000000028
0.6655771000000015 0.660515500000002 0.7045381000000028
0.6664762000000015 0.661214800000002 0.7048378000000028
0.6677083000000015 0.663346000000002 0.7058368000000028
0.6692401000000014 0.664511500000002 0.7072021000000028
0.6711382000000015 0.6654439000000021 0.7082344000000028
0.6700060000000014 0.6658102000000021 0.7088338000000028
0.6716377000000014 0.6667759000000021 0.7093333000000028
0.6708385000000014 0.6671422000000021 0.7103989000000028
0.6723370000000014 0.6671422000000021 0.7100992000000028
0.6744682000000014 0.6677749000000022 0.7108984000000028
0.6760333000000014 0.6701725000000022 0.7131295000000029
0.6756337000000013 0.6705721000000022 0.7123303000000029
0.6753007000000013 0.6719041000000022 0.7127965000000028
0.6770323000000014 0.6727699000000023 0.7142284000000029
0.6778315000000014 0.6739021000000023 0.7156270000000029
0.6781978000000014 0.6742018000000023 0.717092200000003
0.6781312000000014 0.6758668000000023 0.7183243000000029
0.6791302000000013 0.6742351000000023 0.7195897000000029
0.6791635000000014 0.6740353000000023 0.7209217000000029
0.6787306000000014 0.6734692000000023 0.7213879000000029
0.6803290000000014 0.6734692000000023 0.7214545000000029
0.6807952000000014 0.6740020000000023 0.7222870000000029
0.6819274000000014 0.6757669000000023 0.7221871000000029
0.6820273000000014 0.6754672000000023 0.7217209000000029
0.6839920000000015 0.6785641000000022 0.7215877000000028
0.6850909000000015 0.6794299000000023 0.7227865000000029
0.6867892000000015 0.6806620000000022 0.7257169000000029
0.6884875000000016 0.6811615000000022 0.7257835000000029
0.6906853000000016 0.6814612000000022 0.7268158000000029
0.6903190000000016 0.6799960000000022 0.7282144000000029
0.6898195000000016 0.6810949000000022 0.7298461000000029
0.6902857000000016 0.6804622000000021 0.7306453000000029
0.6924169000000016 0.6809617000000021 0.7326766000000029
0.6946480000000016 0.6829264000000022 0.7316776000000029
0.6933493000000016 0.6848245000000022 0.7314445000000029
0.6941485000000016 0.6874219000000021 0.7335424000000029
0.6963796000000017 0.6905521000000021 0.7343749000000029
0.6974119000000016 0.6923170000000021 0.7346413000000029
0.6979114000000016 0.6917509000000021 0.734941000000003
0.6977116000000017 0.693316000000002 0.736672600000003
0.7005421000000016 0.693282700000002 0.738870400000003
0.7005421000000016 0.695114200000002 0.7392700000000031
0.7004089000000016 0.695347300000002 0.738370900000003
0.7004422000000016 0.696945700000002 0.7390369000000031
0.7022737000000016 0.698044600000002 0.7394365000000032
0.7019074000000015 0.698477500000002 0.7401358000000031
0.7035724000000015 0.697645000000002 0.7415344000000031
0.7058368000000016 0.6970789000000019 0.7427998000000031
0.7061365000000016 0.6976117000000019 0.7429996000000031
0.7060033000000016 0.6999760000000019 0.743166100000003
0.7074352000000016 0.700075900000002 0.744964300000003
0.7080679000000016 0.701441200000002 0.743632300000003
0.7071688000000016 0.700342300000002 0.745397200000003
0.7092667000000016 0.700075900000002 0.744831100000003
0.7090669000000016 0.701008300000002 0.745430500000003
0.7105987000000016 0.702007300000002 0.748127800000003
0.7120972000000015 0.702473500000002 0.748327600000003
0.7130629000000015 0.705104200000002 0.7495597000000029
0.7134292000000015 0.704904400000002 0.7513246000000029
0.7164262000000016 0.706303000000002 0.7511581000000029
0.7163263000000015 0.706236400000002 0.751724200000003
0.7170256000000015 0.706236400000002 0.751724200000003
0.7178248000000015 0.708833800000002 0.751024900000003
0.7201225000000014 0.710731900000002 0.751324600000003
0.7216543000000014 0.7119973000000019 0.7514578000000031
0.7216543000000014 0.7124968000000019 0.7528231000000031
0.7220872000000014 0.7141285000000019 0.7538554000000031
0.7248178000000014 0.715826800000002 0.7538554000000031
0.7243849000000014 0.715860100000002 0.754288300000003
0.7235191000000014 0.717458500000002 0.7570855000000031
0.7251841000000014 0.717558400000002 0.7568857000000031
0.7265161000000014 0.7192234000000021 0.7569856000000031
0.7286140000000014 0.720755200000002 0.7571188000000032
0.7276816000000014 0.7208218000000021 0.7570522000000032
0.7277815000000014 0.7227532000000021 0.7587172000000032
0.7298461000000014 0.7221538000000021 0.7577182000000032
0.7306786000000014 0.7228198000000021 0.7585174000000032
0.7320772000000014 0.7221871000000021 0.7598827000000032
0.7324768000000015 0.7220206000000021 0.7590502000000032
0.7316443000000015 0.7233859000000021 0.7600159000000032
0.7317442000000015 0.7242517000000022 0.7591834000000032
0.7338088000000015 0.7258501000000022 0.7582177000000032
0.7350409000000014 0.7265161000000022 0.7596829000000033
0.7349077000000014 0.7266826000000022 0.7619473000000033
0.7365727000000014 0.7283809000000022 0.7624135000000033
0.7380712000000014 0.7290802000000022 0.7628797000000033
0.7379713000000013 0.7294798000000022 0.7620139000000032
0.7396696000000014 0.7301458000000023 0.7616476000000032
0.7407685000000014 0.7313446000000023 0.7624801000000032
0.7398361000000013 0.7326766000000023 0.7611814000000032
0.7406686000000013 0.7331095000000023 0.7633792000000033
0.7431994000000014 0.7354405000000023 0.7638787000000032
0.7459633000000014 0.7342750000000022 0.7666759000000033
0.7456969000000014 0.7355071000000022 0.7667758000000033
0.7457302000000015 0.7346746000000022 0.7685074000000034
0.7458301000000015 0.7331761000000022 0.7681744000000034
0.7473952000000015 0.7334092000000022 0.7678414000000033
0.7486606000000015 0.7347412000000022 0.7682743000000033
0.7487272000000015 0.7374052000000022 0.7708051000000034
0.7502923000000015 0.7373386000000022 0.7720372000000033
0.7495930000000015 0.7368058000000022 0.7730362000000033
0.7504588000000015 0.7384042000000022 0.7746346000000033
0.7508251000000016 0.7378714000000022 0.7737022000000032
0.7504255000000015 0.7395364000000022 0.7753339000000032
0.7496263000000015 0.7389037000000022 0.7776982000000032
0.7487938000000015 0.7408018000000022 0.7763329000000032
0.7478614000000015 0.7399360000000021 0.7777648000000033
0.7503589000000015 0.7430995000000021 0.7806286000000032
0.7511914000000015 0.7418341000000022 0.7802290000000032
0.7523569000000015 0.7444981000000022 0.7818607000000032
0.7533226000000015 0.7445314000000022 0.7838920000000031
0.7558201000000015 0.7445980000000022 0.7866226000000032
0.7581844000000015 0.7444648000000021 0.7877881000000032
0.7584175000000015 0.7456636000000022 0.7876216000000033
0.7570189000000015 0.7448977000000022 0.7888870000000032
0.7592167000000015 0.7469290000000022 0.7882876000000032
0.7595830000000016 0.7462963000000021 0.7904521000000032
0.7582177000000015 0.7482943000000022 0.7899859000000032
0.7607818000000015 0.7481611000000021 0.7893865000000032
0.7625800000000015 0.7506919000000022 0.7893532000000032
0.7622137000000014 0.7516909000000022 0.7894531000000032
0.7623136000000015 0.7530229000000022 0.7888870000000032
0.7618807000000015 0.7529896000000021 0.7893865000000032
0.7622137000000015 0.7534225000000021 0.7893865000000032
0.7640785000000015 0.7545547000000021 0.7907518000000032
0.7625134000000016 0.7563862000000021 0.7897195000000032
0.7633792000000016 0.7569523000000021 0.7898527000000033
0.7628797000000016 0.7572853000000022 0.7918840000000033
0.7633126000000016 0.7561864000000021 0.7932493000000033
0.7661098000000016 0.7567192000000021 0.7933159000000033
0.7652773000000016 0.7568857000000021 0.7948810000000033
0.7675084000000016 0.7568191000000021 0.7966126000000033
0.7675084000000016 0.758051200000002 0.7968457000000033
0.7673086000000017 0.757951300000002 0.7985773000000034
0.7658101000000017 0.759483100000002 0.8000425000000034
0.7665094000000017 0.7596496000000019 0.7997761000000034
0.7661764000000016 0.759183400000002 0.8013412000000034
0.7670422000000017 0.761447800000002 0.8035057000000034
0.7669090000000016 0.762713200000002 0.8039386000000034
0.7666759000000016 0.7631461000000019 0.8040385000000034
0.7693066000000016 0.7623136000000019 0.8044381000000035
0.7707052000000016 0.7640785000000019 0.8060365000000035
0.7734025000000017 0.7658434000000018 0.8070022000000034
0.7736356000000016 0.7666426000000018 0.8085007000000034
0.7759333000000016 0.7678414000000019 0.8096662000000034
0.7752673000000015 0.769306600000002 0.8099326000000034
0.7775317000000016 0.769906000000002 0.8093665000000034
0.7773319000000016 0.768507400000002 0.8079346000000034
0.7783975000000016 0.7702723000000019 0.8076016000000034
0.7794964000000016 0.770405500000002 0.8077681000000033
0.7792966000000017 0.771437800000002 0.8075683000000033
0.7816276000000016 0.771804100000002 0.8090668000000033
0.7825267000000017 0.772936300000002 0.8106985000000033
0.7847245000000017 0.773136100000002 0.8139286000000033
0.7868224000000017 0.772370200000002 0.8150941000000034
0.7873885000000017 0.773169400000002 0.8155270000000033
0.7888870000000017 0.774035200000002 0.8156602000000034
0.7902856000000017 0.775533700000002 0.8171920000000034
0.7908517000000017 0.777298600000002 0.8184574000000033
0.7922836000000018 0.7787971000000019 0.8179246000000033
0.7923169000000018 0.7781311000000019 0.8176582000000033
0.7942483000000018 0.7795297000000019 0.8194897000000033
0.7947478000000018 0.7817608000000019 0.8182909000000033
0.7966126000000018 0.7823269000000019 0.8203222000000032
0.7973452000000018 0.7840918000000019 0.8214544000000032
0.7997095000000017 0.7859566000000019 0.8215543000000033
0.8014078000000018 0.7858900000000019 0.8210881000000033
0.8029063000000017 0.7861564000000019 0.8202556000000033
0.8046712000000017 0.7872886000000019 0.8222203000000033
0.8068357000000017 0.7859899000000019 0.8247178000000034
0.8069356000000018 0.7858900000000019 0.8270821000000034
0.8081344000000018 0.7861897000000019 0.8275816000000034
0.8085007000000018 0.7887205000000019 0.8283142000000033
0.8100658000000018 0.789852700000002 0.8295130000000034
0.8102656000000018 0.789619600000002 0.8294797000000034
0.8109649000000018 0.789686200000002 0.8292466000000034
0.8130961000000018 0.789253300000002 0.8293465000000034
0.8142949000000018 0.7919506000000021 0.8291800000000035
0.8162596000000019 0.7914178000000021 0.8295796000000035
0.8176249000000019 0.7933492000000021 0.8310115000000036
0.8165260000000019 0.7949809000000021 0.8330761000000035
0.8155270000000019 0.7969456000000021 0.8333092000000035
0.8167591000000018 0.7977448000000021 0.8333758000000036
0.8193232000000018 0.7977115000000021 0.8362063000000035
0.8207884000000019 0.7983109000000022 0.8365393000000035
0.8210548000000019 0.8003755000000021 0.8366725000000036
0.8219872000000019 0.7989103000000021 0.8383375000000036
0.8209216000000019 0.798544000000002 0.8408017000000036
0.8223202000000019 0.797878000000002 0.8413678000000037
0.8238853000000019 0.797678200000002 0.8412679000000036
0.8252506000000019 0.799443100000002 0.8407018000000036
0.824018500000002 0.799143400000002 0.8410348000000036
0.824051800000002 0.800242300000002 0.8416342000000037
0.825650200000002 0.800508700000002 0.8423002000000037
0.828147700000002 0.800508700000002 0.8419339000000037
0.8303455000000021 0.7993432000000019 0.8420671000000037
0.8296129000000021 0.7993765000000019 0.8425333000000037
0.8294131000000021 0.800542000000002 0.8422669000000037
0.8285806000000021 0.8020405000000019 0.8415343000000037
0.8304121000000021 0.803505700000002 0.8426332000000037
0.8308783000000021 0.805337200000002 0.8450641000000038
0.830845000000002 0.804837700000002 0.8465626000000037
