0.009667 0.0107992 0.0101332
0.0096004 0.0128638 0.0114319
0.0114985 0.0147952 0.0144622
0.0137629 0.0161272 0.0157942
0.0162604 0.0162937 0.0172261
0.0181252 0.0167266 0.0197902
0.0190243 0.0187246 0.0211222
0.0180919 0.0183583 0.0218881
0.017992 0.0185248 0.0203896
0.0184249 0.0217549 0.0193573
0.0206227 0.0238528 0.0212221
0.0202564 0.0239527 0.0218881
0.0196237 0.0250516 0.0212221
0.0192241 0.0251515 0.0206893
0.0202564 0.0272494 0.0203896
0.0206227 0.027316 0.0208891
0.0234199 0.0271828 0.0222877
0.0251515 0.0295804 0.0227206
0.0264502 0.0292474 0.0243523
0.0268165 0.0296803 0.026317
0.0298135 0.0320446 0.0279487
0.0318115 0.0323776 0.0299134
0.0319114 0.0332101 0.031645
0.0332434 0.0326773 0.0332767
0.0337096 0.0342424 0.0338095
0.0337762 0.0342091 0.0353746
0.0334765 0.0358075 0.0368398
0.0351082 0.0367399 0.0368398
0.0375724 0.0395038 0.0394372
0.0407026 0.0394372 0.0386713
0.0434332 0.0419014 0.0381052
0.0449317 0.0410023 0.0368731
0.0447985 0.0411688 0.0386713
0.0461971 0.0442324 0.040969
0.044965 0.0433666 0.0433666
0.0434665 0.0434665 0.0430336
0.0427006 0.0440659 0.044632
0.0438661 0.0433333 0.045298
0.0450316 0.0431002 0.0452314
0.0470296 0.0431002 0.0460639
0.0485614 0.0435997 0.0459973
0.0492274 0.0436996 0.0465634
0.0521578 0.0455311 0.0466966
0.0543889 0.0443989 0.0480952
0.0548218 0.0458308 0.048961
0.0564535 0.0487945 0.0519913
0.055621 0.0500266 0.0529903
0.0543223 0.0498934 0.0529237
0.0530236 0.0507925 0.0522244
0.0556543 0.0504928 0.0514252
0.058584699999999997 0.0497602 0.0528571
0.060149799999999996 0.0524908 0.0544222
0.061115499999999996 0.051625 0.0553879
0.061648299999999996 0.0544888 0.0542224
0.0627139 0.0547219 0.0543556
0.0621145 0.057286 0.0550216
0.0627805 0.058617999999999996 0.0553546
0.0621478 0.059616999999999996 0.0576856
0.0638128 0.061515099999999996 0.0573859
0.0641791 0.0628471 0.058551399999999997
0.063613 0.0628471 0.058451499999999997
0.0638794 0.0642457 0.058318299999999997
0.0628138 0.0629137 0.061215399999999996
0.0621811 0.0634132 0.062314299999999996
0.0645454 0.0644788 0.0634132
0.0654778 0.0659107 0.0635797
0.0650449 0.0646453 0.0648118
0.0654445 0.0646786 0.0668764
0.0686746 0.066277 0.0665767
0.067942 0.0667765 0.0668764
0.068608 0.0665767 0.0663103
0.0700732 0.0675424 0.067609
0.0704728 0.0677089 0.0679753
0.0714052 0.0705394 0.0689743
0.0725707 0.0727039 0.0685414
0.0758008 0.0735697 0.0705394
0.0764668 0.0735364 0.0719713
0.0763669 0.0723709 0.0735031
0.0756676 0.0743356 0.0746353
0.0769663 0.074935 0.0766
0.078598 0.075934 0.0778987
0.0790975 0.0764002 0.0792307
0.0801631 0.0778321 0.0817282
0.0802297 0.0804628 0.0817282
0.0816283 0.080929 0.0832933
0.0821944 0.0819613 0.0836596
0.0835597 0.0809956 0.0841591
0.0840925 0.0830935 0.0844255
0.0859573 0.0830935 0.0856909
0.088588 0.0843256 0.084259
0.0884548 0.084259 0.0843922
0.088921 0.0833266 0.0857575
0.0892207 0.0842923 0.0846919
0.0906859 0.0847585 0.0867232
0.090253 0.0852247 0.0878554
0.091252 0.0845254 0.0885214
0.0918181 0.0850249 0.089254
0.0945154 0.0856576 0.090586
0.0965134 0.0884215 0.0904528
0.0965467 0.0873559 0.0927838
0.0964801 0.0883549 0.0936829
0.0962137 0.088921 0.0946153
0.0960472 0.0910189 0.0966799
0.0976789 0.0911521 0.0961804
0.09991 0.0930169 0.0978454
0.1012753 0.0950815 0.0977455
0.1012087 0.0961804 0.0999433
0.1013752 0.096913 0.1006426
0.1032067 0.0986446 0.0994438
0.1055377 0.0998101 0.1000432
0.1061038 0.1008424 0.0998101
0.1060705 0.1016416 0.0986113
0.1090675 0.1037728 0.1002097
0.1099 0.1052047 0.1011421
0.1099666 0.1063702 0.1017415
0.1104994 0.1067698 0.1030735
0.1111987 0.1070695 0.104572
0.110233 0.1086346 0.1045387
0.1114318 0.1097002 0.1059373
0.1120312 0.1096336 0.1074358
0.1149616 0.1110655 0.1085347
0.1170262 0.1126972 0.1106992
0.1186579 0.1147618 0.1127971
0.1207558 0.1141957 0.1131967
0.1217881 0.1137628 0.1159606
0.1241524 0.114895 0.1183249
0.12322 0.1167931 0.1190575
0.1243855 0.1174591 0.1216549
0.1248184 0.1189909 0.1224208
0.1256509 0.1178254 0.1236196
0.1258507 0.1189909 0.1250848
0.12628360000000002 0.1190908 0.1248517
0.12631690000000004 0.1191574 0.1240858
0.12628360000000002 0.1202563 0.1247185
0.12748240000000002 0.1217881 0.1260838
0.12824830000000004 0.1241857 0.1273492
0.12964690000000004 0.1257841 0.1283815
0.12904750000000004 0.12754900000000002 0.1301797
0.13061260000000005 0.12771550000000004 0.13061260000000002
0.13127860000000005 0.12748240000000002 0.1296469
0.13101220000000005 0.12928060000000002 0.13214440000000002
0.13137850000000006 0.12997990000000004 0.13267720000000002
0.13390930000000006 0.12904750000000004 0.1323775
0.13683970000000006 0.13114540000000005 0.1322443
0.13650670000000006 0.13311010000000006 0.13400920000000002
0.13757230000000006 0.13557430000000006 0.1327771
0.13883770000000006 0.13590730000000006 0.1324108
0.13913740000000008 0.13887100000000008 0.1340425
0.1409689000000001 0.1401031000000001 0.1347085
0.1405027000000001 0.1414018000000001 0.13540780000000002
0.1423675000000001 0.14270050000000012 0.13790530000000004
0.1437661000000001 0.14436550000000012 0.13747240000000002
0.1438660000000001 0.1433998000000001 0.13693960000000002
0.14476510000000012 0.14443210000000012 0.13810510000000004
0.14583070000000012 0.1441990000000001 0.14056930000000004
0.14549770000000012 0.1458640000000001 0.14176810000000004
0.1451980000000001 0.14656330000000012 0.14210110000000004
0.1448983000000001 0.14886100000000013 0.14136850000000004
0.1454644000000001 0.14776210000000012 0.14349970000000004
0.14769550000000012 0.14742910000000012 0.14539780000000005
0.14789530000000012 0.14752900000000013 0.14633020000000005
0.14796190000000012 0.14792860000000013 0.14866120000000005
0.14839480000000013 0.14962690000000015 0.14909410000000006
0.14886100000000013 0.15002650000000015 0.14872780000000005
0.15012640000000013 0.15082570000000015 0.14939380000000005
0.15065920000000013 0.15315670000000015 0.15139180000000005
0.14966020000000013 0.15299020000000013 0.15292360000000005
0.14842810000000012 0.15325660000000013 0.15305680000000005
0.14989330000000012 0.15602050000000015 0.15335650000000006
0.15172480000000013 0.15801850000000014 0.15508810000000006
0.15159160000000013 0.15971680000000016 0.15645340000000008
0.15152500000000013 0.16061590000000017 0.15858460000000008
0.15302350000000015 0.1611820000000002 0.15851800000000008
0.15305680000000016 0.1615483000000002 0.15918400000000008
0.15575410000000017 0.1618147000000002 0.1592839000000001
0.15522130000000017 0.16211440000000021 0.1602163000000001
0.15602050000000017 0.1622476000000002 0.1616149000000001
0.15788530000000017 0.16248070000000023 0.1637128000000001
0.1582516000000002 0.16344640000000024 0.1657774000000001
0.1595170000000002 0.16347970000000026 0.1661104000000001
0.15868450000000017 0.16544440000000027 0.1670428000000001
0.15981670000000017 0.16547770000000028 0.16907410000000012
0.16214770000000017 0.16481170000000028 0.1688410000000001
0.16364620000000019 0.1668430000000003 0.1714384000000001
0.16431220000000019 0.1677088000000003 0.17273710000000012
0.16664320000000019 0.1689742000000003 0.17280370000000012
0.16877440000000019 0.1685746000000003 0.17396920000000013
0.1700731000000002 0.1674424000000003 0.17573410000000014
0.1708057000000002 0.1695403000000003 0.17669980000000016
0.1721044000000002 0.1689409000000003 0.17919730000000017
0.17386930000000023 0.17110540000000032 0.18002980000000018
0.17307010000000023 0.17197120000000032 0.18089560000000018
0.17366950000000023 0.17360290000000034 0.17996320000000018
0.17470180000000024 0.17636680000000035 0.1815283000000002
0.17543440000000024 0.17573410000000034 0.1816948000000002
0.17640010000000025 0.17536780000000032 0.18365950000000023
0.17813170000000025 0.17626690000000034 0.18395920000000024
0.17699950000000025 0.17643340000000035 0.18515800000000024
0.17763220000000027 0.17816500000000035 0.18415900000000024
0.17883100000000027 0.17992990000000036 0.18555760000000024
0.18036280000000027 0.18122860000000038 0.18555760000000024
0.18146170000000028 0.18236080000000038 0.18702280000000024
0.1815616000000003 0.1832599000000004 0.18972010000000025
0.1829935000000003 0.1834930000000004 0.18932050000000025
0.18322660000000032 0.18425890000000042 0.19145170000000025
0.18565750000000034 0.18555760000000043 0.19438210000000025
0.18852130000000034 0.18668980000000043 0.19488160000000027
0.19145170000000034 0.18625690000000042 0.19611370000000028
0.19211770000000034 0.18898750000000042 0.19568080000000027
0.19321660000000035 0.19008640000000043 0.19894420000000027
0.19528120000000035 0.19035280000000043 0.19924390000000028
0.19654660000000035 0.19245070000000045 0.20190790000000028
0.19837810000000036 0.19358290000000045 0.20224090000000028
0.19754560000000035 0.19428220000000046 0.2040058000000003
0.19847800000000035 0.19484830000000047 0.2050381000000003
0.19990990000000036 0.19604710000000047 0.20786860000000032
0.19997650000000036 0.1978120000000005 0.20810170000000033
0.20154160000000038 0.1990108000000005 0.20783530000000033
0.20167480000000038 0.2004094000000005 0.20653660000000032
0.2019745000000004 0.2026405000000005 0.20680300000000032
0.2033065000000004 0.2038393000000005 0.2065699000000003
0.2040724000000004 0.20527120000000051 0.20813500000000032
0.20483830000000042 0.20726920000000051 0.20953360000000032
0.2038726000000004 0.21009970000000053 0.21239740000000032
0.2060704000000004 0.21269710000000053 0.21309670000000033
0.20650330000000042 0.21346300000000054 0.21356290000000033
0.20870110000000042 0.21216430000000053 0.21576070000000033
0.20896750000000042 0.21502810000000053 0.21655990000000033
0.21146500000000043 0.2143954000000005 0.21772540000000035
0.21199780000000043 0.2157940000000005 0.21792520000000035
0.21226420000000043 0.2154277000000005 0.21795850000000036
0.21339640000000043 0.2179918000000005 0.21835810000000036
0.21476170000000044 0.21862450000000053 0.21815830000000036
0.21536110000000044 0.21969010000000053 0.21845800000000037
0.21436210000000044 0.2184580000000005 0.21832480000000037
0.21642670000000044 0.22062250000000053 0.21812500000000037
0.21699280000000046 0.22152160000000054 0.21839140000000037
0.21772540000000046 0.22178800000000054 0.21782530000000036
0.21879100000000046 0.22185460000000054 0.21915730000000036
0.22068910000000047 0.22405240000000054 0.21995650000000036
0.22242070000000047 0.22451860000000054 0.22112200000000037
0.22361950000000047 0.22635010000000055 0.22252060000000037
0.22625020000000048 0.22931380000000057 0.22285360000000037
0.22771540000000048 0.22958020000000057 0.22255390000000036
0.2287477000000005 0.23071240000000057 0.22305340000000037
0.2287810000000005 0.22968010000000055 0.2241523000000004
0.2281150000000005 0.23124520000000057 0.2238859000000004
0.22987990000000053 0.23284360000000057 0.2239525000000004
0.23121190000000053 0.23404240000000057 0.2234863000000004
0.23231080000000054 0.23514130000000058 0.22345300000000037
0.23294350000000055 0.2369062000000006 0.2236195000000004
0.23317660000000057 0.2370061000000006 0.2245852000000004
0.23477500000000057 0.2380717000000006 0.22575070000000041
0.23517460000000057 0.2394037000000006 0.22834810000000041
0.23610700000000057 0.2414017000000006 0.2277820000000004
0.23907070000000058 0.2405026000000006 0.2274157000000004
0.24126850000000058 0.2397700000000006 0.2278153000000004
0.24153490000000058 0.2413018000000006 0.22698280000000037
0.24150160000000057 0.2429002000000006 0.22811500000000037
0.24143500000000057 0.2456641000000006 0.2283481000000004
0.24230080000000057 0.2456308000000006 0.2291140000000004
0.24359950000000058 0.24426550000000058 0.2278486000000004
0.2454976000000006 0.24493150000000058 0.22828150000000041
0.2462302000000006 0.24486490000000058 0.22828150000000041
0.2465965000000006 0.24426550000000058 0.23074570000000041
0.24809500000000062 0.2456308000000006 0.22994650000000041
0.24912730000000063 0.2463634000000006 0.23011300000000043
0.25059250000000066 0.24599710000000058 0.23004640000000043
0.25179130000000066 0.24686290000000058 0.22984660000000043
0.25119190000000063 0.2490274000000006 0.23104540000000043
0.25438870000000063 0.2517580000000006 0.23167810000000044
0.2532565000000006 0.2527237000000006 0.23141170000000044
0.2557540000000006 0.2550880000000006 0.23204440000000046
0.2569195000000006 0.25488820000000056 0.23374270000000047
0.2574856000000006 0.25751890000000055 0.23527450000000047
0.2591506000000006 0.25928380000000056 0.23790520000000048
0.2584846000000006 0.26208100000000056 0.23640670000000047
0.2611486000000006 0.26487820000000056 0.23560750000000047
0.2640790000000006 0.2667763000000006 0.23597380000000048
0.26424550000000063 0.26670970000000055 0.23547430000000047
0.2635462000000006 0.2665099000000005 0.23817160000000048
0.2624806000000006 0.26817490000000055 0.2388043000000005
0.26517790000000063 0.26740900000000056 0.23857120000000048
0.26677630000000063 0.2699731000000006 0.2391373000000005
0.26877430000000063 0.2725372000000006 0.2410354000000005
0.26947360000000065 0.2727370000000006 0.24186790000000052
0.27017290000000066 0.27426880000000065 0.24379930000000052
0.27000640000000065 0.27716590000000063 0.24339970000000052
0.2696734000000006 0.27776530000000066 0.2427670000000005
0.2698066000000006 0.2780650000000007 0.2445652000000005
0.26983990000000063 0.28042930000000066 0.2468296000000005
0.27040600000000065 0.28069570000000066 0.24912730000000052
0.27280360000000065 0.28069570000000066 0.24936040000000054
0.27426880000000065 0.2803294000000007 0.24976000000000054
0.27373600000000065 0.28202770000000066 0.24896080000000054
0.2730034000000006 0.28282690000000066 0.25155820000000056
0.2735362000000006 0.28552420000000067 0.2514583000000006
0.2731033000000006 0.2870560000000007 0.25169140000000056
0.2724706000000006 0.2871892000000007 0.2541223000000006
0.2721709000000006 0.2884546000000007 0.2542888000000006
0.27450190000000063 0.28981990000000074 0.2553544000000006
0.27396910000000063 0.2903194000000007 0.2569528000000006
0.27590050000000066 0.29158480000000075 0.2569528000000006
0.27516790000000063 0.29278360000000075 0.2583847000000006
0.27656650000000066 0.29341630000000074 0.25755220000000056
0.2767663000000007 0.2937826000000007 0.25685290000000055
0.2781982000000007 0.29581390000000074 0.25941700000000056
0.28016290000000066 0.29841130000000077 0.26164810000000055
0.28322650000000066 0.2985778000000008 0.2635795000000006
0.28332640000000064 0.3002428000000008 0.2641123000000006
0.28435870000000063 0.2995435000000008 0.2653444000000006
0.28609030000000063 0.3001429000000008 0.2675422000000006
0.28688950000000063 0.30230740000000084 0.26934040000000065
0.2857906000000006 0.30220750000000085 0.27107200000000065
0.2870893000000006 0.30363940000000084 0.27250390000000063
0.2869561000000006 0.30540430000000085 0.27453520000000065
0.2878552000000006 0.30513790000000085 0.27363610000000066
0.2878219000000006 0.3061369000000009 0.2757007000000007
0.2879884000000006 0.3058705000000009 0.2773990000000007
0.2866231000000006 0.30597040000000086 0.2787976000000007
0.2879551000000006 0.30796840000000086 0.2792305000000007
0.2901529000000006 0.31006630000000085 0.2778985000000007
0.2912185000000006 0.31263040000000086 0.2786977000000007
0.2911519000000006 0.31472830000000085 0.2787976000000007
0.2916847000000006 0.3175921000000009 0.27899740000000073
0.29298340000000056 0.3194569000000009 0.27846460000000073
0.29255050000000055 0.3195235000000009 0.28049590000000074
0.29265040000000053 0.3195568000000009 0.28276030000000074
0.29388250000000055 0.32025610000000093 0.2825605000000007
0.29378260000000056 0.3212884000000009 0.2824939000000007
0.2946151000000006 0.3228868000000009 0.2838259000000007
0.2973124000000006 0.32508460000000095 0.2838925000000007
0.29631340000000056 0.32495140000000095 0.2846584000000007
0.29578060000000056 0.32668300000000094 0.2870893000000007
0.2981116000000006 0.32844790000000096 0.29008630000000074
0.3004093000000006 0.32934700000000094 0.29175130000000077
0.3002428000000006 0.32964670000000096 0.29358280000000075
0.3008755000000006 0.32974660000000094 0.2951146000000008
0.3014749000000006 0.33001300000000094 0.2942155000000008
0.3039058000000006 0.3296800000000009 0.2936827000000008
0.30527110000000063 0.33201100000000094 0.2942488000000008
0.3063034000000006 0.33390910000000096 0.29498140000000084
0.30700270000000063 0.33327640000000097 0.29484820000000084
0.30557080000000064 0.33510790000000096 0.29647990000000085
0.3080683000000006 0.33500800000000097 0.2972125000000009
0.3101995000000006 0.33634000000000097 0.2982781000000009
0.3109987000000006 0.33607360000000097 0.2996434000000009
0.3106657000000006 0.336939400000001 0.2998099000000009
0.3127969000000006 0.336772900000001 0.3018079000000009
0.3136960000000006 0.338504500000001 0.30373930000000093
0.31406230000000057 0.340435900000001 0.30294010000000093
0.31632670000000057 0.341002000000001 0.30380590000000096
0.31599370000000054 0.34210090000000104 0.30430540000000095
0.31745890000000054 0.34416550000000107 0.30600370000000093
0.31965670000000057 0.34523110000000107 0.30620350000000096
0.32122180000000056 0.34436530000000104 0.307835200000001
0.32225410000000054 0.34636330000000104 0.309966400000001
0.32232070000000057 0.34799500000000105 0.309733300000001
0.3214216000000006 0.34826140000000105 0.310099600000001
0.32245390000000057 0.35082550000000107 0.30926710000000096
0.32202100000000056 0.35132500000000105 0.31073230000000096
0.32331970000000054 0.35318980000000105 0.31113190000000096
0.3231199000000005 0.35612020000000105 0.31163140000000095
0.32478490000000054 0.3563200000000011 0.31189780000000095
0.32611690000000054 0.3567196000000011 0.312097600000001
0.32788180000000056 0.3577186000000011 0.313995700000001
0.32908060000000056 0.35831800000000114 0.316593100000001
0.3308788000000006 0.35925040000000114 0.317525500000001
0.3321442000000006 0.35951680000000114 0.31662640000000103
0.3325771000000006 0.36231400000000114 0.31689280000000103
0.3325105000000006 0.3637459000000011 0.31709260000000106
0.3326437000000006 0.3656107000000011 0.31895740000000106
0.3321442000000006 0.36700930000000115 0.32072230000000107
0.3330766000000006 0.36857440000000113 0.3221209000000011
0.3353410000000006 0.36967330000000115 0.3227203000000011
0.3344752000000006 0.3720043000000012 0.3239191000000011
0.3352078000000006 0.3719044000000012 0.32608360000000114
0.3368395000000006 0.3731365000000012 0.32718250000000115
0.3385711000000006 0.3740689000000012 0.32744890000000115
0.3382381000000006 0.3743686000000012 0.3267163000000011
0.3406690000000006 0.3743353000000012 0.32768200000000114
0.3419011000000006 0.3767329000000012 0.32824810000000115
0.3420010000000006 0.3777985000000012 0.32904730000000115
0.3430666000000006 0.3775654000000012 0.3316447000000012
0.3454975000000006 0.3807622000000012 0.3340423000000012
0.34636330000000065 0.38096200000000124 0.3338092000000012
0.34609690000000065 0.38129500000000127 0.3334429000000012
0.34619680000000064 0.3822607000000013 0.3331099000000012
0.34692940000000067 0.3834595000000013 0.3333097000000012
0.34826140000000066 0.3856573000000013 0.33417550000000124
0.34982650000000065 0.3873556000000013 0.33337630000000124
0.35152480000000064 0.38702260000000127 0.3326770000000012
0.35169130000000065 0.38778850000000126 0.3318445000000012
0.35099200000000064 0.3883879000000013 0.3323773000000012
0.35365600000000064 0.3877219000000013 0.3345085000000012
0.35475490000000065 0.3902527000000013 0.3346417000000012
0.35595370000000065 0.3907855000000013 0.3343087000000012
0.35608690000000065 0.3925171000000013 0.3363400000000012
0.3552211000000006 0.3933163000000013 0.3359404000000012
0.3557206000000006 0.39368260000000127 0.3375055000000012
0.3567529000000006 0.39461500000000127 0.3372391000000012
0.3581848000000006 0.3964132000000013 0.3384379000000012
0.3594169000000006 0.3964465000000013 0.3378052000000012
0.3599830000000006 0.3965464000000013 0.3383047000000012
0.3603493000000006 0.3974122000000013 0.33907060000000117
0.3623140000000006 0.39891070000000134 0.34026940000000117
0.36214750000000057 0.39931030000000134 0.34010290000000115
0.36321310000000057 0.4010086000000013 0.34156810000000115
0.3659104000000006 0.4006756000000013 0.34113520000000114
0.3674422000000006 0.4033729000000013 0.34206760000000114
0.3664099000000006 0.4044718000000013 0.3428335000000011
0.3660103000000006 0.40597030000000134 0.34383250000000115
0.36647650000000065 0.40653640000000135 0.34426540000000116
0.36594370000000065 0.40650310000000134 0.34489810000000115
0.36887410000000065 0.40666960000000135 0.34519780000000116
0.37017280000000063 0.40910050000000137 0.34436530000000115
0.37283680000000063 0.41029930000000137 0.34556410000000115
0.37313650000000065 0.4131298000000014 0.34569730000000115
0.3741355000000007 0.41576050000000137 0.34732900000000116
0.3737692000000007 0.4153942000000014 0.3477619000000012
0.3757006000000007 0.4170592000000014 0.3488941000000012
0.37786510000000073 0.4198897000000014 0.3494269000000012
0.37923040000000074 0.41925700000000143 0.3491605000000012
0.37989640000000074 0.4181248000000014 0.3496600000000012
0.38119510000000073 0.41925700000000143 0.3513916000000012
0.3835594000000007 0.42035590000000145 0.35119180000000116
0.3844918000000007 0.42232060000000143 0.35119180000000116
0.3845917000000007 0.4242853000000014 0.35345620000000116
0.3845917000000007 0.4254841000000014 0.35398900000000116
0.38532430000000073 0.4246849000000014 0.3553543000000012
0.38469160000000074 0.42471820000000143 0.3569860000000012
0.38682280000000074 0.42431860000000143 0.35691940000000116
0.38782180000000077 0.42631660000000143 0.35595370000000115
0.3903859000000008 0.4269493000000014 0.35745220000000116
0.3908521000000008 0.4290805000000014 0.35848450000000115
0.3907189000000008 0.43124500000000143 0.3584179000000011
0.3931165000000008 0.4301128000000014 0.3583513000000011
0.3936493000000008 0.4316113000000014 0.3592837000000011
0.3925171000000008 0.4326769000000014 0.3607156000000011
0.3950812000000008 0.43324300000000143 0.3615148000000011
0.3970792000000008 0.43314310000000145 0.3621142000000011
0.3972124000000008 0.43314310000000145 0.3634795000000011
0.3994435000000008 0.43404220000000143 0.3631798000000011
0.40194100000000077 0.4330765000000014 0.3634462000000011
0.4018411000000008 0.4341421000000014 0.3641455000000011
0.40137490000000076 0.4361068000000014 0.36647650000000115
0.40097530000000076 0.43697260000000143 0.36784180000000116
0.40090870000000073 0.43863760000000146 0.3692071000000012
0.40210750000000073 0.43927030000000145 0.3707389000000012
0.4024738000000007 0.4413349000000015 0.3700063000000012
0.40383910000000073 0.4436326000000015 0.3730033000000012
0.40413880000000074 0.4432663000000015 0.3738025000000012
0.40527100000000077 0.4433995000000015 0.3760669000000012
0.40683610000000076 0.4445650000000015 0.3780982000000012
0.40979980000000077 0.4463299000000015 0.37839790000000123
0.4107655000000008 0.4463299000000015 0.37953010000000126
0.41286340000000077 0.4471291000000015 0.3805291000000013
0.41256370000000075 0.44799490000000153 0.3809953000000013
0.41269690000000075 0.44722900000000154 0.3823606000000013
0.41173120000000074 0.45019270000000156 0.38509120000000135
0.41253040000000074 0.44952670000000156 0.38625670000000134
0.41269690000000075 0.45022600000000157 0.3876886000000013
0.41256370000000075 0.45049240000000157 0.3896533000000013
0.41566060000000077 0.4505590000000016 0.3886876000000013
0.41559400000000074 0.44956000000000157 0.3903526000000013
0.41469490000000075 0.44979310000000156 0.3919177000000013
0.41446180000000077 0.44849440000000157 0.3933496000000013
0.41682610000000075 0.45019270000000156 0.3937159000000013
0.41629330000000075 0.44985970000000153 0.3947149000000013
0.41546080000000074 0.4502593000000015 0.3960469000000013
0.41802490000000075 0.4511584000000015 0.3958804000000013
0.41865760000000074 0.4496932000000015 0.3968794000000013
0.41772520000000074 0.44989300000000154 0.39877750000000134
0.41952340000000077 0.45029260000000154 0.39997630000000134
0.4207888000000008 0.4525237000000015 0.39970990000000134
0.4216879000000008 0.4537225000000015 0.40107520000000135
0.4241521000000008 0.4563865000000015 0.40237390000000134
0.4250512000000008 0.4557871000000015 0.40413880000000135
0.4265164000000008 0.4582180000000015 0.40383910000000134
0.4271824000000008 0.4599829000000015 0.40480480000000135
0.4295134000000008 0.46164790000000155 0.4067362000000014
0.43224400000000085 0.46204750000000155 0.40750210000000137
0.43480810000000086 0.4625137000000016 0.40703590000000134
0.43534090000000086 0.4650778000000016 0.40786840000000135
0.4368394000000009 0.4658104000000016 0.40936690000000137
0.4389040000000009 0.46650970000000164 0.4083346000000014
0.4408021000000009 0.4690072000000016 0.40843450000000137
0.44203420000000093 0.4686742000000016 0.40743550000000134
0.44473150000000095 0.4702726000000016 0.4062034000000013
0.446130100000001 0.4696066000000016 0.4087009000000013
0.444931300000001 0.4717378000000016 0.41009950000000134
0.445064500000001 0.4722373000000016 0.41013280000000135
0.447495400000001 0.47150470000000155 0.40996630000000134
0.450159400000001 0.47087200000000157 0.40943350000000134
0.449227000000001 0.4705057000000016 0.4109986000000013
0.450126100000001 0.4706389000000016 0.4101994000000013
0.45195760000000096 0.4724038000000016 0.4121974000000013
0.45338950000000094 0.4710385000000016 0.4121308000000013
0.45368920000000096 0.4723039000000016 0.4113649000000013
0.45398890000000097 0.4740022000000016 0.4117978000000013
0.45412210000000097 0.4731697000000016 0.41426200000000135
0.45542080000000096 0.4741354000000016 0.4143286000000014
0.45651970000000097 0.4750012000000016 0.4144951000000014
0.45552070000000094 0.4747015000000016 0.4163266000000014
0.45695260000000093 0.4765663000000016 0.4163599000000014
0.45668620000000093 0.47769850000000164 0.4160935000000014
0.45695260000000093 0.4787308000000016 0.4159603000000014
0.45938350000000094 0.4779316000000016 0.4155274000000014
0.45845110000000094 0.4782979000000016 0.4165930000000014
0.45845110000000094 0.4797964000000016 0.4191904000000014
0.46034920000000096 0.48066220000000165 0.4205557000000014
0.46198090000000097 0.48136150000000166 0.42045580000000143
0.462580300000001 0.48332620000000165 0.4192237000000014
0.464611600000001 0.48519100000000165 0.4208221000000014
0.46507780000000104 0.48452500000000165 0.42182110000000145
0.465843700000001 0.48655630000000166 0.42371920000000146
0.46710910000000105 0.48628990000000166 0.42528430000000145
0.4671757000000011 0.48788830000000166 0.42445180000000143
0.4679749000000011 0.48815470000000166 0.42528430000000145
0.46954000000000107 0.48895390000000166 0.42461830000000145
0.46914040000000107 0.48908710000000166 0.42515110000000145
0.46897390000000105 0.48878740000000165 0.42674950000000145
0.47017270000000105 0.4911184000000017 0.42731560000000146
0.47217070000000105 0.49105180000000165 0.42954670000000145
0.47127160000000107 0.49168450000000163 0.42964660000000143
0.4738690000000011 0.49251700000000165 0.4292137000000014
0.4755007000000011 0.49334950000000166 0.4295800000000014
0.4761334000000011 0.4951144000000017 0.43137820000000143
0.4760002000000011 0.49491460000000165 0.43287670000000145
0.4784311000000011 0.49721230000000166 0.43357600000000146
0.4799296000000011 0.4965796000000017 0.43340950000000145
0.48129490000000114 0.49761190000000166 0.4325437000000014
0.48319300000000115 0.49707910000000166 0.43457500000000143
0.48625660000000115 0.49624660000000165 0.4358737000000014
0.48808810000000113 0.4967128000000017 0.43620670000000145
0.48922030000000116 0.4956472000000017 0.43677280000000146
0.48892060000000115 0.4951144000000017 0.4370725000000015
0.4891204000000012 0.49548070000000166 0.4365730000000015
0.4911850000000012 0.49761190000000166 0.4370059000000015
0.4922173000000012 0.49811140000000165 0.4384711000000015
0.4924504000000012 0.5005423000000017 0.4393702000000015
0.4940488000000012 0.5010751000000017 0.4392037000000015
0.4945150000000012 0.5029399000000017 0.4388374000000015
0.4940155000000012 0.5038723000000017 0.4417345000000015
0.49564720000000123 0.5042386000000018 0.4409686000000015
0.4976119000000012 0.5060701000000017 0.4421008000000015
0.49834450000000124 0.5077351000000018 0.4427668000000015
0.49911040000000123 0.5083345000000018 0.44403220000000154
0.49821130000000124 0.5109652000000018 0.44506450000000153
0.5006755000000013 0.5110651000000018 0.4471624000000015
0.5021074000000013 0.5110318000000018 0.44946010000000153
0.5021407000000013 0.5119975000000018 0.4498264000000015
0.5018077000000013 0.5120974000000018 0.4510585000000015
0.5014414000000013 0.5142619000000018 0.45122500000000154
0.5014414000000013 0.5162932000000018 0.45355600000000157
0.5026402000000013 0.5151610000000018 0.45448840000000157
0.5022406000000013 0.5145283000000017 0.4550878000000016
0.5009086000000013 0.5140288000000017 0.4546882000000016
0.5022073000000012 0.5146948000000018 0.4553542000000016
0.5045050000000012 0.5171590000000018 0.45395560000000157
0.5047381000000012 0.5184577000000018 0.4549546000000016
0.5077684000000012 0.5187574000000018 0.4543219000000016
0.5097997000000012 0.5204890000000019 0.4541887000000016
0.5090005000000012 0.5202559000000019 0.4528234000000016
0.5106655000000012 0.5225536000000018 0.4558870000000016
0.5127967000000012 0.5228866000000019 0.45528760000000157
0.5118976000000012 0.5234527000000019 0.45485470000000155
0.5103658000000012 0.5256838000000019 0.45631990000000155
0.5112649000000012 0.527348800000002 0.45765190000000155
0.5116645000000013 0.5283478000000019 0.45981640000000157
0.5115313000000012 0.5298463000000019 0.4610485000000016
0.5124970000000012 0.5316445000000019 0.46274680000000157
0.5116978000000012 0.5318776000000018 0.46337950000000155
0.5123305000000012 0.5327434000000019 0.46461160000000157
0.5115646000000013 0.5328766000000019 0.4662766000000016
0.5124637000000013 0.5317444000000019 0.4659103000000016
0.5137291000000013 0.5315779000000019 0.4674088000000016
0.5161933000000013 0.531977500000002 0.46787500000000165
0.5151943000000013 0.5310451000000019 0.46944010000000164
0.5165596000000013 0.5336092000000019 0.4699396000000016
0.5165929000000014 0.5336758000000019 0.4703392000000016
0.5187907000000014 0.5336758000000019 0.47147140000000165
0.5205889000000014 0.5339422000000019 0.4708720000000016
0.5210551000000013 0.535374100000002 0.47120500000000165
0.5219542000000014 0.536173300000002 0.47267020000000165
0.5248846000000014 0.538004800000002 0.47217070000000166
0.5249179000000014 0.5368726000000019 0.47253700000000165
0.5250178000000014 0.5394367000000019 0.4738024000000017
0.5245183000000014 0.5415013000000019 0.4744018000000017
0.5260501000000014 0.5442652000000019 0.4735693000000017
0.5262166000000014 0.5441986000000019 0.4721374000000017
0.5256172000000013 0.5460301000000019 0.4739023000000017
0.5263831000000013 0.5474953000000019 0.4737025000000017
0.5284144000000013 0.547628500000002 0.4737358000000017
0.5299795000000013 0.549726400000002 0.4737025000000017
0.5324770000000013 0.551424700000002 0.4741021000000017
0.5345749000000013 0.552556900000002 0.4737358000000017
0.5334427000000013 0.554355100000002 0.4763998000000017
0.5338756000000012 0.553888900000002 0.4764331000000017
0.5359735000000012 0.553489300000002 0.47873080000000173
0.5373055000000012 0.5552875000000019 0.47919700000000176
0.5394034000000012 0.556952500000002 0.4808287000000018
0.5383378000000012 0.5592835000000019 0.4827601000000018
0.5382046000000011 0.561281500000002 0.4838590000000018
0.5369392000000012 0.561448000000002 0.48512440000000184
0.5378716000000012 0.563146300000002 0.48535750000000183
0.5395366000000013 0.565510600000002 0.48469150000000183
0.5417344000000013 0.565344100000002 0.4846582000000018
0.5424337000000012 0.565244200000002 0.4875553000000018
0.5445649000000012 0.567308800000002 0.4874554000000018
0.5468626000000012 0.567342100000002 0.4886542000000018
0.5454973000000012 0.5675086000000019 0.4899529000000018
0.5451976000000012 0.5675419000000019 0.4921174000000018
0.5468959000000012 0.5668759000000019 0.4918177000000018
0.5480281000000012 0.5685742000000019 0.4911517000000018
0.5503924000000012 0.570838600000002 0.4902526000000018
0.5520907000000013 0.572503600000002 0.49055230000000183
0.5537557000000013 0.574668100000002 0.49055230000000183
0.5560867000000013 0.574102000000002 0.49101850000000186
0.5570857000000012 0.576666100000002 0.4916179000000019
0.5586175000000012 0.579596500000002 0.4922173000000019
0.5584510000000013 0.579596500000002 0.4935160000000019
0.5569192000000013 0.5813947000000019 0.4947814000000019
0.5578516000000013 0.582859900000002 0.49551400000000195
0.5591503000000013 0.584225200000002 0.49608010000000197
0.5591170000000013 0.584591500000002 0.498411100000002
0.5597497000000013 0.5852242000000021 0.500908600000002
0.5614147000000014 0.5876218000000021 0.5023072000000021
0.5627134000000014 0.588887200000002 0.504937900000002
0.5651776000000014 0.589686400000002 0.504105400000002
0.5644450000000014 0.5906188000000021 0.505470700000002
0.5647114000000014 0.5897530000000021 0.5057704000000021
0.5646115000000014 0.5915845000000021 0.507801700000002
0.5652109000000014 0.5922505000000021 0.510432400000002
0.5670091000000014 0.5943817000000021 0.513262900000002
0.5680081000000013 0.5965462000000021 0.516259900000002
0.5696065000000013 0.5994100000000021 0.517492000000002
0.5684410000000013 0.6010750000000021 0.516426400000002
0.5685409000000013 0.5996764000000021 0.5179582000000019
0.5704057000000013 0.6012748000000021 0.5195233000000019
0.5708386000000013 0.6025069000000021 0.5192569000000019
0.5713714000000013 0.601907500000002 0.5198230000000019
0.5728699000000013 0.604504900000002 0.5200894000000019
0.5738689000000012 0.6073021000000021 0.520189300000002
0.5724703000000012 0.6086341000000021 0.521055100000002
0.5745016000000012 0.610698700000002 0.523719100000002
0.5776318000000011 0.613296100000002 0.525117700000002
0.5774320000000012 0.612829900000002 0.523752400000002
0.5770990000000011 0.6144949000000021 0.524485000000002
0.5770657000000011 0.6144949000000021 0.5235859000000019
0.5779315000000012 0.6166261000000021 0.5248180000000019
0.5782978000000012 0.6158602000000021 0.5254174000000019
0.5789638000000012 0.6185908000000021 0.5251510000000019
0.5788639000000012 0.6214213000000021 0.525517300000002
0.5810950000000012 0.621587800000002 0.527448700000002
0.5817943000000012 0.621587800000002 0.526949200000002
0.5815945000000012 0.621654400000002 0.528247900000002
0.5819275000000013 0.6219541000000021 0.528281200000002
0.5845582000000012 0.6241186000000021 0.529413400000002
0.5838922000000012 0.6239521000000021 0.5287141000000021
0.5864230000000012 0.6252508000000021 0.5311783000000021
0.5889871000000012 0.6264829000000021 0.5316778000000021
0.5904856000000012 0.6284143000000021 0.5316445000000021
0.5919175000000012 0.6276151000000021 0.5326768000000021
0.5938822000000012 0.6277483000000021 0.5352076000000021
0.5954473000000012 0.6297130000000022 0.5365063000000021
0.5939488000000013 0.6300460000000022 0.5390371000000022
0.5938489000000012 0.6299794000000022 0.5399362000000022
0.5948812000000012 0.6320107000000021 0.5390038000000021
0.5966461000000012 0.6342085000000022 0.5385043000000022
0.5980780000000012 0.6347413000000022 0.5396698000000022
0.5999095000000012 0.6343417000000021 0.5421007000000022
0.6005089000000012 0.6348745000000021 0.5439322000000022
0.6006088000000013 0.6354406000000021 0.5449645000000022
0.6017410000000013 0.6371389000000022 0.5462299000000022
0.6031063000000013 0.6376717000000022 0.5469292000000021
0.6033061000000013 0.6400693000000022 0.5467960000000021
0.6050044000000013 0.6412681000000022 0.5478616000000021
0.6073354000000013 0.6439987000000023 0.550459000000002
0.6079348000000013 0.6430663000000022 0.551025100000002
0.6078016000000013 0.6451642000000022 0.551724400000002
0.6077683000000013 0.6477949000000022 0.550625500000002
0.6095998000000012 0.6470290000000022 0.549659800000002
0.6082012000000012 0.6484276000000022 0.548794000000002
0.6087340000000012 0.6509251000000023 0.548694100000002
0.6096664000000013 0.6522571000000023 0.549226900000002
0.6104989000000013 0.6544216000000023 0.549293500000002
0.6104323000000013 0.6569857000000022 0.549859600000002
0.6130630000000012 0.6570523000000023 0.550991800000002
0.6143284000000012 0.6568525000000023 0.550126000000002
0.6172255000000012 0.6598828000000023 0.5526568000000021
0.6172255000000012 0.6609484000000023 0.552057400000002
0.6195898000000012 0.6618475000000024 0.553023100000002
0.6216211000000011 0.6644116000000023 0.554688100000002
0.6235525000000012 0.6647779000000024 0.556486300000002
0.6238855000000012 0.6654106000000024 0.557085700000002
0.6243850000000012 0.6673753000000024 0.557052400000002
0.6255172000000012 0.6701059000000025 0.5595832000000021
0.6251509000000012 0.6693733000000025 0.5599495000000021
0.6264829000000012 0.6707719000000025 0.5605489000000021
0.6275818000000012 0.6725701000000025 0.5596498000000021
0.6278482000000012 0.6723037000000025 0.562746700000002
0.6284143000000012 0.6733693000000025 0.562913200000002
0.6287806000000012 0.6729031000000025 0.565377400000002
0.6298795000000013 0.6713713000000026 0.568307800000002
0.6297463000000012 0.6736690000000025 0.5689738000000021
0.6308785000000012 0.6759667000000025 0.5698063000000021
0.6334093000000013 0.6783976000000025 0.5714047000000021
0.6348745000000013 0.6801625000000024 0.5734693000000021
0.6363730000000013 0.6807952000000025 0.573968800000002
0.6372388000000013 0.6802291000000025 0.5753674000000021
0.6399028000000013 0.6800959000000024 0.5764330000000021
0.6423670000000014 0.6802624000000024 0.576865900000002
0.6423004000000013 0.6793633000000023 0.5790970000000021
0.6438988000000013 0.6783643000000024 0.578963800000002
0.6452641000000013 0.6804622000000023 0.579430000000002
0.6468958000000014 0.6815611000000024 0.581161600000002
0.6458302000000014 0.6826933000000024 0.5834260000000021
0.6476284000000013 0.6847579000000024 0.5822605000000021
0.6494266000000013 0.6850576000000024 0.5823937000000021
0.6513580000000013 0.6835924000000023 0.5835592000000022
0.6515911000000013 0.6826267000000024 0.5851909000000022
0.6531229000000013 0.6823270000000023 0.5843251000000022
0.6529897000000012 0.6822271000000023 0.5859235000000022
0.6541552000000013 0.6825268000000023 0.5854906000000022
0.6557536000000013 0.6822937000000023 0.5871889000000022
0.6584176000000013 0.6844582000000023 0.5870890000000022
0.6613147000000013 0.6858568000000024 0.5875885000000022
0.6635125000000013 0.6860566000000023 0.5883211000000022
0.6636124000000013 0.6876217000000023 0.5892202000000022
0.6627133000000013 0.6873220000000023 0.5902192000000022
0.6632461000000013 0.6882877000000023 0.5900527000000022
0.6636790000000012 0.6912847000000023 0.5918842000000022
0.6640453000000013 0.6917509000000023 0.5926834000000022
0.6633460000000013 0.6918508000000023 0.5944483000000021
0.6637456000000014 0.6915844000000023 0.5956138000000022
0.6625468000000013 0.6934825000000023 0.5959801000000022
0.6632461000000013 0.6924835000000024 0.5978449000000022
0.6655438000000012 0.6939487000000024 0.5967793000000022
0.6655771000000013 0.6938488000000024 0.5980447000000022
0.6650443000000013 0.6953806000000023 0.5990104000000022
0.6660433000000012 0.6967459000000024 0.5989438000000021
0.6677416000000013 0.6981445000000024 0.5988772000000021
0.6680413000000013 0.6975451000000024 0.6009751000000021
0.6701059000000013 0.6985774000000023 0.6019075000000021
0.6714046000000012 0.6977116000000023 0.6028066000000022
0.6717376000000013 0.6986107000000024 0.6045049000000022
0.6710050000000013 0.6988438000000023 0.6072022000000022
0.6714046000000014 0.7010083000000024 0.6091336000000023
0.6741352000000014 0.7034725000000024 0.6108319000000023
0.6755671000000014 0.7048711000000024 0.6105988000000023
0.6771655000000014 0.7039720000000024 0.6094000000000023
0.6782977000000014 0.7027066000000024 0.6103657000000022
0.6795298000000014 0.7035391000000024 0.6101992000000023
0.6795631000000014 0.7042051000000025 0.6090004000000022
0.6795964000000014 0.7032061000000025 0.6114313000000022
0.6819274000000014 0.7039720000000025 0.6131629000000023
0.6822271000000014 0.7064362000000025 0.6128299000000023
0.6822937000000014 0.7088005000000025 0.6130963000000023
0.6818941000000014 0.7101325000000025 0.6152275000000023
0.6823270000000013 0.7105654000000025 0.6161932000000022
0.6812281000000013 0.7108318000000025 0.6172255000000022
0.6822604000000013 0.7127299000000025 0.6163930000000022
0.6827932000000013 0.7138288000000025 0.6160933000000022
0.6832927000000013 0.7141285000000025 0.6191902000000021
0.6843250000000013 0.7154605000000025 0.6211216000000022
0.6866227000000013 0.7165594000000025 0.6212881000000021
0.6868558000000012 0.7185241000000026 0.6223870000000021
0.6864895000000012 0.7196896000000026 0.6232861000000022
0.6882544000000012 0.7218541000000026 0.6232195000000021
0.6889204000000012 0.7225201000000027 0.6227200000000022
0.6901192000000013 0.7229197000000027 0.6234859000000021
0.6905188000000013 0.7216543000000027 0.6234526000000021
0.6895198000000013 0.7234858000000027 0.6261499000000021
0.6897529000000013 0.7257835000000027 0.6265162000000022
0.6892867000000014 0.7267492000000026 0.6269158000000022
0.6884875000000014 0.7294465000000027 0.6291802000000023
0.6908851000000014 0.7309450000000026 0.6294466000000023
0.6901858000000014 0.7322770000000026 0.6295132000000023
0.6918508000000014 0.7308451000000026 0.6308452000000023
0.6933493000000014 0.7333093000000026 0.6316777000000023
0.6935824000000014 0.7331761000000026 0.6329431000000023
0.6955138000000014 0.7344748000000025 0.6345082000000023
0.6955471000000014 0.7360066000000025 0.6357403000000023
0.6976117000000014 0.7381711000000025 0.6375385000000022
0.6996763000000014 0.7397362000000025 0.6387706000000022
0.7007086000000013 0.7404355000000025 0.6390370000000022
0.7009417000000013 0.7412347000000025 0.6408019000000021
0.7038721000000013 0.7426999000000025 0.6405355000000021
0.7039054000000013 0.7449976000000025 0.6412015000000022
0.7056703000000013 0.7455970000000025 0.6428998000000022
0.7059367000000013 0.7452973000000025 0.6445648000000023
0.7076017000000013 0.7456636000000025 0.6473287000000023
0.7079014000000013 0.7480612000000025 0.6484276000000023
0.7074685000000014 0.7486273000000025 0.6495598000000024
0.7059034000000014 0.7484275000000026 0.6502924000000023
0.7069357000000014 0.7486606000000026 0.6495931000000024
0.7068358000000013 0.7495930000000026 0.6510250000000024
0.7086007000000013 0.7512580000000026 0.6510583000000024
0.7084342000000013 0.7508584000000026 0.6510250000000024
0.7113979000000014 0.7527898000000026 0.6531562000000024
0.7145281000000013 0.7540219000000026 0.6528565000000024
0.7147945000000013 0.7553872000000026 0.6528898000000024
0.7157602000000013 0.7566859000000026 0.6544882000000024
0.7172587000000012 0.7551874000000026 0.6544882000000024
0.7199893000000013 0.7573186000000026 0.6542884000000024
0.7215544000000013 0.7582843000000026 0.6546547000000025
0.7238188000000013 0.7584175000000026 0.6568525000000025
0.7235524000000013 0.7583176000000026 0.6563863000000025
0.7250176000000014 0.7602490000000026 0.6571522000000025
0.7241851000000014 0.7616143000000026 0.6603157000000025
0.7241185000000013 0.7618807000000026 0.6599827000000025
0.7256503000000013 0.7634791000000026 0.6604156000000024
0.7247845000000013 0.7639786000000026 0.6603490000000024
0.7273153000000013 0.7649443000000026 0.6611815000000024
0.7282477000000014 0.7648777000000025 0.6613147000000025
0.7289470000000013 0.7651108000000025 0.6638455000000025
0.7286806000000013 0.7668091000000026 0.6662764000000025
0.7282477000000014 0.7665427000000026 0.6678082000000025
0.7287805000000014 0.7671421000000026 0.6682744000000025
0.7286140000000014 0.7697062000000026 0.6704722000000025
0.7282477000000014 0.7700059000000026 0.6723370000000025
0.7283143000000014 0.7687405000000026 0.6714712000000025
0.7308784000000014 0.7692733000000026 0.6716710000000025
0.7328098000000014 0.7690069000000026 0.6737356000000024
0.7360399000000014 0.7696729000000027 0.6748012000000024
0.7370056000000014 0.7709050000000026 0.6763663000000024
0.7385041000000013 0.7718707000000026 0.6767659000000025
0.7393699000000014 0.7716376000000026 0.6778648000000025
0.7384708000000013 0.7720372000000026 0.6796963000000025
0.7393366000000013 0.7738354000000026 0.6792634000000025
0.7383709000000014 0.7754671000000026 0.6794632000000025
0.7382710000000013 0.7762330000000026 0.6809950000000025
0.7388371000000014 0.7767325000000026 0.6831262000000025
0.7409683000000014 0.7758334000000026 0.6853240000000025
0.7426333000000014 0.7769989000000026 0.6873220000000025
0.7423336000000014 0.7769989000000026 0.6887206000000026
0.7427332000000014 0.7782643000000026 0.6890869000000026
0.7430329000000014 0.7797961000000025 0.6890536000000026
0.7426000000000015 0.7809283000000026 0.6884209000000026
0.7423003000000015 0.7826599000000026 0.6901192000000026
0.7423669000000015 0.7820272000000026 0.6908185000000026
0.7448311000000015 0.7826266000000026 0.6928498000000025
0.7472287000000015 0.7823269000000026 0.6936490000000025
0.7478614000000016 0.7846579000000026 0.6945481000000026
0.7491934000000016 0.7857568000000026 0.6962797000000026
0.7515244000000015 0.7863895000000026 0.6973120000000026
0.7533892000000015 0.7880545000000027 0.6999760000000026
0.7561864000000016 0.7874551000000026 0.7013080000000026
0.7579513000000015 0.7891534000000027 0.7031395000000026
0.7581511000000015 0.7883875000000027 0.7052041000000026
0.7576849000000015 0.7897195000000027 0.7040719000000025
0.7578181000000016 0.7917175000000027 0.7072021000000025
0.7594165000000016 0.7926832000000027 0.7093666000000025
0.7590169000000015 0.7954138000000027 0.7109650000000025
0.7583842000000015 0.7976782000000028 0.7112647000000025
0.7604488000000015 0.7972786000000027 0.7113979000000026
0.7621804000000015 0.7984108000000028 0.7127299000000026
0.7635790000000016 0.7994098000000027 0.7136956000000025
0.7644448000000016 0.8006419000000027 0.7151941000000025
0.7654438000000016 0.8023735000000027 0.7177582000000025
0.7659766000000016 0.8016742000000028 0.7181245000000025
0.7660099000000016 0.8033725000000028 0.7170922000000025
0.7679746000000016 0.8042716000000029 0.7195564000000025
0.7667092000000016 0.8029729000000029 0.7207552000000026
0.7677082000000016 0.8061031000000028 0.7227865000000026
0.7688737000000017 0.8073685000000028 0.7223869000000025
0.7693066000000016 0.8089003000000028 0.7214212000000025
0.7695064000000016 0.8100325000000028 0.7229197000000025
0.7707052000000016 0.8106319000000028 0.7227199000000025
0.7722037000000016 0.8124967000000028 0.7235524000000025
0.7738021000000016 0.8132959000000028 0.7238854000000026
0.7752340000000016 0.8127631000000028 0.7264162000000026
0.7771321000000017 0.8130295000000028 0.7269157000000026
0.7784641000000017 0.8136955000000029 0.7267159000000026
0.7775650000000016 0.8139286000000029 0.7286806000000027
0.7794631000000016 0.8139619000000029 0.7300459000000027
0.7808617000000017 0.8152273000000029 0.7323769000000027
0.7813612000000016 0.8146612000000029 0.7334092000000026
0.7825267000000017 0.8161597000000028 0.7333426000000026
0.7835590000000017 0.8167258000000028 0.7347412000000026
0.7842583000000016 0.8182909000000028 0.7365727000000026
0.7853572000000016 0.8179912000000028 0.7379380000000026
0.7856569000000017 0.8205553000000028 0.7400359000000026
0.7869223000000016 0.8213212000000027 0.7399693000000026
0.7898194000000016 0.8228530000000027 0.7408018000000026
0.7907851000000016 0.8239852000000027 0.7420672000000026
0.7901857000000015 0.8257834000000027 0.7430995000000026
0.7892866000000015 0.8264494000000028 0.7431661000000026
0.7900192000000015 0.8262496000000028 0.7446313000000027
0.7911181000000015 0.8260831000000028 0.7450309000000027
0.7930162000000015 0.8292133000000028 0.7453306000000027
0.7947811000000015 0.8299459000000028 0.7446646000000027
0.7964128000000015 0.8311780000000027 0.7447978000000027
0.7961797000000015 0.8321437000000027 0.7442983000000027
0.7968790000000014 0.8326099000000027 0.7451974000000028
0.7975117000000015 0.8329429000000027 0.7472287000000027
0.7990102000000014 0.8355736000000027 0.7466959000000027
0.7997095000000014 0.8353738000000027 0.7459633000000028
0.8003755000000015 0.8361064000000027 0.7466959000000027
0.8026399000000015 0.8363395000000027 0.7476616000000027
0.8022736000000015 0.8374384000000027 0.7465960000000027
0.8032060000000015 0.8364061000000027 0.7470622000000027
0.8040718000000016 0.8374051000000027 0.7479946000000027
0.8049376000000016 0.8375383000000027 0.7478614000000027
0.8038054000000016 0.8385373000000027 0.7505254000000027
0.8028730000000015 0.8402356000000027 0.7516909000000027
0.8031727000000015 0.8406352000000028 0.7520572000000028
0.8028730000000015 0.8395363000000028 0.7519573000000027
0.8031061000000015 0.8407684000000027 0.7548544000000027
0.8062696000000015 0.8403355000000028 0.7566526000000027
0.8090668000000015 0.8421337000000028 0.7586173000000027
0.8113978000000015 0.8442649000000028 0.7578847000000027
0.8133292000000015 0.8461963000000028 0.7594165000000027
0.8122636000000015 0.8478613000000028 0.7618141000000027
0.8124967000000015 0.8505919000000028 0.7633792000000027
0.8136955000000016 0.8498926000000029 0.7634125000000027
0.8147278000000016 0.8516242000000029 0.7652440000000027
0.8164261000000016 0.8510914000000029 0.7663096000000027
0.8162929000000015 0.851957200000003 0.7662763000000027
0.8158267000000016 0.851690800000003 0.7678081000000027
0.8171254000000016 0.853655500000003 0.7680745000000027
0.8162929000000015 0.852623200000003 0.7706053000000027
0.8163595000000016 0.853322500000003 0.7695064000000027
0.8164261000000016 0.853888600000003 0.7698727000000027
0.8165260000000016 0.855820000000003 0.7709716000000028
0.8183575000000016 0.857618200000003 0.7730362000000027
0.8197228000000016 0.857751400000003 0.7729363000000027
0.8218207000000016 0.8577847000000031 0.7742017000000027
0.8216542000000017 0.858484000000003 0.7743016000000027
0.8235190000000017 0.858750400000003 0.7750009000000027
0.8238853000000017 0.859816000000003 0.7764994000000026
0.8267824000000017 0.858250900000003 0.7774318000000027
0.8256835000000017 0.8607817000000031 0.7785307000000027
0.8279479000000017 0.8613811000000031 0.7807285000000027
0.8278813000000017 0.8621137000000031 0.7813279000000027
0.8305453000000017 0.8631127000000031 0.7821604000000028
0.8318107000000017 0.8655436000000031 0.7824934000000028
0.8317108000000016 0.867874600000003 0.7830595000000028
0.8343748000000016 0.8701390000000031 0.7851574000000028
0.8347078000000017 0.8705053000000031 0.7838920000000028
0.8344747000000017 0.8729695000000032 0.7859566000000028
0.8335756000000016 0.8749009000000032 0.7878880000000028
0.8339752000000017 0.8761330000000032 0.7901857000000028
0.8359066000000017 0.8768989000000031 0.7913512000000028
0.8362063000000017 0.8780311000000032 0.7927498000000028
0.8390701000000017 0.8776981000000031 0.7944148000000029
0.8420338000000017 0.8761330000000032 0.7944481000000029
0.8429995000000017 0.8753338000000032 0.7953472000000029
0.8425666000000017 0.8770321000000032 0.796013200000003
0.8427331000000017 0.8791633000000032 0.798444100000003
0.8424001000000017 0.8793298000000032 0.801474400000003
0.8433991000000016 0.8802289000000032 0.8034058000000031
0.8456302000000017 0.8829262000000032 0.804937600000003
0.8465293000000017 0.8844247000000032 0.8071354000000031
0.8465293000000017 0.8862895000000032 0.8090335000000031
0.8491933000000017 0.8864227000000032 0.8117308000000031
0.8488936000000017 0.8887870000000032 0.8119972000000031
0.8503921000000016 0.8885206000000032 0.811864000000003
0.8513245000000017 0.8898859000000032 0.811830700000003
0.8533558000000017 0.8913511000000033 0.812696500000003
0.8558200000000017 0.8926165000000033 0.813429100000003
0.8553871000000017 0.8920504000000032 0.812530000000003
0.8559199000000017 0.8932159000000033 0.8153605000000029
0.8556535000000017 0.8931826000000033 0.8168923000000029
0.8548543000000017 0.8938153000000033 0.8200225000000029
0.8551540000000017 0.8945146000000033 0.8200558000000029
0.8560531000000018 0.8958133000000033 0.8222203000000029
0.8564527000000018 0.8974117000000033 0.8230528000000029
0.8570188000000019 0.8976781000000033 0.8246845000000029
0.8593831000000018 0.8979445000000033 0.8234857000000029
0.8595829000000018 0.8998093000000033 0.8251507000000029
0.8600158000000018 0.8995762000000033 0.8275483000000029
0.8610481000000018 0.8997427000000032 0.8274484000000029
0.8640451000000018 0.9019072000000032 0.8276482000000028
0.8655436000000017 0.9029062000000032 0.8276815000000028
0.8667091000000018 0.9029062000000032 0.8291800000000028
0.8687737000000018 0.9032059000000032 0.8312446000000028
0.8690401000000018 0.9059365000000033 0.8320771000000028
0.8699392000000018 0.9047710000000032 0.8353405000000028
0.8720371000000018 0.9076015000000032 0.8357734000000028
0.8734357000000018 0.9093997000000031 0.8368390000000028
0.8736022000000018 0.9112978000000032 0.8360065000000028
0.8741017000000018 0.9116974000000032 0.8355070000000028
0.8758999000000017 0.9107317000000033 0.8360065000000028
0.8767657000000018 0.9093664000000032 0.8371054000000028
0.8771986000000017 0.9097660000000033 0.8395696000000028
0.8784973000000017 0.9095329000000033 0.8411014000000028
0.8804620000000017 0.9109981000000034 0.8432659000000028
0.8814943000000017 0.9111313000000034 0.8440984000000028
0.8816608000000017 0.9136288000000035 0.8446645000000028
0.8812279000000017 0.9133624000000035 0.8452639000000028
0.8804620000000017 0.9123634000000035 0.8463961000000029
0.8807284000000017 0.9124966000000035 0.8454970000000028
0.8803621000000017 0.9144613000000036 0.8469955000000028
0.8801623000000017 0.9133291000000036 0.8473285000000028
0.8830261000000017 0.9127630000000035 0.8485273000000029
0.8848243000000017 0.9126631000000035 0.8491933000000029
0.8855236000000016 0.9142948000000035 0.8493931000000029
0.8883208000000017 0.9144280000000036 0.8489602000000029
0.8882542000000017 0.9141949000000036 0.851191300000003
0.8885206000000017 0.9144280000000036 0.852922900000003
