0.0096004 0.009334 0.0115651
0.0105994 0.0087346 0.0123643
0.0098002 0.0097336 0.0141958
0.0084016 0.0100999 0.0152281
0.0112987 0.0102997 0.0152947
0.014329 0.0119647 0.0175591
0.015661 0.0120313 0.018991
0.015527800000000001 0.0109657 0.0207559
0.0177922 0.0119314 0.0215884
0.0173593 0.0132967 0.0214885
0.0192907 0.012664 0.0208891
0.0192574 0.0143623 0.0230203
0.0207892 0.0171262 0.0235198
0.0200566 0.0173593 0.0234865
0.0201232 0.0165268 0.023653
0.0201232 0.0157942 0.0251515
0.020656 0.014995000000000001 0.0265834
0.0208558 0.0171595 0.0257509
0.0218548 0.019657 0.0267499
0.0233533 0.0211555 0.0276157
0.0238861 0.0208225 0.0299467
0.0252181 0.0227539 0.0308458
0.0247186 0.0252181 0.0307126
0.0265501 0.0263503 0.0326773
0.0286147 0.0274825 0.0327106
0.0295471 0.0278488 0.0332434
0.0302797 0.0271495 0.0334432
0.028981 0.0286147 0.0355078
0.029647 0.0294139 0.0370396
0.0288478 0.0310456 0.0368731
0.0297136 0.031312 0.0368398
0.0323776 0.0346087 0.036973
0.0342091 0.0351415 0.0361738
0.0359074 0.0351082 0.0355078
0.036307 0.0358408 0.0371728
0.0374392 0.0352081 0.0375724
0.038305 0.0353413 0.0373726
0.0391708 0.0365401 0.0388045
0.038638 0.0367066 0.0398368
0.0402031 0.0372061 0.0411688
0.0418015 0.0374725 0.0419014
0.0428005 0.0372061 0.0449983
0.0437995 0.0368065 0.0473293
0.046963 0.0384715 0.0466966
0.0478621 0.0407026 0.0474625
0.0489943 0.0427339 0.0472294
0.0492607 0.0440659 0.0476956
0.048628 0.0454312 0.0491275
0.0508924 0.0465634 0.0486613
0.0505927 0.0473626 0.048628
0.0505927 0.0494605 0.0505261
0.0525574 0.047962 0.052624
0.0550216 0.0494938 0.0552547
0.0570862 0.0503263 0.0568531
0.058617999999999996 0.0519247 0.0573193
0.060216399999999996 0.0509257 0.058884399999999996
0.061015599999999996 0.0504928 0.060948999999999996
0.0631135 0.0529903 0.061348599999999996
0.0638794 0.0537562 0.062081199999999996
0.0649783 0.0563869 0.061082199999999996
0.065944 0.057619 0.0630136
0.0681418 0.059417199999999996 0.0640792
0.0682084 0.059550399999999996 0.0664435
0.0690742 0.062047899999999996 0.0673426
0.0708724 0.0639793 0.0686413
0.0710389 0.0649783 0.0674092
0.073936 0.06661 0.0674092
0.0744022 0.0667432 0.0665434
0.0755011 0.06661 0.0675757
0.0770995 0.0673759 0.0680086
0.0777322 0.068608 0.0683083
0.0766666 0.0698734 0.0700066
0.0777655 0.070939 0.0710056
0.0777988 0.0715051 0.0703729
0.0768997 0.0739693 0.0692407
0.0792307 0.0745354 0.0703729
0.0816949 0.0759007 0.0712387
0.0835264 0.0756343 0.0700399
0.082927 0.0770329 0.0693406
0.0828271 0.0778321 0.0679753
0.0842257 0.0799633 0.0693406
0.0843256 0.0804295 0.0710389
0.086923 0.0803629 0.0716716
0.0884881 0.0793972 0.0735364
0.0886213 0.0818947 0.0722377
0.0885214 0.0818947 0.0732034
0.0894538 0.084592 0.0751348
0.0888211 0.0852247 0.0759007
0.0906859 0.0852247 0.0761005
0.0903529 0.0851581 0.0751681
0.0921178 0.0856243 0.0770662
0.0946486 0.0854245 0.0771328
0.0948484 0.0841258 0.0778321
0.0944155 0.0855577 0.0798301
0.0964468 0.085591 0.0797968
0.0975124 0.0874891 0.0796636
0.0966466 0.0878887 0.0808624
0.0971128 0.0907858 0.0831934
0.0973459 0.0923176 0.0849916
0.0971794 0.0940825 0.0837928
0.097912 0.0953146 0.0843589
0.0983449 0.0977122 0.0850249
0.0998434 0.0972127 0.0868231
0.0988444 0.0977122 0.0892873
0.1005094 0.0993439 0.088921
0.1029403 0.0986113 0.0896869
0.1025407 0.1004095 0.0910522
0.101908 0.0998767 0.0904195
0.104572 0.101908 0.0907525
0.1056043 0.1025074 0.0925174
0.1060039 0.101908 0.0941824
0.1086346 0.1013086 0.0938161
0.1104661 0.0999766 0.0936496
0.1124974 0.1000432 0.0926506
0.1124308 0.0998767 0.0958807
0.1123642 0.1014418 0.0989776
0.112231 0.1007425 0.0984448
0.1135963 0.1011754 0.0994771
0.1152613 0.1010422 0.0979786
0.1174924 0.1026073 0.0986779
0.1177588 0.1038394 0.0988444
0.1173925 0.1040392 0.0999766
0.1196569 0.1053379 0.0991441
0.1186912 0.1045054 0.0987112
0.1189576 0.1048717 0.1003762
0.1197901 0.1053712 0.0992773
0.118891 0.1067032 0.1009423
0.1183249 0.1084348 0.1003762
0.1189909 0.1099 0.0991108
0.1201564 0.1101664 0.0998767
0.1207225 0.1122643 0.098911
0.1207558 0.1124308 0.1017082
0.1206559 0.1124308 0.1027405
0.1213885 0.1144954 0.1016083
0.1225873 0.1150615 0.103906
0.1256842 0.1166599 0.1057708
0.1267498 0.11656 0.1080019
0.1270495 0.11656 0.1090009
0.12721600000000002 0.1156942 0.1088677
0.12968020000000002 0.1170928 0.109234
0.13104550000000004 0.1172926 0.1109989
0.13201120000000005 0.1174258 0.1114651
0.13137850000000004 0.1178587 0.1107325
0.13131190000000004 0.1207225 0.1126639
0.13304350000000004 0.1211221 0.1119646
0.13444210000000004 0.1214551 0.1104994
0.13437550000000004 0.1241524 0.1115983
0.13530790000000004 0.1263169 0.1109656
0.13644010000000004 0.12908080000000002 0.112231
0.13850470000000004 0.13101220000000002 0.1145287
0.13807180000000002 0.13134520000000002 0.1153279
0.13807180000000002 0.1301797 0.1167598
0.13933720000000002 0.13247740000000002 0.1171594
0.1392373 0.13364290000000004 0.1195237
0.14006980000000002 0.13354300000000002 0.1211887
0.1397701 0.13390930000000004 0.1207225
0.1390708 0.13514140000000005 0.1207891
0.13777209999999998 0.13534120000000005 0.1230868
0.14036949999999998 0.13820500000000005 0.1239859
0.1420678 0.13920400000000005 0.1264168
0.1441657 0.13933720000000005 0.1267165
0.1435663 0.14156830000000006 0.1278487
0.1454977 0.14273380000000008 0.1280485
0.14666320000000002 0.14243410000000006 0.1299133
0.1464301 0.14300020000000008 0.1327771
0.1473625 0.1449649000000001 0.13420900000000002
0.1468297 0.1474957000000001 0.13707280000000002
0.14772880000000002 0.1494271000000001 0.13940380000000002
0.14846140000000002 0.1511920000000001 0.14106880000000002
0.15005980000000002 0.1519912000000001 0.14153500000000002
0.15145840000000002 0.1509922000000001 0.14190130000000004
0.1508923 0.15115870000000012 0.14263390000000004
0.15232420000000002 0.15269050000000012 0.14313340000000005
0.15412240000000002 0.15235750000000012 0.14513140000000005
0.15392260000000002 0.15135850000000012 0.14762890000000006
0.15398920000000002 0.15159160000000013 0.14939380000000008
0.15542110000000003 0.15155830000000012 0.1520911000000001
0.15785200000000005 0.15115870000000012 0.1537894000000001
0.15895090000000006 0.15149170000000012 0.1535563000000001
0.16148170000000006 0.15422230000000012 0.1532233000000001
0.16204780000000008 0.15585400000000013 0.1535896000000001
0.16181470000000006 0.15851800000000013 0.15388930000000012
0.16424560000000007 0.15901750000000014 0.15585400000000013
0.1646119000000001 0.15905080000000016 0.15502150000000012
0.1652779000000001 0.15998320000000016 0.15548770000000012
0.1655443000000001 0.16048270000000017 0.15628690000000012
0.1659439000000001 0.16238080000000019 0.15821830000000012
0.1669429000000001 0.1632799000000002 0.15971680000000013
0.16670980000000007 0.1625473000000002 0.16058260000000013
0.16667650000000006 0.1635130000000002 0.15958360000000013
0.16907410000000006 0.16601050000000023 0.16004980000000013
0.17083900000000007 0.16757560000000024 0.16281370000000014
0.17003980000000007 0.16847470000000025 0.16278040000000013
0.1723375000000001 0.17037280000000027 0.16384600000000013
0.1744687000000001 0.16970680000000027 0.16474510000000014
0.1755676000000001 0.16890760000000027 0.16471180000000013
0.17606710000000012 0.16947370000000028 0.16587730000000014
0.17633350000000012 0.17067250000000028 0.16581070000000014
0.17686630000000012 0.17307010000000028 0.16471180000000013
0.17640010000000012 0.17420230000000028 0.16690960000000013
0.1749682000000001 0.1761004000000003 0.16900750000000014
0.17806510000000011 0.17606710000000028 0.16954030000000014
0.17876440000000013 0.17653330000000028 0.16914070000000014
0.17916400000000013 0.17779870000000028 0.17057260000000016
0.18049600000000013 0.17913070000000028 0.17307010000000017
0.18019630000000011 0.18186130000000028 0.17297020000000016
0.18022960000000013 0.18136180000000027 0.17570080000000016
0.18256060000000013 0.18029620000000027 0.17756560000000016
0.18349300000000013 0.17963020000000027 0.17876440000000016
0.18552430000000014 0.18116200000000027 0.18049600000000016
0.18732250000000014 0.18139510000000028 0.18112870000000017
0.18619030000000014 0.1818280000000003 0.18162820000000018
0.18542440000000013 0.1836928000000003 0.1829935000000002
0.18782200000000013 0.1863901000000003 0.1853245000000002
0.18692290000000011 0.1865899000000003 0.1855909000000002
0.18908740000000013 0.18708940000000032 0.1853245000000002
0.19098550000000014 0.18865450000000034 0.1876888000000002
0.19358290000000014 0.18942040000000035 0.1888876000000002
0.19364950000000014 0.18925390000000034 0.1894870000000002
0.19414900000000015 0.18958690000000034 0.1889875000000002
0.19474840000000015 0.19041940000000035 0.1891207000000002
0.19641340000000015 0.19121860000000035 0.1907857000000002
0.19727920000000015 0.19281700000000035 0.1930168000000002
0.19937710000000017 0.19411570000000036 0.1937494000000002
0.19801180000000015 0.19305010000000036 0.1943488000000002
0.19927720000000015 0.19458190000000036 0.19524790000000022
0.20120860000000015 0.19434880000000035 0.19817830000000022
0.20390590000000017 0.19484830000000036 0.19977670000000022
0.20517130000000017 0.19638010000000036 0.20297350000000022
0.20776870000000017 0.19794520000000038 0.20184130000000022
0.20836810000000017 0.19764550000000036 0.20207440000000024
0.20753560000000015 0.20024290000000036 0.20403910000000025
0.20783530000000017 0.20050930000000036 0.20397250000000025
0.20783530000000017 0.20227420000000038 0.20497150000000025
0.20740240000000015 0.2044387000000004 0.20473840000000024
0.20630350000000014 0.2046718000000004 0.20553760000000024
0.20680300000000015 0.2051380000000004 0.20780200000000024
0.20820160000000015 0.20783530000000042 0.20763550000000022
0.20743570000000014 0.20810170000000042 0.20823490000000022
0.20780200000000015 0.20993320000000043 0.20893420000000024
0.20826820000000015 0.20913400000000043 0.20966680000000024
0.20999980000000015 0.20850130000000042 0.21006640000000024
0.21009970000000017 0.20963350000000042 0.20960020000000024
0.21223090000000017 0.20966680000000043 0.21139840000000024
0.21246400000000018 0.20856790000000042 0.21063250000000022
0.2143621000000002 0.21103210000000042 0.21076570000000022
0.2165932000000002 0.21216430000000042 0.21193120000000024
0.21729250000000022 0.21376270000000042 0.21166480000000024
0.21845800000000024 0.21532780000000043 0.21199780000000024
0.21779200000000024 0.21675970000000044 0.21482830000000025
0.21772540000000024 0.21765880000000046 0.21449530000000025
0.21885760000000024 0.21665980000000046 0.21632680000000026
0.22045600000000024 0.21626020000000046 0.21872440000000026
0.21972340000000024 0.21835810000000047 0.22055590000000028
0.22058920000000024 0.21985660000000048 0.2228536000000003
0.22088890000000025 0.22178800000000048 0.2229535000000003
0.22055590000000025 0.2218213000000005 0.2248183000000003
0.22005640000000024 0.2230867000000005 0.2260171000000003
0.21952360000000024 0.2228203000000005 0.2260837000000003
0.22138840000000024 0.2249515000000005 0.22711600000000032
0.22325320000000023 0.2264500000000005 0.23011300000000032
0.22335310000000025 0.22821490000000053 0.23094550000000033
0.22485160000000026 0.2280484000000005 0.23187790000000033
0.22528450000000028 0.2271826000000005 0.23227750000000033
0.22641670000000028 0.2283148000000005 0.23241070000000033
0.22734910000000028 0.2303128000000005 0.23251060000000034
0.2295802000000003 0.2305792000000005 0.23267710000000036
0.2312785000000003 0.2318446000000005 0.23374270000000036
0.2328769000000003 0.23460850000000052 0.23377600000000037
0.23337640000000032 0.23634010000000052 0.23327650000000036
0.23524120000000032 0.23807170000000052 0.23347630000000036
0.23560750000000033 0.23853790000000052 0.23347630000000036
0.23567410000000033 0.23996980000000054 0.23394250000000036
0.23793850000000033 0.24066910000000055 0.23297680000000034
0.23960350000000033 0.23990320000000054 0.23450860000000034
0.23933710000000033 0.24003640000000054 0.23440870000000033
0.24036940000000034 0.24153490000000055 0.23464180000000034
0.24233410000000036 0.24356620000000057 0.23527450000000036
0.24260050000000036 0.24250060000000057 0.23574070000000036
0.24313330000000036 0.24333310000000058 0.23723920000000037
0.24220090000000036 0.24223420000000057 0.23773870000000039
0.24323320000000037 0.24276700000000057 0.2383714000000004
0.24406570000000039 0.24369940000000057 0.2400031000000004
0.24396580000000037 0.24483160000000057 0.24050260000000043
0.24469840000000037 0.24599710000000058 0.24359950000000044
0.24609700000000037 0.2474290000000006 0.24493150000000044
0.24599710000000036 0.24686290000000058 0.24659650000000044
0.24519790000000036 0.24719590000000058 0.24583060000000043
0.24583060000000037 0.24692950000000058 0.24483160000000043
0.24626350000000038 0.24872770000000058 0.24539770000000044
0.24596380000000037 0.24856120000000057 0.24652990000000044
0.24772870000000038 0.2515915000000006 0.24786190000000044
0.2478286000000004 0.2531233000000006 0.24802840000000045
0.2482282000000004 0.2544220000000006 0.25012630000000047
0.2497600000000004 0.2544886000000006 0.25039270000000047
0.24906070000000038 0.25482160000000065 0.24936040000000045
0.25042600000000037 0.25678630000000063 0.25075900000000045
0.25255720000000037 0.25855120000000065 0.25145830000000047
0.25508800000000037 0.26078230000000063 0.2501596000000005
0.25625350000000036 0.2620810000000006 0.2514250000000005
0.2577853000000004 0.26387920000000065 0.2529235000000005
0.2581849000000004 0.26278030000000063 0.2544886000000005
0.25718590000000036 0.2621809000000006 0.25615360000000054
0.25878430000000036 0.2618146000000006 0.25835140000000056
0.25988320000000037 0.26454520000000065 0.25805170000000055
0.26241400000000037 0.2662102000000007 0.25841800000000054
0.2631133000000004 0.2678086000000007 0.25858450000000055
0.26268040000000037 0.2695402000000007 0.26074900000000056
0.26317990000000036 0.2715715000000007 0.2613484000000006
0.26411230000000036 0.2710054000000007 0.2631466000000006
0.26308000000000037 0.2706391000000007 0.26374600000000065
0.2654110000000004 0.2718379000000007 0.26451190000000063
0.2664766000000004 0.2715382000000007 0.26491150000000063
0.2663767000000004 0.2715382000000007 0.26770870000000063
0.26750890000000044 0.2715382000000007 0.26641000000000065
0.26724250000000044 0.2722708000000007 0.26817490000000066
0.26830810000000044 0.2719378000000007 0.26774200000000065
0.26697610000000044 0.2734363000000007 0.26964010000000066
0.26617690000000044 0.2754343000000007 0.27107200000000065
0.2646784000000004 0.2750014000000007 0.27267040000000065
0.26501140000000045 0.2759671000000007 0.27350290000000066
0.26391250000000044 0.2789974000000007 0.27506800000000065
0.2645452000000004 0.27856450000000066 0.2773990000000007
0.2670427000000004 0.27783190000000063 0.2775322000000007
0.26777530000000044 0.27973000000000064 0.2776987000000007
0.26700940000000045 0.28012960000000064 0.27763210000000066
0.26780860000000045 0.27963010000000066 0.2779651000000007
0.26844130000000044 0.28216090000000066 0.2782981000000007
0.27023950000000047 0.2826271000000007 0.2813617000000007
0.27113860000000045 0.2821276000000007 0.2802628000000007
0.27223750000000047 0.2847916000000007 0.2795302000000007
0.2729701000000005 0.2860237000000007 0.2792971000000007
0.2733364000000005 0.2864566000000007 0.2785978000000007
0.27330310000000047 0.2883214000000007 0.27706600000000065
0.27396910000000047 0.2892538000000007 0.27786520000000065
0.2725372000000005 0.28972000000000075 0.27949690000000066
0.2752678000000005 0.28935370000000077 0.2799631000000007
0.27560080000000053 0.28895410000000077 0.2817280000000007
0.27496810000000055 0.28828810000000077 0.2825272000000007
0.27523450000000055 0.2892871000000008 0.2843254000000007
0.27776530000000055 0.2905858000000008 0.2840257000000007
0.27859780000000056 0.29161810000000077 0.2833930000000007
0.2791972000000006 0.29088550000000074 0.28262710000000074
0.2810953000000006 0.29334970000000077 0.28332640000000076
0.28196110000000063 0.2956807000000008 0.28252720000000076
0.2814949000000006 0.2976787000000008 0.28229410000000077
0.28182790000000063 0.2978452000000008 0.28242730000000077
0.2828602000000006 0.29817820000000084 0.28465840000000076
0.2828602000000006 0.2979784000000008 0.28562410000000077
0.2822941000000006 0.2988109000000008 0.2864566000000008
0.2822941000000006 0.2997100000000008 0.2860903000000008
0.2825938000000006 0.2997100000000008 0.28522450000000077
0.2828269000000006 0.2987443000000008 0.28668970000000077
0.2815282000000006 0.3003427000000008 0.2875555000000008
0.2833597000000006 0.3010753000000008 0.2881549000000008
0.28422550000000063 0.30204100000000084 0.28778860000000084
0.28675630000000063 0.30237400000000086 0.2890873000000008
0.28622350000000063 0.30370600000000086 0.2882548000000008
0.2857573000000006 0.3052378000000009 0.2910520000000008
0.2882881000000006 0.3060703000000009 0.2911519000000008
0.2909521000000006 0.3059038000000009 0.29068570000000077
0.2921842000000006 0.3062368000000009 0.29201770000000077
0.29168470000000063 0.3090340000000009 0.2916514000000008
0.29238400000000064 0.3099331000000009 0.2944486000000008
0.29451520000000064 0.3119644000000009 0.29521450000000077
0.29464840000000064 0.3126304000000009 0.29521450000000077
0.29651320000000064 0.31283020000000095 0.29771200000000075
0.29677960000000064 0.31392910000000096 0.2993770000000008
0.29781190000000063 0.315161200000001 0.29974330000000077
0.30024280000000064 0.316126900000001 0.3000763000000008
0.30054250000000066 0.317825200000001 0.3017080000000008
0.29977660000000067 0.318291400000001 0.30337300000000084
0.29917720000000064 0.320922100000001 0.30363940000000084
0.30004300000000067 0.322487200000001 0.3025072000000008
0.30057580000000067 0.32365270000000096 0.3027403000000008
0.3016747000000007 0.32538430000000096 0.3036727000000008
0.30044260000000067 0.32631670000000096 0.3031399000000008
0.30097540000000067 0.325018000000001 0.30307330000000077
0.3027403000000007 0.32428540000000095 0.30224080000000075
0.30244060000000067 0.324618400000001 0.3035062000000008
0.3031732000000007 0.325850500000001 0.3028402000000008
0.3036727000000007 0.326316700000001 0.3044719000000008
0.3035728000000007 0.326150200000001 0.3034396000000008
0.3057706000000007 0.32768200000000103 0.3033397000000008
0.3063034000000007 0.32768200000000103 0.3031399000000008
0.3076354000000007 0.328447900000001 0.3055708000000008
0.3075022000000007 0.32901400000000103 0.3079684000000008
0.30726910000000074 0.33157810000000104 0.3078352000000008
0.3079018000000007 0.331111900000001 0.3075355000000008
0.3078352000000007 0.333909100000001 0.3086344000000008
0.3086344000000007 0.334042300000001 0.3081016000000008
0.30803500000000067 0.33624010000000104 0.3070360000000008
0.3098332000000007 0.33870430000000107 0.3058039000000008
0.3110320000000007 0.34133500000000105 0.3068362000000008
0.3109987000000007 0.34110190000000107 0.3088342000000008
0.3130633000000007 0.3432997000000011 0.30920050000000077
0.3157606000000007 0.3422674000000011 0.3095335000000008
0.31636000000000075 0.3447982000000011 0.3111985000000008
0.31572730000000077 0.3474955000000011 0.31296340000000084
0.31532770000000077 0.34876090000000115 0.31336300000000084
0.31809160000000075 0.3480283000000011 0.31369600000000086
0.3212218000000008 0.3493603000000011 0.3150946000000009
0.32088880000000075 0.3506923000000011 0.3149281000000009
0.32088880000000075 0.35245720000000114 0.31409560000000086
0.32225410000000076 0.35235730000000115 0.31402900000000084
0.3240523000000008 0.35275690000000115 0.31522780000000084
0.3259504000000008 0.35512120000000114 0.3169261000000008
0.32908060000000083 0.35435530000000115 0.3167263000000008
0.32981320000000086 0.3534895000000011 0.3170260000000008
0.3314449000000009 0.3552211000000011 0.31789180000000083
0.3332431000000009 0.3559870000000011 0.3194569000000008
0.3326104000000009 0.3568195000000011 0.32162140000000083
0.33144490000000093 0.3591838000000011 0.32188780000000083
0.3314116000000009 0.3600829000000011 0.32361940000000083
0.3323107000000009 0.3626137000000011 0.3242521000000008
0.33237730000000093 0.3640123000000011 0.3256840000000008
0.3331432000000009 0.3636793000000011 0.3277153000000008
0.33370930000000093 0.3642121000000011 0.3303460000000008
0.33417550000000096 0.3662767000000011 0.3312451000000008
0.33434200000000097 0.36737560000000113 0.3334429000000008
0.334675000000001 0.3672091000000011 0.3355741000000008
0.333609400000001 0.36727570000000115 0.33494140000000083
0.333309700000001 0.3697399000000012 0.33670630000000085
0.335640700000001 0.3693736000000012 0.33564070000000085
0.337638700000001 0.3689740000000012 0.33647320000000086
0.33770530000000104 0.3707389000000012 0.3382714000000009
0.340336000000001 0.3726037000000012 0.3398032000000009
0.34120180000000105 0.37346950000000123 0.34133500000000094
0.34116850000000104 0.3743686000000012 0.34170130000000093
0.342600400000001 0.37613350000000123 0.3409687000000009
0.34316650000000104 0.37550080000000124 0.3422674000000009
0.345530800000001 0.37513450000000126 0.3435994000000009
0.345364300000001 0.37513450000000126 0.3421342000000009
0.34662970000000104 0.3762334000000013 0.3438991000000009
0.34862770000000104 0.3750679000000013 0.3433996000000009
0.348328000000001 0.3760003000000013 0.3457639000000009
0.348561100000001 0.37580050000000126 0.3472291000000009
0.34942690000000104 0.37829800000000124 0.34809490000000093
0.35082550000000107 0.38069560000000124 0.34826140000000094
0.35305660000000105 0.38099530000000126 0.34826140000000094
0.35212420000000105 0.38079550000000123 0.34769530000000093
0.35145820000000105 0.38219410000000126 0.35035930000000093
0.35382250000000104 0.3825271000000013 0.35082550000000096
0.35342290000000104 0.3827935000000013 0.35282350000000096
0.35332300000000105 0.38409220000000127 0.35372260000000094
0.35518780000000105 0.3841255000000013 0.35508790000000096
0.35615350000000107 0.3863233000000013 0.35605360000000097
0.35731900000000105 0.3884545000000013 0.358884100000001
0.36008290000000104 0.3891538000000013 0.35868430000000096
0.36108190000000107 0.38988640000000135 0.35958340000000094
0.3631132000000011 0.3903526000000014 0.35891740000000094
0.36254710000000107 0.3922840000000014 0.35961670000000096
0.3651445000000011 0.3942487000000014 0.361548100000001
0.3639457000000011 0.3938491000000014 0.36148150000000095
0.3652777000000011 0.3932830000000014 0.36174790000000095
0.3660103000000011 0.3945151000000014 0.361814500000001
0.3658771000000011 0.3956473000000014 0.364478500000001
0.3659770000000011 0.3965464000000014 0.364911400000001
0.36631000000000113 0.3949813000000014 0.365277700000001
0.36647650000000115 0.3965464000000014 0.367042600000001
0.36537760000000113 0.3983779000000014 0.368008300000001
0.36444520000000113 0.3988441000000014 0.369739900000001
0.36464500000000116 0.40077550000000145 0.371904400000001
0.3664432000000012 0.4017745000000015 0.37300330000000104
0.3692404000000012 0.4046383000000015 0.372004300000001
0.3711385000000012 0.4031398000000015 0.371971000000001
0.3704059000000012 0.4043053000000015 0.372437200000001
0.3710719000000012 0.4043719000000015 0.374401900000001
0.3716047000000012 0.4055707000000015 0.374535100000001
0.37197100000000116 0.4063699000000015 0.37513450000000104
0.37370260000000116 0.40776850000000153 0.37593370000000104
0.37326970000000115 0.41059900000000155 0.37610020000000105
0.37336960000000113 0.41286340000000155 0.37620010000000104
0.3753343000000011 0.41366260000000155 0.375733900000001
0.37566730000000115 0.41469490000000153 0.374801500000001
0.37490140000000116 0.4139956000000015 0.375334300000001
0.3769660000000012 0.4150612000000015 0.374501800000001
0.3793636000000012 0.41802490000000153 0.375367600000001
0.3802960000000012 0.41862430000000156 0.37646650000000104
0.38022940000000116 0.41965660000000155 0.37659970000000104
0.37966330000000115 0.41875750000000156 0.376566400000001
0.38259370000000115 0.41845780000000155 0.37899730000000104
0.38302660000000116 0.41925700000000155 0.37996300000000105
0.3830599000000012 0.42042250000000153 0.38036260000000105
0.3820276000000012 0.4198564000000015 0.38099530000000104
0.3840589000000012 0.42138820000000154 0.38142820000000105
0.3830266000000012 0.4237192000000016 0.38212750000000106
0.38399230000000123 0.4257505000000016 0.38342620000000105
0.3838258000000012 0.4243186000000016 0.38392570000000104
0.3852577000000012 0.4262500000000016 0.38329300000000105
0.3858238000000012 0.42658300000000166 0.38452510000000106
0.3869893000000012 0.42928030000000167 0.38425870000000106
0.3869560000000012 0.43207750000000167 0.3865564000000011
0.3884545000000012 0.4314448000000017 0.38638990000000106
0.3889873000000012 0.4328101000000017 0.3872224000000011
0.3883879000000012 0.4331764000000017 0.3872557000000011
0.38942020000000116 0.4345417000000017 0.3865564000000011
0.39208420000000116 0.4355407000000017 0.38758870000000106
0.3913183000000012 0.43560730000000175 0.38652310000000106
0.3941488000000012 0.4379383000000018 0.38822140000000105
0.3937492000000012 0.43670620000000177 0.38818810000000104
0.3948481000000012 0.43830460000000177 0.388421200000001
0.3972124000000012 0.43976980000000176 0.390286000000001
0.3978451000000012 0.4390039000000018 0.391051900000001
0.3992104000000012 0.4400695000000018 0.39378250000000103
0.4012084000000012 0.4392703000000018 0.39564730000000103
0.40087540000000116 0.4391704000000018 0.395480800000001
0.40363930000000114 0.4387375000000018 0.39764530000000103
0.40517110000000117 0.4391704000000018 0.399743200000001
0.40473820000000116 0.4386043000000018 0.40047580000000105
0.40503790000000117 0.4405357000000018 0.40087540000000105
0.40646980000000116 0.44060230000000183 0.40323970000000103
0.4072024000000012 0.4427002000000018 0.40463830000000106
0.40716910000000117 0.4419010000000018 0.40433860000000105
0.4073356000000012 0.4407022000000018 0.40450510000000106
0.40996630000000117 0.4406689000000018 0.40646980000000105
0.40943350000000117 0.4414348000000018 0.40856770000000103
0.40916710000000117 0.4419343000000018 0.40913380000000105
0.4096333000000012 0.4426669000000018 0.41046580000000105
0.4122973000000012 0.4449646000000018 0.41256370000000103
0.4127635000000012 0.44596360000000185 0.41269690000000103
0.41279680000000124 0.44732890000000186 0.41246380000000105
0.4126303000000012 0.4477951000000019 0.41389570000000103
0.41452840000000124 0.4494268000000019 0.413296300000001
0.4134295000000012 0.4517911000000019 0.413562700000001
0.4143619000000012 0.4522573000000019 0.41456170000000103
0.4160602000000012 0.4522573000000019 0.41309650000000103
0.41825800000000124 0.45392230000000194 0.41432860000000105
0.41909050000000125 0.45498790000000194 0.41739220000000105
0.41932360000000124 0.45588700000000193 0.4191904000000011
0.41932360000000124 0.4582513000000019 0.4194568000000011
0.42172120000000124 0.4592836000000019 0.4205224000000011
0.42145480000000124 0.4580515000000019 0.42102190000000106
0.4203226000000012 0.4574854000000019 0.4213549000000011
0.42145480000000124 0.4587175000000019 0.4226536000000011
0.42282010000000125 0.4608820000000019 0.4228534000000011
0.42438520000000124 0.4607821000000019 0.42518440000000113
0.4258171000000012 0.46191430000000194 0.42598360000000113
0.42491800000000124 0.46371250000000197 0.4280815000000011
0.4248514000000012 0.464711500000002 0.42974650000000114
0.4265497000000012 0.465643900000002 0.43044580000000116
0.4287808000000012 0.466409800000002 0.43001290000000114
0.4298797000000012 0.468074800000002 0.43137820000000116
0.4306123000000012 0.467109100000002 0.43137820000000116
0.4307455000000012 0.468241300000002 0.43387570000000114
0.4322107000000012 0.46870750000000205 0.4328767000000011
0.4327102000000012 0.47040580000000204 0.4347415000000011
0.4333429000000012 0.47147140000000204 0.4365730000000011
0.4337758000000012 0.47220400000000207 0.4378051000000011
0.4335094000000012 0.47540080000000207 0.4380715000000011
0.4326103000000012 0.47803150000000205 0.4398031000000011
0.4345750000000012 0.47773180000000204 0.4396033000000011
0.43464160000000124 0.47843110000000205 0.4395034000000011
0.4352743000000012 0.47906380000000204 0.4403359000000011
0.4368394000000012 0.47936350000000205 0.4402360000000011
0.4391371000000012 0.48039580000000204 0.44296660000000115
0.4396366000000012 0.47933020000000204 0.44376580000000115
0.4391704000000012 0.48046240000000207 0.44496460000000115
0.43857100000000115 0.48006280000000207 0.44579710000000117
0.4386376000000012 0.48056230000000205 0.44696260000000115
0.4396366000000012 0.48159460000000204 0.44842780000000115
0.4406689000000012 0.48219400000000207 0.4490272000000012
0.4422673000000012 0.48256030000000205 0.45019270000000117
0.4435327000000012 0.48445840000000207 0.45139150000000117
0.44569720000000124 0.48375910000000205 0.45139150000000117
0.4477951000000012 0.48612340000000204 0.4543885000000012
0.4490938000000012 0.48885400000000206 0.4540888000000012
0.4483279000000012 0.4909186000000021 0.4547548000000012
0.4505923000000012 0.4916512000000021 0.4547548000000012
0.4521907000000012 0.4915846000000021 0.45472150000000117
0.45279010000000125 0.4921507000000021 0.45378910000000117
0.4547215000000013 0.4910518000000021 0.45272350000000117
0.4569193000000013 0.4913515000000021 0.45252370000000114
0.45818470000000133 0.4911850000000021 0.45265690000000114
0.46098190000000133 0.4913848000000021 0.45145810000000114
0.46138150000000133 0.4911850000000021 0.45232390000000117
0.46258030000000133 0.4921840000000021 0.45145810000000114
0.46384570000000136 0.49238380000000215 0.4507255000000011
0.4624138000000014 0.49195090000000213 0.4503259000000011
0.4632130000000014 0.4906855000000021 0.4522240000000011
0.46384570000000136 0.4899862000000021 0.45332290000000114
0.46411210000000136 0.4910518000000021 0.4552876000000011
0.4636126000000014 0.4928833000000021 0.45585370000000114
0.4637791000000014 0.49458160000000206 0.45482140000000115
0.4642120000000014 0.49494790000000205 0.45575380000000115
0.4644451000000014 0.49684600000000206 0.45592030000000117
0.4642120000000014 0.4987441000000021 0.45585370000000114
0.4636792000000014 0.49841110000000205 0.45678610000000114
0.4659103000000014 0.500608900000002 0.45815140000000115
0.4656439000000014 0.499376800000002 0.46091530000000114
0.4672756000000014 0.499643200000002 0.46331290000000114
0.4669426000000014 0.498011500000002 0.4664764000000011
0.4688407000000014 0.500342500000002 0.4677751000000011
0.4702726000000014 0.501408100000002 0.4669093000000011
0.47010610000000136 0.500941900000002 0.46807480000000107
0.47197090000000136 0.500275900000002 0.46830790000000105
0.47207080000000134 0.501208300000002 0.47127160000000107
0.4732030000000014 0.5010418000000021 0.47247040000000107
0.4734028000000014 0.5014081000000021 0.4734361000000011
0.4739689000000014 0.5011750000000021 0.4755673000000011
0.4739689000000014 0.5026402000000022 0.4778983000000011
0.47430190000000144 0.5030065000000022 0.4787308000000011
0.47616670000000144 0.5035060000000022 0.4789639000000011
0.47550070000000144 0.5029066000000022 0.4789306000000011
0.47456830000000144 0.5048713000000022 0.4806622000000011
0.47326960000000146 0.5050711000000022 0.4822273000000011
0.47450170000000147 0.5064364000000022 0.48419200000000107
0.47500120000000146 0.5064364000000022 0.48499120000000107
0.47636650000000147 0.5066695000000022 0.48469150000000105
0.47806480000000146 0.5086009000000022 0.484624900000001
0.47996290000000147 0.5092336000000023 0.486323200000001
0.4802626000000015 0.5105656000000023 0.485823700000001
0.4821940000000015 0.5116978000000023 0.48838780000000104
0.4815280000000015 0.5120641000000024 0.49091860000000104
0.4813282000000015 0.5109319000000023 0.490452400000001
0.4807954000000015 0.5097331000000023 0.490086100000001
0.48236050000000147 0.5096998000000023 0.48958660000000104
0.4822606000000015 0.5092003000000023 0.49175110000000105
0.48276010000000147 0.5095999000000023 0.49311640000000106
0.48249370000000147 0.5095999000000023 0.49364920000000106
0.48222730000000147 0.5080015000000023 0.49358260000000104
0.48236050000000147 0.5078683000000023 0.49561390000000105
0.48246040000000145 0.5095333000000023 0.49677940000000104
0.48322630000000144 0.5106988000000023 0.497145700000001
0.48459160000000145 0.5105323000000024 0.497278900000001
0.48419200000000145 0.5128966000000024 0.49921030000000105
0.48295990000000144 0.5139955000000024 0.500409100000001
0.48365920000000145 0.5151610000000024 0.500941900000001
0.48462490000000147 0.5163265000000025 0.503073100000001
0.48579040000000145 0.5155606000000025 0.5037058000000011
0.48818800000000145 0.5142286000000025 0.502540300000001
0.48868750000000144 0.5146282000000025 0.502507000000001
0.49095190000000144 0.5161267000000025 0.505603900000001
0.49205080000000145 0.5182912000000025 0.504371800000001
0.4917178000000014 0.5168260000000025 0.5050378000000011
0.4924837000000014 0.5171590000000025 0.506269900000001
0.4937158000000014 0.5175919000000024 0.5060368000000011
0.4956805000000014 0.5197897000000025 0.5082346000000011
0.49747870000000144 0.5211883000000025 0.5098996000000011
0.49781170000000147 0.5205223000000024 0.5106988000000011
0.5001427000000015 0.5212216000000024 0.5130298000000011
0.5007754000000015 0.5239855000000024 0.513462700000001
0.5006755000000015 0.5236192000000024 0.515760400000001
0.5016079000000015 0.5249512000000024 0.517059100000001
0.5036392000000015 0.5241187000000024 0.517991500000001
0.5063032000000015 0.5238190000000024 0.5197231000000011
0.5079016000000015 0.5232196000000023 0.5208553000000011
0.5095999000000015 0.5245183000000023 0.5225536000000012
0.5122972000000016 0.5248513000000024 0.5248846000000011
0.5130631000000015 0.5261500000000023 0.5247847000000011
0.5146948000000016 0.5257837000000023 0.5242852000000011
0.5149279000000015 0.5252176000000023 0.5265163000000012
0.5146615000000015 0.5278483000000023 0.5253175000000011
0.5140954000000015 0.5294134000000023 0.5252176000000011
0.5156938000000015 0.5312449000000022 0.523852300000001
0.5155273000000016 0.5331430000000023 0.525384100000001
0.5157271000000015 0.5343751000000022 0.526516300000001
0.5173255000000015 0.5365729000000022 0.529346800000001
0.5186575000000015 0.5384710000000023 0.5302792000000011
0.5188906000000015 0.5392702000000023 0.5319109000000011
0.5211217000000016 0.5408686000000023 0.5343085000000011
0.5208553000000016 0.5404024000000023 0.5361733000000011
0.5230531000000016 0.5403691000000023 0.5353741000000011
0.5256505000000016 0.5421673000000022 0.537405400000001
0.5242186000000015 0.5422006000000023 0.539470000000001
0.5254507000000015 0.5436658000000023 0.539037100000001
0.5266828000000014 0.5432995000000023 0.540036100000001
0.5273821000000014 0.5445982000000023 0.540469000000001
0.5287474000000014 0.5432995000000023 0.540269200000001
0.5309785000000015 0.5426335000000022 0.5404024000000011
0.5313781000000015 0.5446315000000023 0.5417677000000011
0.5335426000000015 0.5455639000000023 0.540568900000001
0.5345749000000015 0.5479948000000023 0.541401400000001
0.5342752000000015 0.5493268000000023 0.543466000000001
0.5361067000000015 0.5523904000000024 0.545563900000001
0.5367061000000015 0.5515912000000024 0.548494300000001
0.5356072000000015 0.5540887000000024 0.548794000000001
0.5347414000000015 0.5544217000000025 0.547828300000001
0.5340421000000015 0.5545549000000025 0.549326800000001
0.5348413000000015 0.5558203000000025 0.5502592000000011
0.5355406000000015 0.5580514000000025 0.551491300000001
0.5357404000000014 0.5582845000000025 0.551025100000001
0.5377051000000015 0.5577850000000025 0.551458000000001
0.5394034000000015 0.5597497000000026 0.554221900000001
0.5389039000000015 0.5604157000000026 0.554721400000001
0.5412682000000015 0.5618476000000027 0.557851600000001
0.5432995000000015 0.5618476000000027 0.557951500000001
0.5439988000000014 0.5632795000000027 0.558650800000001
0.5436325000000014 0.5640454000000027 0.557085700000001
0.5457304000000014 0.5635792000000027 0.555920200000001
0.5474953000000014 0.5649778000000028 0.555886900000001
0.5504923000000014 0.5666761000000028 0.5576851000000009
0.5522239000000014 0.5665096000000028 0.5592169000000009
0.5514913000000015 0.5685076000000029 0.560915200000001
0.5516578000000014 0.5683744000000028 0.563179600000001
0.5533561000000015 0.5711383000000029 0.562180600000001
0.5533228000000014 0.5721373000000028 0.563146300000001
0.5544550000000015 0.5719042000000029 0.565510600000001
0.5542552000000015 0.5717710000000028 0.567042400000001
0.5552209000000015 0.5706055000000028 0.567142300000001
0.5556538000000014 0.5703058000000027 0.568074700000001
0.5557204000000014 0.5716711000000028 0.568274500000001
0.5572189000000014 0.5728366000000028 0.5683744000000011
0.5581846000000014 0.5752675000000028 0.5689405000000011
0.5577517000000014 0.5761666000000029 0.569906200000001
0.5584843000000014 0.5778982000000029 0.571804300000001
0.5596165000000014 0.5768992000000029 0.572004100000001
0.5622139000000014 0.5779315000000029 0.573069700000001
0.5647447000000014 0.5792968000000029 0.5750677000000011
0.5677417000000015 0.581827600000003 0.5773321000000011
0.5692069000000015 0.582993100000003 0.5782645000000012
0.5700061000000015 0.582626800000003 0.5802292000000012
0.5705389000000015 0.584491600000003 0.5814613000000012
0.5710384000000015 0.584558200000003 0.5814613000000012
0.5718709000000015 0.586356400000003 0.5828932000000012
0.5708053000000015 0.588554200000003 0.5831263000000012
0.5721373000000015 0.587688400000003 0.5847913000000012
0.5730697000000016 0.588254500000003 0.5859568000000013
0.5755672000000016 0.588054700000003 0.5879548000000013
0.5766661000000016 0.5889871000000031 0.5888206000000014
0.5769325000000016 0.5889205000000031 0.5912182000000014
0.5772655000000017 0.5916511000000031 0.5900527000000013
0.5775652000000017 0.5928166000000031 0.5893201000000013
0.5796631000000017 0.5915512000000032 0.5908519000000013
0.5799628000000017 0.5910850000000032 0.5935159000000013
0.5821939000000017 0.5902858000000032 0.5925502000000014
0.5839255000000018 0.5916511000000032 0.5944150000000014
0.5834260000000018 0.5940154000000032 0.5955805000000014
0.5845249000000018 0.5936158000000031 0.5969791000000014
0.5841586000000017 0.5948146000000032 0.5983777000000015
0.5867893000000017 0.5961799000000032 0.5990770000000014
0.5863564000000018 0.5981113000000032 0.5987107000000014
0.5869891000000018 0.5972455000000032 0.5999761000000013
0.5889205000000018 0.5999095000000032 0.5997430000000014
0.5892868000000019 0.6002425000000032 0.6019075000000014
0.5917177000000019 0.6005089000000032 0.6014746000000014
0.5927167000000019 0.6014413000000033 0.6006421000000014
0.5942152000000018 0.6031396000000033 0.6037723000000014
0.5950144000000018 0.6054373000000033 0.6064696000000014
0.5965795000000018 0.6078016000000033 0.6064363000000014
0.5982112000000018 0.6079015000000033 0.6072022000000014
0.5973454000000018 0.6091003000000034 0.6076351000000013
0.5986774000000018 0.6092002000000034 0.6104656000000013
0.5989771000000018 0.6089338000000034 0.6103990000000012
0.6000760000000018 0.6106321000000035 0.6121972000000012
0.6011749000000018 0.6101659000000035 0.6139954000000012
0.6038056000000018 0.6096997000000035 0.6155938000000012
0.6052708000000019 0.6108985000000036 0.6168592000000012
0.6059368000000019 0.6117976000000036 0.6189238000000011
0.6059368000000019 0.6110317000000036 0.6215212000000011
0.607402000000002 0.6109651000000036 0.6224203000000011
0.610032700000002 0.6121306000000036 0.6217543000000011
0.610299100000002 0.6106987000000036 0.6223537000000011
0.6131296000000019 0.6120973000000036 0.6238855000000011
0.613962100000002 0.6122971000000036 0.6234193000000011
0.6141619000000019 0.6148279000000036 0.6234526000000011
0.6159601000000019 0.6158269000000036 0.6235858000000012
0.6172255000000019 0.6163597000000036 0.6246847000000012
0.6162931000000018 0.6157936000000036 0.6246847000000012
0.6170257000000018 0.6169591000000036 0.6265495000000012
0.6163597000000017 0.6174253000000036 0.6279148000000012
0.6194566000000017 0.6190570000000036 0.6267493000000012
0.6201892000000017 0.6186241000000037 0.6286141000000012
0.6217543000000016 0.6188572000000037 0.6302791000000012
0.6214213000000016 0.6197230000000037 0.6303790000000012
0.6220873000000017 0.6214213000000037 0.6298795000000013
0.6221872000000017 0.6205555000000037 0.6308119000000013
0.6236191000000018 0.6198895000000036 0.6309118000000014
0.6232528000000017 0.6209884000000037 0.6317443000000014
0.6265495000000018 0.6239854000000037 0.6317110000000014
0.6270157000000017 0.6237856000000037 0.6325102000000014
0.6274153000000018 0.6252841000000037 0.6321772000000013
0.6301126000000018 0.6252841000000037 0.6346081000000013
0.6306454000000018 0.6255838000000037 0.6343417000000013
0.6329431000000018 0.6284809000000037 0.6349078000000014
0.6333427000000018 0.6302125000000037 0.6372721000000013
0.6347080000000018 0.6295798000000037 0.6375718000000014
0.6347746000000019 0.6292135000000036 0.6391369000000013
0.6334426000000019 0.6310450000000036 0.6399028000000013
0.6325768000000018 0.6301126000000036 0.6416344000000014
0.6354406000000018 0.6300127000000035 0.6442651000000014
0.6351076000000018 0.6297796000000035 0.6466960000000014
0.6358735000000018 0.6302125000000035 0.6487606000000014
0.6362398000000018 0.6316777000000036 0.6491269000000014
0.6371722000000019 0.6328765000000036 0.6506587000000014
0.6379381000000018 0.6322105000000036 0.6519907000000014
0.6388039000000019 0.6325102000000036 0.6517576000000014
0.6389038000000019 0.6310783000000035 0.6531229000000014
0.6385375000000019 0.6324103000000035 0.6527899000000014
0.6408352000000018 0.6333094000000036 0.6513580000000013
0.6419341000000018 0.6346081000000036 0.6531229000000013
0.6418675000000018 0.6370723000000036 0.6549877000000013
0.6431329000000018 0.6371389000000036 0.6562198000000012
0.6436657000000018 0.6373387000000036 0.6562864000000013
0.6447979000000018 0.6387373000000036 0.6573520000000013
0.6447646000000018 0.6386041000000036 0.6580846000000012
0.6441652000000018 0.6397363000000036 0.6576184000000013
0.6457636000000018 0.6407353000000036 0.6582178000000013
0.6467959000000018 0.6432994000000035 0.6608818000000013
0.6480613000000017 0.6446314000000035 0.6609817000000013
0.6488272000000017 0.6455971000000035 0.6625135000000013
0.6489271000000018 0.6466294000000035 0.6647113000000013
0.6475951000000018 0.6491935000000034 0.6653440000000014
0.6475285000000017 0.6490936000000034 0.6660766000000014
0.6503923000000017 0.6492268000000034 0.6663097000000013
0.6496930000000017 0.6478948000000034 0.6671422000000014
0.6490936000000017 0.6495265000000034 0.6669091000000014
0.6491602000000017 0.6483943000000034 0.6684409000000013
0.6489604000000018 0.6502258000000034 0.6704722000000013
0.6496264000000018 0.6506920000000034 0.6697396000000013
0.6514246000000018 0.6508585000000033 0.6707386000000013
0.6522571000000018 0.6531229000000034 0.6713713000000013
0.6525235000000018 0.6533227000000034 0.6729031000000013
0.6540553000000018 0.6556870000000034 0.6730030000000014
0.6565195000000018 0.6568192000000034 0.6730030000000014
0.6582844000000018 0.6583177000000033 0.6731362000000014
0.6609817000000018 0.6599827000000034 0.6747679000000014
0.6620473000000018 0.6619141000000034 0.6773986000000014
0.6617143000000018 0.6624136000000034 0.6770323000000014
0.6640786000000017 0.6634459000000034 0.6787639000000014
0.6647446000000018 0.6631129000000033 0.6774319000000014
0.6648445000000018 0.6625468000000033 0.6770989000000014
0.6647113000000018 0.6641119000000033 0.6790969000000014
0.6659767000000018 0.6647446000000033 0.6791302000000015
0.6667093000000017 0.6674086000000033 0.6807619000000015
0.6690403000000017 0.6686074000000034 0.6824269000000015
0.6702391000000018 0.6699394000000034 0.6844249000000016
0.6705055000000018 0.6698728000000034 0.6846580000000015
0.6715378000000017 0.6712048000000034 0.6856903000000015
0.6731695000000018 0.6739354000000034 0.6854572000000015
0.6747013000000017 0.6749011000000034 0.6879547000000016
0.6738355000000017 0.6768325000000034 0.6882211000000016
0.6742018000000017 0.6774985000000034 0.6895198000000016
0.6738355000000017 0.6797962000000034 0.6893200000000016
0.6758002000000017 0.6798628000000034 0.6888871000000016
0.6756337000000018 0.6818608000000035 0.6904522000000016
0.6746680000000018 0.6806287000000035 0.6903856000000016
0.6747013000000018 0.6814945000000036 0.6909850000000016
0.6754339000000018 0.6824935000000035 0.6922837000000016
0.6780979000000018 0.6825601000000036 0.6945814000000016
0.6802957000000018 0.6852574000000036 0.6940153000000016
0.6822937000000019 0.6871222000000036 0.6967126000000016
0.6817942000000019 0.6878215000000035 0.6970123000000016
0.6834259000000019 0.6900193000000036 0.6989437000000016
0.6841252000000019 0.6931495000000035 0.6992767000000016
0.6857902000000019 0.6942484000000035 0.7012414000000017
0.6854572000000019 0.6956137000000036 0.7031728000000017
0.6857236000000019 0.6964129000000036 0.7054372000000018
0.6882211000000019 0.6986773000000036 0.7078015000000017
0.6902857000000019 0.7014412000000037 0.7097662000000018
0.692283700000002 0.7001425000000037 0.7089670000000018
0.6927166000000019 0.7006753000000037 0.7100992000000018
0.694414900000002 0.7002757000000036 0.7092667000000018
0.696379600000002 0.7020739000000036 0.7110649000000018
0.695413900000002 0.7021405000000036 0.7103989000000017
0.697545100000002 0.7027732000000037 0.7123636000000018
0.699409900000002 0.7053373000000036 0.7126300000000018
0.699443200000002 0.7053706000000036 0.7136290000000017
0.698544100000002 0.7075684000000036 0.7152607000000017
0.697778200000002 0.7067359000000036 0.7166260000000018
0.698777200000002 0.7086340000000036 0.7168258000000017
0.700142500000002 0.7087339000000037 0.7175251000000017
0.700675300000002 0.7086340000000036 0.7200892000000017
0.702939700000002 0.7098994000000036 0.7199893000000016
0.703172800000002 0.7110982000000037 0.7212547000000016
0.704205100000002 0.7108651000000037 0.7207219000000016
0.705537100000002 0.7133959000000037 0.7232194000000016
0.7075351000000021 0.7142617000000038 0.7247512000000016
0.708267700000002 0.7134958000000038 0.7267825000000016
0.7107319000000021 0.7160266000000038 0.7273819000000016
0.7113979000000021 0.7174918000000039 0.7280146000000016
0.7134625000000021 0.7203556000000039 0.7271821000000016
0.7138954000000021 0.7208884000000039 0.7288471000000016
0.714894400000002 0.7208884000000039 0.7294798000000017
0.717058900000002 0.7215211000000039 0.7294798000000017
0.719190100000002 0.721920700000004 0.7311448000000017
0.7195897000000021 0.720821800000004 0.7302457000000017
0.7215877000000022 0.722020600000004 0.7290469000000016
0.7212214000000021 0.722986300000004 0.7288804000000016
0.7209883000000021 0.722686600000004 0.7321105000000017
0.7204888000000021 0.725084200000004 0.7321438000000017
0.7221205000000022 0.725483800000004 0.7331428000000016
0.7243516000000022 0.725317300000004 0.7349410000000016
0.7239520000000021 0.725550400000004 0.7361398000000017
0.7236856000000021 0.726582700000004 0.7357735000000016
0.7256836000000022 0.727048900000004 0.7382044000000016
0.7255171000000022 0.726216400000004 0.7374718000000017
0.7278481000000022 0.726882400000004 0.7398361000000017
0.7291801000000022 0.725450500000004 0.7397362000000016
0.7302124000000022 0.727881400000004 0.7404688000000016
0.7320772000000022 0.729379900000004 0.7421671000000016
0.7345081000000022 0.732410200000004 0.7432660000000016
0.7366060000000022 0.734441500000004 0.7418008000000016
0.7391368000000023 0.736372900000004 0.7444315000000016
0.7395697000000022 0.735940000000004 0.7464295000000016
0.7396030000000022 0.737538400000004 0.7484275000000017
0.7391701000000023 0.738903700000004 0.7476949000000017
0.7408684000000023 0.740935000000004 0.7495597000000017
0.7404022000000023 0.743832100000004 0.7491601000000017
0.7401358000000023 0.744664600000004 0.7502590000000017
0.7401691000000024 0.744964300000004 0.7493932000000016
0.7411015000000024 0.745463800000004 0.7489936000000016
0.7414345000000024 0.746263000000004 0.7489270000000016
0.7421671000000024 0.746263000000004 0.7483609000000015
0.7450309000000024 0.748194400000004 0.7488937000000015
0.7445980000000024 0.751091500000004 0.7501258000000015
0.7444981000000024 0.752689900000004 0.7498927000000015
0.7447645000000024 0.755587000000004 0.7511914000000015
0.7453972000000024 0.755287300000004 0.7518574000000016
0.7471288000000025 0.754421500000004 0.7524568000000016
0.7473952000000025 0.756652600000004 0.7520905000000015
0.7467958000000025 0.758317600000004 0.7520239000000015
0.7481278000000025 0.7586839000000041 0.7518907000000015
0.7475617000000024 0.758017900000004 0.7535224000000015
0.7496263000000024 0.7584175000000041 0.7553206000000015
0.7510249000000024 0.7605820000000041 0.7561531000000015
0.7523236000000024 0.7621471000000041 0.7583842000000015
0.7537555000000025 0.763912000000004 0.7613146000000015
0.7545880000000025 0.7634458000000041 0.7611814000000015
0.7553872000000025 0.764145100000004 0.7618141000000015
0.7558201000000024 0.762946300000004 0.7634791000000015
0.7567858000000024 0.764644600000004 0.7645114000000015
0.7589503000000024 0.767741500000004 0.7663762000000015
0.7600492000000024 0.7692400000000039 0.7666093000000015
0.7594831000000024 0.7694398000000039 0.7691734000000015
0.7612813000000024 0.7704388000000039 0.7701724000000014
0.7631128000000024 0.7709383000000039 0.7706053000000014
0.7660432000000024 0.7718707000000039 0.7708384000000014
0.7672420000000024 0.7727032000000039 0.7725700000000014
0.7692733000000024 0.7726033000000039 0.7717708000000014
0.7701058000000024 0.7739353000000039 0.7723369000000014
0.7716043000000024 0.7743016000000039 0.7723702000000015
0.7717375000000024 0.7751341000000039 0.7752340000000014
0.7725367000000024 0.7742683000000039 0.7779646000000014
0.7738687000000024 0.7746013000000039 0.7800292000000014
0.7740352000000024 0.7735024000000039 0.7797628000000014
0.7740685000000024 0.7761331000000039 0.7807951000000014
0.7730695000000024 0.7756669000000039 0.7794964000000014
0.7721038000000024 0.777032200000004 0.7808617000000014
0.7733026000000025 0.776299600000004 0.7804954000000014
0.7738354000000025 0.775300600000004 0.7817608000000014
0.7753006000000026 0.776566000000004 0.7825600000000014
0.7758667000000026 0.777664900000004 0.7830262000000013
0.7769989000000026 0.777165400000004 0.7842583000000013
0.7791967000000026 0.776033200000004 0.7843249000000013
0.7792966000000027 0.775500400000004 0.7845247000000013
0.7800958000000027 0.777165400000004 0.7848244000000013
0.7817608000000027 0.776332900000004 0.7837921000000013
0.7831927000000027 0.776332900000004 0.7847911000000013
0.7842583000000027 0.776466100000004 0.7857235000000014
0.7846912000000027 0.7768324000000041 0.7863562000000014
0.7843915000000027 0.776732500000004 0.7876549000000014
0.7866892000000026 0.777165400000004 0.7865893000000014
0.7868557000000026 0.778797100000004 0.7871221000000014
0.7860565000000026 0.777465100000004 0.7882876000000014
0.7878214000000026 0.779929300000004 0.7890535000000014
0.7884208000000026 0.7818274000000041 0.7892533000000014
0.7887871000000026 0.782593300000004 0.7904188000000014
0.7887871000000026 0.7847911000000041 0.7898527000000014
0.7906852000000026 0.7839586000000041 0.7914178000000014
0.7930162000000026 0.784957600000004 0.7912513000000014
0.7931161000000027 0.786023200000004 0.7936156000000014
0.7924168000000027 0.786056500000004 0.7934491000000015
0.7922170000000027 0.7876882000000041 0.7939819000000015
0.7940818000000027 0.790019200000004 0.7936822000000014
0.7968124000000028 0.791018200000004 0.7962463000000014
0.7979113000000028 0.792383500000004 0.7970122000000014
0.7998427000000028 0.792883000000004 0.7969789000000014
0.8020405000000028 0.791983900000004 0.7954804000000014
0.8024068000000029 0.791451100000004 0.7976782000000014
0.8040718000000029 0.791850700000004 0.8006086000000014
0.8051707000000029 0.791218000000004 0.8000092000000014
0.806602600000003 0.7913845000000039 0.7996096000000014
0.806968900000003 0.7915843000000039 0.8015077000000014
0.806702500000003 0.7935157000000039 0.8026066000000014
0.808300900000003 0.7921504000000039 0.8058034000000014
0.807435100000003 0.794947600000004 0.8048377000000014
0.809166700000003 0.797178700000004 0.8051374000000014
0.8103655000000031 0.798943600000004 0.8062030000000014
0.8128963000000031 0.800408800000004 0.8087671000000014
0.8129629000000032 0.801740800000004 0.8087338000000014
0.8124967000000032 0.8037055000000041 0.8095996000000014
0.8120305000000032 0.8059699000000041 0.8105320000000015
0.8121637000000033 0.8064694000000041 0.8114311000000015
0.8123302000000032 0.8080678000000041 0.8131294000000016
0.8137621000000033 0.8090335000000041 0.8133958000000016
0.8131960000000032 0.810065800000004 0.8131627000000016
0.8148943000000033 0.8109649000000041 0.8151274000000016
0.8154937000000033 0.8113312000000041 0.8154604000000016
0.8139952000000034 0.8137288000000041 0.8170255000000016
0.8130961000000033 0.8152273000000041 0.8184574000000017
0.8145613000000034 0.8178913000000041 0.8189569000000017
0.8154271000000034 0.818590600000004 0.8186239000000016
0.8165260000000034 0.820388800000004 0.8203555000000017
0.8177248000000035 0.819589600000004 0.8202556000000016
0.8163262000000034 0.822253600000004 0.8212213000000016
0.8182909000000035 0.825084100000004 0.8231860000000016
0.8199559000000035 0.825350500000004 0.8250508000000016
0.8212213000000035 0.828114400000004 0.8261830000000017
0.8221537000000035 0.8282476000000041 0.8249509000000017
0.8228530000000035 0.8288137000000041 0.8270488000000017
0.8229196000000035 0.8282809000000041 0.8261830000000017
