0.0104662 0.0125308 0.0127639
0.0103996 0.0148618 0.0149284
0.0102331 0.0150616 0.0143623
0.0099667 0.0150949 0.0144955
0.0114652 0.0171595 0.0166267
0.0142291 0.0173593 0.017659
0.0145288 0.0179254 0.0192907
0.01666 0.0194239 0.0205228
0.0176257 0.0217216 0.0202231
0.0174259 0.022654 0.020656
0.0183583 0.0231202 0.0205561
0.0185914 0.0232867 0.0213553
0.0187579 0.0259174 0.0209557
0.0204229 0.0260839 0.0221878
0.0223543 0.0278821 0.0217882
0.0232534 0.0300466 0.0215551
0.0251515 0.0300133 0.021322
0.02665 0.0318448 0.0234865
0.0261505 0.0338761 0.0235531
0.0282484 0.0338761 0.0258841
0.0282484 0.0359074 0.0264835
0.0273826 0.0368731 0.0255511
0.0273826 0.037972 0.0259507
0.0295138 0.039304 0.0272161
0.0324442 0.0410356 0.0266833
0.0342757 0.0406027 0.0267832
0.0343756 0.0404695 0.0281485
0.0352414 0.041635 0.0288145
0.0367399 0.0433 0.0298468
0.037639 0.0453979 0.030313
0.0360739 0.0478954 0.030979
0.0381718 0.0508591 0.0310789
0.0397702 0.0499267 0.0314452
0.0401698 0.0530236 0.0336097
0.0421345 0.0536563 0.0345088
0.0421012 0.0547885 0.0338095
0.0418681 0.0575857 0.0352081
0.0441991 0.059050899999999996 0.0351748
0.0440326 0.059583699999999996 0.0366733
0.0435664 0.059050899999999996 0.037639
0.0453979 0.059716899999999996 0.0399367
0.047296 0.060116499999999996 0.041302
0.0493273 0.062181099999999996 0.0418348
0.0484615 0.0643789 0.0436996
0.0490609 0.0671428 0.0445321
0.0501598 0.068275 0.0448318
0.0521911 0.0687079 0.0448651
0.0535231 0.0687079 0.044299
0.0527572 0.0718714 0.046297
0.0518914 0.0723043 0.0481618
0.0505927 0.0727372 0.0503596
0.0506926 0.0751681 0.0505594
0.0505594 0.0766666 0.0509257
0.0510256 0.0779986 0.0507592
0.0516583 0.078265 0.0517582
0.051625 0.079264 0.0513919
0.05329 0.07993 0.051625
0.0529237 0.0802963 0.0515917
0.0527239 0.0822277 0.0527572
0.052957 0.0825274 0.0523243
0.0542224 0.0834598 0.0516916
0.0558541 0.0853579 0.0536896
0.0567199 0.0877888 0.0525241
0.0554545 0.0875557 0.0530236
0.0565867 0.0893539 0.0520579
0.0566533 0.0886879 0.0527905
0.0582184 0.0900532 0.0540226
0.0575524 0.0918847 0.0551548
0.0562204 0.092584 0.0556876
0.0575191 0.093583 0.0556876
0.0562537 0.0937828 0.0571195
0.0565867 0.0940492 0.059650299999999996
0.058318299999999997 0.0956809 0.059317299999999996
0.058384899999999997 0.0964135 0.057952
0.060549399999999996 0.0976456 0.060549399999999996
0.0627805 0.1006426 0.060083199999999996
0.0660772 0.1006759 0.058984299999999996
0.0671095 0.1004095 0.060116499999999996
0.0671428 0.1020079 0.061548399999999996
0.0683749 0.1020079 0.061781499999999996
0.06994 0.1008757 0.0636796
0.0718048 0.1016749 0.0638794
0.0714385 0.1022077 0.0648118
0.0739027 0.1034065 0.0676423
0.0758341 0.1051714 0.0697069
0.0748684 0.107236 0.0702064
0.077266 0.1092007 0.0693406
0.0790975 0.1107991 0.068608
0.0801631 0.1107991 0.0681418
0.0800299 0.1105993 0.0695737
0.0806293 0.1099 0.0714052
0.080263 0.1110988 0.0721378
0.0791974 0.1127971 0.0723043
0.0810289 0.1132966 0.0727705
0.0829936 0.1136962 0.0731701
0.0851248 0.1140958 0.0729703
0.0869563 0.1143955 0.0760006
0.0889543 0.1161937 0.0778321
0.0909523 0.1159606 0.0794638
0.0926839 0.1162603 0.081595
0.0939493 0.1168597 0.0800632
0.0962803 0.1188577 0.0827272
0.0979453 0.1196569 0.0825607
0.0970129 0.1217881 0.0823609
0.0990442 0.122887 0.0816283
0.0991774 0.1245187 0.0823609
0.0988777 0.1263169 0.0838927
0.0983116 0.12961360000000002 0.0847252
0.0974125 0.12921400000000002 0.0838594
0.0981784 0.12991330000000004 0.0855577
0.0994771 0.13137850000000004 0.0871228
0.0996769 0.13287700000000005 0.0876556
0.1013086 0.13507480000000005 0.0886879
0.1038061 0.13564090000000006 0.0906193
0.1027738 0.13544110000000006 0.0929836
0.1034731 0.13454200000000005 0.0934498
0.1037728 0.13700620000000005 0.0943489
0.1065367 0.13930390000000006 0.0949816
0.1066033 0.14080240000000008 0.0977122
0.1078687 0.1416349000000001 0.0980119
0.1078021 0.1438327000000001 0.0975457
0.1097335 0.1447318000000001 0.1000099
0.1114318 0.1454644000000001 0.1021744
0.1109989 0.14736250000000012 0.1019746
0.112564 0.14852800000000013 0.1033066
0.1124641 0.14892760000000013 0.1031401
0.1122643 0.14869450000000012 0.1042057
0.1129303 0.14942710000000012 0.1035397
0.1136962 0.1486612000000001 0.104239
0.1133965 0.15049270000000012 0.104905
0.1139293 0.15139180000000013 0.1036729
0.1137628 0.15255730000000015 0.1046386
0.1143622 0.15342310000000015 0.1055377
0.116227 0.15495490000000015 0.1075357
0.1176589 0.15701950000000015 0.1101331
0.1172926 0.15948370000000014 0.1113985
0.1188577 0.16124860000000016 0.110566
0.1202563 0.16334650000000017 0.111898
0.1199233 0.16337980000000019 0.1124974
0.1220878 0.1642789000000002 0.1139293
0.1251514 0.1667431000000002 0.1152613
0.1268497 0.1666765000000002 0.115561
0.1293805 0.1694737000000002 0.1157941
0.1306459 0.1703062000000002 0.1165267
0.1307791 0.1709056000000002 0.1183582
0.1309123 0.17140510000000023 0.1204894
0.1300465 0.17370280000000024 0.1213219
0.12988 0.17376940000000024 0.12322
0.1328104 0.17540110000000025 0.12322
0.1332766 0.17560090000000025 0.1231867
0.135208 0.17703280000000027 0.1253845
0.13517469999999998 0.17806510000000028 0.1264501
0.13420899999999997 0.1794304000000003 0.1259506
0.13567419999999997 0.1798633000000003 0.125551
0.13624029999999998 0.1801297000000003 0.1244521
0.13823829999999998 0.18116200000000032 0.1253845
0.1410022 0.18242740000000032 0.12688300000000002
0.1413685 0.18435880000000032 0.12964690000000004
0.1429669 0.18758890000000034 0.13201120000000005
0.1429003 0.19021960000000035 0.13204450000000006
0.1438993 0.18978670000000034 0.13101220000000005
0.1444987 0.19085230000000034 0.13184470000000006
0.14593060000000002 0.19191790000000034 0.13237750000000006
0.14609710000000004 0.19498150000000034 0.13424230000000006
0.14499820000000002 0.19721260000000035 0.13717270000000006
0.14549770000000004 0.19734580000000035 0.13717270000000006
0.14709610000000004 0.19924390000000036 0.13793860000000008
0.14666320000000002 0.20090890000000036 0.13770550000000006
0.14712940000000002 0.20197450000000036 0.13737250000000006
0.14639680000000002 0.20210770000000036 0.13960360000000008
0.14769550000000004 0.20433880000000038 0.14073580000000008
0.14889430000000003 0.2051713000000004 0.1419013000000001
0.14922730000000003 0.20480500000000038 0.1427338000000001
0.14892760000000002 0.2051047000000004 0.1438660000000001
0.14936050000000003 0.2066365000000004 0.14423230000000012
0.15149170000000003 0.2089342000000004 0.1439992000000001
0.15255730000000003 0.21076570000000042 0.1460638000000001
0.15435550000000003 0.21056590000000042 0.1475290000000001
0.15535450000000003 0.21153160000000043 0.14902750000000012
0.15488830000000003 0.21199780000000043 0.15182470000000012
0.15755230000000003 0.21276370000000044 0.15275710000000012
0.15681970000000003 0.21489490000000044 0.15478840000000013
0.15955030000000003 0.21632680000000046 0.15765220000000013
0.16094890000000003 0.21889090000000047 0.15865120000000013
0.16074910000000003 0.21902410000000047 0.15795190000000012
0.16181470000000003 0.22058920000000048 0.1577854000000001
0.16301350000000003 0.21955690000000047 0.1575523000000001
0.16541110000000003 0.22022290000000047 0.1596502000000001
0.16527790000000003 0.22198780000000048 0.16081570000000012
0.16491160000000002 0.22168810000000047 0.16084900000000013
0.1637461 0.22235410000000047 0.16334650000000014
0.16424560000000002 0.22498480000000048 0.16377940000000016
0.16614370000000003 0.22421890000000047 0.16457860000000016
0.16577740000000002 0.22535110000000047 0.16337980000000016
0.16607710000000003 0.22595050000000047 0.16517800000000016
0.16577740000000002 0.22701610000000047 0.16517800000000016
0.16634350000000003 0.22625020000000046 0.16710940000000016
0.16784200000000005 0.22641670000000047 0.16747570000000017
0.16900750000000006 0.22901410000000047 0.17030620000000019
0.16940710000000006 0.23071240000000048 0.1703395000000002
0.17023960000000007 0.2316781000000005 0.1724041000000002
0.1716049000000001 0.2329435000000005 0.1732366000000002
0.1739026000000001 0.2322775000000005 0.1737694000000002
0.1765666000000001 0.2334430000000005 0.1754344000000002
0.1758007000000001 0.2332765000000005 0.17573410000000023
0.1768996000000001 0.2351413000000005 0.17746570000000023
0.17819830000000011 0.2353078000000005 0.17906410000000023
0.17976340000000013 0.23673970000000052 0.18042940000000024
0.18119530000000014 0.23853790000000052 0.18216100000000024
0.18146170000000014 0.23833810000000052 0.18365950000000025
0.18019630000000014 0.23837140000000054 0.18345970000000025
0.18169480000000016 0.23963680000000054 0.18392590000000025
0.18039610000000014 0.23893750000000052 0.18369280000000024
0.18052930000000014 0.23897080000000054 0.18635680000000024
0.18089560000000016 0.23890420000000054 0.18545770000000023
0.18222760000000016 0.23950360000000054 0.18652330000000023
0.18365950000000017 0.24156820000000054 0.18825490000000022
0.18405910000000017 0.24436540000000054 0.18988660000000024
0.18429220000000018 0.24476500000000054 0.18995320000000024
0.18339310000000017 0.24429880000000054 0.19191790000000025
0.18649000000000018 0.24466510000000055 0.19378270000000025
0.18675640000000018 0.24496480000000057 0.19501480000000027
0.1877221000000002 0.24453190000000055 0.19638010000000028
0.1871893000000002 0.24729580000000057 0.1985446000000003
0.1874557000000002 0.24852790000000058 0.2005759000000003
0.1876888000000002 0.2492938000000006 0.1996768000000003
0.1889542000000002 0.2504260000000006 0.2010754000000003
0.1888543000000002 0.25035940000000056 0.20057590000000028
0.18835480000000018 0.2507923000000006 0.19981000000000027
0.18752230000000017 0.2505259000000006 0.19971010000000025
0.18908740000000018 0.25075900000000056 0.20167480000000026
0.18975340000000018 0.25099210000000055 0.20090890000000025
0.19201780000000018 0.25059250000000055 0.20134180000000027
0.19111870000000017 0.2533231000000006 0.20264050000000028
0.19031950000000017 0.2544220000000006 0.2038726000000003
0.19068580000000018 0.2551213000000006 0.2052046000000003
0.19215100000000018 0.2548549000000006 0.20470510000000028
0.1932499000000002 0.2545552000000006 0.20440540000000026
0.1958140000000002 0.2567863000000006 0.20457190000000028
0.1945486000000002 0.25888420000000056 0.2062702000000003
0.19651330000000022 0.25981660000000056 0.2071693000000003
0.19814500000000024 0.2610820000000006 0.2086345000000003
0.20047600000000024 0.2623807000000006 0.2085013000000003
0.19927720000000024 0.26141500000000056 0.2097667000000003
0.19901080000000024 0.26168140000000056 0.21006640000000032
0.19877770000000022 0.26191450000000055 0.21006640000000032
0.20060920000000024 0.26271370000000055 0.21079900000000032
0.20147500000000024 0.2622475000000005 0.21266380000000032
0.20397250000000025 0.26391250000000055 0.21352960000000032
0.20570410000000025 0.26414560000000054 0.21356290000000033
0.20730250000000025 0.2647783000000005 0.21216430000000033
0.20706940000000024 0.26724250000000055 0.21249730000000033
0.20680300000000024 0.26860780000000056 0.21309670000000033
0.20696950000000025 0.2694403000000006 0.21522790000000033
0.20743570000000025 0.26887420000000056 0.21636010000000033
0.20810170000000025 0.26800840000000054 0.21709270000000033
0.20790190000000025 0.26884090000000055 0.21869110000000033
0.20846800000000026 0.2714383000000006 0.21962350000000033
0.20999980000000026 0.2721043000000006 0.21889090000000033
0.21133180000000026 0.27406900000000056 0.21865780000000032
0.21196450000000028 0.2739691000000006 0.21962350000000033
0.21322990000000028 0.2743021000000006 0.22132180000000035
0.21436210000000028 0.2729701000000006 0.22138840000000035
0.21496150000000028 0.2725705000000006 0.22321990000000036
0.2176588000000003 0.2722375000000006 0.22255390000000036
0.2193571000000003 0.2723041000000006 0.22152160000000035
0.2199565000000003 0.27356950000000063 0.22295350000000036
0.2216215000000003 0.2735362000000006 0.22458520000000037
0.2217547000000003 0.27370270000000063 0.22385260000000037
0.2238193000000003 0.27533440000000065 0.2255509000000004
0.2236861000000003 0.27746560000000065 0.2266831000000004
0.2239525000000003 0.27879760000000064 0.2284147000000004
0.2237860000000003 0.2797966000000007 0.2286145000000004
0.2247850000000003 0.2788642000000007 0.2287144000000004
0.2233198000000003 0.2809954000000007 0.23007970000000041
0.22295350000000028 0.2808955000000007 0.2289142000000004
0.22348630000000028 0.2830267000000007 0.2304460000000004
0.2252512000000003 0.2840923000000007 0.2300131000000004
0.2268163000000003 0.2842921000000007 0.2306125000000004
0.2290807000000003 0.2856241000000007 0.2314117000000004
0.23091220000000032 0.2865898000000007 0.2317447000000004
0.23320990000000033 0.28715590000000074 0.23057920000000037
0.23417560000000034 0.29038600000000075 0.23041270000000036
0.23464180000000034 0.28932040000000075 0.23177800000000037
0.23564080000000034 0.29161810000000077 0.2342755000000004
0.23673970000000036 0.29268370000000077 0.23410900000000037
0.23930380000000037 0.2925838000000008 0.23647330000000039
0.23840470000000036 0.2943820000000008 0.2367730000000004
0.23983660000000037 0.2942488000000008 0.2382049000000004
0.24006970000000039 0.2957140000000008 0.2396035000000004
0.2410354000000004 0.2958139000000008 0.23970340000000043
0.2430001000000004 0.2975122000000008 0.24100210000000044
0.24409900000000043 0.29827810000000077 0.24276700000000045
0.24466510000000044 0.29851120000000075 0.24223420000000045
0.24586390000000044 0.30127510000000074 0.24316660000000045
0.24559750000000044 0.3025738000000007 0.24566410000000047
0.24682960000000045 0.30343960000000075 0.24506470000000047
0.24786190000000047 0.30507130000000077 0.24499810000000047
0.24856120000000048 0.30370600000000075 0.24533110000000047
0.2493271000000005 0.30587050000000077 0.24499810000000047
0.2516248000000005 0.3051046000000008 0.24789520000000048
0.25305670000000047 0.30413890000000077 0.2479951000000005
0.2544220000000005 0.3047050000000008 0.2487610000000005
0.2544553000000005 0.3039391000000008 0.2478952000000005
0.2540224000000005 0.3059371000000008 0.2477953000000005
0.2558206000000005 0.3062035000000008 0.2491273000000005
0.2559205000000005 0.3083680000000008 0.2490607000000005
0.2574856000000005 0.3071026000000008 0.2504593000000005
0.2568529000000005 0.3087676000000008 0.2509921000000005
0.2584846000000005 0.3078685000000008 0.2503261000000005
0.2574523000000005 0.3086677000000008 0.2498599000000005
0.25871770000000055 0.3084013000000008 0.2507590000000005
0.26098210000000055 0.30979990000000085 0.25282360000000054
0.26124850000000055 0.31016620000000084 0.25508800000000054
0.26258050000000055 0.31063240000000086 0.2542555000000005
0.2629135000000006 0.31196440000000086 0.2563534000000005
0.26288020000000056 0.31083220000000084 0.25815160000000054
0.2645119000000006 0.31109860000000084 0.2603827000000005
0.2649448000000006 0.31153150000000085 0.2607823000000005
0.2641456000000006 0.31126510000000085 0.2619478000000005
0.2668762000000006 0.31309660000000084 0.2631133000000005
0.2668429000000006 0.3145285000000008 0.2662102000000005
0.2680417000000006 0.3167596000000008 0.2656441000000005
0.2704726000000006 0.3185245000000008 0.2662435000000005
0.2718046000000006 0.31859110000000085 0.26667640000000054
0.2710720000000006 0.31875760000000086 0.26827480000000054
0.2711719000000006 0.3205558000000009 0.27000640000000053
0.27313660000000056 0.3205225000000009 0.27147160000000053
0.27366940000000056 0.32032270000000085 0.2707723000000005
0.27346960000000053 0.32128840000000086 0.2710387000000005
0.2742355000000005 0.3229534000000009 0.27187120000000053
0.27506800000000053 0.3246850000000009 0.27133840000000053
0.27456850000000055 0.3264499000000009 0.27030610000000055
0.27483490000000055 0.3277486000000009 0.27160480000000053
0.2755675000000006 0.3285811000000009 0.2729035000000005
0.27699940000000056 0.3302794000000009 0.27386920000000053
0.27819820000000056 0.3314449000000009 0.27267040000000053
0.27749890000000055 0.33354280000000086 0.27336970000000055
0.27939700000000056 0.3347749000000009 0.27573400000000053
0.27919720000000053 0.3351745000000009 0.2771659000000005
0.27936370000000055 0.33474160000000086 0.2782315000000005
0.27839800000000053 0.3367729000000009 0.2787310000000005
0.2790307000000005 0.33753880000000086 0.2778652000000005
0.27936370000000055 0.3389374000000009 0.27743230000000046
0.27906400000000053 0.3410353000000009 0.27583390000000046
0.27853120000000053 0.34273360000000086 0.27610030000000046
0.28082890000000055 0.34446520000000086 0.2767996000000005
0.2807623000000005 0.3469294000000009 0.2785645000000005
0.28256050000000055 0.3493270000000009 0.2807956000000005
0.28189450000000055 0.3514582000000009 0.2816281000000005
0.28306000000000053 0.3519910000000009 0.2829268000000005
0.28442530000000055 0.3535228000000009 0.2850580000000005
0.28512460000000056 0.3533230000000009 0.2867896000000005
0.2855908000000006 0.3523573000000009 0.2893870000000005
0.2854909000000006 0.3526237000000009 0.2899198000000005
0.2861569000000006 0.35378920000000086 0.29051920000000053
0.2886877000000006 0.35388910000000084 0.2901862000000005
0.2897533000000006 0.3547549000000009 0.2912185000000005
0.2900530000000006 0.35498800000000086 0.2942155000000005
0.29128510000000063 0.35632000000000086 0.2939491000000005
0.29411560000000064 0.35565400000000086 0.29544760000000053
0.29548090000000066 0.35545420000000083 0.2960803000000005
0.29734570000000066 0.3564865000000008 0.29651320000000053
0.2983447000000007 0.3557872000000008 0.2983447000000005
0.2999431000000007 0.3573856000000008 0.3011086000000005
0.29977660000000067 0.35838460000000083 0.3004759000000005
0.29894410000000066 0.3598165000000008 0.29944360000000053
0.29807830000000063 0.3608821000000008 0.30110860000000056
0.29834470000000063 0.36254710000000084 0.30110860000000056
0.29754550000000063 0.36477820000000083 0.30244060000000056
0.29714590000000063 0.36371260000000083 0.30187450000000055
0.2973790000000006 0.3658105000000008 0.30294010000000055
0.29927710000000063 0.3672757000000008 0.3035395000000006
0.30020950000000063 0.3683080000000008 0.3038725000000006
0.30024280000000064 0.3678418000000008 0.3043720000000006
0.29994310000000063 0.3686410000000008 0.3059371000000006
0.2988109000000006 0.3700063000000008 0.3071692000000006
0.29927710000000063 0.3715714000000008 0.3076354000000006
0.3013750000000006 0.3710386000000008 0.3080017000000006
0.3037726000000006 0.37087210000000076 0.3081016000000006
0.30477160000000064 0.37323640000000075 0.3082681000000006
0.30660310000000063 0.37366930000000076 0.3083680000000006
0.30633670000000063 0.37536760000000075 0.3086344000000006
0.30726910000000063 0.3761002000000008 0.3090340000000006
0.30650320000000064 0.3756007000000008 0.3112318000000006
0.30753550000000063 0.3774322000000008 0.31356280000000064
0.30773530000000066 0.3764998000000008 0.31236400000000064
0.30696940000000067 0.3777319000000008 0.31349620000000067
0.30720250000000066 0.3789307000000008 0.31336300000000067
0.3083347000000007 0.3802960000000008 0.3154276000000007
0.3095668000000007 0.3809953000000008 0.3157606000000007
0.3101995000000007 0.3816613000000008 0.31725910000000074
0.3103660000000007 0.3816280000000008 0.32018950000000074
0.3116314000000007 0.3814948000000008 0.3214882000000007
0.3121642000000007 0.3825937000000008 0.32315320000000075
0.31409560000000075 0.38266030000000084 0.32435200000000075
0.31372930000000077 0.3811285000000008 0.32511790000000074
0.3148282000000008 0.3809287000000008 0.32555080000000075
0.3174256000000008 0.38032930000000076 0.32578390000000074
0.3164932000000008 0.37966330000000076 0.32831470000000074
0.3185911000000008 0.37829800000000074 0.32838130000000076
0.31799170000000077 0.37859770000000076 0.3297466000000008
0.31915720000000075 0.37869760000000074 0.3301795000000008
0.31889080000000075 0.38002960000000074 0.3297799000000008
0.31912390000000074 0.38112850000000076 0.3297799000000008
0.31978990000000074 0.38339290000000076 0.3310786000000008
0.32008960000000075 0.38319310000000073 0.3338758000000008
0.32098870000000074 0.38439190000000073 0.3333763000000008
0.32045590000000074 0.3842254000000007 0.3361069000000008
0.32115520000000075 0.3864898000000007 0.3373057000000008
0.32152150000000074 0.3862900000000007 0.3380716000000008
0.32195440000000075 0.3856240000000007 0.3373390000000008
0.32351950000000074 0.3849247000000007 0.3383380000000008
0.3231865000000007 0.3857572000000007 0.3386044000000008
0.3239524000000007 0.3872557000000007 0.34053580000000083
0.3260503000000007 0.3866896000000007 0.3394036000000008
0.3270493000000007 0.3890539000000007 0.3390706000000008
0.32711590000000074 0.38928700000000066 0.3382714000000008
0.32984650000000076 0.38925370000000065 0.33740560000000075
0.33087880000000075 0.3911851000000007 0.3402694000000008
0.33061240000000075 0.3934828000000007 0.3402694000000008
0.33101200000000075 0.3961801000000007 0.3433663000000008
0.33261040000000075 0.3965797000000007 0.3453643000000008
0.3318778000000007 0.3972457000000007 0.3456973000000008
0.3322441000000007 0.3999430000000007 0.34842790000000085
0.3338092000000007 0.4015081000000007 0.34922710000000085
0.3342754000000007 0.4033729000000007 0.3491605000000008
0.33484150000000074 0.4048048000000007 0.34852780000000083
0.33530770000000076 0.4058038000000007 0.3480616000000008
0.3353410000000008 0.4069027000000007 0.3498931000000008
0.33487480000000075 0.4056373000000007 0.3520243000000008
0.33514120000000075 0.4060369000000007 0.3526570000000008
0.33530770000000076 0.4055041000000007 0.35139160000000075
0.33780520000000075 0.4061701000000007 0.35232400000000075
0.33793840000000075 0.4091338000000007 0.3526570000000008
0.33823810000000076 0.4101994000000007 0.3521575000000008
0.33953680000000075 0.4100329000000007 0.3520243000000008
0.34103530000000076 0.4114981000000007 0.3532897000000008
0.34113520000000075 0.4110652000000007 0.35572060000000083
0.34283350000000073 0.41073220000000066 0.35605360000000086
0.34379920000000075 0.4119976000000007 0.35575390000000084
0.3446650000000008 0.4148281000000007 0.35582050000000087
0.34369930000000076 0.4145950000000007 0.35685280000000086
0.3437659000000008 0.4152610000000007 0.35698600000000086
0.3441322000000008 0.4148281000000007 0.35968330000000087
0.3465631000000008 0.4153942000000007 0.36021610000000087
0.3453643000000008 0.4172257000000007 0.3617479000000009
0.3472624000000008 0.41675950000000067 0.3627469000000009
0.3477619000000008 0.41579380000000066 0.36464500000000094
0.3497266000000008 0.41689270000000067 0.36454510000000095
0.3520576000000008 0.41755870000000067 0.36444520000000097
0.3523240000000008 0.41659300000000066 0.36667630000000095
0.3544552000000008 0.41662630000000067 0.36880750000000095
0.3564865000000008 0.4170925000000007 0.36990640000000097
0.35798500000000083 0.4184578000000007 0.37150480000000097
0.36011620000000083 0.4179250000000007 0.37147150000000095
0.36191440000000086 0.4167928000000007 0.372470500000001
0.36268030000000084 0.41915710000000067 0.373303000000001
0.36384580000000083 0.42142150000000067 0.374268700000001
0.3637792000000008 0.4226869000000007 0.374568400000001
0.3643120000000008 0.4228201000000007 0.37406890000000104
0.3649447000000008 0.4240522000000007 0.37436860000000105
0.3648115000000008 0.4256839000000007 0.37540090000000104
0.3647116000000008 0.42801490000000075 0.377365600000001
0.3649447000000008 0.4287475000000008 0.377998300000001
0.3650446000000008 0.4304125000000008 0.380795500000001
0.3661102000000008 0.4303792000000008 0.382493800000001
0.3680083000000008 0.4309120000000008 0.382127500000001
0.3686077000000008 0.4324438000000008 0.381361600000001
0.3695068000000008 0.43194430000000084 0.383359600000001
0.3706057000000008 0.43127830000000084 0.382760200000001
0.37263700000000083 0.43144480000000085 0.38256040000000097
0.37383580000000083 0.4336426000000009 0.385424200000001
0.3759337000000008 0.43587370000000086 0.385590700000001
0.3753676000000008 0.43730560000000085 0.38858770000000104
0.3758005000000008 0.43780510000000084 0.389753200000001
0.3756673000000008 0.4380382000000008 0.391218400000001
0.3753676000000008 0.43953670000000084 0.392683600000001
0.37610020000000083 0.4392037000000008 0.39324970000000103
0.37729900000000083 0.4391704000000008 0.39474820000000105
0.3772657000000008 0.4409020000000008 0.39568060000000105
0.3772324000000008 0.4427002000000008 0.3960136000000011
0.3773656000000008 0.4419010000000008 0.39518110000000106
0.3771325000000008 0.4439989000000008 0.3972457000000011
0.3796633000000008 0.44499790000000083 0.3996100000000011
0.38066230000000084 0.4444318000000008 0.39917710000000106
0.3822274000000008 0.44566390000000083 0.40060900000000105
0.3812284000000008 0.44646310000000083 0.4009420000000011
0.3828268000000008 0.4482946000000008 0.4035061000000011
0.3855907000000008 0.44969320000000085 0.4047049000000011
0.3873223000000008 0.4497598000000009 0.4058704000000011
0.3873556000000008 0.44942680000000085 0.4075354000000011
0.3870559000000008 0.45212410000000086 0.4074355000000011
0.3872557000000008 0.4518910000000009 0.4069693000000011
0.3861901000000008 0.45132490000000086 0.4085344000000011
0.38652310000000084 0.4544218000000009 0.4085677000000011
0.3884878000000008 0.4559536000000009 0.4111984000000011
0.38945350000000084 0.45628660000000093 0.4113982000000011
0.38932030000000084 0.45781840000000096 0.41173120000000113
0.39211750000000084 0.45865090000000097 0.41216410000000114
0.3926170000000008 0.46078210000000097 0.41462830000000117
0.3934162000000008 0.462047500000001 0.4145284000000012
0.39571390000000084 0.46118170000000097 0.41392900000000116
0.39697930000000087 0.46084870000000094 0.41632660000000116
0.39751210000000087 0.4603825000000009 0.41872420000000116
0.39831130000000087 0.4599829000000009 0.42112180000000116
0.39951010000000087 0.46108180000000093 0.42408550000000117
0.40067560000000085 0.46258030000000094 0.42591700000000116
0.40217410000000087 0.46347940000000093 0.42535090000000114
0.4043386000000009 0.4657105000000009 0.42521770000000114
0.4062034000000009 0.4663432000000009 0.42551740000000116
0.4056706000000009 0.4681081000000009 0.4265164000000012
0.4079350000000009 0.46894060000000093 0.4289140000000012
0.4075687000000009 0.47133820000000093 0.4289140000000012
0.4089007000000009 0.4709053000000009 0.4321108000000012
0.4096999000000009 0.47306980000000093 0.4336426000000012
0.4102993000000009 0.47393560000000096 0.43624000000000124
0.41076550000000095 0.47383570000000097 0.43640650000000125
0.41116510000000095 0.47516770000000097 0.43843780000000127
0.411764500000001 0.47729890000000097 0.4379383000000013
0.41173120000000096 0.47686600000000096 0.4409353000000013
0.41226400000000096 0.47696590000000094 0.44193430000000133
0.41266360000000096 0.47799820000000093 0.44076880000000135
0.414428500000001 0.47776510000000094 0.44299990000000133
0.415693900000001 0.47693260000000093 0.4420009000000013
0.416759500000001 0.47826460000000093 0.4442653000000013
0.416659600000001 0.4811617000000009 0.4444984000000013
0.418757500000001 0.48122830000000094 0.4457638000000013
0.418724200000001 0.48192760000000096 0.44752870000000133
0.418924000000001 0.48335950000000094 0.44782840000000135
0.42148810000000103 0.48389230000000094 0.44939350000000133
0.42208750000000106 0.4845250000000009 0.45032590000000133
0.4217212000000011 0.4847914000000009 0.45155800000000135
0.42381910000000106 0.48522430000000094 0.4517578000000014
0.4235860000000011 0.48569050000000097 0.45169120000000135
0.4253509000000011 0.48552400000000095 0.45232390000000133
0.4264165000000011 0.48402550000000094 0.45405550000000133
0.4282813000000011 0.4833262000000009 0.4557538000000013
0.42728230000000106 0.48522430000000094 0.4551877000000013
0.4278817000000011 0.48768850000000097 0.4548880000000013
0.4306123000000011 0.48755530000000097 0.4569193000000013
0.43107850000000114 0.48728890000000097 0.4554541000000013
0.43324300000000115 0.487721800000001 0.4577518000000013
0.4342420000000012 0.48862090000000097 0.4575520000000013
0.4353742000000012 0.48792160000000095 0.4587175000000013
0.4340089000000012 0.489187000000001 0.45828460000000126
0.4344751000000012 0.489753100000001 0.46068220000000126
0.43587370000000125 0.489653200000001 0.4617811000000013
0.4362067000000013 0.490852000000001 0.4644451000000013
0.43670620000000127 0.49158460000000104 0.46640980000000126
0.43947010000000125 0.492217300000001 0.46840780000000126
0.43933690000000125 0.495147700000001 0.46960660000000126
0.44080210000000125 0.496712800000001 0.4721707000000013
0.44026930000000125 0.498277900000001 0.4711384000000013
0.44103520000000124 0.498377800000001 0.4714714000000013
0.44240050000000125 0.5006755000000009 0.4714714000000013
0.44503120000000124 0.5022739000000009 0.4704058000000013
0.44642980000000126 0.5024737000000009 0.47217070000000133
0.4477951000000013 0.5021407000000009 0.47476810000000136
0.4499929000000013 0.5017744000000008 0.47433520000000134
0.45125830000000133 0.5032396000000009 0.47593360000000134
0.45239050000000136 0.503905600000001 0.47500120000000134
0.45139150000000133 0.503139700000001 0.47723230000000133
0.45245710000000133 0.504505000000001 0.47962990000000133
0.45382240000000135 0.5060035000000009 0.47979640000000134
0.4534894000000013 0.506369800000001 0.48042910000000133
0.45458830000000133 0.507801700000001 0.48162790000000133
0.45352270000000133 0.508267900000001 0.48246040000000134
0.4526569000000013 0.5076019000000009 0.48515770000000136
0.4542220000000013 0.5083012000000009 0.48728890000000136
0.4558870000000013 0.5094001000000009 0.48695590000000133
0.4570525000000013 0.5113315000000009 0.48655630000000133
0.45738550000000133 0.5113315000000009 0.48685600000000134
0.45805150000000133 0.511964200000001 0.48932020000000137
0.4605490000000013 0.514128700000001 0.4885543000000014
0.4591837000000013 0.513829000000001 0.4909852000000014
0.4582513000000013 0.515760400000001 0.4902193000000014
0.4577518000000013 0.515061100000001 0.4901860000000014
0.4594834000000013 0.514162000000001 0.4909186000000014
0.46088200000000135 0.514728100000001 0.49111840000000145
0.46058230000000133 0.513529300000001 0.49191760000000145
0.46264690000000136 0.514195300000001 0.4930498000000015
0.46317970000000136 0.514894600000001 0.4929499000000015
0.46371250000000136 0.517059100000001 0.4929166000000015
0.46581040000000135 0.519789700000001 0.4953142000000015
0.46804150000000133 0.518657500000001 0.49404880000000145
0.46977310000000133 0.521155000000001 0.49641310000000144
0.47180440000000134 0.521155000000001 0.49841110000000144
0.47143810000000136 0.521954200000001 0.4995766000000014
0.47110510000000133 0.5247181000000011 0.5008420000000015
0.4733362000000013 0.525450700000001 0.5012416000000015
0.4742686000000013 0.526249900000001 0.5009086000000015
0.47510110000000133 0.529113700000001 0.5029066000000015
0.47563390000000133 0.529679800000001 0.5035060000000016
0.47649970000000136 0.531011800000001 0.5035060000000016
0.47913040000000134 0.5313781000000011 0.5040721000000016
0.47999620000000137 0.5306455000000011 0.5029066000000015
0.4824271000000014 0.5295466000000011 0.5042719000000015
0.4818943000000014 0.532377100000001 0.5042719000000015
0.4824937000000014 0.533642500000001 0.5027401000000016
0.4824937000000014 0.535673800000001 0.5018743000000015
0.4847581000000014 0.536040100000001 0.5008753000000016
0.48682270000000144 0.538071400000001 0.5029399000000015
0.48742210000000147 0.539436700000001 0.5040388000000016
0.48725560000000145 0.540768700000001 0.5050378000000015
0.4883878000000015 0.541101700000001 0.5035060000000016
0.48848770000000147 0.541135000000001 0.5048713000000016
0.49008610000000147 0.539936200000001 0.5077018000000015
0.4909519000000015 0.541667800000001 0.5084344000000015
0.4930165000000015 0.542134000000001 0.5094334000000015
0.4927168000000015 0.541734400000001 0.5094667000000015
0.4940155000000015 0.542866600000001 0.5109985000000015
0.4923838000000015 0.542134000000001 0.5112649000000015
0.4936159000000015 0.5435992000000011 0.5130298000000014
0.4938823000000015 0.5446981000000011 0.5151610000000014
0.4946815000000015 0.5441986000000011 0.5167594000000014
0.4946815000000015 0.5450311000000011 0.5192236000000015
0.4951477000000015 0.5455972000000011 0.5187907000000015
0.4959136000000015 0.5472289000000011 0.5185576000000015
0.4958470000000015 0.5495932000000011 0.5173921000000015
0.4961134000000015 0.5506255000000011 0.5169592000000015
0.4972456000000015 0.5520241000000011 0.5156605000000015
0.49744540000000154 0.5545216000000012 0.5178583000000015
0.49990960000000156 0.5552875000000012 0.5205223000000015
0.5004757000000015 0.5582179000000012 0.5222206000000016
0.5001427000000015 0.5592169000000011 0.5247181000000016
0.5010085000000015 0.5618143000000011 0.5239855000000017
0.5011084000000016 0.5637124000000011 0.5237857000000017
0.5010085000000015 0.5643451000000012 0.5225536000000017
0.5012416000000015 0.5655439000000012 0.5242186000000018
0.5025736000000015 0.5655106000000012 0.5242852000000018
0.5020408000000015 0.5656105000000012 0.5271157000000017
0.5024404000000016 0.5657770000000012 0.5281480000000017
0.5041387000000016 0.5669425000000012 0.5267494000000017
0.5059702000000016 0.5694067000000013 0.5284477000000017
0.5071690000000016 0.5700394000000013 0.5291470000000017
0.5086009000000017 0.5710051000000013 0.5307454000000017
0.5092669000000017 0.5727034000000013 0.5318443000000017
0.5098330000000018 0.5727034000000013 0.5317777000000017
0.5097331000000017 0.5736025000000013 0.5337757000000017
0.5119642000000018 0.5739355000000014 0.5340754000000018
0.5134294000000018 0.5727034000000014 0.5342419000000017
0.5141620000000018 0.5747347000000014 0.5348413000000017
0.5156605000000017 0.5760667000000014 0.5366395000000017
0.5147947000000017 0.5755339000000014 0.5360734000000017
0.5172922000000018 0.5769325000000014 0.5366728000000017
0.5167927000000018 0.5763664000000014 0.5397031000000018
0.5184577000000018 0.5774653000000014 0.5401027000000018
0.5192236000000018 0.5773654000000014 0.5412349000000019
0.5202892000000018 0.5771656000000014 0.5425669000000019
0.5211217000000018 0.5791636000000014 0.5428000000000018
0.5200228000000018 0.5797297000000015 0.5432662000000018
0.5193901000000017 0.5809618000000014 0.5433994000000019
0.5210884000000018 0.5829265000000015 0.5425669000000019
0.5221207000000018 0.5817610000000014 0.5435326000000018
0.5253175000000018 0.5805289000000015 0.5441986000000019
0.5252176000000017 0.5806621000000015 0.5461966000000019
0.5246182000000017 0.5801293000000015 0.548427700000002
0.5240854000000017 0.5832595000000015 0.550658800000002
0.5258503000000017 0.5840254000000015 0.551391400000002
0.5258503000000017 0.5842918000000015 0.551158300000002
0.5275486000000017 0.5850910000000015 0.553522600000002
0.5281813000000017 0.5860567000000014 0.553222900000002
0.5279482000000018 0.5857237000000014 0.554887900000002
0.5278150000000017 0.5845249000000013 0.555687100000002
0.5297797000000017 0.5845249000000013 0.556053400000002
0.5308786000000018 0.5865229000000014 0.556552900000002
0.5313115000000017 0.5873221000000014 0.5587840000000021
0.5317777000000017 0.5893534000000014 0.559516600000002
0.5317777000000017 0.5915845000000014 0.559416700000002
0.5326102000000017 0.5925835000000014 0.559916200000002
0.5327434000000018 0.5936158000000014 0.560482300000002
0.5336092000000018 0.5952475000000014 0.561115000000002
0.5349412000000018 0.5953807000000014 0.560548900000002
0.5376385000000018 0.5968792000000014 0.563279500000002
0.5389039000000018 0.5966794000000014 0.5647114000000021
0.5388040000000017 0.5956804000000014 0.5660101000000021
0.5391037000000017 0.5968126000000015 0.565677100000002
0.5406022000000017 0.5961466000000014 0.5660434000000021
0.5431996000000017 0.5960134000000014 0.5679748000000021
0.5433661000000016 0.5976784000000014 0.5671090000000021
0.5427667000000016 0.5979781000000014 0.5671090000000021
0.5447314000000016 0.5996431000000014 0.5671423000000021
0.5470624000000016 0.6019075000000015 0.5684077000000021
0.5470957000000016 0.6018409000000015 0.5698063000000021
0.5474620000000017 0.6028399000000014 0.5696398000000021
0.5479948000000017 0.6049378000000014 0.5711383000000021
0.5498929000000017 0.6080014000000015 0.5714713000000021
0.5520907000000017 0.6080347000000015 0.5743351000000021
0.5514913000000017 0.6095332000000014 0.5752009000000021
0.5529898000000016 0.6107986000000014 0.5747680000000022
0.5531563000000016 0.6125968000000014 0.5744350000000021
0.5533561000000016 0.6130297000000013 0.5742685000000022
0.5550544000000016 0.6126634000000013 0.5745682000000022
0.5561200000000016 0.6145615000000013 0.5754340000000022
0.5570191000000017 0.6159268000000013 0.5755006000000022
0.5574187000000017 0.6165262000000014 0.5757670000000022
0.5572855000000017 0.6178249000000013 0.5749012000000022
0.5564530000000016 0.6182911000000013 0.5743018000000022
0.5575519000000017 0.6188239000000013 0.5763664000000022
0.5589505000000017 0.6193234000000013 0.5770990000000021
0.5610484000000017 0.6212215000000013 0.5766328000000022
0.5606155000000017 0.6214546000000013 0.5771989000000022
0.5625802000000018 0.6216544000000013 0.5773321000000022
0.5656105000000018 0.6219874000000013 0.5780314000000022
0.5657104000000018 0.6219208000000013 0.5784976000000022
0.5683411000000018 0.6249178000000013 0.5800960000000022
0.5684077000000018 0.6265495000000013 0.5813281000000021
0.5699062000000018 0.6284143000000013 0.5803291000000022
0.5723704000000018 0.6297463000000013 0.5800294000000021
0.5745016000000018 0.6298462000000014 0.5807287000000021
0.5756671000000019 0.6307786000000014 0.5813614000000021
0.5759335000000019 0.6321439000000014 0.5831263000000021
0.5766661000000018 0.6325435000000015 0.5849911000000021
0.5777650000000019 0.6344749000000015 0.5854573000000021
0.5779981000000018 0.6348412000000015 0.584558200000002
0.5801959000000019 0.6356404000000015 0.585357400000002
0.5786974000000019 0.6384376000000016 0.584358400000002
0.5789971000000019 0.6381046000000016 0.5860567000000021
0.5775652000000019 0.6386707000000016 0.5856238000000021
0.5771323000000019 0.6382045000000016 0.5871556000000021
0.5759335000000019 0.6370390000000016 0.5890537000000021
0.5773654000000019 0.6379048000000016 0.5897197000000022
0.5789971000000019 0.6374386000000016 0.5923171000000022
0.5788639000000019 0.6374386000000016 0.5947480000000022
0.5812282000000019 0.6389371000000016 0.5946148000000021
0.5816611000000018 0.6412681000000016 0.5955472000000022
0.5814946000000019 0.6434659000000016 0.5959801000000021
0.5833927000000019 0.6449644000000015 0.5949811000000021
0.5859235000000019 0.6462964000000015 0.5940154000000022
0.588454300000002 0.6458635000000016 0.5954473000000022
0.587854900000002 0.6456637000000016 0.5958802000000022
0.590252500000002 0.6474619000000016 0.5956471000000022
0.590885200000002 0.6471622000000016 0.5960467000000023
0.590185900000002 0.6497929000000016 0.5978116000000022
0.590752000000002 0.6518575000000015 0.5992768000000023
0.5908852000000021 0.6512914000000015 0.5985775000000023
0.5912515000000022 0.6519574000000016 0.6015412000000023
0.5932162000000022 0.6521572000000015 0.6011749000000023
0.5953141000000022 0.6549877000000015 0.6004090000000023
0.5952142000000021 0.6572188000000015 0.6002425000000023
0.5944483000000021 0.6594166000000016 0.5997763000000024
0.5946148000000021 0.6595165000000016 0.5993434000000024
0.5945149000000021 0.6623470000000016 0.6015079000000024
0.593948800000002 0.6642784000000016 0.6020074000000024
0.595247500000002 0.6671089000000016 0.6015745000000025
0.595980100000002 0.6675085000000016 0.6024403000000025
0.597045700000002 0.6706387000000016 0.6040054000000025
0.596945800000002 0.6715711000000016 0.6055372000000024
0.5981779000000019 0.6703723000000016 0.6058036000000024
0.5968126000000019 0.6718375000000016 0.6059035000000025
0.5978116000000019 0.6739021000000016 0.6062032000000025
0.5978782000000019 0.6734692000000017 0.6059368000000025
0.6007420000000019 0.6736690000000016 0.6075019000000025
0.6023071000000019 0.6754339000000016 0.6093334000000025
0.6023071000000019 0.6776317000000016 0.6103324000000024
0.6026068000000019 0.6803956000000017 0.6107986000000024
0.6018742000000019 0.6814945000000017 0.6114646000000025
0.603872200000002 0.6829597000000017 0.6123970000000025
0.6043384000000019 0.6828598000000017 0.6129964000000026
0.6039388000000019 0.6816943000000016 0.6137956000000026
0.6052042000000019 0.6813946000000016 0.6153607000000025
0.6058702000000019 0.6836257000000017 0.6155938000000025
0.607302100000002 0.6839254000000017 0.6158269000000025
0.606602800000002 0.6838588000000017 0.6172588000000025
0.606502900000002 0.6853906000000016 0.6190903000000025
0.606003400000002 0.6857569000000017 0.6201892000000025
0.605537200000002 0.6858235000000017 0.6230863000000025
0.606869200000002 0.6873886000000017 0.6225535000000025
0.609333400000002 0.6888205000000017 0.6232861000000025
0.609067000000002 0.6907852000000018 0.6229531000000025
0.610698700000002 0.6914845000000017 0.6243517000000025
0.6110650000000021 0.6934159000000018 0.6263830000000025
0.611231500000002 0.6952474000000017 0.6284143000000024
0.6123637000000021 0.6960133000000017 0.6306787000000025
0.614195200000002 0.6969790000000017 0.6306454000000025
0.614461600000002 0.6962131000000017 0.6304456000000025
0.617591800000002 0.6975784000000017 0.6318442000000025
0.619090300000002 0.6988105000000017 0.6319441000000026
0.621421300000002 0.6994099000000017 0.6317110000000026
0.623152900000002 0.7003090000000017 0.6325102000000026
0.623319400000002 0.7020406000000018 0.6323437000000026
0.6242851000000019 0.7011748000000018 0.6346081000000027
0.625983400000002 0.7002424000000017 0.6337090000000026
0.6245848000000019 0.6991102000000017 0.6342751000000026
0.625417300000002 0.6993766000000017 0.6339088000000026
0.628147900000002 0.7004089000000017 0.6339088000000026
0.628880500000002 0.7006087000000016 0.6350743000000026
0.6287473000000019 0.6996097000000017 0.6346081000000027
0.6286141000000018 0.7010083000000017 0.6355405000000027
0.6288139000000018 0.7009750000000017 0.6347746000000027
0.6292468000000018 0.7025401000000017 0.6339754000000027
0.6292135000000018 0.7016743000000016 0.6365395000000027
0.6304456000000017 0.7041052000000017 0.6358069000000027
0.6326767000000018 0.7033393000000017 0.6366394000000027
0.6324769000000018 0.7036390000000017 0.6386707000000027
0.6348079000000018 0.7033393000000017 0.6391369000000027
0.6333094000000018 0.7034059000000017 0.6411349000000027
0.6331096000000018 0.7038055000000017 0.6424003000000027
0.6332761000000018 0.7058701000000017 0.6420673000000027
0.6342085000000018 0.7068358000000017 0.6423670000000027
0.6339088000000018 0.7074352000000017 0.6450643000000027
0.6344083000000018 0.7071688000000017 0.6462964000000027
0.6365728000000018 0.7085341000000017 0.6471289000000027
0.6379381000000018 0.7084009000000017 0.6489271000000026
0.6385375000000019 0.7082011000000017 0.6496597000000026
0.6396364000000019 0.7092334000000017 0.6503590000000026
0.6401026000000019 0.7104322000000017 0.6496930000000025
0.6414346000000019 0.7123636000000018 0.6500260000000025
0.6429331000000018 0.7128298000000017 0.6507586000000025
0.6441985000000018 0.7131961000000018 0.6536890000000025
0.6457969000000018 0.7125634000000017 0.6534892000000025
0.6457636000000018 0.7141951000000017 0.6559534000000026
0.6455305000000018 0.7159267000000018 0.6577516000000025
0.6469291000000018 0.7161598000000018 0.6579514000000025
0.6463630000000018 0.7175917000000018 0.6567526000000025
0.6482278000000018 0.7194898000000018 0.6587173000000025
0.6494599000000018 0.7192900000000019 0.6590836000000025
0.6497263000000018 0.7210882000000018 0.6598495000000025
0.6511249000000018 0.7221538000000018 0.6604156000000025
0.6526900000000018 0.7237522000000018 0.6628465000000026
0.6540553000000018 0.7247512000000018 0.6650776000000026
0.6554872000000018 0.7256170000000018 0.6644782000000026
0.6556204000000019 0.7242850000000018 0.6652108000000025
0.6560200000000019 0.7260166000000019 0.6665428000000025
0.6554872000000019 0.7271488000000019 0.6681079000000025
0.656353000000002 0.7290469000000019 0.6669424000000025
0.655786900000002 0.7301125000000019 0.6674752000000025
0.6554872000000019 0.7295464000000019 0.6694066000000025
0.6583177000000019 0.7286473000000019 0.6694732000000025
0.6596164000000019 0.7288804000000019 0.6685075000000026
0.6612481000000019 0.7288804000000019 0.6704056000000026
0.6624802000000019 0.7291135000000019 0.6725701000000026
0.6651109000000018 0.7286140000000019 0.6733027000000026
0.6659434000000019 0.7279147000000019 0.6732694000000026
0.6676417000000019 0.7292134000000019 0.6765328000000026
0.6692734000000019 0.729346600000002 0.6757003000000026
0.6710716000000019 0.729679600000002 0.6754672000000026
0.6726034000000018 0.729812800000002 0.6771988000000027
0.6730696000000018 0.730911700000002 0.6779647000000026
0.6744349000000018 0.731611000000002 0.6798295000000026
0.6747346000000018 0.730478800000002 0.6807952000000026
0.6763663000000019 0.732376900000002 0.6831595000000026
0.6757669000000018 0.732576700000002 0.6827266000000026
0.6763996000000019 0.732843100000002 0.6857902000000027
0.6776983000000019 0.732976300000002 0.6869224000000027
0.6770989000000018 0.734774500000002 0.6895198000000027
0.6767326000000018 0.736506100000002 0.6911182000000027
0.6778981000000018 0.737005600000002 0.6934492000000027
0.6796297000000019 0.7387039000000021 0.6955804000000027
0.6816943000000019 0.738903700000002 0.6953806000000027
0.6809617000000019 0.737971300000002 0.6977782000000027
0.6801958000000019 0.739736200000002 0.6981778000000027
0.6815944000000019 0.7425667000000019 0.6994765000000027
0.681361300000002 0.7434325000000019 0.7004089000000028
0.6831262000000019 0.7432993000000019 0.7027732000000028
0.6849244000000019 0.7435990000000019 0.7029064000000028
0.6856903000000019 0.745064200000002 0.7040386000000028
0.6868225000000019 0.7447312000000019 0.7052374000000029
0.6876550000000019 0.7444648000000019 0.7082677000000029
0.6898528000000019 0.7444981000000019 0.707002300000003
0.6924502000000019 0.7471621000000019 0.706036600000003
0.6918508000000019 0.7487272000000019 0.7061698000000031
0.6932494000000019 0.747994600000002 0.7075351000000031
0.6954139000000019 0.750192400000002 0.7064695000000031
0.6961132000000019 0.751124800000002 0.7084675000000031
0.6969790000000019 0.751424500000002 0.7090669000000032
0.6974785000000019 0.751091500000002 0.7099327000000032
0.6988438000000019 0.7512247000000021 0.7118641000000032
0.6979447000000019 0.7537555000000021 0.7146613000000033
0.6982444000000019 0.7529230000000021 0.7153606000000032
0.7001425000000019 0.7542550000000021 0.7138288000000033
0.7030729000000019 0.7539220000000021 0.7135957000000033
0.7022737000000019 0.7541884000000021 0.7159267000000032
0.7027732000000019 0.7552873000000021 0.7181578000000033
0.7037389000000018 0.7561198000000021 0.7193566000000033
0.7043716000000019 0.7552540000000021 0.7223203000000034
0.7057702000000019 0.7552207000000021 0.7225867000000034
0.7047379000000019 0.7583842000000021 0.7242517000000034
0.705903400000002 0.7595164000000021 0.7255837000000034
0.7052707000000019 0.7589170000000021 0.7262164000000034
0.7081345000000019 0.7602490000000021 0.7272154000000034
0.7077349000000018 0.7598161000000021 0.7295131000000034
0.7099660000000019 0.7625134000000021 0.7323769000000033
0.7094665000000019 0.7641451000000021 0.7319440000000034
0.7114978000000018 0.7658101000000022 0.7312447000000034
0.7124968000000018 0.7646779000000021 0.7324768000000034
0.7133626000000018 0.7668091000000021 0.7310116000000033
0.7119973000000018 0.7687072000000021 0.7296463000000033
0.7116976000000018 0.7715044000000022 0.7295797000000033
0.7106320000000018 0.7737022000000022 0.7306786000000033
0.7121971000000018 0.7759999000000022 0.7307452000000033
0.7125967000000019 0.7782976000000021 0.7327432000000034
0.7121971000000018 0.7801624000000021 0.7344415000000034
0.7141951000000019 0.7800625000000021 0.7339087000000034
0.7173919000000019 0.7811614000000021 0.7330096000000034
0.7162597000000018 0.7839253000000022 0.7318441000000033
0.7162264000000018 0.7856902000000021 0.7336756000000033
0.7168258000000018 0.7869889000000021 0.7356403000000034
0.7190236000000019 0.7892866000000021 0.7366393000000033
0.7196896000000019 0.791884000000002 0.7358401000000033
0.7191568000000019 0.7928164000000021 0.7367392000000034
0.7188238000000019 0.7952140000000021 0.7382377000000033
0.7203556000000019 0.796179700000002 0.7391701000000034
0.7219207000000019 0.7983442000000021 0.7408351000000034
0.7244515000000019 0.7995430000000021 0.7427998000000035
0.726416200000002 0.8009416000000021 0.7433659000000035
0.728347600000002 0.8017408000000021 0.7430995000000035
0.728547400000002 0.8033725000000022 0.7439320000000035
0.7279480000000019 0.8044381000000022 0.7459966000000035
0.729413200000002 0.8055370000000022 0.7488937000000034
0.730545400000002 0.8054704000000021 0.7495597000000035
0.732410200000002 0.8066692000000022 0.7523236000000035
0.732043900000002 0.8057368000000021 0.7516243000000036
0.7316776000000019 0.8060365000000022 0.7512247000000035
0.7316776000000019 0.8069023000000022 0.7510582000000036
0.7329097000000019 0.8076682000000022 0.7530895000000035
0.7330762000000018 0.8088337000000022 0.7523236000000035
0.7325434000000018 0.8085673000000022 0.7545547000000036
0.7336423000000019 0.8088670000000022 0.7552873000000035
0.7339420000000019 0.8086672000000023 0.7541551000000035
0.7324102000000019 0.8088004000000023 0.7539886000000036
0.7337422000000019 0.8094997000000023 0.7562863000000035
0.7342417000000019 0.8084674000000023 0.7585507000000036
0.7366393000000019 0.8094331000000022 0.7596163000000036
0.7379047000000019 0.8100325000000023 0.7599826000000036
0.7399693000000018 0.8087005000000023 0.7625800000000036
0.7422004000000019 0.8114311000000023 0.7620139000000036
0.7437655000000019 0.8111647000000023 0.7645447000000036
0.7447978000000018 0.8110648000000023 0.7652107000000037
0.7469623000000019 0.8121637000000023 0.7654105000000037
0.7477948000000019 0.8144281000000023 0.7658434000000036
0.7479946000000018 0.8146612000000023 0.7680412000000036
0.7470622000000018 0.8139619000000023 0.7697062000000037
0.7488271000000017 0.8153605000000024 0.7697395000000037
0.7489270000000018 0.8152939000000023 0.7718707000000037
0.7516243000000018 0.8155936000000024 0.7740352000000037
0.7538221000000018 0.8178580000000024 0.7761331000000037
0.7548544000000018 0.8195896000000025 0.7776982000000037
0.7568524000000019 0.8206552000000025 0.7768324000000036
0.7587172000000019 0.8220871000000025 0.7775650000000036
0.7594165000000018 0.8226199000000025 0.7803955000000036
0.7601158000000018 0.8226532000000025 0.7812280000000036
0.7613146000000018 0.8221204000000025 0.7814278000000036
0.7621138000000018 0.8247511000000025 0.7836589000000036
0.7640785000000019 0.8257168000000025 0.7829263000000036
0.7635124000000019 0.8277481000000024 0.7846246000000037
0.7655437000000018 0.8279812000000024 0.7862896000000037
0.7646446000000018 0.8289802000000024 0.7882210000000037
0.7638787000000018 0.8290801000000024 0.7898194000000037
0.7633792000000018 0.8287804000000024 0.7912846000000038
0.7646113000000018 0.8300791000000024 0.7916842000000038
0.7654438000000018 0.8304121000000024 0.7918840000000038
0.7669423000000017 0.8331427000000025 0.7927165000000038
0.7684075000000018 0.8327431000000024 0.7916842000000038
0.7698394000000018 0.8325766000000024 0.7916509000000038
0.7705387000000018 0.8339419000000025 0.7930495000000038
0.7701391000000017 0.8341417000000024 0.7926832000000038
0.7688071000000017 0.8362729000000024 0.7926832000000038
0.7692733000000017 0.8364061000000025 0.7924501000000038
0.7706386000000017 0.8359732000000025 0.7945480000000038
0.7698061000000017 0.8357734000000026 0.7948810000000038
0.7705387000000017 0.8379712000000026 0.7979113000000039
0.7717708000000016 0.8396029000000026 0.7988104000000039
0.7719040000000017 0.8416009000000026 0.799709500000004
0.7719040000000017 0.8425000000000027 0.799809400000004
0.7715044000000016 0.8428663000000027 0.800974900000004
0.7722703000000016 0.8426665000000028 0.8010082000000041
0.7744015000000016 0.8438986000000027 0.800442100000004
0.7766992000000016 0.8438653000000027 0.802306900000004
0.7793632000000016 0.8438653000000027 0.803006200000004
0.7825267000000016 0.8449642000000027 0.805936600000004
0.7818274000000016 0.8461297000000028 0.808267600000004
0.7819606000000017 0.8467291000000028 0.8100325000000039
0.7827598000000017 0.8488270000000028 0.811963900000004
0.7848577000000017 0.8486605000000028 0.8142616000000039
0.7871887000000016 0.8505919000000028 0.8153605000000039
0.7871887000000016 0.8523568000000028 0.8172253000000039
0.7888204000000016 0.8528896000000028 0.8157934000000039
0.7898527000000016 0.8530894000000028 0.8172919000000038
0.7894198000000017 0.8545213000000028 0.8177581000000038
0.7922170000000017 0.8552872000000028 0.8190901000000038
0.7941817000000018 0.8575183000000028 0.8194564000000039
0.7938820000000018 0.8577181000000028 0.8200891000000039
0.7936489000000018 0.8583508000000029 0.8209882000000039
0.7934158000000018 0.8602822000000029 0.8217541000000039
0.7940152000000018 0.8600158000000029 0.8219206000000039
0.7953139000000018 0.8601823000000028 0.8249842000000039
0.7969123000000018 0.8608483000000029 0.8267491000000039
0.7980112000000018 0.861514300000003 0.8274817000000039
0.7973452000000018 0.8608816000000029 0.8286805000000039
0.7990435000000018 0.8628130000000029 0.8302123000000039
0.7999093000000018 0.8626798000000029 0.8296795000000039
0.8024068000000019 0.8626465000000029 0.8315443000000039
0.8036722000000018 0.8643115000000029 0.8333758000000039
0.8048710000000019 0.8655769000000029 0.8339752000000039
0.8041384000000019 0.8675083000000029 0.8358733000000039
0.8054371000000019 0.8704054000000029 0.836805700000004
0.8050708000000019 0.8706052000000029 0.836872300000004
0.8069356000000019 0.8711380000000029 0.836672500000004
0.8094997000000018 0.8730028000000029 0.8362396000000041
0.8096329000000019 0.8739019000000029 0.835640200000004
