0.0120313 0.0102664 0.011332
0.0111322 0.010333 0.0116317
0.0121978 0.0099667 0.0111655
0.0118315 0.0097669 0.0126307
0.012997 0.0100333 0.0145288
0.0128305 0.0089011 0.0173593
0.0151282 0.0098668 0.0201565
0.0171262 0.0113653 0.0192574
0.0171595 0.0119314 0.0190909
0.0186913 0.0132967 0.0185914
0.0185248 0.0121978 0.0210223
0.0201898 0.0124642 0.0221545
0.0197902 0.0133966 0.0240526
0.021322 0.0146287 0.0233533
0.021322 0.0171262 0.0223876
0.0210223 0.0168265 0.0248851
0.0199567 0.015527800000000001 0.0259507
0.0228871 0.0172927 0.0256843
0.0252181 0.0162604 0.0262504
0.0271495 0.0170263 0.0282151
0.0282817 0.0162937 0.0272494
0.028981 0.0177256 0.0281152
0.0309457 0.0191908 0.02998
0.0300133 0.0205894 0.0289144
0.0320779 0.0205561 0.0301132
0.031645 0.0219547 0.0292141
0.0306127 0.0224542 0.0293806
0.0332434 0.0217549 0.0308125
0.0357742 0.024985 0.0310456
0.0361405 0.026983 0.0314452
0.0376057 0.0267832 0.0313786
0.0404029 0.0275491 0.0320779
0.0427339 0.0264502 0.0334432
0.0438328 0.0277156 0.0340759
0.0434332 0.0281818 0.0326773
0.0440992 0.0306127 0.0335764
0.0464302 0.0306793 0.0357076
0.0473293 0.0308125 0.0351082
0.0492607 0.0306127 0.0351082
0.050959 0.0295138 0.0360739
0.0517249 0.0285148 0.0358741
0.0535564 0.0310123 0.0375724
0.0551548 0.0311455 0.0375058
0.0542557 0.0304795 0.0371728
0.0544888 0.031312 0.0387046
0.0556876 0.0340759 0.0405028
0.0550216 0.0335098 0.0408025
0.0547219 0.0346087 0.0409357
0.0549883 0.0355078 0.042967
0.0545221 0.0380053 0.0448318
0.0563869 0.0370063 0.0447985
0.058584699999999997 0.0384715 0.0450316
0.060982299999999996 0.038971 0.047296
0.0628138 0.0395371 0.049627
0.0631468 0.0415351 0.0488278
0.0624475 0.0423343 0.0510922
0.0645454 0.0445321 0.0513586
0.0665767 0.044965 0.0520246
0.0677422 0.0464635 0.0546886
0.0701731 0.0480952 0.0554878
0.0695404 0.0494272 0.0548884
0.0693406 0.0491608 0.0554545
0.0695404 0.0503263 0.055621
0.0695404 0.0502264 0.0545887
0.0701398 0.0525574 0.0540226
0.069607 0.051958 0.0538561
0.0686746 0.0539227 0.0531235
0.0707059 0.0540559 0.053623
0.0735697 0.0546553 0.0550216
0.0760006 0.0555877 0.054955
0.0778321 0.0570862 0.0557209
0.077599 0.0570529 0.0582517
0.0761338 0.0573859 0.0577522
0.0762337 0.059483799999999996 0.0581518
0.076933 0.059350599999999996 0.059417199999999996
0.0755011 0.060682599999999996 0.061182099999999996
0.0770995 0.061348599999999996 0.0627139
0.078931 0.0628471 0.0635464
0.0787645 0.0646453 0.065944
0.0803296 0.0667765 0.0657775
0.0813619 0.0678088 0.0668431
0.0825274 0.0688078 0.067609
0.0826606 0.0696403 0.0671428
0.0831934 0.0710056 0.0671428
0.0828937 0.0717049 0.0688411
0.0846253 0.0737695 0.0687745
0.0843256 0.0758674 0.070273
0.085924 0.0755011 0.0716716
0.0859906 0.0774325 0.0721711
0.0889543 0.0785314 0.0730702
0.0896869 0.0802963 0.073936
0.0898867 0.082594 0.0754345
0.0900865 0.0834931 0.0752347
0.0923842 0.0824608 0.0741358
0.0948817 0.0833599 0.0750349
0.0959473 0.0822943 0.0766333
0.0974458 0.0827938 0.078598
0.0996436 0.0845587 0.0787978
0.1014418 0.0837595 0.0801964
0.1010422 0.0839926 0.0820279
0.1025407 0.0850582 0.0837928
0.1027405 0.0858241 0.0846919
0.1032067 0.0847918 0.0846586
0.1033399 0.0857575 0.0848917
0.1041391 0.0884548 0.0866233
0.1057042 0.0913519 0.0883882
0.1048384 0.0926839 0.0889543
0.1077688 0.0927172 0.089254
0.1088011 0.0944821 0.0878221
0.1103662 0.0961471 0.0874558
0.1102996 0.0962803 0.0881551
0.1116649 0.0984781 0.0893872
0.113563 0.100576 0.0893539
0.1146619 0.1008757 0.0891541
0.1157608 0.1007758 0.0906859
0.1147951 0.1009756 0.0930169
0.1148284 0.1031401 0.0948484
0.1166266 0.1054378 0.0961471
0.1187578 0.1072027 0.0971794
0.120223 0.1093006 0.0976789
0.1209223 0.1097335 0.0985114
0.1210888 0.1105327 0.098245
0.1236196 0.1102663 0.0995437
0.124219 0.1127638 0.1017748
0.1258174 0.1142956 0.1034065
0.1262836 0.1157275 0.1026739
0.1278154 0.1174258 0.1037395
0.127882 0.1192906 0.105238
0.1292806 0.1213552 0.1067032
0.1295803 0.122554 0.1090342
0.13141180000000002 0.1249849 0.1115983
0.13390930000000004 0.1260505 0.1124641
0.13464190000000004 0.1287145 0.1142956
0.13634020000000005 0.12961360000000002 0.1141957
0.13763890000000006 0.13117870000000004 0.1156609
0.13683970000000006 0.13297690000000004 0.1166266
0.13860460000000008 0.13157830000000004 0.1166599
0.1389709000000001 0.13131190000000004 0.1167931
0.1400032000000001 0.13124530000000004 0.1188577
0.14196790000000012 0.13384270000000004 0.121222
0.14183470000000012 0.13404250000000004 0.1204228
0.14366620000000013 0.13510810000000004 0.1227538
0.14613040000000013 0.13717270000000004 0.1240192
0.14822830000000015 0.13860460000000005 0.1251514
0.14966020000000016 0.14140180000000005 0.1244854
0.15045940000000016 0.14356630000000006 0.1268164
0.14976010000000015 0.14576410000000006 0.1284481
0.15052600000000016 0.14599720000000008 0.1275157
0.14899420000000016 0.14666320000000008 0.12921400000000002
0.14832820000000016 0.14886100000000008 0.13057930000000004
0.14812840000000016 0.1493605000000001 0.13001320000000002
0.14822830000000017 0.1495603000000001 0.13164490000000004
0.14796190000000017 0.1504261000000001 0.13204450000000004
0.1481284000000002 0.1513918000000001 0.13121200000000002
0.14716270000000017 0.1507924000000001 0.13274380000000002
0.14699620000000016 0.15382270000000012 0.13267720000000002
0.14809510000000017 0.15282370000000012 0.13390930000000004
0.14716270000000017 0.15299020000000013 0.13304350000000004
0.1477954000000002 0.15295690000000012 0.13510810000000004
0.14749570000000017 0.15325660000000013 0.13500820000000002
0.1497934000000002 0.15285700000000013 0.13760560000000002
0.1513252000000002 0.15295690000000015 0.13947040000000002
0.1506592000000002 0.15408910000000015 0.14043610000000004
0.1514584000000002 0.15362290000000015 0.14010310000000004
0.15109210000000017 0.15335650000000015 0.14183470000000004
0.1525906000000002 0.15622030000000015 0.14183470000000004
0.15242410000000017 0.15721930000000015 0.14193460000000005
0.15249070000000017 0.15921730000000014 0.14266720000000005
0.15388930000000017 0.16128190000000014 0.14273380000000005
0.15259060000000016 0.16108210000000014 0.14536450000000006
0.15139180000000016 0.15951700000000013 0.14669650000000006
0.15202450000000017 0.16138180000000013 0.14726260000000008
0.15302350000000017 0.16404580000000013 0.14716270000000006
0.15535450000000017 0.16690960000000013 0.15015970000000006
0.1561870000000002 0.16787530000000014 0.14896090000000006
0.1567198000000002 0.17020630000000014 0.15149170000000006
0.1584847000000002 0.17153830000000014 0.15378940000000008
0.15918400000000021 0.17217100000000016 0.1549549000000001
0.15965020000000021 0.17277040000000016 0.1559539000000001
0.1594837000000002 0.17213770000000014 0.1583182000000001
0.1609489000000002 0.17153830000000014 0.15835150000000012
0.1613485000000002 0.17346970000000014 0.16121530000000012
0.1615483000000002 0.17366950000000014 0.16141510000000012
0.1614817000000002 0.17510140000000016 0.16121530000000012
0.1611154000000002 0.17483500000000016 0.16424560000000013
0.16068250000000017 0.17446870000000014 0.16651000000000013
0.16224760000000019 0.17446870000000014 0.16790860000000013
0.16251400000000019 0.17593390000000014 0.16857460000000013
0.16371280000000019 0.17833150000000014 0.16874110000000014
0.16278040000000019 0.18039610000000014 0.17043940000000016
0.16417900000000019 0.18012970000000014 0.16990660000000016
0.1644787000000002 0.18006310000000014 0.17240410000000017
0.1656775000000002 0.18239410000000014 0.17290360000000018
0.1672093000000002 0.18189460000000013 0.1751347000000002
0.1681750000000002 0.18129520000000013 0.1766998000000002
0.1676089000000002 0.18132850000000014 0.17933050000000023
0.1678087000000002 0.18129520000000013 0.18109540000000024
0.1669429000000002 0.18252730000000014 0.18049600000000024
0.16551100000000019 0.18239410000000014 0.18132850000000025
0.16810840000000019 0.18296020000000016 0.18242740000000027
0.16970680000000019 0.18286030000000014 0.18432550000000028
0.1722709000000002 0.18495820000000016 0.1858906000000003
0.1726039000000002 0.18529120000000016 0.1855576000000003
0.17143840000000019 0.18698950000000017 0.1878553000000003
0.17197120000000019 0.18775540000000018 0.1891207000000003
0.1750015000000002 0.18782200000000018 0.19068580000000032
0.1755343000000002 0.1893871000000002 0.19158490000000034
0.1774324000000002 0.1913851000000002 0.19318330000000034
0.17992990000000023 0.1924507000000002 0.19551430000000034
0.18189460000000024 0.19115200000000018 0.19491490000000034
0.18339310000000025 0.19408240000000018 0.19474840000000032
0.18495820000000027 0.1942489000000002 0.19677970000000033
0.18589060000000027 0.1953811000000002 0.19871110000000033
0.18625690000000028 0.1979785000000002 0.19917730000000033
0.18569080000000027 0.1997767000000002 0.20024290000000033
0.18529120000000027 0.1998766000000002 0.20037610000000033
0.18589060000000027 0.20117530000000022 0.20060920000000035
0.18898750000000028 0.20423890000000022 0.19954360000000035
0.18895420000000027 0.20470510000000022 0.20060920000000035
0.18832150000000025 0.2045386000000002 0.20300680000000035
0.19011970000000025 0.2047384000000002 0.20290690000000033
0.19285030000000025 0.2046718000000002 0.20330650000000033
0.19221760000000024 0.2072026000000002 0.20573740000000035
0.19448200000000024 0.20910070000000022 0.20656990000000036
0.19468180000000024 0.21226420000000024 0.20853460000000038
0.19724590000000025 0.21352960000000024 0.20806840000000038
0.19937710000000025 0.21366280000000024 0.21106540000000037
0.19931050000000025 0.21352960000000024 0.21159820000000037
0.19904410000000025 0.21429550000000025 0.2120311000000004
0.20084230000000025 0.21296350000000025 0.21086560000000037
0.20184130000000025 0.21392920000000026 0.21029950000000036
0.20150830000000025 0.21559420000000026 0.21246400000000037
0.20294020000000026 0.21712600000000026 0.21392920000000037
0.20473840000000026 0.21869110000000028 0.21406240000000037
0.20517130000000028 0.2216548000000003 0.21269710000000036
0.20770210000000028 0.2219545000000003 0.21512800000000037
0.20770210000000028 0.2223541000000003 0.21452860000000037
0.2080018000000003 0.2238193000000003 0.2165599000000004
0.2075356000000003 0.22471840000000032 0.2180917000000004
0.20750230000000028 0.22521790000000033 0.2200231000000004
0.20843470000000028 0.22668310000000033 0.2208889000000004
0.2097334000000003 0.22924720000000035 0.2215882000000004
0.2119312000000003 0.23017960000000035 0.2210221000000004
0.2131966000000003 0.23204440000000034 0.2220544000000004
0.2160937000000003 0.23414230000000036 0.22242070000000042
0.21652660000000032 0.23560750000000036 0.22451860000000043
0.21869110000000033 0.23520790000000036 0.22508470000000044
0.21952360000000035 0.23663980000000037 0.22668310000000044
0.21942370000000033 0.23624020000000037 0.22664980000000043
0.22195450000000033 0.23710600000000037 0.22688290000000044
0.22152160000000032 0.23903740000000037 0.22648330000000044
0.22321990000000033 0.23973670000000039 0.22645000000000043
0.22411900000000035 0.2405026000000004 0.22804840000000043
0.22515130000000036 0.2415016000000004 0.22844800000000043
0.22511800000000035 0.24113530000000039 0.23034610000000044
0.22458520000000035 0.2413684000000004 0.23247730000000044
0.22418560000000035 0.24106870000000039 0.23410900000000046
0.22485160000000035 0.24023620000000037 0.23497480000000046
0.22548430000000036 0.24123520000000037 0.23790520000000046
0.22681630000000036 0.24080230000000036 0.23917060000000046
0.22911400000000037 0.24203440000000037 0.24080230000000047
0.2306125000000004 0.24456520000000037 0.24143500000000048
0.2306125000000004 0.24359950000000036 0.24060250000000047
0.22924720000000037 0.24379930000000036 0.24220090000000047
0.22984660000000037 0.24439870000000036 0.24290020000000048
0.2314117000000004 0.24593050000000036 0.2439991000000005
0.2317447000000004 0.24573070000000036 0.2455642000000005
0.2340091000000004 0.24633010000000036 0.2450314000000005
0.2352412000000004 0.24749560000000037 0.24593050000000052
0.2359405000000004 0.24856120000000037 0.24616360000000054
0.2360071000000004 0.24899410000000038 0.24829480000000054
0.2361403000000004 0.24912730000000038 0.24819490000000052
0.23663980000000043 0.25015960000000037 0.24876100000000054
0.23537440000000043 0.2523574000000004 0.25082560000000054
0.23487490000000041 0.2516914000000004 0.2515915000000005
0.23497480000000043 0.2527237000000004 0.25245730000000055
0.23703940000000043 0.2537227000000004 0.25335640000000054
0.23810500000000043 0.2530234000000004 0.2534563000000005
0.23920390000000044 0.2546551000000004 0.2545219000000005
0.24203440000000045 0.2558539000000004 0.2558539000000005
0.24323320000000045 0.2576854000000004 0.25588720000000054
0.24593050000000047 0.2591173000000004 0.25708600000000054
0.24519790000000047 0.2600830000000004 0.25695280000000054
0.24729580000000048 0.2602162000000004 0.25795180000000056
0.24719590000000047 0.2592838000000004 0.25788520000000054
0.24949360000000048 0.2613151000000004 0.26004970000000055
0.24892750000000047 0.26231410000000044 0.26274700000000056
0.25009300000000045 0.26141500000000045 0.26284690000000055
0.25085890000000044 0.26264710000000047 0.2634463000000006
0.2524240000000004 0.2644453000000005 0.2640457000000006
0.2540224000000004 0.26411230000000047 0.2630467000000006
0.25608700000000045 0.2637460000000005 0.2626471000000006
0.2566864000000005 0.26371270000000047 0.2640457000000006
0.2582182000000005 0.26531110000000047 0.2650114000000006
0.2585845000000005 0.26664310000000047 0.2637793000000006
0.2600164000000005 0.26917390000000047 0.2640124000000006
0.2613817000000005 0.27073900000000045 0.2651113000000006
0.2612818000000005 0.27113860000000045 0.2653444000000006
0.2599498000000005 0.27203770000000044 0.2666764000000006
0.2596834000000005 0.27476830000000046 0.2671426000000006
0.2593504000000005 0.27663310000000046 0.26770870000000063
0.2606158000000005 0.27646660000000045 0.2678086000000006
0.2626471000000005 0.27849790000000046 0.2663434000000006
0.26431210000000055 0.2801296000000005 0.26814160000000065
0.26417890000000055 0.28169470000000046 0.2683414000000007
0.26447860000000056 0.2809288000000005 0.2679751000000007
0.26461180000000056 0.2806624000000005 0.2676754000000007
0.26497810000000055 0.2808289000000005 0.2666431000000007
0.2649115000000005 0.2821276000000005 0.2675422000000007
0.26601040000000054 0.2837260000000005 0.2683747000000007
0.2690407000000005 0.2849581000000005 0.2711053000000007
0.27137170000000055 0.28382590000000046 0.27127180000000073
0.27137170000000055 0.2851912000000005 0.27060580000000073
0.2727703000000006 0.2870893000000005 0.2692405000000007
0.2728036000000006 0.2878552000000005 0.2692405000000007
0.2739358000000006 0.28645660000000045 0.2689408000000007
0.27586720000000065 0.28875430000000046 0.2702395000000007
0.27759880000000065 0.28995310000000046 0.27017290000000066
0.2789974000000007 0.29031940000000045 0.26964010000000066
0.28096210000000066 0.28925380000000045 0.2699398000000007
0.2810287000000007 0.28915390000000046 0.2713051000000007
0.2816281000000007 0.28832140000000045 0.2733364000000007
0.2809288000000007 0.2871892000000004 0.27433540000000073
0.28126180000000073 0.2894536000000004 0.27610030000000074
0.28196110000000074 0.29125180000000045 0.27533440000000076
0.28209430000000074 0.29295010000000044 0.2771326000000008
0.2843254000000007 0.29258380000000045 0.2783314000000008
0.28439200000000076 0.29444860000000045 0.2784646000000008
0.28542430000000074 0.2959804000000005 0.2797966000000008
0.2853577000000007 0.29551420000000045 0.2793970000000008
0.2843920000000007 0.29564740000000045 0.27893080000000076
0.2851579000000007 0.29551420000000045 0.27886420000000073
0.2842255000000007 0.2958472000000005 0.28146160000000076
0.2853577000000007 0.29741230000000046 0.28116190000000074
0.2867896000000007 0.2985112000000005 0.28139500000000073
0.2896867000000007 0.29901070000000046 0.28252720000000076
0.29125180000000067 0.30004300000000045 0.28362610000000077
0.29241730000000066 0.29881090000000043 0.28455850000000077
0.29308330000000066 0.29827810000000043 0.28562410000000077
0.29158480000000064 0.30087550000000046 0.28482490000000077
0.29105200000000064 0.30310660000000045 0.28532440000000076
0.29221750000000063 0.30387250000000043 0.2859238000000008
0.29171800000000064 0.30493810000000043 0.2867230000000008
0.29191780000000067 0.30567070000000046 0.2878219000000008
0.29361610000000066 0.30507130000000043 0.2897866000000008
0.2956807000000007 0.30670300000000045 0.2897866000000008
0.2963800000000007 0.30723580000000045 0.2919844000000008
0.2989774000000007 0.3089008000000005 0.2933164000000008
0.30047590000000074 0.3098665000000005 0.2922175000000008
0.30250720000000075 0.3114316000000005 0.2929501000000008
0.3044386000000008 0.3107989000000005 0.29408230000000085
0.3061702000000008 0.3138625000000005 0.2938825000000008
0.30733570000000077 0.3147949000000005 0.2951812000000008
0.3075355000000008 0.3141289000000005 0.29644660000000084
0.3076021000000008 0.3155608000000005 0.29687950000000085
0.3078685000000008 0.3149281000000005 0.29937700000000084
0.30830140000000084 0.3153277000000005 0.29977660000000084
0.30970000000000086 0.3152944000000005 0.3025405000000008
0.3116314000000009 0.3167596000000005 0.3035728000000008
0.3128635000000009 0.31805830000000046 0.3043720000000008
0.3149614000000009 0.31802500000000045 0.3066031000000008
0.3151279000000009 0.31765870000000046 0.3076354000000008
0.31586050000000093 0.3201229000000005 0.3083680000000008
0.31562740000000095 0.3202561000000005 0.30883420000000084
0.31562740000000095 0.3210220000000005 0.30936700000000084
0.315694000000001 0.32032270000000046 0.30856780000000084
0.31752550000000096 0.3228868000000005 0.30886750000000085
0.319190500000001 0.3249514000000005 0.31023280000000086
0.31912390000000096 0.3250846000000005 0.31116520000000086
0.319690000000001 0.32768200000000053 0.3118645000000009
0.320289400000001 0.3280483000000005 0.31409560000000086
0.321255100000001 0.32944690000000054 0.3126637000000009
0.32195440000000103 0.33121180000000056 0.31382920000000086
0.322453900000001 0.3314116000000006 0.31303000000000086
0.32448520000000103 0.33257710000000057 0.31459510000000085
0.32488480000000103 0.33191110000000057 0.31552750000000085
0.326050300000001 0.33164470000000057 0.31659310000000085
0.327781900000001 0.33241060000000056 0.31542760000000086
0.330079600000001 0.33334300000000056 0.31539430000000085
0.33254380000000106 0.33297670000000057 0.31762540000000083
0.33291010000000104 0.33264370000000054 0.3193237000000008
0.334075600000001 0.33221080000000053 0.3192571000000008
0.335008000000001 0.3343420000000005 0.3213217000000008
0.334675000000001 0.33464170000000054 0.32311990000000085
0.337239100000001 0.3343420000000005 0.3237193000000009
0.338837500000001 0.33517450000000054 0.32501800000000086
0.34076890000000104 0.33600700000000056 0.3251845000000009
0.34210090000000104 0.33747220000000056 0.3253843000000009
0.34303330000000104 0.3376720000000006 0.3268828000000009
0.34319980000000105 0.3388708000000006 0.32894740000000094
0.3433996000000011 0.33827140000000055 0.33094540000000094
0.34469830000000107 0.34093540000000055 0.33184450000000093
0.34469830000000107 0.34030270000000057 0.33184450000000093
0.3468961000000011 0.3425005000000006 0.33350950000000096
0.3485611000000011 0.3441988000000006 0.33307660000000094
0.35019280000000114 0.34642990000000057 0.33334300000000094
0.3498931000000011 0.3482281000000006 0.33444190000000096
0.3501262000000011 0.3475288000000006 0.33667300000000094
0.3506923000000011 0.3485944000000006 0.33544090000000093
0.3527902000000011 0.35082550000000057 0.33574060000000094
0.3525571000000011 0.35149150000000057 0.33780520000000097
0.3529567000000011 0.35295670000000057 0.338104900000001
0.35618680000000114 0.3539224000000006 0.340169500000001
0.35578720000000114 0.3533896000000006 0.341668000000001
0.35472160000000114 0.35428870000000057 0.344332000000001
0.3562867000000011 0.35348950000000057 0.345397600000001
0.35728570000000115 0.35615350000000057 0.34609690000000104
0.35731900000000116 0.35625340000000055 0.34556410000000104
0.3587176000000012 0.3572524000000006 0.34546420000000105
0.3598165000000012 0.3571192000000006 0.3479284000000011
0.3593503000000012 0.3560536000000006 0.34829470000000107
0.35984980000000116 0.35695270000000057 0.3500929000000011
0.3615148000000012 0.35675290000000054 0.3512251000000011
0.3607156000000012 0.35801830000000057 0.3498931000000011
0.3606823000000012 0.3597832000000006 0.3503926000000011
0.36238060000000116 0.3605824000000006 0.3518578000000011
0.36144820000000116 0.36041590000000057 0.3524905000000011
0.3625471000000012 0.36021610000000054 0.3539890000000011
0.3648448000000012 0.36114850000000054 0.3557539000000011
0.3645451000000012 0.3617812000000005 0.3579850000000011
0.36544420000000116 0.3623140000000005 0.3598831000000011
0.36514450000000115 0.3645451000000005 0.3611818000000011
0.36597700000000116 0.3649780000000005 0.3635794000000011
0.36794170000000115 0.36487810000000054 0.3635461000000011
0.3680083000000012 0.36544420000000055 0.3653776000000011
0.3678751000000012 0.36561070000000057 0.36734230000000107
0.36890740000000116 0.3675088000000006 0.3684745000000011
0.3715048000000012 0.36800830000000057 0.36827470000000107
0.3739024000000012 0.36880750000000057 0.37010620000000105
0.3740356000000012 0.3707056000000006 0.36983980000000105
0.3743020000000012 0.37187110000000057 0.37173790000000106
0.3752011000000012 0.37213750000000057 0.37343620000000105
0.37743220000000116 0.37440190000000056 0.37543420000000105
0.3788308000000012 0.3773656000000006 0.3782980000000011
0.3789307000000012 0.3784645000000006 0.38012950000000106
0.3778984000000012 0.3772657000000006 0.3797632000000011
0.3801295000000012 0.3780982000000006 0.3787309000000011
0.38222740000000116 0.37923040000000063 0.3819943000000011
0.3822607000000012 0.38142820000000066 0.38206090000000115
0.38192770000000115 0.38102860000000066 0.38515780000000116
0.38309320000000113 0.3814615000000007 0.38592370000000115
0.3837259000000011 0.3820609000000007 0.38788840000000113
0.3852910000000011 0.38425870000000073 0.39008620000000116
0.38762200000000113 0.3834262000000007 0.3922840000000012
0.38862100000000116 0.3848581000000007 0.3912184000000012
0.3890872000000012 0.3844585000000007 0.39115180000000116
0.3892870000000012 0.3856573000000007 0.39071890000000115
0.3908854000000012 0.3851911000000007 0.39178450000000115
0.3919177000000012 0.3856573000000007 0.39468160000000113
0.3926170000000012 0.3867562000000007 0.39601360000000113
0.39334960000000124 0.38932030000000073 0.39867760000000113
0.39238390000000123 0.3890206000000007 0.39921040000000113
0.3938158000000012 0.39011950000000073 0.3993103000000011
0.3938158000000012 0.3916846000000007 0.40217410000000114
0.3930166000000012 0.39265030000000073 0.40267360000000113
0.39344950000000123 0.39268360000000074 0.40537090000000114
0.39424870000000123 0.3916846000000007 0.40557070000000117
0.39458170000000126 0.39318310000000073 0.4069360000000012
0.39671290000000126 0.39511450000000076 0.4070026000000012
0.3979783000000013 0.3951811000000008 0.4086343000000012
0.3980116000000013 0.39794500000000077 0.4113982000000012
0.3991771000000013 0.3982780000000008 0.4106323000000012
0.3990772000000013 0.3985444000000008 0.4116646000000012
0.3988441000000013 0.3986776000000008 0.4121974000000012
0.40104190000000134 0.3987109000000008 0.4119643000000012
0.40187440000000135 0.39877750000000084 0.41229730000000125
0.4031398000000014 0.40164130000000087 0.41219740000000127
0.4020742000000014 0.4012750000000009 0.41336290000000125
0.4045384000000014 0.4031398000000009 0.41379580000000127
0.4057705000000014 0.4038058000000009 0.4139623000000013
0.40597030000000145 0.4041388000000009 0.4140289000000013
0.40460500000000144 0.4047049000000009 0.4169593000000013
0.40666960000000146 0.4073356000000009 0.4157938000000013
0.4080682000000015 0.4091005000000009 0.41582710000000134
0.4078018000000015 0.41166460000000094 0.4164598000000013
0.4088674000000015 0.41359600000000096 0.41769190000000134
0.4099330000000015 0.414828100000001 0.41985640000000135
0.4089673000000015 0.414728200000001 0.42002290000000136
0.4108321000000015 0.414461800000001 0.42185440000000135
0.4121974000000015 0.413695900000001 0.42185440000000135
0.4145950000000015 0.41576050000000103 0.42202090000000136
0.4142953000000015 0.41496130000000103 0.42148810000000136
0.4153942000000015 0.41442850000000103 0.42148810000000136
0.4161268000000015 0.414361900000001 0.42122170000000136
0.4156606000000015 0.41616010000000103 0.4231198000000014
0.4178251000000015 0.41819140000000105 0.4228867000000014
0.4187242000000015 0.4185244000000011 0.4245517000000014
0.4212550000000015 0.4209553000000011 0.4250512000000014
0.4222540000000015 0.4219210000000011 0.42698260000000143
0.4231531000000015 0.4224538000000011 0.42634990000000145
0.42508450000000153 0.4236526000000011 0.42625000000000146
0.42668290000000153 0.4242853000000011 0.42581710000000145
0.42721570000000153 0.4251844000000011 0.4265497000000015
0.42844780000000154 0.4254508000000011 0.4278151000000015
0.42948010000000153 0.4250512000000011 0.4291804000000015
0.42841450000000153 0.4269826000000011 0.4318111000000015
0.4272823000000015 0.4263166000000011 0.4343086000000015
0.4295800000000015 0.42744880000000113 0.4355074000000015
0.43244380000000154 0.42831460000000116 0.4366396000000015
0.43380910000000156 0.43061230000000117 0.4359736000000015
0.43314310000000156 0.4313116000000012 0.4357738000000015
0.43181110000000156 0.4309453000000012 0.4377052000000015
0.43104520000000157 0.4318444000000012 0.4371058000000015
0.43097860000000154 0.4318777000000012 0.4389373000000015
0.43167790000000156 0.4326436000000012 0.4404358000000015
0.43437520000000157 0.4329766000000012 0.4422007000000015
0.43450840000000157 0.43437520000000124 0.4413682000000015
0.4352077000000016 0.43457500000000127 0.4403359000000015
0.43823800000000157 0.43494130000000125 0.4408354000000015
0.4394701000000016 0.4362067000000013 0.4423006000000015
0.43900390000000156 0.4369060000000013 0.4437991000000015
0.43923700000000154 0.4380049000000013 0.4447315000000015
0.44003620000000154 0.4399030000000013 0.4441987000000015
0.44230060000000154 0.44246710000000133 0.4445983000000015
0.44163460000000154 0.4452310000000013 0.44533090000000153
0.44176780000000154 0.4468294000000013 0.4456972000000015
0.44223400000000157 0.4466296000000013 0.44559730000000153
0.4428334000000016 0.4463965000000013 0.4472956000000015
0.4430998000000016 0.4461634000000013 0.44879410000000153
0.44236720000000157 0.4483945000000013 0.4513249000000015
0.44503120000000157 0.45112510000000133 0.4523905000000015
0.44716240000000157 0.45132490000000136 0.45445510000000156
0.44742880000000157 0.45105850000000136 0.45402220000000154
0.44899390000000156 0.45129160000000135 0.45661960000000157
0.44922700000000154 0.45398890000000136 0.45622000000000157
0.45102520000000157 0.45515440000000135 0.4554541000000016
0.4499929000000016 0.4550878000000013 0.4561534000000016
0.44912710000000156 0.4539889000000013 0.4553875000000016
0.45152470000000156 0.4570192000000013 0.4557871000000016
0.45375580000000154 0.4564864000000013 0.45825130000000164
0.45502120000000157 0.4564864000000013 0.4574188000000016
0.45645310000000155 0.4585843000000013 0.45961660000000165
0.45568720000000157 0.4594501000000013 0.4626136000000017
0.4562533000000016 0.4586509000000013 0.46391230000000167
0.4585177000000016 0.4597498000000013 0.46507780000000165
0.4592503000000016 0.46128160000000135 0.46457830000000166
0.4618144000000016 0.46344610000000136 0.4662100000000017
0.46357930000000164 0.46437850000000136 0.4654108000000017
0.4635460000000016 0.4657771000000014 0.4667761000000017
0.46507780000000165 0.4648780000000014 0.4676752000000017
0.46707580000000165 0.4653109000000014 0.4695733000000017
0.46987300000000165 0.4662433000000014 0.4702726000000017
0.47030590000000166 0.46640980000000143 0.4714381000000017
0.4716712000000017 0.46601020000000143 0.4738024000000017
0.47416870000000166 0.4689073000000014 0.4742020000000017
0.4743352000000017 0.47083870000000144 0.47536750000000166
0.4739356000000017 0.47043910000000144 0.4766329000000017
0.4750678000000017 0.47197090000000147 0.4787974000000017
0.4753009000000017 0.47326960000000146 0.4794634000000017
0.4752010000000017 0.47316970000000147 0.48206080000000173
0.4740022000000017 0.4733362000000015 0.4819942000000017
0.4745017000000017 0.4743019000000015 0.4826935000000017
0.47403550000000166 0.4733695000000015 0.4842919000000017
0.47443510000000166 0.4725370000000015 0.48702250000000175
0.4765996000000017 0.4741687000000015 0.48742210000000175
0.4767994000000017 0.4740022000000015 0.48925360000000173
0.4797298000000017 0.47303650000000147 0.4893535000000017
0.4797631000000017 0.47263690000000147 0.4902859000000017
0.4794967000000017 0.47217070000000144 0.4890205000000017
0.4801627000000017 0.47303650000000147 0.4903525000000017
0.48126160000000173 0.47473480000000146 0.4916179000000017
0.4812283000000017 0.47633320000000146 0.49271680000000173
0.48365920000000173 0.47490130000000147 0.49285000000000173
0.4860235000000017 0.47716570000000147 0.49378240000000173
0.4873555000000017 0.47863090000000147 0.49381570000000174
0.4883878000000017 0.4786975000000015 0.49504780000000176
0.4895533000000017 0.47809810000000147 0.4948147000000018
0.4915846000000017 0.47982970000000147 0.49358260000000176
0.49298320000000173 0.48262690000000147 0.49394890000000174
0.49434850000000174 0.4832263000000015 0.49558060000000176
0.4965463000000018 0.4842919000000015 0.4976452000000018
0.4952476000000018 0.4849579000000015 0.4987441000000018
0.4953475000000018 0.4844251000000015 0.4981114000000018
0.4956472000000018 0.4850578000000015 0.4988773000000018
0.4979782000000018 0.4877884000000015 0.5008753000000018
0.4971124000000018 0.4898197000000015 0.5004424000000018
0.4989772000000018 0.4916845000000015 0.5021407000000019
0.5013415000000018 0.4913848000000015 0.5014747000000018
0.5035060000000018 0.4917511000000015 0.5026069000000019
0.5040388000000018 0.4916512000000015 0.5046715000000018
0.5054707000000018 0.4917511000000015 0.5076685000000019
0.5067361000000018 0.4942153000000015 0.5089672000000018
0.5066362000000018 0.49344940000000154 0.5085010000000019
0.5070691000000017 0.49344940000000154 0.5104657000000019
0.5091337000000017 0.49358260000000154 0.5102326000000019
0.5106988000000017 0.4935493000000015 0.511364800000002
0.5123305000000017 0.4954141000000015 0.510898600000002
0.5118310000000017 0.49574710000000155 0.5131963000000019
0.5127634000000018 0.49677940000000154 0.5138956000000019
0.5133961000000018 0.49851100000000154 0.5164930000000019
0.5121307000000018 0.49934350000000155 0.5165596000000019
0.5135293000000019 0.5005423000000015 0.5181913000000019
0.5136625000000019 0.5018077000000015 0.5205889000000019
0.5161267000000019 0.5018077000000015 0.5201893000000019
0.5160268000000019 0.5032729000000016 0.5206555000000018
0.5168593000000019 0.5048047000000015 0.5218876000000018
0.5192236000000019 0.5051044000000016 0.5214880000000017
0.5189572000000019 0.5043052000000016 0.5228533000000017
0.5202226000000019 0.5048713000000016 0.5230531000000017
0.5231530000000019 0.5063032000000016 0.5217877000000017
0.5220541000000019 0.5080348000000017 0.5221207000000018
0.5241853000000019 0.5088007000000017 0.5221207000000018
0.5242519000000019 0.5082346000000016 0.5219875000000017
0.5241520000000018 0.5095000000000016 0.5232862000000017
0.5238523000000018 0.5098663000000017 0.5255839000000017
0.5241853000000019 0.5104324000000017 0.5267161000000017
0.5244184000000018 0.5103325000000016 0.5262166000000017
0.5269159000000019 0.5092003000000016 0.5266162000000018
0.5286808000000018 0.5111983000000017 0.5286475000000017
0.5284144000000018 0.5120974000000017 0.5295466000000018
0.5291803000000018 0.5111317000000017 0.5291803000000017
0.5310451000000018 0.5108653000000017 0.5309452000000017
0.5330764000000018 0.5110318000000017 0.5308453000000016
0.5338090000000018 0.5133628000000017 0.5296798000000016
0.5341087000000018 0.5126968000000016 0.5329765000000016
0.5339755000000017 0.5117644000000016 0.5334760000000016
0.5344084000000017 0.5113648000000015 0.5340088000000016
0.5341420000000017 0.5133295000000015 0.5336425000000016
0.5352409000000017 0.5150611000000016 0.5351743000000015
0.5369725000000017 0.5151277000000016 0.5359402000000015
0.5401027000000017 0.5181247000000017 0.5363398000000016
0.5405356000000017 0.5178583000000017 0.5376052000000016
0.5407687000000017 0.5187907000000017 0.5389705000000016
0.5407021000000016 0.5183245000000017 0.5380714000000015
0.5406688000000016 0.5194900000000018 0.5399029000000015
0.5406355000000016 0.5206555000000018 0.5415679000000015
0.5411017000000016 0.5205889000000018 0.5420008000000015
0.5420008000000016 0.5201893000000017 0.5427001000000015
0.5428666000000016 0.5220208000000017 0.5432329000000015
0.5455306000000016 0.5227534000000017 0.5453974000000015
0.5468626000000016 0.5242852000000017 0.5462299000000015
0.5485276000000017 0.5256172000000017 0.5462632000000015
0.5480614000000017 0.5250511000000017 0.5472955000000015
0.5502259000000017 0.5279149000000016 0.5473954000000015
0.5502925000000017 0.5268493000000016 0.5466295000000015
0.5510917000000017 0.5279482000000016 0.5486275000000016
0.5531230000000017 0.5282812000000017 0.5489605000000016
0.5536558000000017 0.5290138000000016 0.5484277000000016
0.5532895000000017 0.5313781000000016 0.5485942000000016
0.5530231000000017 0.5342419000000016 0.5480281000000016
0.5541553000000017 0.5360734000000016 0.5502925000000016
0.5559202000000016 0.5351743000000015 0.5524903000000017
0.5575519000000017 0.5351077000000015 0.5510917000000016
0.5603491000000017 0.5352742000000015 0.5516578000000016
0.5604490000000018 0.5348413000000015 0.5541553000000017
0.5625469000000017 0.5356072000000015 0.5533228000000017
0.5629132000000018 0.5349079000000015 0.5533561000000017
0.5650444000000018 0.5341420000000016 0.5534893000000017
0.5664097000000018 0.5336425000000016 0.5542552000000017
0.5676751000000018 0.5336092000000016 0.5561866000000018
0.5677750000000018 0.5336758000000016 0.5575186000000018
0.5672089000000018 0.5353741000000016 0.5567860000000018
0.5670424000000018 0.5344417000000016 0.5596831000000018
0.5683078000000018 0.5339755000000016 0.5596831000000018
0.5678416000000018 0.5342419000000016 0.5589172000000018
0.5670757000000018 0.5351077000000016 0.5605489000000018
0.5694400000000018 0.5362732000000017 0.5614147000000018
0.5693401000000018 0.5392369000000017 0.5642785000000018
0.5693401000000018 0.5408020000000017 0.5654107000000018
0.5721706000000018 0.5419675000000017 0.5675752000000018
0.5742685000000017 0.5428666000000018 0.5684743000000019
0.5737024000000017 0.5432662000000018 0.5683744000000018
0.5742019000000017 0.5434993000000018 0.5697064000000018
0.5728699000000017 0.5445316000000018 0.5712382000000018
0.5746348000000017 0.5443318000000018 0.5703391000000018
0.5756338000000016 0.5452975000000018 0.5706388000000018
0.5764996000000017 0.5474953000000018 0.5717710000000018
0.5781646000000017 0.5494267000000018 0.5739355000000018
0.5791636000000017 0.5508586000000019 0.5750677000000018
0.5804623000000017 0.5529898000000019 0.5751343000000019
0.5813947000000017 0.5516578000000019 0.5750677000000018
0.5814946000000017 0.5516245000000018 0.5745016000000018
0.5829265000000018 0.5513248000000018 0.5748013000000018
0.5827600000000018 0.5518909000000018 0.5759335000000019
0.5839255000000019 0.5549878000000018 0.5775985000000019
0.5846248000000018 0.5564530000000019 0.5789971000000019
0.5836924000000018 0.5565862000000019 0.5780980000000019
0.5842918000000018 0.5590171000000019 0.5796964000000019
0.5837923000000018 0.559649800000002 0.5797630000000019
0.5845582000000018 0.5600827000000019 0.5808619000000019
0.5862232000000018 0.5594500000000019 0.5826268000000019
0.5861899000000018 0.5605489000000019 0.5828932000000019
0.5864896000000018 0.5612482000000019 0.5849245000000018
0.5876551000000019 0.5644450000000019 0.5854906000000019
0.5874553000000019 0.5644117000000018 0.5862898000000019
0.5895865000000019 0.5656105000000019 0.5868559000000019
0.5916511000000019 0.5669758000000019 0.5876218000000019
0.5939488000000018 0.5672089000000019 0.5881879000000019
0.5957470000000018 0.5696398000000019 0.5899861000000018
0.5971456000000018 0.5682412000000019 0.5895199000000019
0.5960134000000018 0.5673421000000018 0.5921506000000019
0.5980780000000018 0.5684410000000019 0.5930830000000019
0.5999428000000018 0.5698729000000019 0.5944483000000019
0.5992768000000017 0.570272500000002 0.5939488000000019
0.5989771000000017 0.570106000000002 0.596146600000002
0.5994433000000017 0.571204900000002 0.5987107000000019
0.6008086000000017 0.573003100000002 0.600109300000002
0.6007420000000017 0.572670100000002 0.6018742000000019
0.5995765000000016 0.572237200000002 0.6042385000000019
0.6009418000000016 0.571804300000002 0.6053374000000019
0.6011416000000016 0.5729698000000021 0.6043384000000019
0.6011749000000016 0.574768000000002 0.6064030000000019
0.6012415000000016 0.575733700000002 0.6079348000000019
0.6018742000000017 0.5763997000000021 0.6073354000000019
0.6019741000000017 0.578164600000002 0.6077350000000019
0.6032395000000017 0.5790970000000021 0.608634100000002
0.6035725000000017 0.5780980000000021 0.6096331000000019
0.6036058000000017 0.5789638000000021 0.608101300000002
0.6032395000000017 0.5786974000000021 0.608167900000002
0.6019741000000017 0.5801626000000022 0.608767300000002
0.6026401000000018 0.5806621000000022 0.608500900000002
0.6053707000000018 0.5800960000000022 0.607934800000002
0.6055039000000019 0.5820274000000022 0.609633100000002
0.6053707000000018 0.5834260000000022 0.6094333000000021
0.6075685000000018 0.5852575000000022 0.611764300000002
0.6096331000000018 0.5865895000000022 0.614095300000002
0.6104323000000018 0.5859235000000022 0.6168925000000021
0.6119641000000018 0.5883544000000022 0.618724000000002
0.6129964000000018 0.5894200000000022 0.6195565000000021
0.6159268000000018 0.5903191000000022 0.6215545000000021
0.6150610000000017 0.5914513000000022 0.6215212000000021
0.6146614000000017 0.5911849000000022 0.6222871000000021
0.6159601000000017 0.5916511000000022 0.6218542000000021
0.6164596000000017 0.5940154000000022 0.6221539000000021
0.6181579000000017 0.5938489000000022 0.6231862000000021
0.6174586000000017 0.5938489000000022 0.6231862000000021
0.6172588000000018 0.5938489000000022 0.6253507000000021
0.6166261000000017 0.5936824000000023 0.6280813000000022
0.6159934000000017 0.5939821000000023 0.6269158000000021
0.6163264000000017 0.5960134000000022 0.6257503000000021
0.6168925000000017 0.5966128000000023 0.6251842000000021
0.6176251000000017 0.5953807000000023 0.627748300000002
0.6184243000000017 0.5964796000000023 0.627981400000002
0.6184909000000017 0.5951476000000023 0.628181200000002
0.6182911000000018 0.5961466000000023 0.628714000000002
0.6179914000000017 0.5974453000000023 0.627748300000002
0.6171922000000017 0.5970457000000022 0.626649400000002
0.6172588000000018 0.5994100000000022 0.628247800000002
0.6190570000000017 0.5993767000000022 0.628714000000002
0.6177583000000018 0.6001426000000022 0.628447600000002
0.6175585000000018 0.5987107000000021 0.629280100000002
0.6168592000000018 0.6012748000000021 0.630712000000002
0.6190570000000019 0.6026734000000021 0.630712000000002
0.6195232000000018 0.6043717000000022 0.631444600000002
0.6216877000000018 0.6039388000000022 0.6323770000000021
0.6230863000000019 0.6044716000000022 0.6347413000000021
0.6230530000000019 0.6046048000000023 0.6353407000000021
0.6241186000000019 0.6058036000000023 0.6356071000000021
0.6229864000000018 0.6086341000000023 0.637372000000002
0.6240187000000018 0.6079015000000023 0.6393700000000021
0.6259834000000019 0.6104989000000023 0.6388039000000021
0.6262831000000019 0.6109984000000023 0.6386374000000021
0.6260500000000019 0.6107986000000023 0.6379381000000022
0.6287806000000019 0.6123970000000023 0.6400027000000021
0.6306787000000019 0.6147280000000023 0.6418009000000021
0.6321772000000019 0.6178249000000022 0.6430663000000021
0.6343750000000019 0.6190570000000022 0.6455305000000021
0.636373000000002 0.6184576000000022 0.6447313000000021
0.6384043000000019 0.6185242000000022 0.6477616000000022
0.6376384000000019 0.6186907000000021 0.6468625000000021
0.639836200000002 0.6200227000000021 0.6456304000000022
0.6413680000000019 0.6208552000000022 0.6478948000000022
0.6431329000000019 0.6215878000000021 0.6476950000000022
0.6457303000000019 0.6226534000000021 0.6489604000000022
0.6484609000000019 0.6231196000000021 0.6513580000000022
0.6484276000000019 0.6259834000000021 0.6523903000000022
0.6492934000000019 0.626149900000002 0.6536557000000022
0.6502924000000019 0.626416300000002 0.6535558000000021
0.6527899000000019 0.627681700000002 0.6535558000000021
0.6537889000000019 0.630179200000002 0.6548545000000021
0.6551209000000019 0.630878500000002 0.6574852000000021
0.6584176000000019 0.631844200000002 0.657352000000002
0.660149200000002 0.6328432000000019 0.659116900000002
0.6600160000000019 0.6340753000000019 0.6595165000000021
0.6596830000000019 0.6350743000000019 0.6612481000000021
0.6595831000000019 0.6337756000000019 0.6629464000000022
0.6588172000000019 0.6344416000000019 0.6640786000000022
0.6588172000000019 0.633209500000002 0.6670423000000022
0.6607153000000019 0.6355072000000019 0.6684742000000022
0.6621472000000019 0.636606100000002 0.6706054000000022
0.6620473000000019 0.637804900000002 0.6703390000000022
0.6613480000000019 0.640135900000002 0.6721705000000022
0.6620473000000019 0.641068300000002 0.6706387000000023
0.6646780000000019 0.6419674000000021 0.6726367000000023
0.6659101000000018 0.641301400000002 0.6734692000000023
0.6687406000000018 0.642933100000002 0.6745348000000023
0.6690403000000018 0.645064300000002 0.6773986000000023
0.6702391000000019 0.644498200000002 0.6786973000000023
0.6724036000000019 0.644731300000002 0.6789304000000023
0.6726034000000018 0.646929100000002 0.6797962000000023
0.6721705000000019 0.649260100000002 0.6821605000000023
0.6717709000000018 0.650558800000002 0.6814279000000023
0.6724036000000019 0.652057300000002 0.6805954000000023
0.6730696000000019 0.652923100000002 0.6792967000000023
0.6746680000000019 0.654787900000002 0.6781645000000023
0.6741019000000019 0.6576184000000019 0.6792967000000023
0.6759334000000019 0.659316700000002 0.6787306000000023
0.6752674000000018 0.659283400000002 0.6779647000000023
0.6738022000000018 0.660981700000002 0.6778648000000023
0.6735358000000018 0.662147200000002 0.6804289000000022
0.6735691000000018 0.6648445000000021 0.6821605000000023
0.6720706000000018 0.6636124000000021 0.6819607000000023
0.6741352000000018 0.6647446000000021 0.6827266000000023
0.6753673000000018 0.6656437000000022 0.6851575000000023
0.6767326000000018 0.6682744000000022 0.6853573000000023
0.6783976000000018 0.6693733000000022 0.6881878000000022
0.6772987000000018 0.6717709000000022 0.6900859000000023
0.6785974000000018 0.6718042000000022 0.6920839000000023
0.6792967000000018 0.6717043000000021 0.6913513000000023
0.6790969000000018 0.6719041000000021 0.6928831000000023
0.6798628000000018 0.6717709000000021 0.6938821000000023
0.6819607000000018 0.673036300000002 0.6954472000000023
0.6834592000000017 0.674901100000002 0.6954139000000022
0.6839920000000017 0.6779314000000021 0.6944815000000022
0.6840919000000018 0.6793966000000021 0.6964129000000022
0.6850576000000017 0.6808951000000021 0.6978115000000022
0.6865228000000018 0.680229100000002 0.6966793000000022
0.6876883000000018 0.680462200000002 0.6959134000000022
0.6890869000000018 0.680129200000002 0.6960799000000022
0.6917842000000018 0.681427900000002 0.6986107000000022
0.6907519000000019 0.6807952000000019 0.6987772000000022
0.6917176000000018 0.680562100000002 0.7005754000000022
0.6935824000000018 0.6823270000000019 0.7028731000000021
0.6946147000000018 0.6832927000000019 0.7052041000000021
0.6964795000000018 0.6858568000000018 0.7062364000000021
0.6983110000000018 0.6888871000000019 0.7076683000000021
0.6974119000000017 0.6880879000000019 0.7083343000000022
0.6962797000000017 0.6894199000000019 0.7087339000000022
0.6979447000000017 0.6900526000000019 0.7100992000000023
0.6998428000000018 0.6910849000000019 0.7117975000000023
0.6999760000000018 0.6920506000000018 0.7139287000000023
0.7009417000000018 0.6920839000000019 0.7159600000000023
0.7016077000000018 0.6915511000000019 0.7174252000000023
0.7022404000000019 0.6930496000000018 0.7187572000000023
0.7017076000000019 0.6934492000000019 0.7190902000000023
0.7011082000000018 0.6952141000000018 0.7184242000000023
0.6998761000000019 0.6971455000000019 0.7199560000000023
0.7024069000000019 0.7000426000000018 0.7219540000000023
0.7026067000000019 0.7021738000000018 0.7221205000000023
0.7025734000000019 0.7024735000000019 0.7226533000000023
0.7024069000000019 0.7024402000000018 0.7216210000000023
0.703572400000002 0.7048045000000018 0.7243849000000023
0.703639000000002 0.7050709000000018 0.7231195000000024
0.705337300000002 0.7070689000000019 0.7249843000000024
0.707701600000002 0.7090003000000019 0.7269157000000024
0.706569400000002 0.709399900000002 0.7265161000000023
0.706769200000002 0.708900400000002 0.7278148000000023
0.705936700000002 0.709766200000002 0.7283143000000023
0.706569400000002 0.711730900000002 0.7305454000000023
0.708767200000002 0.7131961000000021 0.7323103000000023
0.710665300000002 0.7133626000000021 0.7314445000000023
0.709466500000002 0.7136956000000021 0.7302457000000022
0.710565400000002 0.7155937000000021 0.7320772000000022
0.712863100000002 0.7152940000000021 0.7337755000000022
0.712696600000002 0.7170256000000022 0.7347745000000022
0.7136290000000021 0.7179580000000022 0.7364062000000022
0.7141618000000021 0.7192234000000022 0.7377382000000022
0.7169257000000021 0.7212214000000022 0.7389037000000023
0.7162264000000022 0.7239853000000023 0.7407019000000022
0.7171921000000021 0.7250509000000023 0.7426666000000023
0.7174252000000021 0.7279813000000023 0.7431661000000023
0.7183243000000021 0.7290136000000023 0.7455970000000023
0.7193233000000021 0.7299127000000023 0.7455304000000023
0.7211215000000021 0.7304788000000023 0.7465960000000023
0.721587700000002 0.7310449000000023 0.7464295000000023
0.722586700000002 0.7315111000000023 0.7459633000000023
0.722320300000002 0.7313779000000022 0.7475617000000023
0.7245847000000021 0.7310782000000022 0.7492600000000024
0.7256836000000021 0.7302457000000022 0.7522237000000024
0.7284475000000021 0.7306453000000023 0.7518574000000023
0.7285141000000022 0.7317775000000023 0.7511914000000023
0.7283143000000022 0.7325434000000023 0.7532560000000023
0.7281811000000021 0.7319440000000023 0.7544881000000022
0.7294798000000021 0.7323436000000023 0.7554871000000022
0.7308451000000021 0.7322770000000023 0.7568857000000022
0.7306453000000022 0.7346080000000023 0.7593499000000022
0.7315777000000022 0.7352740000000023 0.7605820000000022
0.7308451000000022 0.7382710000000023 0.7601824000000021
0.7295464000000023 0.7380379000000024 0.7602823000000022
0.7287472000000023 0.7388371000000024 0.7599493000000022
0.7285474000000023 0.7411348000000023 0.7602490000000022
0.7307119000000023 0.7427332000000023 0.7626799000000022
0.7315111000000023 0.7450309000000023 0.7630795000000022
0.7312447000000023 0.7441651000000022 0.7633792000000023
0.7322104000000023 0.7430995000000022 0.7642117000000023
0.7346746000000023 0.7442983000000023 0.7662097000000023
0.7362064000000023 0.7433992000000023 0.7674751000000023
0.7359400000000023 0.7450642000000023 0.7672420000000023
0.7349743000000023 0.7474951000000023 0.7690069000000023
0.7358068000000023 0.7473619000000022 0.7694731000000022
0.7354072000000023 0.7487605000000023 0.7703722000000023
0.7347745000000022 0.7494265000000023 0.7708051000000022
0.7368391000000022 0.7495930000000023 0.7730362000000023
0.7366726000000022 0.7515910000000023 0.7742017000000023
0.7377382000000022 0.7526566000000023 0.7762663000000023
0.7383043000000022 0.7521238000000023 0.7780312000000023
0.7394032000000023 0.7535890000000024 0.7776982000000022
0.7412680000000023 0.7548544000000024 0.7794298000000023
0.7419673000000022 0.7549876000000024 0.7815610000000023
0.7418008000000023 0.7568524000000024 0.7826266000000023
0.7413679000000023 0.7568191000000024 0.7810615000000023
0.7399693000000023 0.7587838000000025 0.7827265000000023
0.7420339000000022 0.7591834000000025 0.7844248000000024
0.7439986000000023 0.7598494000000026 0.7863229000000024
0.7451308000000023 0.7616476000000025 0.7852573000000024
0.7440985000000023 0.7619473000000025 0.7843915000000024
0.7457635000000024 0.7618807000000025 0.7869889000000023
0.7456969000000023 0.7635457000000025 0.7873219000000024
0.7457302000000023 0.7653439000000025 0.7870555000000024
0.7462963000000024 0.7655770000000025 0.7871221000000024
0.7469956000000023 0.7672087000000025 0.7886872000000024
0.7485274000000023 0.7686739000000026 0.7906852000000024
0.7485274000000023 0.7696729000000025 0.7918840000000025
0.7502590000000023 0.7700392000000026 0.7923835000000025
0.7516909000000024 0.7727698000000026 0.7919839000000024
0.7518574000000023 0.7715377000000027 0.7917508000000024
0.7530895000000023 0.7727698000000026 0.7926499000000025
0.7561198000000023 0.7716709000000026 0.7918840000000025
0.7574851000000024 0.7737355000000026 0.7933825000000024
0.7590169000000023 0.7732027000000026 0.7951474000000024
0.7608817000000023 0.7737355000000026 0.7958800000000024
0.7596163000000024 0.7761331000000026 0.7964794000000024
0.7603489000000023 0.7776316000000025 0.7958467000000023
0.7615144000000024 0.7774318000000026 0.7954804000000023
0.7619806000000023 0.7762663000000025 0.7958134000000023
0.7630129000000023 0.7759333000000025 0.7945813000000024
0.7639453000000024 0.7781644000000025 0.7967791000000024
0.7641118000000023 0.7800292000000025 0.7996096000000024
0.7643782000000023 0.7798960000000025 0.8016076000000024
0.7642783000000023 0.7787638000000024 0.8012746000000024
0.7641784000000023 0.7781977000000024 0.8017408000000024
0.7631128000000023 0.7784308000000024 0.8020738000000024
0.7653106000000023 0.7804288000000025 0.8029729000000024
0.7670422000000023 0.7813612000000025 0.8042716000000024
0.7685074000000024 0.7826932000000025 0.8041384000000024
0.7703056000000024 0.7827265000000025 0.8041051000000023
0.7724368000000024 0.7840252000000025 0.8035057000000023
0.7723036000000023 0.7838254000000026 0.8044048000000024
0.7741018000000023 0.7845247000000025 0.8029063000000024
0.7759666000000023 0.7849909000000025 0.8035057000000024
0.7759000000000023 0.7868224000000025 0.8043049000000024
0.7769656000000023 0.7893532000000025 0.8069689000000024
0.7766326000000022 0.7902190000000026 0.8069356000000024
0.7780978000000023 0.7908184000000026 0.8086006000000024
0.7803289000000023 0.7933159000000026 0.8106319000000024
0.7802623000000023 0.7954804000000026 0.8111314000000024
0.7827598000000023 0.7974451000000027 0.8112979000000023
0.7824934000000023 0.7977115000000027 0.8122969000000023
0.7834924000000023 0.7974784000000027 0.8114644000000023
0.7837588000000023 0.7994764000000028 0.8116975000000023
0.7846912000000024 0.8016742000000028 0.8131627000000023
0.7854571000000024 0.8023735000000027 0.8141950000000023
0.7861564000000023 0.8037721000000028 0.8148943000000023
0.7862563000000024 0.8049709000000028 0.8152273000000023
0.7868224000000024 0.8048710000000028 0.8146279000000023
0.7862896000000024 0.8042716000000028 0.8141950000000023
0.7868890000000024 0.8062363000000028 0.8157934000000023
0.7881877000000024 0.8083009000000028 0.8147944000000024
0.7880545000000023 0.8092000000000028 0.8157268000000024
0.7896196000000023 0.8106652000000029 0.8165593000000024
0.7903522000000023 0.8113645000000028 0.8172586000000024
0.7922503000000023 0.8131627000000028 0.8188570000000024
0.7930495000000023 0.8130628000000027 0.8194231000000024
0.7952140000000023 0.8136955000000028 0.8191234000000024
0.7956136000000024 0.8146612000000027 0.8203888000000024
0.7954804000000023 0.8171254000000028 0.8212213000000024
0.7966792000000024 0.8186572000000027 0.8217208000000024
0.7978114000000024 0.8189569000000028 0.8233858000000024
0.7982443000000023 0.8181577000000028 0.8241850000000024
0.8006419000000023 0.8185906000000027 0.8240518000000023
0.8029729000000023 0.8212546000000027 0.8248843000000023
0.8047711000000023 0.8200558000000027 0.8242849000000023
0.8049376000000023 0.8208217000000027 0.8253172000000023
0.8042050000000023 0.8217541000000027 0.8273152000000024
0.8051707000000022 0.8247511000000027 0.8302456000000024
0.8062363000000022 0.8246179000000027 0.8326432000000024
0.8068690000000023 0.8244514000000027 0.8324767000000024
0.8069356000000023 0.8260165000000027 0.8354737000000024
0.8097994000000023 0.8263162000000027 0.8347078000000024
0.8102323000000022 0.8257834000000027 0.8336755000000025
0.8110981000000023 0.8271154000000027 0.8365060000000024
0.8125633000000023 0.8288803000000027 0.8389702000000024
0.8135623000000023 0.8300791000000027 0.8384041000000024
0.8142283000000023 0.8298460000000027 0.8383042000000024
0.8141284000000023 0.8295130000000027 0.8375716000000024
0.8136622000000023 0.8301457000000028 0.8370721000000024
0.8133625000000023 0.8308450000000027 0.8364394000000024
0.8149276000000023 0.8303455000000027 0.8360398000000023
0.8151940000000023 0.8299459000000027 0.8378380000000023
0.8177581000000023 0.8298127000000026 0.8384707000000023
0.8192233000000023 0.8321770000000026 0.8386039000000024
0.8198560000000024 0.8315776000000026 0.8384041000000024
0.8204554000000024 0.8343082000000026 0.8399692000000024
0.8207551000000024 0.8336089000000027 0.8400691000000025
0.8196895000000024 0.8333758000000027 0.8399692000000024
0.8226532000000024 0.8345080000000027 0.8410348000000024
0.8244514000000024 0.8365393000000027 0.8425000000000025
0.8258167000000024 0.8387371000000027 0.8423668000000024
0.8269822000000024 0.8396362000000027 0.8446312000000025
0.8281144000000025 0.8418007000000027 0.8456635000000025
0.8299459000000025 0.8420005000000027 0.8475949000000025
0.8318440000000025 0.8405686000000027 0.8482942000000024
