0.0116317 0.0108991 0.0114319
0.0140959 0.0108991 0.0106993
0.0135631 0.0114652 0.0114319
0.0145621 0.0119647 0.0119314
0.014662 0.0128971 0.0134299
0.013996 0.0145288 0.0138628
0.0155278 0.0135964 0.0131302
0.0151282 0.0144955 0.0125308
0.0162937 0.0155278 0.0124642
0.0188578 0.0149284 0.0138628
0.0185248 0.0174259 0.0143623
0.0190243 0.0179254 0.0167599
0.0216217 0.0200233 0.0160606
0.0238861 0.0194239 0.0180586
0.0245521 0.020323 0.0197236
0.0248518 0.0214552 0.0195238
0.0269497 0.0211222 0.0201232
0.0279487 0.022321 0.022654
0.0301465 0.022321 0.022321
0.0305794 0.024652 0.0228871
0.031312 0.0257842 0.0230536
0.0314452 0.0285481 0.0243523
0.0335431 0.0284149 0.0257842
0.0337429 0.0286813 0.0280153
0.0347419 0.0284815 0.0306793
0.034642 0.0286813 0.0309124
0.0357076 0.0314119 0.0304129
0.035974 0.0317449 0.0330436
0.036307 0.032644 0.0347086
0.0383716 0.0345421 0.0367399
0.0386047 0.034975 0.0371062
0.0410356 0.0358408 0.037639
0.0424342 0.0367066 0.0362404
0.043633 0.0374725 0.0373393
0.0459307 0.0380719 0.0388378
0.0472294 0.0388378 0.0389377
0.0463969 0.0412354 0.0397702
0.0460306 0.0440992 0.0420346
0.0478621 0.0468298 0.0417016
0.0495271 0.047629 0.0435331
0.0508924 0.0467632 0.0438994
0.0520579 0.0479953 0.0444655
0.0544222 0.0488278 0.0437329
0.0557875 0.0507592 0.0457309
0.0564535 0.0511255 0.0461305
0.059517099999999996 0.0525574 0.0481951
0.060216399999999996 0.0530236 0.0485281
0.061048899999999996 0.0524242 0.0497602
0.062247699999999996 0.0537562 0.0507259
0.0626806 0.0553879 0.0531568
0.0625474 0.0560206 0.0528238
0.0634132 0.058551399999999997 0.0532567
0.0665767 0.059816799999999996 0.056287
0.0675091 0.059150799999999996 0.0559207
0.0670429 0.060582699999999996 0.0553546
0.068608 0.061215399999999996 0.057286
0.0703063 0.061481799999999996 0.060083199999999996
0.0703396 0.062614 0.059716899999999996
0.0723709 0.0631801 0.061714899999999996
0.0723709 0.0647785 0.0641125
0.0718048 0.0653779 0.0633466
0.0725041 0.0657109 0.0627472
0.074269 0.0685414 0.0619147
0.0763336 0.0694405 0.0640792
0.0762337 0.0706726 0.0640126
0.0786313 0.071938 0.0647452
0.080929 0.0728038 0.0668764
0.0815617 0.0744022 0.0677755
0.0824941 0.0761005 0.0683416
0.0844921 0.0765001 0.0700066
0.0847252 0.0754012 0.0701065
0.0848251 0.0774658 0.0717049
0.084259 0.0778987 0.0731368
0.0842257 0.0764335 0.0751681
0.0836929 0.0762004 0.074602
0.0839926 0.0766666 0.0774325
0.0845254 0.0788311 0.0777322
0.0850582 0.0798634 0.0807292
0.0866899 0.0790642 0.0804961
0.0877222 0.0783982 0.0808291
0.0886546 0.080263 0.0816949
0.0903862 0.081928 0.081595
0.0916516 0.0828271 0.0837928
0.0933499 0.0848917 0.0864901
0.0934165 0.0874225 0.0870895
0.0949483 0.0902863 0.0894871
0.096247 0.0920179 0.0901198
0.0965134 0.0921178 0.0904528
0.0982783 0.0948817 0.0913519
0.0977455 0.0963136 0.0906193
0.0979453 0.0980452 0.08992
0.0976789 0.0983782 0.0912853
0.0993106 0.1004428 0.092251
0.1005094 0.1017748 0.0921844
0.1007092 0.1034065 0.0945154
0.1016083 0.1046719 0.0942157
0.1009756 0.1070362 0.0945154
0.1017748 0.1097335 0.0968797
0.1019746 0.1094005 0.0987778
0.102241 0.1111321 0.0988777
0.1020745 0.1114318 0.0994105
0.1011421 0.112231 0.0993772
0.1027738 0.1146952 0.1010755
0.1036729 0.114229 0.1008424
0.1053712 0.1143289 0.103573
0.1053379 0.1152946 0.1022743
0.1041058 0.1163269 0.1045387
0.1043722 0.1167598 0.1048384
0.1041724 0.119557 0.1058707
0.1045387 0.1217881 0.1075357
0.1054711 0.1217215 0.1093006
0.104572 0.1213219 0.1091008
0.1052047 0.1214551 0.1099
0.1065367 0.1234531 0.1114651
0.1067032 0.1250515 0.1117315
0.1070029 0.1277821 0.1129969
0.1079353 0.1281817 0.1126972
0.1098667 0.1293139 0.1130635
0.1113985 0.1300465 0.1133299
0.1117315 0.1296802 0.1127305
0.112564 0.1296136 0.1133632
0.1137628 0.1307458 0.1149283
0.1154611 0.13004649999999998 0.1158607
0.116227 0.13024629999999998 0.1147618
0.1164268 0.13104549999999998 0.1145287
0.1170262 0.13104549999999998 0.115561
0.1187245 0.1316782 0.1173925
0.11989 0.132544 0.1190575
0.122221 0.131212 0.1209223
0.1220878 0.130879 0.1202896
0.1238194 0.1323775 0.1217881
0.1243855 0.1345753 0.1229536
0.1250848 0.13580740000000002 0.1229203
0.1248184 0.13840480000000002 0.1236196
0.1262836 0.1377055 0.1242523
0.1279486 0.1399699 0.1267165
0.1305127 0.1414351 0.12881440000000002
0.13081240000000002 0.1420345 0.13057930000000004
0.13041280000000002 0.1436995 0.13161160000000005
0.13291030000000004 0.1456309 0.13057930000000004
0.13317670000000004 0.1446652 0.13241080000000005
0.13437550000000004 0.145198 0.13151170000000004
0.13380940000000002 0.146197 0.13041280000000002
0.13460860000000002 0.1484281 0.13257730000000004
0.13757230000000004 0.1481284 0.13574080000000005
0.13863790000000004 0.1504927 0.13570750000000004
0.14046940000000005 0.15085900000000002 0.13687300000000005
0.14276710000000006 0.15225760000000002 0.13587400000000005
0.14223430000000006 0.15239080000000002 0.13853800000000005
0.14453200000000008 0.15309010000000003 0.13733920000000005
0.14533120000000008 0.15368950000000003 0.13763890000000006
0.1472293000000001 0.15402250000000003 0.13717270000000006
0.1475290000000001 0.15578740000000005 0.13867120000000008
0.1473292000000001 0.15695290000000006 0.13887100000000008
0.1491940000000001 0.15778540000000008 0.13993660000000008
0.15142510000000012 0.15648670000000006 0.14020300000000008
0.15365620000000013 0.15915070000000006 0.14053600000000008
0.15502150000000015 0.15958360000000008 0.1412353000000001
0.15738580000000016 0.1616149000000001 0.1427005000000001
0.15955030000000017 0.1630801000000001 0.1429003000000001
0.15961690000000017 0.1639792000000001 0.1438327000000001
0.16014970000000017 0.1633465000000001 0.1444987000000001
0.15981670000000017 0.1623475000000001 0.14413240000000008
0.16128190000000017 0.1623475000000001 0.1462969000000001
0.16261390000000017 0.1648450000000001 0.1477621000000001
0.16444540000000019 0.1642456000000001 0.1482949000000001
0.1664101000000002 0.1661104000000001 0.1501930000000001
0.1670095000000002 0.1669762000000001 0.1493272000000001
0.1675423000000002 0.16707610000000012 0.15102550000000012
0.1689409000000002 0.16757560000000013 0.15125860000000013
0.1712386000000002 0.16774210000000014 0.15332320000000013
0.1725040000000002 0.16734250000000014 0.15515470000000015
0.1742356000000002 0.16820830000000014 0.15582070000000015
0.1761004000000002 0.17037280000000016 0.15522130000000015
0.1760338000000002 0.17153830000000017 0.15715270000000015
0.1747351000000002 0.17303680000000018 0.15928390000000014
0.1758340000000002 0.1730701000000002 0.15998320000000016
0.17853130000000023 0.1732699000000002 0.16041610000000017
0.18002980000000024 0.1743022000000002 0.1611154000000002
0.18202780000000024 0.17440210000000023 0.1601830000000002
0.18222760000000024 0.17630020000000024 0.15968350000000017
0.18176140000000024 0.17563420000000024 0.15891760000000016
0.18092890000000023 0.17719930000000025 0.15871780000000016
0.1802962000000002 0.17876440000000027 0.15771880000000016
0.18206110000000023 0.17833150000000025 0.15898420000000016
0.18472510000000023 0.17919730000000025 0.16051600000000016
0.18742240000000024 0.17839810000000025 0.16164820000000016
0.19045270000000025 0.17899750000000025 0.16051600000000016
0.19141840000000027 0.17799850000000025 0.16098220000000016
0.19135180000000027 0.17939710000000025 0.15991660000000016
0.19388260000000027 0.17946370000000025 0.16108210000000017
0.19315000000000027 0.18029620000000027 0.16397920000000019
0.19331650000000028 0.17973010000000025 0.16464520000000019
0.19471510000000028 0.18032950000000025 0.16651000000000019
0.1970794000000003 0.17936380000000024 0.16574410000000017
0.1971793000000003 0.18059590000000025 0.16477840000000016
0.1980451000000003 0.18069580000000027 0.16767550000000017
0.1996435000000003 0.18355960000000027 0.16924060000000019
0.20100880000000032 0.18369280000000027 0.16774210000000017
0.20217430000000033 0.18455860000000027 0.16987330000000017
0.20507140000000035 0.18375940000000027 0.17210440000000019
0.20663650000000036 0.18435880000000027 0.17297020000000018
0.20690290000000036 0.18332650000000025 0.1732033000000002
0.20583730000000036 0.18465850000000025 0.1739359000000002
0.20726920000000038 0.18402580000000024 0.1768663000000002
0.20716930000000036 0.18515800000000024 0.1793971000000002
0.20940040000000038 0.18505810000000023 0.1806292000000002
0.20913400000000038 0.18832150000000022 0.1813618000000002
0.2107657000000004 0.18758890000000022 0.18312670000000023
0.20993320000000038 0.19048600000000024 0.18379270000000023
0.20999980000000038 0.19138510000000025 0.18555760000000024
0.2118979000000004 0.19268380000000027 0.18542440000000024
0.21106540000000037 0.19398250000000028 0.18742240000000024
0.21193120000000037 0.1948150000000003 0.18775540000000024
0.21253060000000037 0.1947484000000003 0.18918730000000025
0.21326320000000037 0.19391590000000028 0.19118530000000025
0.21199780000000037 0.1961470000000003 0.19011970000000025
0.21139840000000037 0.1981783000000003 0.18898750000000025
0.20980000000000038 0.1982449000000003 0.19065250000000025
0.2104993000000004 0.20034280000000032 0.19105210000000025
0.2107657000000004 0.20074240000000032 0.19318330000000025
0.2127304000000004 0.20104210000000033 0.19508140000000027
0.2149948000000004 0.20027620000000032 0.19511470000000028
0.2145286000000004 0.20057590000000033 0.1957474000000003
0.2143621000000004 0.20247400000000035 0.1981783000000003
0.2141623000000004 0.20423890000000036 0.20000980000000032
0.2164933000000004 0.20397250000000036 0.20130850000000033
0.2169595000000004 0.20666980000000038 0.20257390000000033
0.2173591000000004 0.20663650000000036 0.20184130000000033
0.21719260000000037 0.20850130000000036 0.20493820000000035
0.21669310000000036 0.20870110000000036 0.20503810000000036
0.21695950000000036 0.20973340000000038 0.20490490000000036
0.21599380000000035 0.20950030000000036 0.20680300000000038
0.21749230000000036 0.20853460000000035 0.20676970000000036
0.21752560000000037 0.21033280000000035 0.20746900000000038
0.21839140000000037 0.21049930000000036 0.2084347000000004
0.21835810000000036 0.21079900000000037 0.2108656000000004
0.21905740000000037 0.2130301000000004 0.21123190000000042
0.21752560000000037 0.2161603000000004 0.21409570000000042
0.21819160000000037 0.21586060000000037 0.21376270000000042
0.21715930000000036 0.21592720000000037 0.21476170000000042
0.21722590000000036 0.21825820000000037 0.21765880000000043
0.21879100000000037 0.22065580000000037 0.21769210000000044
0.2201563000000004 0.22252060000000037 0.21762550000000044
0.2211553000000004 0.2228203000000004 0.21762550000000044
0.2232199000000004 0.22278700000000037 0.21655990000000044
0.22232080000000037 0.2236861000000004 0.21522790000000044
0.22185460000000037 0.2252512000000004 0.21386260000000043
0.2240191000000004 0.22741570000000041 0.21449530000000044
0.2236861000000004 0.22688290000000041 0.21572740000000046
0.2263168000000004 0.22581730000000041 0.21689290000000047
0.22734910000000041 0.2251846000000004 0.21652660000000046
0.23024620000000043 0.2274490000000004 0.21612700000000046
0.23211100000000043 0.2293804000000004 0.21859120000000046
0.23214430000000044 0.23101210000000041 0.22112200000000046
0.23254390000000044 0.2309122000000004 0.22238740000000046
0.23550760000000046 0.2310454000000004 0.22381930000000047
0.23723920000000046 0.2338426000000004 0.22598380000000048
0.23713930000000044 0.2332432000000004 0.22495150000000047
0.23797180000000046 0.2328103000000004 0.22468510000000047
0.23970340000000045 0.2338426000000004 0.22385260000000046
0.23887090000000044 0.2324773000000004 0.22292020000000046
0.23797180000000043 0.2338426000000004 0.22215430000000044
0.2375389000000004 0.2351413000000004 0.22108870000000044
0.23897080000000043 0.23657320000000043 0.22135510000000044
0.24186790000000044 0.23793850000000044 0.22421890000000044
0.24409900000000045 0.24030280000000045 0.22618360000000046
0.24416560000000045 0.23950360000000046 0.22558420000000046
0.24556420000000045 0.24166810000000047 0.22481830000000044
0.24639670000000047 0.24216760000000048 0.22625020000000046
0.24523120000000045 0.24489820000000048 0.22481830000000044
0.24599710000000047 0.2467963000000005 0.22438540000000043
0.24583060000000045 0.2477620000000005 0.22548430000000044
0.24726250000000047 0.2475289000000005 0.22654990000000044
0.24972670000000047 0.2492272000000005 0.22834810000000044
0.2509921000000005 0.2501263000000005 0.22914730000000044
0.2516914000000005 0.25309000000000054 0.23151160000000046
0.2514250000000005 0.2525239000000005 0.23067910000000044
0.2510920000000005 0.25388920000000054 0.23051260000000043
0.2529901000000005 0.2538559000000005 0.23204440000000043
0.2544220000000005 0.25335640000000054 0.23314330000000044
0.25532110000000047 0.25512130000000055 0.23251060000000043
0.2550880000000005 0.2559871000000006 0.23494150000000044
0.2551213000000005 0.25795180000000056 0.23584060000000046
0.2543554000000005 0.26031610000000055 0.23753890000000047
0.2567863000000005 0.2618479000000006 0.23943700000000048
0.25628680000000054 0.2641123000000006 0.23850460000000048
0.25632010000000055 0.26527780000000056 0.23877100000000048
0.2562535000000005 0.26674300000000056 0.2398033000000005
0.2550547000000005 0.26754220000000056 0.23917060000000048
0.2543887000000005 0.2682748000000006 0.23907070000000047
0.2547883000000005 0.2684080000000006 0.24116860000000048
0.2550214000000005 0.2690074000000006 0.2424007000000005
0.2545885000000005 0.27147160000000065 0.24196780000000048
0.2570527000000005 0.27350290000000066 0.24356620000000048
0.25868440000000054 0.27343630000000063 0.2447983000000005
0.25941700000000056 0.2735362000000006 0.2467297000000005
0.2602495000000006 0.27463510000000063 0.2477287000000005
0.26128180000000056 0.27400240000000065 0.2494936000000005
0.2609155000000006 0.2771326000000007 0.2503927000000005
0.2630467000000006 0.27679960000000065 0.2503927000000005
0.2625139000000006 0.27716590000000063 0.2489608000000005
0.2634796000000006 0.27856450000000066 0.2485279000000005
0.2642788000000006 0.2791306000000007 0.2505592000000005
0.2648782000000006 0.28016290000000066 0.2521576000000005
0.26557750000000063 0.2802295000000007 0.25438870000000047
0.26577730000000066 0.2810287000000007 0.25408900000000045
0.2687743000000007 0.28029610000000066 0.25405570000000044
0.2693404000000007 0.2819278000000007 0.25632010000000044
0.2706724000000007 0.2824606000000007 0.25698610000000044
0.2705392000000007 0.2831599000000007 0.25751890000000044
0.2724040000000007 0.28309330000000066 0.25928380000000045
0.27553420000000073 0.28565740000000067 0.2613484000000005
0.27570070000000074 0.28722250000000066 0.26211430000000047
0.27649990000000074 0.28838800000000064 0.26371270000000047
0.27796510000000074 0.29001970000000066 0.26381260000000045
0.27863110000000074 0.28908730000000066 0.26637670000000047
0.28092880000000076 0.29028610000000066 0.26617690000000044
0.28072900000000073 0.2927503000000007 0.2660104000000004
0.28126180000000073 0.29324980000000067 0.26660980000000045
0.27982990000000074 0.29258380000000067 0.26664310000000047
0.28256050000000077 0.29418220000000067 0.26577730000000044
0.2847250000000008 0.29614690000000066 0.2665432000000004
0.2868562000000008 0.2970127000000007 0.26887420000000045
0.2852911000000008 0.2971459000000007 0.2685412000000004
0.2864233000000008 0.29911060000000067 0.2701063000000004
0.2889541000000008 0.29977660000000067 0.2712718000000004
0.2907856000000008 0.29944360000000064 0.2712385000000004
0.2903194000000008 0.29967670000000063 0.26987320000000037
0.2913184000000008 0.3003094000000006 0.26940700000000034
0.2907190000000008 0.3000430000000006 0.2693404000000003
0.29015290000000077 0.29954350000000063 0.2698732000000003
0.29158480000000075 0.2989774000000006 0.2695402000000003
0.29411560000000075 0.29874430000000063 0.2687743000000003
0.29608030000000074 0.2991106000000006 0.2713051000000003
0.29867770000000077 0.30130840000000064 0.2735362000000003
0.29781190000000074 0.30343960000000064 0.2762002000000003
0.29687950000000074 0.30367270000000063 0.2791306000000003
0.29901070000000074 0.3044386000000006 0.27856450000000027
0.29864440000000075 0.3049381000000006 0.2792971000000003
0.29887750000000074 0.30513790000000063 0.2813950000000003
0.30020950000000074 0.30663640000000064 0.28096210000000027
0.3016414000000007 0.30673630000000063 0.28189450000000027
0.30287350000000074 0.30893410000000066 0.28349290000000027
0.30447190000000074 0.3105991000000007 0.28482490000000027
0.30500470000000074 0.3117979000000007 0.2866231000000003
0.30653650000000077 0.3114316000000007 0.28642330000000027
0.30813490000000077 0.3122974000000007 0.2887543000000003
0.3101662000000008 0.3115981000000007 0.2903194000000003
0.3111319000000008 0.3112318000000007 0.2915848000000003
0.3133630000000008 0.31129840000000075 0.2908522000000003
0.3130966000000008 0.31106530000000077 0.28975330000000027
0.3133963000000008 0.3110986000000008 0.28882090000000027
0.3146950000000008 0.3113650000000008 0.2889874000000003
0.3137959000000008 0.3136960000000008 0.29148490000000027
0.3152278000000008 0.3148615000000008 0.29344960000000025
0.3155608000000008 0.3144619000000008 0.29488150000000024
0.3164932000000008 0.3136960000000008 0.29558080000000025
0.3159937000000008 0.3153943000000008 0.29624680000000025
0.3182248000000008 0.3173923000000008 0.2969794000000003
0.3171592000000008 0.31719250000000077 0.2982115000000003
0.3198232000000008 0.3178918000000008 0.2986444000000003
0.3225205000000008 0.31755880000000075 0.2976787000000003
0.32525110000000085 0.31852450000000077 0.2983780000000003
0.32748220000000083 0.3199231000000008 0.2989441000000003
0.32951350000000085 0.3221542000000008 0.2985112000000003
0.33014620000000083 0.3239524000000008 0.2993437000000003
0.33057910000000085 0.32441860000000083 0.30070900000000034
0.33274360000000086 0.3236860000000008 0.30157480000000036
0.3326437000000009 0.32428540000000083 0.3032065000000004
0.33231070000000085 0.3239857000000008 0.3019078000000004
0.33221080000000086 0.3265165000000008 0.3044053000000004
0.33204430000000085 0.3278485000000008 0.30557080000000036
0.3342421000000009 0.3275488000000008 0.30820150000000035
0.33407560000000086 0.3274489000000008 0.30993310000000035
0.33364270000000085 0.3287809000000008 0.30970000000000036
0.33440860000000083 0.3288808000000008 0.30996640000000036
0.33514120000000086 0.33174460000000083 0.3121642000000004
0.33554080000000086 0.33354280000000086 0.3147616000000004
0.3349081000000009 0.33444190000000085 0.3158272000000004
0.33620680000000086 0.33484150000000085 0.31679290000000043
0.33820480000000086 0.33617350000000085 0.3163600000000004
0.33913720000000086 0.33860440000000086 0.3156940000000004
0.34216750000000085 0.34100200000000086 0.3158272000000004
0.34533100000000083 0.34296670000000085 0.31772530000000043
0.34709590000000085 0.3443653000000009 0.31819150000000046
0.34906060000000083 0.3429334000000009 0.3190573000000005
0.35015950000000085 0.3432664000000009 0.3183913000000005
0.35282350000000084 0.3428335000000009 0.3212218000000005
0.35442190000000084 0.3427336000000009 0.3211552000000005
0.35592040000000086 0.34413220000000094 0.3233197000000005
0.35658640000000086 0.34553080000000097 0.32285350000000046
0.35542090000000087 0.346130200000001 0.3246517000000005
0.35648650000000087 0.347828500000001 0.3254842000000005
0.3590839000000009 0.349227100000001 0.3257506000000005
0.3581515000000009 0.349127200000001 0.32754880000000053
0.3569527000000009 0.35142490000000104 0.33024610000000054
0.3582847000000009 0.35335630000000107 0.33131170000000054
0.3596167000000009 0.3559537000000011 0.33217750000000057
0.3612151000000009 0.3583846000000011 0.3322441000000006
0.3622474000000009 0.3609154000000011 0.33124510000000057
0.3645784000000009 0.36298000000000114 0.3342421000000006
0.3662101000000009 0.36168130000000115 0.3339757000000006
0.3684745000000009 0.36344620000000116 0.3345751000000006
0.3682081000000009 0.3641788000000012 0.3361735000000006
0.3704725000000009 0.3651778000000012 0.3386710000000006
0.3725704000000009 0.3676753000000012 0.3380716000000006
0.3719377000000009 0.3682414000000012 0.33803830000000057
0.37117180000000094 0.36894070000000123 0.33757210000000054
0.3711052000000009 0.37013950000000123 0.33717250000000054
0.3731032000000009 0.3714382000000012 0.33803830000000057
0.37370260000000094 0.3710386000000012 0.33867100000000055
0.37666630000000095 0.3711385000000012 0.34110190000000057
0.37576720000000097 0.3716713000000012 0.34190110000000057
0.378098200000001 0.37360270000000123 0.34096870000000057
0.377432200000001 0.37533430000000123 0.3427669000000006
0.379729900000001 0.37773190000000123 0.3429667000000006
0.379963000000001 0.3795634000000012 0.3430666000000006
0.380362600000001 0.3803626000000012 0.3450979000000006
0.379596700000001 0.38012950000000123 0.34583050000000065
0.380096200000001 0.38186110000000123 0.3461635000000007
0.379297000000001 0.38429200000000124 0.34609690000000065
0.381295000000001 0.38605690000000126 0.34939360000000064
0.383259700000001 0.38545750000000123 0.35142490000000065
0.384192100000001 0.38602360000000124 0.3529567000000007
0.387155800000001 0.38519110000000123 0.3527236000000007
0.388787500000001 0.38665630000000123 0.3554875000000007
0.388221400000001 0.38708920000000124 0.3559537000000007
0.389187100000001 0.38882080000000124 0.3575188000000007
0.390885400000001 0.39038590000000123 0.3598165000000007
0.390319300000001 0.39231730000000126 0.3597166000000007
0.390985300000001 0.39191770000000126 0.3601162000000007
0.391784500000001 0.39105190000000123 0.36054910000000073
0.392050900000001 0.3931498000000012 0.36141490000000076
0.394615000000001 0.3939157000000012 0.36377920000000075
0.397778500000001 0.3965797000000012 0.36461170000000076
0.397512100000001 0.3964798000000012 0.3649114000000008
0.395947000000001 0.39744550000000123 0.36554410000000076
0.395047900000001 0.39791170000000126 0.3682414000000008
0.394048900000001 0.39874420000000127 0.3692404000000008
0.394881400000001 0.4013083000000013 0.3688741000000008
0.396246700000001 0.4017079000000013 0.37067230000000084
0.397811800000001 0.40137490000000126 0.37310320000000086
0.398178100000001 0.40407220000000127 0.37320310000000084
0.399576700000001 0.40487140000000127 0.37443520000000086
0.399976300000001 0.40393900000000127 0.37653310000000084
0.400409200000001 0.40307320000000124 0.37859770000000087
0.399743200000001 0.4020742000000012 0.37813150000000084
0.40007620000000105 0.40307320000000124 0.37803160000000086
0.39874420000000105 0.4049047000000012 0.37989640000000086
0.40117510000000106 0.4062034000000012 0.38159470000000084
0.4033729000000011 0.4071691000000012 0.38226070000000084
0.4026736000000011 0.4064698000000012 0.38432530000000087
0.40170790000000106 0.4063033000000012 0.3866230000000009
0.4040389000000011 0.4088674000000012 0.38712250000000087
0.40357270000000106 0.4112317000000012 0.38898730000000087
0.4048048000000011 0.4122640000000012 0.3898531000000009
0.4074022000000011 0.41422870000000117 0.3897532000000009
0.4087009000000011 0.41596030000000117 0.3897865000000009
0.4093669000000011 0.4181581000000012 0.39025270000000095
0.4108987000000011 0.4198897000000012 0.38995300000000094
0.4102327000000011 0.4205224000000012 0.3898864000000009
0.41279680000000113 0.4200229000000012 0.39008620000000094
0.41339620000000116 0.4213882000000012 0.38971990000000095
0.41312980000000116 0.4232863000000012 0.38908720000000097
0.41362930000000114 0.4233862000000012 0.39078550000000095
0.41362930000000114 0.4238857000000012 0.392184100000001
0.41286340000000116 0.4240855000000012 0.391651300000001
0.41529430000000117 0.42345280000000124 0.392084200000001
0.4162933000000012 0.42628330000000125 0.393049900000001
0.4166929000000012 0.4276819000000013 0.392850100000001
0.4163932000000012 0.4278817000000013 0.395147800000001
0.41606020000000116 0.4283812000000013 0.394914700000001
0.41855770000000114 0.4307122000000013 0.396546400000001
0.42118840000000113 0.4312117000000013 0.39831130000000103
0.42178780000000116 0.4330765000000013 0.39884410000000103
0.42205420000000116 0.43314310000000134 0.39917710000000106
0.42245380000000116 0.43300990000000134 0.3998764000000011
0.42272020000000116 0.4325437000000013 0.4015414000000011
0.42321970000000114 0.4338757000000013 0.4019743000000011
0.42311980000000116 0.4345084000000013 0.4029067000000011
0.42175450000000114 0.4360069000000013 0.4051711000000011
0.42348610000000114 0.4379716000000013 0.4045051000000011
0.42471820000000116 0.4380382000000013 0.40627000000000113
0.42668290000000114 0.4376053000000013 0.4067695000000011
0.42625000000000113 0.4373389000000013 0.4058038000000011
0.42854770000000114 0.4403692000000013 0.4071691000000011
0.42974650000000114 0.43976980000000127 0.40800160000000113
0.43124500000000116 0.4409020000000013 0.4089007000000011
0.43151140000000116 0.4421341000000013 0.4096999000000011
0.43204420000000116 0.4427668000000013 0.41066560000000113
0.4309120000000011 0.4418344000000013 0.41003290000000114
0.43054570000000114 0.4433329000000013 0.41016610000000114
0.4302460000000011 0.4424005000000013 0.41083210000000114
0.4296466000000011 0.4414681000000013 0.41356270000000117
0.4316779000000011 0.4429333000000013 0.4150612000000012
0.4339756000000011 0.4446316000000013 0.4148281000000012
0.43427530000000114 0.44336620000000126 0.4141288000000012
0.43460830000000117 0.44309980000000126 0.4129300000000012
0.43514110000000117 0.44336620000000126 0.41489470000000117
0.43540750000000117 0.44316640000000124 0.41645980000000116
0.43537420000000115 0.4436659000000012 0.4165264000000012
0.43560730000000114 0.4433662000000012 0.4189240000000012
0.43620670000000117 0.4439323000000012 0.41955670000000117
0.4366729000000012 0.4431997000000012 0.4198564000000012
0.4370059000000012 0.4434661000000012 0.4217212000000012
0.4355407000000012 0.4438990000000012 0.4214881000000012
0.43703920000000124 0.44609680000000124 0.4217878000000012
0.43840450000000125 0.4449979000000012 0.4219543000000012
0.4399363000000013 0.4455307000000012 0.4220542000000012
0.4413016000000013 0.44613010000000125 0.4217545000000012
0.4430998000000013 0.44706250000000125 0.4221208000000012
0.44489800000000135 0.44736220000000126 0.4221541000000012
0.44566390000000133 0.4472623000000013 0.4225870000000012
0.44623000000000135 0.4485943000000013 0.4243186000000012
0.4473622000000014 0.44922700000000126 0.4241521000000012
0.4497598000000014 0.44919370000000125 0.4241521000000012
0.4509586000000014 0.4481947000000012 0.4254508000000012
0.45199090000000136 0.44849440000000124 0.4268494000000012
0.45488800000000135 0.4491271000000012 0.4266163000000012
0.45618670000000133 0.4509919000000012 0.4262833000000012
0.45631990000000133 0.45235720000000124 0.4284811000000012
0.45622000000000135 0.45452170000000125 0.4278151000000012
0.45608680000000135 0.45608680000000124 0.4285810000000012
0.45592030000000133 0.45638650000000125 0.4300795000000012
0.4564198000000013 0.4563199000000012 0.43117840000000124
0.4578517000000013 0.45888400000000124 0.43227730000000125
0.4582846000000013 0.4600495000000012 0.4332763000000013
0.45898390000000133 0.46184770000000125 0.4343419000000013
0.4610818000000013 0.46494460000000126 0.4340755000000013
0.46151470000000133 0.4661767000000013 0.4360069000000013
0.46278010000000136 0.46774180000000126 0.4373389000000013
0.46258030000000133 0.46744210000000125 0.43900390000000133
0.46344610000000136 0.4677751000000013 0.43943680000000135
0.4660435000000014 0.4704724000000013 0.44233390000000133
0.4652443000000014 0.4719709000000013 0.4415014000000013
0.4654774000000014 0.4713715000000013 0.4428334000000013
0.4660768000000014 0.4717711000000013 0.4430665000000013
0.46614340000000143 0.4729033000000013 0.44499790000000133
0.46574380000000143 0.4725037000000013 0.44476480000000135
0.46427860000000143 0.47283670000000133 0.44566390000000133
0.46574380000000143 0.4738690000000013 0.44593030000000133
0.46780840000000146 0.4754674000000013 0.44636320000000135
0.46797490000000147 0.4778650000000013 0.44739550000000133
0.46710910000000144 0.4787974000000013 0.4473622000000013
0.46740880000000146 0.48042910000000133 0.4473622000000013
0.46983970000000147 0.48152800000000134 0.4471957000000013
0.4716379000000015 0.48429190000000133 0.44912710000000133
0.4731031000000015 0.4841254000000013 0.4487941000000013
0.4744018000000015 0.4862233000000013 0.4491937000000013
0.4752010000000015 0.4863898000000013 0.4489606000000013
0.4756672000000015 0.48668950000000133 0.45032590000000133
0.4759003000000015 0.48702250000000136 0.44979310000000133
0.4756006000000015 0.48615670000000133 0.45065890000000136
0.4780648000000015 0.48615670000000133 0.44995960000000135
0.4797631000000015 0.48738880000000134 0.45159130000000136
0.4800961000000015 0.48918700000000137 0.4525903000000014
0.4813948000000015 0.48862090000000136 0.4531231000000014
0.4841587000000015 0.48862090000000136 0.4545217000000014
0.4865563000000015 0.4892203000000014 0.4571857000000014
0.4876219000000015 0.48998620000000137 0.4563532000000014
0.4883545000000015 0.48918700000000137 0.4563532000000014
0.48961990000000155 0.4915180000000014 0.4576852000000014
0.49218400000000156 0.4908520000000014 0.45815140000000143
0.49294990000000155 0.4905856000000014 0.45761860000000143
0.4943485000000016 0.4933828000000014 0.4591837000000014
0.4952143000000016 0.49304980000000137 0.46014940000000143
0.4969792000000016 0.49411540000000137 0.45938350000000144
0.4995100000000016 0.49541410000000136 0.45968320000000146
0.5013082000000016 0.49664620000000137 0.46008280000000146
0.5028733000000016 0.49637980000000137 0.4608154000000015
0.5035060000000017 0.49524760000000134 0.46078210000000147
0.5028733000000016 0.49541410000000136 0.46291330000000147
0.5027068000000017 0.49657960000000134 0.46411210000000147
0.5022739000000017 0.49744540000000137 0.4645783000000015
0.5025736000000017 0.49931020000000137 0.4652110000000015
0.5037058000000018 0.4994767000000014 0.4671424000000015
0.5051377000000018 0.5012749000000014 0.4663765000000015
0.5056372000000018 0.5020075000000014 0.4690405000000015
0.5057371000000018 0.5030398000000014 0.46973980000000154
0.5058037000000019 0.5043718000000014 0.47067220000000154
0.5051377000000018 0.5066362000000014 0.46960660000000154
0.5068027000000018 0.5088340000000015 0.46987300000000154
0.5085010000000019 0.5102659000000015 0.46867420000000154
0.5102659000000018 0.5111317000000015 0.47087200000000157
0.5106988000000018 0.5119975000000015 0.47000620000000154
0.5116645000000017 0.5121973000000015 0.47280340000000154
0.5124304000000017 0.5125636000000016 0.47346940000000154
0.5117644000000017 0.5148946000000015 0.47506780000000154
0.5120308000000017 0.5151610000000015 0.47590030000000155
0.5146282000000016 0.5174254000000016 0.47793160000000157
0.5149279000000017 0.5178250000000016 0.4783978000000016
0.5159269000000016 0.5196232000000016 0.4804291000000016
0.5157604000000017 0.5215546000000016 0.4802293000000016
0.5179582000000017 0.5232196000000017 0.4827601000000016
0.5181247000000017 0.5255173000000016 0.4839589000000016
0.5187241000000017 0.5261500000000017 0.4842586000000016
0.5206888000000017 0.5286142000000017 0.4849912000000016
0.5199895000000018 0.5302792000000017 0.4850911000000016
0.5193568000000017 0.5290138000000018 0.4872556000000016
0.5202892000000018 0.5297797000000017 0.4877884000000016
0.5208220000000018 0.5325769000000018 0.4876219000000016
0.5199895000000018 0.5325103000000018 0.4888207000000016
0.5220541000000017 0.5350078000000018 0.4882546000000016
0.5226868000000018 0.5360734000000018 0.4881547000000016
0.5224870000000018 0.5366395000000018 0.4882879000000016
0.5219875000000018 0.5378050000000019 0.49115170000000163
0.5228866000000019 0.5366062000000018 0.49048570000000163
0.5233528000000018 0.5378716000000018 0.4905856000000016
0.5252842000000019 0.5395699000000018 0.49105180000000165
0.5258836000000019 0.5401360000000018 0.49198420000000165
0.5261833000000019 0.5409352000000018 0.4913848000000016
0.5282812000000019 0.5416012000000019 0.4902859000000016
0.5280481000000019 0.5431330000000019 0.4924171000000016
0.529746400000002 0.5428333000000019 0.4936159000000016
0.5315779000000019 0.5455639000000019 0.4942486000000016
0.5312116000000019 0.5472289000000019 0.4955140000000016
0.5328100000000019 0.549193600000002 0.4986775000000016
0.5340421000000019 0.550658800000002 0.5010085000000016
0.5346748000000019 0.552157300000002 0.5027734000000016
0.5353075000000019 0.554954500000002 0.5046382000000016
0.5368393000000019 0.554854600000002 0.5060368000000016
0.5376052000000019 0.5568859000000019 0.5085343000000017
0.5396698000000019 0.558251200000002 0.5110984000000016
0.5417011000000018 0.5587174000000019 0.5122306000000016
0.5445316000000018 0.557718400000002 0.5125636000000017
0.5448313000000018 0.558084700000002 0.5113648000000016
0.5439988000000018 0.558983800000002 0.5118976000000016
0.5453974000000018 0.561681100000002 0.5137624000000016
0.5474287000000018 0.562480300000002 0.5154607000000017
0.5489272000000017 0.5630797000000021 0.5162599000000017
0.5508253000000017 0.5657770000000021 0.5191570000000016
0.5511916000000018 0.5650444000000021 0.5208886000000017
0.5527900000000018 0.5671090000000021 0.5203225000000017
0.5526901000000017 0.5690404000000021 0.5220874000000016
0.5538556000000018 0.5709718000000021 0.5239855000000017
0.5535559000000018 0.5733694000000021 0.5254507000000017
0.5525236000000018 0.5748679000000021 0.5258503000000018
0.5541553000000018 0.5765329000000021 0.5263498000000018
0.5533561000000018 0.5755006000000021 0.5268493000000017
0.5562532000000018 0.5778316000000021 0.5267494000000017
0.5572855000000018 0.5788972000000021 0.5296465000000017
0.5596165000000017 0.5782645000000021 0.5293135000000017
0.5606821000000017 0.5799628000000021 0.5305123000000017
0.5627800000000017 0.5823271000000021 0.5330431000000018
0.5646781000000017 0.5818942000000021 0.5348080000000017
0.5640787000000017 0.5843917000000022 0.5372389000000017
0.5645116000000017 0.5854573000000022 0.5368393000000017
0.5640454000000017 0.5875219000000022 0.5366062000000017
0.5660434000000018 0.5886874000000022 0.5364397000000017
0.5670757000000017 0.5880214000000021 0.5369392000000017
0.5692402000000018 0.5906188000000021 0.5375386000000018
0.5709052000000018 0.5901859000000022 0.5375719000000018
0.5728366000000018 0.5914180000000021 0.5383378000000018
0.5719042000000018 0.5945482000000021 0.5390371000000017
0.5718043000000017 0.596080000000002 0.5401360000000017
0.5722705000000017 0.5963797000000021 0.5425669000000017
0.5744350000000017 0.5983444000000021 0.5434327000000018
0.5760667000000017 0.6003091000000021 0.5435659000000018
0.5769325000000017 0.6011083000000021 0.5433994000000019
0.5767993000000017 0.6034726000000021 0.5441653000000019
0.5774986000000016 0.6040387000000021 0.5460967000000019
0.5773654000000016 0.6044050000000022 0.5469958000000019
0.5771656000000016 0.6058702000000022 0.549260200000002
0.5789305000000016 0.6068692000000022 0.550658800000002
0.5802958000000016 0.6081013000000022 0.550359100000002
0.5794300000000016 0.6105322000000022 0.551091700000002
0.5812282000000015 0.6100327000000022 0.551324800000002
0.5810950000000015 0.6116644000000022 0.5506921000000019
0.5838589000000015 0.6106987000000023 0.5517577000000019
0.5826268000000016 0.6116977000000022 0.5536225000000019
0.5828932000000016 0.6125968000000023 0.5555539000000019
0.5849911000000015 0.6130963000000023 0.556419700000002
0.5866228000000016 0.6137290000000023 0.559350100000002
0.5861233000000016 0.6159601000000023 0.5603491000000019
0.5859568000000016 0.6178582000000024 0.5603158000000019
0.5848579000000016 0.6196231000000023 0.559882900000002
0.5873221000000016 0.6219541000000023 0.560249200000002
0.5868226000000016 0.6226867000000023 0.562913200000002
0.5883544000000016 0.6236524000000022 0.563246200000002
0.5886874000000016 0.6256504000000023 0.564544900000002
0.5902192000000016 0.6257503000000023 0.564411700000002
0.5915845000000016 0.6272821000000023 0.563878900000002
0.5923171000000016 0.6292801000000023 0.5648779000000019
0.5917510000000016 0.6291802000000023 0.5643118000000019
0.5911516000000016 0.6303457000000023 0.566043400000002
0.5919508000000016 0.6335425000000023 0.566076700000002
0.5930164000000016 0.6355738000000023 0.567442000000002
0.5925169000000016 0.6357403000000023 0.5675752000000021
0.5915179000000016 0.6346414000000022 0.568840600000002
0.5922172000000016 0.6346081000000022 0.569073700000002
0.5913847000000015 0.6368059000000023 0.568207900000002
0.5930497000000016 0.6364396000000022 0.566875900000002
0.5932162000000015 0.6373054000000022 0.569173600000002
0.5922505000000016 0.6368725000000023 0.570838600000002
0.5921173000000015 0.6368392000000023 0.571338100000002
0.5907187000000015 0.6395032000000023 0.5712382000000019
0.5925502000000015 0.6414013000000023 0.5715046000000019
0.5938156000000014 0.6414679000000023 0.5727367000000019
0.5943151000000014 0.6424336000000023 0.5745349000000018
0.5969125000000014 0.6436657000000022 0.5755672000000018
0.5988439000000014 0.6462964000000022 0.5768659000000018
0.6007420000000014 0.6472288000000023 0.5766994000000019
0.6023404000000014 0.6477283000000023 0.5759002000000019
0.6035059000000015 0.6487939000000023 0.5763664000000018
0.6059701000000015 0.6502924000000022 0.5783977000000018
0.6060700000000016 0.6518242000000022 0.5807620000000018
0.6073687000000015 0.6525568000000022 0.5803291000000018
0.6097330000000015 0.6533227000000021 0.5794966000000018
0.6111316000000016 0.6563863000000022 0.5788639000000018
0.6119641000000016 0.6563863000000022 0.5800960000000017
0.6126301000000016 0.6579514000000022 0.5807620000000018
0.6145615000000016 0.6580846000000022 0.5821273000000018
0.6158269000000016 0.6587506000000023 0.5837257000000018
0.6171589000000016 0.6590170000000023 0.5838589000000018
0.6197230000000016 0.6604822000000024 0.5851909000000018
0.6204889000000016 0.6617143000000023 0.5865229000000018
0.6222871000000015 0.6636790000000024 0.5858902000000018
0.6223870000000016 0.6638455000000023 0.5860567000000018
0.6211882000000015 0.6632461000000023 0.5870557000000017
0.6228865000000016 0.6642118000000022 0.5880547000000017
0.6242851000000016 0.6637789000000023 0.5894866000000017
0.6263164000000015 0.6648445000000023 0.5889538000000017
0.6270490000000015 0.6648112000000023 0.5891536000000017
0.6280147000000015 0.6642118000000022 0.5880547000000017
0.6283477000000015 0.6667093000000023 0.5900527000000018
0.6275818000000015 0.6666427000000023 0.5901859000000018
0.6281812000000015 0.6697729000000022 0.5914513000000018
0.6279481000000016 0.6698728000000023 0.5920174000000018
0.6282811000000016 0.6703057000000022 0.5925502000000018
0.6292135000000016 0.6729364000000022 0.5929498000000019
0.6286474000000016 0.6744682000000022 0.5941153000000019
0.6282478000000016 0.6742351000000022 0.5936158000000019
0.6293800000000016 0.6739354000000022 0.5936824000000019
0.6293800000000016 0.6727366000000021 0.5942152000000019
0.6285475000000016 0.6735025000000021 0.5966128000000019
0.6296131000000016 0.6728032000000022 0.5973121000000019
0.6309451000000016 0.6743017000000021 0.5981113000000019
0.6328099000000016 0.6732028000000021 0.5997430000000019
0.6348745000000016 0.6723370000000021 0.601707700000002
0.6345415000000015 0.672503500000002 0.6015745000000019
0.6347746000000015 0.674068600000002 0.601707700000002
0.6352075000000015 0.673968700000002 0.6037390000000019
0.6347080000000015 0.674901100000002 0.6043051000000019
0.6367393000000015 0.6741685000000021 0.604704700000002
0.6370723000000015 0.6757669000000021 0.6054040000000019
0.6373054000000015 0.6763996000000021 0.607635100000002
0.6374386000000015 0.6776317000000021 0.607202200000002
0.6388039000000015 0.6770989000000021 0.608734000000002
0.6399028000000015 0.677032300000002 0.610798600000002
0.6422338000000015 0.6786973000000021 0.612929800000002
0.6424336000000015 0.6811948000000021 0.6133960000000019
0.6427000000000015 0.6808618000000021 0.6143617000000019
0.6453307000000015 0.680728600000002 0.6165262000000019
0.6440986000000015 0.679363300000002 0.616892500000002
0.6434326000000015 0.680395600000002 0.617158900000002
0.6446647000000014 0.679529800000002 0.6181246000000019
0.6458302000000015 0.680195800000002 0.6181912000000019
0.6473620000000014 0.681261400000002 0.620688700000002
0.6491935000000014 0.683292700000002 0.623319400000002
0.6497929000000014 0.6842584000000019 0.624718000000002
0.6520906000000014 0.684658000000002 0.624651400000002
0.6537556000000014 0.687322000000002 0.6237523000000019
0.6543883000000015 0.689786200000002 0.6239521000000019
0.6556204000000014 0.689320000000002 0.6233527000000019
0.6557869000000014 0.689053600000002 0.6225202000000019
0.6551542000000014 0.688454200000002 0.6233860000000019
0.6562864000000014 0.687521800000002 0.6257503000000019
0.6585175000000014 0.6863896000000019 0.6264496000000018
0.6590170000000014 0.686156500000002 0.6264496000000018
0.6612481000000014 0.686789200000002 0.6279814000000018
0.6606820000000014 0.688254400000002 0.6293467000000018
0.6625801000000014 0.689020300000002 0.6280480000000018
0.6618808000000015 0.689719600000002 0.6302125000000018
0.6641785000000014 0.691018300000002 0.6315445000000018
0.6651109000000015 0.689719600000002 0.6340087000000019
0.6645115000000015 0.691684300000002 0.6340420000000019
0.6663763000000015 0.693549100000002 0.6344749000000018
0.6661099000000015 0.694914400000002 0.6352075000000018
0.6684742000000015 0.695480500000002 0.6371056000000018
0.6700060000000014 0.695913400000002 0.6378382000000018
0.6718042000000014 0.697212100000002 0.6383377000000018
0.6724702000000015 0.698910400000002 0.6378049000000018
0.6715378000000014 0.6998428000000021 0.6388372000000018
0.6724036000000014 0.699742900000002 0.6396364000000018
0.6737023000000014 0.6982444000000021 0.6412348000000018
0.6734026000000014 0.699476500000002 0.6410017000000018
0.6745348000000014 0.700209100000002 0.6433660000000018
0.6740686000000015 0.699043600000002 0.6452308000000018
0.6749677000000015 0.701274700000002 0.6463963000000018
0.6750010000000015 0.7024735000000021 0.6475285000000018
0.6749011000000015 0.7031395000000021 0.6475618000000019
0.6740353000000014 0.7051375000000022 0.6482944000000018
0.6739687000000014 0.7057036000000022 0.6507586000000019
0.6755671000000014 0.7060699000000022 0.6519241000000019
0.6762331000000015 0.7060033000000022 0.6516910000000019
0.6764995000000015 0.7058035000000022 0.6535225000000019
0.6781645000000015 0.7051042000000023 0.6537556000000019
0.6770989000000015 0.7060366000000023 0.6543550000000019
0.6766993000000014 0.7083343000000023 0.6559867000000019
0.6784309000000015 0.7093666000000023 0.6572188000000019
0.6790969000000016 0.7104655000000023 0.6599161000000019
0.6782311000000015 0.7100326000000023 0.6589837000000018
0.6780979000000015 0.7102990000000023 0.6583843000000018
0.6772321000000014 0.7095997000000024 0.6590503000000019
0.6789304000000015 0.7084675000000024 0.6604156000000019
0.6802624000000015 0.7096996000000023 0.6617143000000019
0.6798961000000014 0.7093999000000023 0.6615145000000019
0.6811615000000014 0.7095997000000023 0.6610816000000019
0.6810949000000014 0.7126966000000022 0.660881800000002
0.6826933000000014 0.7141951000000022 0.662213800000002
0.6851575000000014 0.7144615000000022 0.661181500000002
0.6878881000000014 0.7154272000000022 0.662513500000002
0.6891202000000014 0.7167925000000022 0.662613400000002
0.6907186000000014 0.7171588000000022 0.662913100000002
0.6935491000000014 0.7185574000000022 0.664411600000002
0.6950476000000013 0.7194565000000023 0.665643700000002
0.6969790000000013 0.7197562000000023 0.6671755000000019
0.6996763000000014 0.7211881000000023 0.667774900000002
0.7002424000000014 0.7219207000000023 0.669373300000002
0.7026400000000014 0.7233526000000023 0.6704056000000019
0.7046713000000013 0.7229530000000023 0.6706387000000019
0.7049044000000013 0.7220872000000023 0.672903100000002
0.7059700000000013 0.7235191000000023 0.672603400000002
0.7058035000000014 0.7221871000000023 0.6730363000000019
0.7078348000000013 0.7241518000000023 0.6749011000000019
0.7075018000000013 0.7257835000000024 0.675766900000002
0.7060699000000012 0.7275151000000024 0.675267400000002
0.7073353000000012 0.7299793000000024 0.675100900000002
0.7090336000000013 0.7302790000000025 0.677132200000002
0.7107985000000012 0.7295131000000025 0.678763900000002
0.7109650000000012 0.7292134000000025 0.678297700000002
0.7096663000000012 0.7293466000000025 0.677698300000002
0.7100326000000012 0.7302790000000026 0.677831500000002
0.7096330000000012 0.7292467000000026 0.678797200000002
0.7105654000000012 0.7281145000000026 0.680029300000002
0.7113646000000012 0.7294132000000025 0.6821272000000019
0.7115311000000012 0.7284808000000025 0.6836923000000019
0.7101991000000012 0.7294798000000025 0.684058600000002
0.7098661000000012 0.7280812000000024 0.685457200000002
0.7127299000000011 0.7288471000000024 0.685956700000002
0.7128964000000011 0.7290802000000024 0.687888100000002
0.7145614000000011 0.7300126000000025 0.687122200000002
0.7168924000000011 0.7303789000000025 0.686889100000002
0.717858100000001 0.7305454000000025 0.6886207000000021
0.7179580000000011 0.7321438000000025 0.6898861000000021
0.7185574000000011 0.7326433000000024 0.689320000000002
0.7213213000000012 0.7343083000000025 0.689186800000002
0.7201891000000011 0.7347745000000024 0.689286700000002
0.7202224000000012 0.7346746000000024 0.6904855000000021
0.7227865000000011 0.7345081000000024 0.6923836000000021
0.7230529000000011 0.7352074000000024 0.6933160000000022
0.7262497000000011 0.7356736000000024 0.6951475000000021
0.7264828000000011 0.7356736000000024 0.6978781000000022
0.7277482000000011 0.7363063000000024 0.6987106000000022
0.7277482000000011 0.7376383000000024 0.6972121000000022
0.7275484000000011 0.7382377000000024 0.6994432000000023
0.7283143000000011 0.7375717000000024 0.7013413000000023
0.728514100000001 0.7401025000000024 0.7037056000000023
0.7290802000000011 0.7408018000000024 0.7036723000000022
0.729846100000001 0.7402357000000024 0.7036057000000022
0.731377900000001 0.7419673000000024 0.7049377000000022
0.731178100000001 0.7425334000000025 0.7077016000000023
0.731611000000001 0.7424002000000024 0.7103656000000023
0.731544400000001 0.7417675000000024 0.7127299000000022
0.732843100000001 0.7428664000000024 0.7157269000000023
0.734974300000001 0.7427665000000023 0.7189570000000023
0.736073200000001 0.7455637000000024 0.7196896000000023
0.737138800000001 0.7471954000000024 0.7215877000000023
0.738470800000001 0.7473286000000025 0.7215544000000023
0.738837100000001 0.7480945000000024 0.7230196000000023
0.741467800000001 0.7503256000000025 0.7241851000000024
0.742167100000001 0.7519573000000025 0.7243516000000023
0.741900700000001 0.7507585000000024 0.7230862000000023
0.7442317000000009 0.7508251000000025 0.7237522000000024
0.745696900000001 0.7507252000000024 0.7256836000000024
0.746063200000001 0.7513246000000025 0.7266160000000025
0.745497100000001 0.7534225000000024 0.7280479000000025
0.745230700000001 0.7537888000000025 0.7273819000000025
0.745530400000001 0.7543549000000025 0.7277149000000025
0.747095500000001 0.7543549000000025 0.7268491000000025
0.7485607000000011 0.7535224000000025 0.7284808000000025
0.7483942000000011 0.7536223000000025 0.7287472000000025
0.7489270000000011 0.7539886000000026 0.7298794000000025
0.7477948000000011 0.7541218000000026 0.7311115000000025
0.748494100000001 0.7544548000000026 0.7308118000000025
0.7474951000000011 0.7554205000000026 0.7310116000000024
0.7472953000000011 0.7564195000000026 0.7316776000000025
0.7478281000000011 0.7571854000000026 0.7307785000000024
0.7487938000000011 0.7588171000000026 0.7318108000000024
0.7514578000000011 0.7595164000000025 0.7310116000000024
0.7515910000000011 0.7605487000000025 0.7317109000000024
0.7538221000000012 0.7600159000000025 0.7327099000000024
0.7559200000000011 0.7619473000000025 0.7324768000000024
0.7564861000000012 0.7617475000000026 0.7320772000000023
0.7584175000000012 0.7627798000000026 0.7334758000000023
0.7602157000000012 0.7637788000000025 0.7347079000000023
0.7608484000000012 0.7642117000000025 0.7367059000000024
0.7607485000000012 0.7649110000000025 0.7368724000000023
0.7615477000000012 0.7659100000000024 0.7365061000000023
0.7633792000000011 0.7672087000000024 0.7382377000000023
0.7646779000000011 0.7680079000000024 0.7385374000000023
0.7651108000000011 0.7698394000000024 0.7382710000000023
0.7673752000000011 0.7695730000000024 0.7402357000000024
0.7690069000000012 0.7690069000000024 0.7412347000000024
0.7705387000000011 0.7692733000000024 0.7431661000000024
0.7714045000000012 0.7717042000000024 0.7438654000000023
0.7713379000000011 0.7710382000000023 0.7441651000000024
0.7730029000000012 0.7711381000000024 0.7446646000000023
0.7747345000000012 0.7725034000000024 0.7452973000000024
0.7759000000000013 0.7718374000000023 0.7470955000000024
0.7771321000000012 0.7710715000000024 0.7480612000000023
0.7764994000000012 0.7701724000000023 0.7489936000000024
0.7774984000000011 0.7727032000000024 0.7504588000000024
0.7791634000000012 0.7746346000000024 0.7512580000000024
0.7805287000000012 0.7745014000000023 0.7498927000000024
0.7828597000000012 0.7761997000000024 0.7495264000000024
0.7843915000000011 0.7764994000000024 0.7512580000000024
0.7851907000000011 0.7764661000000024 0.7512580000000024
0.7874218000000012 0.7769656000000024 0.7511914000000024
0.7880545000000012 0.7782643000000024 0.7523236000000024
0.7893532000000012 0.7801624000000024 0.7528897000000024
0.7910848000000013 0.7795297000000023 0.7522903000000024
0.7901857000000012 0.7814611000000024 0.7538221000000024
0.7906519000000012 0.7821604000000023 0.7560532000000024
0.7936156000000012 0.7838587000000024 0.7560532000000024
0.7931827000000012 0.7861564000000023 0.7572187000000025
0.7948477000000013 0.7865893000000023 0.7592167000000025
0.7945480000000013 0.7877215000000023 0.7614145000000025
0.7955470000000012 0.7873219000000022 0.7621138000000025
0.7964128000000013 0.7877548000000022 0.7626133000000025
0.7964794000000013 0.7892533000000022 0.7646446000000025
0.7957801000000013 0.7891867000000021 0.7638787000000025
0.7957801000000013 0.7900192000000021 0.7656769000000024
0.7987771000000013 0.7906186000000022 0.7662097000000024
0.7992766000000013 0.7917175000000022 0.7660432000000025
0.7995430000000013 0.7908184000000021 0.7664428000000025
0.7993432000000014 0.7916509000000022 0.7656103000000025
0.8015410000000014 0.7928497000000022 0.7659433000000025
0.8019073000000014 0.7925833000000022 0.7653772000000025
0.8028397000000015 0.7934158000000022 0.7658767000000025
0.8048377000000015 0.7934158000000022 0.7671088000000025
0.8072353000000015 0.7926166000000022 0.7680745000000024
0.8086672000000016 0.7928164000000022 0.7693399000000024
0.8091667000000016 0.7926832000000021 0.7697395000000025
0.8097661000000016 0.7940152000000021 0.7693399000000024
0.8097328000000016 0.7954471000000022 0.7701058000000024
0.8126965000000016 0.7955803000000022 0.7702723000000024
0.8137621000000016 0.7943815000000022 0.7712380000000023
0.8136289000000015 0.7931827000000021 0.7729363000000024
0.8136289000000015 0.7950808000000021 0.7739020000000023
0.8150608000000016 0.7950808000000021 0.7757335000000023
0.8160265000000015 0.7949143000000022 0.7760332000000023
0.8186905000000015 0.7950142000000022 0.7760665000000023
0.8175583000000015 0.7953472000000023 0.7788304000000024
0.8204554000000015 0.7950475000000022 0.7789303000000024
0.8207218000000015 0.7959466000000023 0.7785307000000024
0.8220538000000015 0.7964794000000023 0.7784641000000023
0.8236855000000015 0.7979446000000023 0.7774984000000024
0.8250841000000015 0.7970788000000023 0.7777981000000024
0.8268823000000015 0.7968457000000023 0.7784974000000023
0.8272153000000015 0.7981111000000023 0.7788637000000024
0.8278147000000016 0.7975450000000023 0.7813279000000024
0.8288137000000015 0.7975117000000023 0.7828264000000024
0.8301124000000015 0.7979779000000022 0.7833925000000024
0.8299792000000015 0.7975450000000023 0.7837921000000024
0.8302123000000015 0.7974118000000022 0.7861564000000024
0.8313778000000015 0.7983442000000023 0.7879879000000024
0.8316775000000015 0.8008750000000023 0.7878880000000024
0.8327098000000015 0.8031394000000024 0.7910515000000023
0.8339419000000015 0.8028064000000024 0.7917175000000024
0.8349076000000014 0.8044381000000024 0.7925833000000024
0.8373052000000014 0.8041384000000024 0.7944814000000024
0.8372053000000014 0.8050375000000024 0.7952473000000024
0.8389369000000014 0.8047711000000024 0.7957468000000024
0.8388037000000014 0.8054038000000024 0.7956469000000024
0.8393032000000014 0.8062696000000025 0.7969789000000024
0.8394031000000014 0.8066359000000025 0.7975117000000024
0.8379379000000013 0.8061697000000025 0.7981777000000024
0.8370721000000013 0.8077015000000025 0.7983442000000024
0.8376049000000013 0.8071021000000025 0.7985773000000024
0.8389702000000013 0.8089003000000025 0.8000425000000024
0.8404354000000014 0.8079679000000024 0.8023402000000024
0.8399359000000014 0.8103988000000024 0.8029063000000024
0.8399359000000014 0.8110315000000025 0.8019406000000024
0.8416009000000014 0.8124301000000025 0.8019739000000025
0.8423668000000014 0.8130628000000025 0.8017408000000025
0.8456635000000015 0.8155936000000026 0.8014411000000025
0.8457301000000015 0.8153272000000026 0.8019406000000024
0.8452639000000015 0.8145946000000026 0.8023735000000024
0.8459632000000015 0.8145613000000026 0.8036389000000024
0.8462629000000015 0.8161930000000026 0.8050042000000024
0.8470954000000015 0.8158267000000026 0.8045047000000024
0.8480944000000015 0.8178247000000026 0.8055370000000024
0.8473618000000015 0.8182909000000026 0.8061364000000024
0.8464627000000015 0.8202889000000027 0.8073352000000025
0.8475616000000015 0.8203555000000027 0.8074684000000025
0.8486938000000015 0.8224534000000027 0.8066692000000025
0.8493598000000016 0.8219539000000027 0.8077348000000025
0.8508250000000016 0.8215543000000026 0.8075683000000026
0.8535223000000016 0.8219872000000026 0.8096995000000026
0.8540218000000016 0.8235190000000026 0.8094997000000026
