0.0118648 0.0130969 0.0108658
0.0131968 0.0156943 0.0116983
0.0135964 0.0157609 0.0110656
0.0141958 0.015128200000000001 0.011998
0.0137962 0.0165601 0.0138628
0.0147286 0.0192241 0.014329
0.0140293 0.0192907 0.0138628
0.0153613 0.0196903 0.0134965
0.0165934 0.0193573 0.0133966
0.0191575 0.0205228 0.0160606
0.0221878 0.0200233 0.0169597
0.0230536 0.020323 0.0172927
0.0256843 0.0208891 0.0186913
0.0277822 0.0218215 0.0183916
0.0297136 0.0242524 0.0200566
0.0319114 0.0270163 0.020323
0.0334765 0.0293806 0.0232867
0.0358741 0.02998 0.0222544
0.0353746 0.0299467 0.0226207
0.0358741 0.0305794 0.0224209
0.0351415 0.0299134 0.0223543
0.0356077 0.0310456 0.0236863
0.036973 0.0319114 0.0250849
0.038305 0.0317449 0.0277156
0.0393373 0.034642 0.0278488
0.0387379 0.0349417 0.0287479
0.0384049 0.0342091 0.0298801
0.0397369 0.0355744 0.0327772
0.0402697 0.0385381 0.0328438
0.0404695 0.0404695 0.0338761
0.0421012 0.0410356 0.0358408
0.0450316 0.0427006 0.0377056
0.0451981 0.042301 0.0384049
0.0469963 0.043633 0.0388045
0.0470629 0.0437995 0.0380386
0.0481618 0.0446986 0.0392707
0.0486946 0.0444322 0.0389377
0.0476623 0.0446986 0.0388378
0.0501598 0.0461971 0.040303
0.0494605 0.0451648 0.0423676
0.0518581 0.0440992 0.0431668
0.0511588 0.0469297 0.0435331
0.0518248 0.0456976 0.0428005
0.053956 0.0464968 0.043966
0.0563203 0.0484948 0.0434332
0.0564535 0.0504595 0.0425674
0.0580852 0.0530236 0.0446986
0.059916699999999996 0.0547552 0.0441325
0.060749199999999996 0.0541891 0.0460639
0.061781499999999996 0.0547219 0.0465634
0.060582699999999996 0.0541225 0.0473293
0.060316299999999996 0.0531901 0.0482284
0.062480799999999996 0.0543889 0.0474958
0.0630469 0.055954 0.0492274
0.0649783 0.0563203 0.0509257
0.0664768 0.0580519 0.0513919
0.0664435 0.058418199999999997 0.050626
0.0656776 0.060482799999999996 0.0519913
0.0648784 0.060216399999999996 0.0516916
0.066943 0.0625474 0.053623
0.0669763 0.0627472 0.0532567
0.0693739 0.063613 0.0533566
0.0686413 0.0643456 0.0539893
0.0685414 0.064279 0.0536896
0.0709057 0.0653113 0.0558208
0.0699733 0.0677422 0.0558208
0.0721045 0.0683083 0.0572194
0.0725374 0.0698068 0.059949999999999996
0.0713719 0.0704728 0.059150799999999996
0.0708391 0.0703396 0.058817799999999996
0.0726706 0.0715051 0.059450499999999996
0.0726373 0.0707059 0.061281999999999996
0.07327 0.0714385 0.0628471
0.0739027 0.0717715 0.0640126
0.0765334 0.0730369 0.063613
0.0771661 0.0760672 0.0650782
0.0757675 0.0770995 0.0658108
0.0774658 0.0788644 0.067276
0.0795637 0.0817948 0.06661
0.0821944 0.0837595 0.0675091
0.0807958 0.0843256 0.0686746
0.0829936 0.083926 0.0709057
0.0844921 0.0837928 0.0714385
0.0836596 0.0850915 0.0735031
0.0844921 0.0856576 0.0737362
0.0870895 0.0862903 0.0753346
0.0866899 0.0880552 0.0772993
0.0880885 0.0876223 0.0794638
0.0896869 0.0871228 0.0800965
0.0909523 0.0883216 0.0793972
0.0908524 0.087256 0.0801298
0.091585 0.0856909 0.0798301
0.0932167 0.0873892 0.0792307
0.0918514 0.0874558 0.0796303
0.0927172 0.0899866 0.0808291
0.0921178 0.0908857 0.081595
0.0928171 0.0918181 0.0838594
0.093916 0.0921178 0.0836263
0.0924841 0.0933499 0.0838261
0.0911188 0.0949483 0.0845587
0.0931834 0.0954478 0.0850582
0.0925174 0.0957142 0.0861571
0.0917848 0.0976789 0.0888211
0.0936829 0.0984115 0.0878887
0.0935164 0.0995437 0.0886546
0.0952147 0.1012087 0.0882217
0.0954811 0.102241 0.090586
0.0983116 0.1025407 0.0910855
0.0995437 0.1032067 0.0927505
0.0991774 0.1047052 0.0948817
0.0985447 0.1060705 0.0969463
0.100243 0.1073692 0.096913
0.1007758 0.1088011 0.0970795
0.1006093 0.1093339 0.0973459
0.1006759 0.1091008 0.099577
0.1028737 0.1086013 0.1001098
0.1027738 0.1099 0.1008757
0.1027072 0.112231 0.1020079
0.1048717 0.1146952 0.1034398
0.1060039 0.114562 0.1050382
0.1082017 0.1137961 0.1065367
0.1093672 0.1135963 0.1090675
0.1115983 0.1156276 0.1104661
0.1141624 0.1167931 0.1131301
0.1163269 0.1183915 0.1124974
0.115228 0.1186579 0.1154944
0.1163602 0.1202563 0.1170595
0.1162603 0.1217881 0.1189243
0.1191907 0.1215883 0.120223
0.1203229 0.121222 0.1220878
0.119224 0.1217881 0.1223542
0.121555 0.1233532 0.1245853
0.1204894 0.1232866 0.127549
0.1234864 0.1241191 0.1270828
0.1242523 0.1241857 0.1270828
0.1237861 0.1266499 0.1280152
0.1251514 0.12655 0.1281151
0.125551 0.1274824 0.12894760000000002
0.1256842 0.1276822 0.12997990000000004
0.1267165 0.1297468 0.12988000000000002
0.1257175 0.1316116 0.13187800000000002
0.12498490000000001 0.1324441 0.1305793
0.12595060000000002 0.13500820000000002 0.13227760000000002
0.12481840000000002 0.13557430000000004 0.1318447
0.12521800000000002 0.13790530000000004 0.1344421
0.12791530000000004 0.13853800000000005 0.1355743
0.12994660000000005 0.13930390000000006 0.1343755
0.12871450000000004 0.14170150000000006 0.1349749
0.13084570000000004 0.14396590000000006 0.1351747
0.13004650000000004 0.14449870000000006 0.1364401
0.13154500000000005 0.14466520000000008 0.1356076
0.13037950000000004 0.1452979000000001 0.1365067
0.13111210000000004 0.1482283000000001 0.1367065
0.13087900000000002 0.1502263000000001 0.1352746
0.13207780000000002 0.1516249000000001 0.1354078
0.13251070000000004 0.1535230000000001 0.1375723
0.13367620000000005 0.1540558000000001 0.1387711
0.13507480000000005 0.1568530000000001 0.14053600000000002
0.13600720000000005 0.15741910000000012 0.14060260000000002
0.13700620000000005 0.15985000000000013 0.14186800000000002
0.13783870000000006 0.16024960000000013 0.14403250000000004
0.13953700000000008 0.16008310000000012 0.14646340000000005
0.13887100000000008 0.16214770000000012 0.14696290000000006
0.14006980000000008 0.16231420000000013 0.14852800000000008
0.1401031000000001 0.16264720000000013 0.1490941000000001
0.1408024000000001 0.16394590000000014 0.1506925000000001
0.14163490000000012 0.16341310000000014 0.1512586000000001
0.14459860000000013 0.16471180000000016 0.15269050000000012
0.14699620000000013 0.16710940000000016 0.15375610000000012
0.14899420000000013 0.16867450000000017 0.15475510000000012
0.15065920000000013 0.16847470000000017 0.15655330000000012
0.15139180000000013 0.17087230000000017 0.15555430000000012
0.15109210000000012 0.17257060000000018 0.15655330000000012
0.1509922000000001 0.17203780000000019 0.15661990000000012
0.1506925000000001 0.1742023000000002 0.15848470000000012
0.1533898000000001 0.1737361000000002 0.15848470000000012
0.1537228000000001 0.1755010000000002 0.15985000000000013
0.1535563000000001 0.1782316000000002 0.16124860000000013
0.1539892000000001 0.18012970000000023 0.16028290000000012
0.15701950000000012 0.18082900000000024 0.15975010000000012
0.15845140000000013 0.17963020000000024 0.15978340000000013
0.15848470000000014 0.17943040000000024 0.16181470000000014
0.15881770000000014 0.17992990000000025 0.16244740000000016
0.16058260000000016 0.18112870000000025 0.16374610000000017
0.16134850000000017 0.18286030000000025 0.16467850000000017
0.16391260000000019 0.18329320000000027 0.16471180000000019
0.1654777000000002 0.18289360000000027 0.16571080000000019
0.1675423000000002 0.18549100000000027 0.16554430000000017
0.16724260000000019 0.18485830000000025 0.16707610000000017
0.1690741000000002 0.18542440000000027 0.16797520000000019
0.1703395000000002 0.18652330000000028 0.16964020000000019
0.1732366000000002 0.1878220000000003 0.17037280000000019
0.17506810000000023 0.1878553000000003 0.16920730000000017
0.17553430000000023 0.18822160000000032 0.17070580000000019
0.17823160000000024 0.18975340000000032 0.17040610000000017
0.17939710000000025 0.19168480000000032 0.17263720000000018
0.18002980000000027 0.19185130000000034 0.17263720000000018
0.18206110000000028 0.19071910000000034 0.17260390000000017
0.1842256000000003 0.18962020000000032 0.17463520000000018
0.1844587000000003 0.18855460000000032 0.17380270000000017
0.18455860000000032 0.18902080000000032 0.17416900000000018
0.18565750000000034 0.18925390000000034 0.17483500000000018
0.18745570000000034 0.18902080000000032 0.17416900000000018
0.19015300000000035 0.1883881000000003 0.17330320000000018
0.19258390000000036 0.18875440000000032 0.1737361000000002
0.19301680000000038 0.18868780000000032 0.1728703000000002
0.19258390000000036 0.18938710000000034 0.1730035000000002
0.19344970000000036 0.18998650000000034 0.17203780000000019
0.19291690000000036 0.19108540000000035 0.1721377000000002
0.19235080000000035 0.19261720000000035 0.1731034000000002
0.19454860000000035 0.19298350000000036 0.1728703000000002
0.19441540000000035 0.19151830000000036 0.1733698000000002
0.19454860000000035 0.19181800000000038 0.1749016000000002
0.19501480000000035 0.19261720000000038 0.1766332000000002
0.19538110000000036 0.19374940000000038 0.1766998000000002
0.19551430000000036 0.1937827000000004 0.17773210000000023
0.19484830000000036 0.1943488000000004 0.17819830000000023
0.19581400000000038 0.19458190000000042 0.18009640000000024
0.1961137000000004 0.19411570000000042 0.18249400000000024
0.1983448000000004 0.19278370000000042 0.18385930000000025
0.1982782000000004 0.19348300000000043 0.18266050000000025
0.20017630000000042 0.19418230000000045 0.18419230000000025
0.20114200000000043 0.19414900000000043 0.18552430000000025
0.20124190000000045 0.19391590000000042 0.18705610000000025
0.20363950000000045 0.19444870000000042 0.18818830000000025
0.20284030000000045 0.19534780000000043 0.18998650000000025
0.20190790000000045 0.19511470000000042 0.18965350000000025
0.20190790000000045 0.19471510000000042 0.18945370000000025
0.20380600000000046 0.19464850000000042 0.19248400000000027
0.20393920000000046 0.19538110000000042 0.19351630000000028
0.20277370000000045 0.19747900000000043 0.19451530000000028
0.20457190000000045 0.19664650000000042 0.19538110000000028
0.20323990000000045 0.19551430000000042 0.19717930000000028
0.20403910000000045 0.19804510000000042 0.1973458000000003
0.20363950000000045 0.19691290000000042 0.1985446000000003
0.20587060000000046 0.1964134000000004 0.2002096000000003
0.20617030000000047 0.1980118000000004 0.2015416000000003
0.20703610000000047 0.20004310000000042 0.2018413000000003
0.20863450000000047 0.1996102000000004 0.2015749000000003
0.21116530000000047 0.1989109000000004 0.2035063000000003
0.21326320000000049 0.1992772000000004 0.2032399000000003
0.21239740000000049 0.2003428000000004 0.2028736000000003
0.21159820000000049 0.2007424000000004 0.2025406000000003
0.2145619000000005 0.2020744000000004 0.2036395000000003
0.2166931000000005 0.2035396000000004 0.2051047000000003
0.2186245000000005 0.2038726000000004 0.20520460000000032
0.2211553000000005 0.20463850000000042 0.20533780000000032
0.2213884000000005 0.2037394000000004 0.20656990000000033
0.2202562000000005 0.2063368000000004 0.20550430000000033
0.2201563000000005 0.2073358000000004 0.20743570000000033
0.2205226000000005 0.2083348000000004 0.20773540000000035
0.2206558000000005 0.2088676000000004 0.20930050000000036
0.2231200000000005 0.2103328000000004 0.21026620000000038
0.2251846000000005 0.2102995000000004 0.21113200000000037
0.2262502000000005 0.20926720000000038 0.21213100000000037
0.2287144000000005 0.20830150000000036 0.21326320000000037
0.2300464000000005 0.20936710000000036 0.2159605000000004
0.2287477000000005 0.21166480000000037 0.2169928000000004
0.22758220000000048 0.21083230000000036 0.21849130000000042
0.22698280000000048 0.21046600000000035 0.22055590000000042
0.22704940000000048 0.21286360000000035 0.22302010000000042
0.2283481000000005 0.21456190000000036 0.22351960000000043
0.2272159000000005 0.21376270000000036 0.22385260000000043
0.2304127000000005 0.21492820000000037 0.22608370000000044
0.2315449000000005 0.2157607000000004 0.22585060000000043
0.2335762000000005 0.2152279000000004 0.22591720000000043
0.2327770000000005 0.2163601000000004 0.22578400000000043
0.2325772000000005 0.21592720000000037 0.22864780000000043
0.2315449000000005 0.2174923000000004 0.22954690000000044
0.2333098000000005 0.21725920000000037 0.23007970000000044
0.23534110000000052 0.21985660000000037 0.23254390000000044
0.2351080000000005 0.22245400000000037 0.23504140000000046
0.23554090000000052 0.2242855000000004 0.23447530000000044
0.23850460000000054 0.22325320000000037 0.23534110000000044
0.23840470000000052 0.22351960000000037 0.23730580000000046
0.23917060000000054 0.22391920000000037 0.23757220000000046
0.24083560000000054 0.22358620000000037 0.23910400000000046
0.24000310000000052 0.2256175000000004 0.24223420000000045
0.24036940000000054 0.2282815000000004 0.24363280000000045
0.23947030000000052 0.2294137000000004 0.24536440000000045
0.24036940000000054 0.2301463000000004 0.24706270000000047
0.23983660000000054 0.2314783000000004 0.24676300000000045
0.24133510000000055 0.2314783000000004 0.24799510000000047
0.24196780000000057 0.2337760000000004 0.24839470000000047
0.24406570000000058 0.2325772000000004 0.24722920000000045
0.24383260000000057 0.2334430000000004 0.24929380000000045
0.24563080000000057 0.2337760000000004 0.2502928000000005
0.24446530000000055 0.2340424000000004 0.2512252000000005
0.24689620000000057 0.2341090000000004 0.2537893000000005
0.24589720000000057 0.2340757000000004 0.2554543000000005
0.24533110000000055 0.2358406000000004 0.25685290000000055
0.24776200000000057 0.2360737000000004 0.25658650000000055
0.24859450000000058 0.2370727000000004 0.25808500000000056
0.24812830000000058 0.23863780000000043 0.25738570000000055
0.24886090000000058 0.23920390000000044 0.2579851000000006
0.24852790000000058 0.23947030000000044 0.25915060000000056
0.25129180000000056 0.24016960000000045 0.2598832000000006
0.25315660000000056 0.24210100000000045 0.2596168000000006
0.25249060000000056 0.24363280000000045 0.2610820000000006
0.2534896000000006 0.24443200000000045 0.2622142000000006
0.2554210000000006 0.24399910000000044 0.2617480000000006
0.2576854000000006 0.24516460000000045 0.2607823000000006
0.2601829000000006 0.24619690000000047 0.26004970000000055
0.2615149000000006 0.24553090000000047 0.2622475000000006
0.2626804000000006 0.24669640000000048 0.2627137000000006
0.2638459000000006 0.2473291000000005 0.2620810000000006
0.2641123000000006 0.2498599000000005 0.26238070000000063
0.26324650000000055 0.2512918000000005 0.26521120000000065
0.26354620000000056 0.2511586000000005 0.26734240000000065
0.2646451000000006 0.2504260000000005 0.2667430000000006
0.2647783000000006 0.2511586000000005 0.26744230000000063
0.26404570000000055 0.2532565000000005 0.26744230000000063
0.2661103000000006 0.2543221000000005 0.26664310000000063
0.2681083000000006 0.2558872000000005 0.26944030000000063
0.2682748000000006 0.2575522000000005 0.2715382000000006
0.2696734000000006 0.2568196000000005 0.2732698000000006
0.2704726000000006 0.25678630000000047 0.27493480000000065
0.2699065000000006 0.25838470000000047 0.27510130000000066
0.27223750000000063 0.2586844000000005 0.2764666000000007
0.2730034000000006 0.25861780000000045 0.27560080000000065
0.27516790000000063 0.26058250000000044 0.27676630000000063
0.27743230000000063 0.2603827000000004 0.27823150000000063
0.27799840000000064 0.2603494000000004 0.2775322000000006
0.27936370000000066 0.2609488000000004 0.27689950000000063
0.2809954000000007 0.26231410000000044 0.27586720000000065
0.2822275000000007 0.26314660000000045 0.2755342000000006
0.2830933000000007 0.2653444000000005 0.2748682000000006
0.2836594000000007 0.2660104000000005 0.27583390000000063
0.28382590000000074 0.2676088000000005 0.27743230000000063
0.2865898000000007 0.2664433000000005 0.2765998000000006
0.28702270000000074 0.2655109000000005 0.2781649000000006
0.2884546000000007 0.2658439000000005 0.27903070000000063
0.28878760000000075 0.2674423000000005 0.2800630000000006
0.29011960000000075 0.2667097000000005 0.2824606000000006
0.29088550000000074 0.2684746000000005 0.2822941000000006
0.29171800000000075 0.2712385000000005 0.2841922000000006
0.29131840000000075 0.2714716000000005 0.28625680000000064
0.29328310000000074 0.2718712000000005 0.28675630000000063
0.2961802000000007 0.27180460000000045 0.2868562000000006
0.2959804000000007 0.27423550000000047 0.28892080000000064
0.2973457000000007 0.2741356000000005 0.28782190000000063
0.2996434000000007 0.2759338000000005 0.28828810000000066
0.3004426000000007 0.2782315000000005 0.28878760000000064
0.3012418000000007 0.27826480000000053 0.29135170000000066
0.3013750000000007 0.28002970000000055 0.29045260000000067
0.30154150000000074 0.28252720000000053 0.2919511000000007
0.30214090000000077 0.28379260000000056 0.2932165000000007
0.30453850000000077 0.2824939000000006 0.2929168000000007
0.30547090000000077 0.2814616000000006 0.2925172000000007
0.3075355000000008 0.2840590000000006 0.2917180000000007
0.3087343000000008 0.28369270000000063 0.2946151000000007
0.3105991000000008 0.28529110000000063 0.29431540000000067
0.3095668000000008 0.2861902000000006 0.29344960000000064
0.3091339000000008 0.28785520000000064 0.29574730000000066
0.3099664000000008 0.28708930000000066 0.29618020000000067
0.3099664000000008 0.28745560000000064 0.29844460000000067
0.3094336000000008 0.28845460000000067 0.2992771000000007
0.3095335000000008 0.28925380000000067 0.30150820000000067
0.3100330000000008 0.2894203000000007 0.30323980000000067
0.3114316000000008 0.28908730000000066 0.30240730000000066
0.31362940000000084 0.28842130000000066 0.3024739000000007
0.3155941000000008 0.28895410000000066 0.3018412000000007
0.3163600000000008 0.28962010000000066 0.30150820000000067
0.31682620000000083 0.28958680000000064 0.30373930000000066
0.31655980000000083 0.29111860000000067 0.30310660000000067
0.3156940000000008 0.2921176000000007 0.3054043000000007
0.3163600000000008 0.2918512000000007 0.3060703000000007
0.3163933000000008 0.2933497000000007 0.3081349000000007
0.3165265000000008 0.2928835000000007 0.31006630000000074
0.3195568000000008 0.29268370000000066 0.3106990000000007
0.3188575000000008 0.29418220000000067 0.3120310000000007
0.3194569000000008 0.2934163000000007 0.3124306000000007
0.3195568000000008 0.29511460000000067 0.3137293000000007
0.3190240000000008 0.2955808000000007 0.3124306000000007
0.3196900000000008 0.2963467000000007 0.3137293000000007
0.3195568000000008 0.29737900000000067 0.3150946000000007
0.3184579000000008 0.29721250000000066 0.31446190000000074
0.3183247000000008 0.29677960000000064 0.31559410000000077
0.3174922000000008 0.29891080000000064 0.31556080000000075
0.31839130000000077 0.29904400000000064 0.3165598000000008
0.32012290000000077 0.29921050000000066 0.31586050000000077
0.31899070000000074 0.29874430000000063 0.31506130000000077
0.32078890000000077 0.29797840000000064 0.31572730000000077
0.3209554000000008 0.29891080000000064 0.3173590000000008
0.3220876000000008 0.30057580000000067 0.3192571000000008
0.3222541000000008 0.3023407000000007 0.3192571000000008
0.32095540000000083 0.3011752000000007 0.3196567000000008
0.32188780000000083 0.3026404000000007 0.3194902000000008
0.32108860000000083 0.3043720000000007 0.32092210000000077
0.32115520000000086 0.3030733000000007 0.3214882000000008
0.32102200000000086 0.30447190000000074 0.3230200000000008
0.32262040000000086 0.30623680000000075 0.3236527000000008
0.3233197000000009 0.3087010000000008 0.3267163000000008
0.3230866000000009 0.3111652000000008 0.3293137000000008
0.3218878000000009 0.3110320000000008 0.3286477000000008
0.3225871000000009 0.3130633000000008 0.3281149000000008
0.3215548000000009 0.3139957000000008 0.3292804000000008
0.32158810000000093 0.3133963000000008 0.3296467000000008
0.32321980000000095 0.31226410000000077 0.3303460000000008
0.32358610000000093 0.31249720000000075 0.3321109000000008
0.32308660000000095 0.31552750000000074 0.33214420000000083
0.325151200000001 0.3174922000000007 0.3315781000000008
0.32751550000000096 0.32048920000000075 0.3342088000000008
0.329413600000001 0.32212090000000076 0.3368728000000008
0.329313700000001 0.3227203000000008 0.3377053000000008
0.329913100000001 0.3228202000000008 0.33960340000000083
0.33024610000000104 0.3240856000000008 0.33990310000000085
0.329380300000001 0.32468500000000083 0.34096870000000085
0.32914720000000103 0.32541760000000086 0.34146820000000083
0.330179500000001 0.32485150000000085 0.3417013000000008
0.330679000000001 0.32415220000000083 0.3440989000000008
0.332011000000001 0.32541760000000086 0.34546420000000083
0.331311700000001 0.32644990000000085 0.3456973000000008
0.332843500000001 0.32881420000000083 0.34506460000000083
0.334275400000001 0.33067900000000083 0.34479820000000083
0.334441900000001 0.33084550000000085 0.34509790000000085
0.335074600000001 0.33047920000000086 0.3454309000000009
0.333975700000001 0.32994640000000086 0.3452977000000009
0.33500800000000097 0.33031270000000085 0.3457306000000009
0.335873800000001 0.33164470000000085 0.3466630000000009
0.336772900000001 0.33127840000000086 0.3470626000000009
0.339370300000001 0.33287680000000086 0.3488275000000009
0.339270400000001 0.3350746000000009 0.3494602000000009
0.339903100000001 0.3372058000000009 0.3519577000000009
0.338604400000001 0.3396034000000009 0.3526570000000009
0.340336000000001 0.3400363000000009 0.3551878000000009
0.340302700000001 0.3420010000000009 0.3577519000000009
0.340069600000001 0.3435994000000009 0.3589840000000009
0.33996970000000104 0.3466963000000009 0.3598165000000009
0.339137200000001 0.3466297000000009 0.3610153000000009
0.340602400000001 0.3469627000000009 0.3614149000000009
0.340469200000001 0.3495268000000009 0.36148150000000095
0.34066900000000105 0.3497932000000009 0.36404560000000097
0.3411352000000011 0.35079220000000094 0.366210100000001
0.3435328000000011 0.35262370000000093 0.367941700000001
0.34389910000000107 0.3521908000000009 0.37030600000000097
0.34429870000000107 0.35465500000000094 0.372736900000001
0.34666300000000105 0.3560869000000009 0.37227070000000095
0.3480616000000011 0.3567529000000009 0.374068900000001
0.3503260000000011 0.3564865000000009 0.37523440000000097
0.3503593000000011 0.35638660000000094 0.376866100000001
0.3527569000000011 0.35665300000000094 0.377598700000001
0.35229070000000107 0.35761870000000096 0.379996300000001
0.35145820000000105 0.35798500000000094 0.379996300000001
0.35332300000000105 0.36011620000000094 0.380429200000001
0.35425540000000105 0.35988310000000096 0.38249380000000105
0.35362270000000107 0.360082900000001 0.38239390000000106
0.35239060000000105 0.360882100000001 0.38439190000000106
0.35328970000000104 0.361081900000001 0.38599030000000106
0.352590400000001 0.36141490000000104 0.38795500000000105
0.35279020000000105 0.36268030000000107 0.3884212000000011
0.35235730000000104 0.3637792000000011 0.3889540000000011
0.35155810000000104 0.3643120000000011 0.3910186000000011
0.35225740000000105 0.3653776000000011 0.3919510000000011
0.35302330000000104 0.36707590000000107 0.3939157000000011
0.35209090000000104 0.3687409000000011 0.3938158000000011
0.35155810000000104 0.3706057000000011 0.3925837000000011
0.353389600000001 0.37040590000000106 0.3922174000000011
0.35555410000000104 0.3712717000000011 0.3926170000000011
0.354188800000001 0.3714715000000011 0.3915514000000011
0.35638660000000105 0.37097200000000113 0.3908854000000011
0.35608690000000104 0.37047250000000115 0.3905191000000011
0.356719600000001 0.3728035000000012 0.39245050000000115
0.35918380000000105 0.3746017000000012 0.39298330000000115
0.357918400000001 0.37706590000000123 0.3953143000000012
0.360815500000001 0.37600030000000123 0.39741220000000116
0.363046600000001 0.3788974000000012 0.39941020000000116
0.365011300000001 0.37909720000000124 0.4003759000000012
0.36364600000000097 0.37839790000000123 0.3993103000000012
0.36444520000000097 0.3771658000000012 0.3991771000000012
0.364878100000001 0.37999630000000123 0.4013749000000012
0.367075900000001 0.38019610000000126 0.4009753000000012
0.369040600000001 0.3817279000000013 0.4022074000000012
0.370572400000001 0.38156140000000127 0.4033729000000012
0.37277020000000105 0.38126170000000126 0.4039723000000012
0.37400230000000106 0.38136160000000124 0.40550410000000126
0.37400230000000106 0.38122840000000124 0.40753540000000127
0.3752677000000011 0.38122840000000124 0.40750210000000125
0.3746017000000011 0.38079550000000123 0.40820140000000127
0.3772657000000011 0.38256040000000124 0.4078351000000013
0.3788308000000011 0.38266030000000123 0.40873420000000127
0.3798298000000011 0.38442520000000124 0.4105324000000013
0.3817945000000011 0.38559070000000123 0.4117312000000013
0.3805957000000011 0.38505790000000123 0.4127635000000013
0.3819943000000011 0.38415880000000124 0.4129300000000013
0.3836926000000011 0.38575720000000124 0.41233060000000127
0.38389240000000113 0.38638990000000123 0.4126636000000013
0.3865231000000011 0.38645650000000126 0.4130965000000013
0.3871558000000011 0.38792170000000126 0.41502790000000134
0.3879217000000011 0.38872090000000126 0.41705920000000135
0.38678950000000106 0.38942020000000127 0.41932360000000135
0.3871225000000011 0.39045250000000126 0.42102190000000134
0.3878218000000011 0.3921175000000013 0.4211218000000013
0.3873556000000011 0.39488140000000127 0.42118840000000135
0.38838790000000106 0.39511450000000126 0.42301990000000134
0.38942020000000105 0.39551410000000126 0.4220209000000013
0.38915380000000105 0.39707920000000124 0.4238524000000013
0.39035260000000105 0.39751210000000126 0.4253509000000013
0.39085210000000103 0.39887740000000127 0.4253842000000013
0.390286000000001 0.39927700000000127 0.42408550000000134
0.389453500000001 0.40087540000000127 0.42468490000000136
0.392550400000001 0.4031731000000013 0.4244518000000014
0.391551400000001 0.40190770000000126 0.42345280000000135
0.394381900000001 0.40300660000000127 0.4247182000000014
0.39551410000000103 0.4047715000000013 0.4275820000000014
0.39551410000000103 0.4054375000000013 0.4267162000000014
0.395447500000001 0.4078351000000013 0.4264831000000014
0.395247700000001 0.4078684000000013 0.4278817000000014
0.395447500000001 0.4083013000000013 0.4273489000000014
0.393982300000001 0.4080349000000013 0.4285477000000014
0.393049900000001 0.4097998000000013 0.4295800000000014
0.393582700000001 0.41183110000000134 0.4305457000000014
0.395747200000001 0.41226400000000135 0.4306789000000014
0.397212400000001 0.41136490000000137 0.43124500000000143
0.397212400000001 0.41216410000000137 0.4314781000000014
0.39871090000000103 0.41293000000000135 0.43137820000000143
0.39911050000000103 0.41569390000000134 0.4322773000000014
0.400808800000001 0.4177918000000013 0.43300990000000145
0.402240700000001 0.4192570000000013 0.4330765000000015
0.402906700000001 0.4193569000000013 0.4338091000000015
0.40563730000000103 0.4208554000000013 0.4364731000000015
0.40843450000000103 0.42102190000000134 0.4376719000000015
0.41073220000000105 0.4212550000000013 0.4385044000000015
0.41153140000000105 0.42185440000000135 0.4382380000000015
0.4118644000000011 0.42361930000000136 0.43830460000000154
0.41143150000000106 0.42315310000000134 0.43867090000000153
0.4115980000000011 0.42428530000000136 0.4402360000000015
0.4128301000000011 0.42358600000000135 0.43947010000000153
0.4126636000000011 0.4239190000000014 0.4413016000000015
0.4155940000000011 0.4232530000000014 0.44136820000000154
0.4159270000000011 0.4239856000000014 0.44156800000000157
0.4155607000000011 0.4253509000000014 0.44313310000000156
0.4159270000000011 0.42591700000000143 0.44609680000000157
0.4172257000000011 0.42678280000000146 0.4462633000000016
0.4183246000000011 0.4269493000000015 0.44929360000000157
0.4179583000000011 0.42838120000000146 0.4490605000000016
0.41905720000000113 0.4288141000000015 0.4503925000000016
0.42132160000000113 0.4307122000000015 0.45142480000000157
0.4207555000000011 0.4314115000000015 0.45182440000000157
0.42188770000000114 0.4314448000000015 0.4533229000000016
0.42198760000000113 0.4338091000000015 0.4541887000000016
0.42185440000000113 0.4343419000000015 0.4542886000000016
0.42162130000000114 0.43560730000000153 0.4564864000000016
0.42401890000000114 0.43604020000000154 0.4584511000000016
0.42451840000000113 0.43547410000000153 0.4606156000000016
0.42644980000000116 0.4366396000000015 0.4596499000000016
0.42768190000000117 0.4381048000000015 0.4592503000000016
0.42791500000000116 0.4379716000000015 0.46024930000000164
0.42658300000000116 0.43840450000000153 0.45988300000000165
0.42694930000000114 0.43870420000000154 0.46158130000000164
0.4266163000000011 0.43907050000000153 0.46281340000000165
0.4267162000000011 0.44110180000000154 0.46557730000000164
0.42758200000000113 0.44116840000000157 0.46677610000000164
0.4285144000000011 0.4435993000000016 0.4676752000000016
0.4291804000000011 0.4437991000000016 0.4669426000000016
0.4285810000000011 0.4451311000000016 0.4681414000000016
0.4289140000000011 0.4480615000000016 0.4685743000000016
0.42908050000000114 0.4484278000000016 0.4702726000000016
0.4305124000000011 0.4491937000000016 0.4720708000000016
0.4310119000000011 0.44916040000000157 0.47383570000000164
0.4328434000000011 0.4504258000000016 0.47483470000000166
0.4344418000000011 0.4528567000000016 0.47450170000000164
0.4364065000000011 0.4540888000000016 0.47450170000000164
0.4367062000000011 0.4551544000000016 0.47333620000000165
0.4381381000000011 0.4563532000000016 0.47250370000000164
0.4386043000000011 0.45745210000000164 0.47453500000000165
0.4382380000000011 0.4583512000000016 0.4769992000000017
0.4377052000000011 0.46064890000000164 0.4784977000000017
0.43790500000000115 0.46297990000000167 0.4793302000000017
0.4386376000000012 0.46254700000000165 0.47953000000000173
0.44006950000000117 0.46291330000000164 0.48209410000000175
0.43910380000000115 0.46344610000000164 0.48329290000000175
0.43927030000000117 0.46307980000000165 0.48512440000000173
0.4401361000000012 0.46537750000000166 0.48685600000000173
0.4407355000000012 0.46697590000000166 0.48702250000000175
0.4411351000000012 0.4664764000000017 0.4893535000000018
0.44316640000000124 0.4690738000000017 0.4896199000000018
0.4426003000000012 0.4682080000000017 0.4911184000000018
0.44463160000000124 0.46804150000000166 0.4917511000000018
0.44426530000000125 0.4686076000000017 0.4926835000000018
0.44456500000000126 0.46800820000000165 0.4943485000000018
0.4453975000000013 0.46777510000000166 0.4960468000000018
0.4443319000000013 0.46950670000000166 0.4967794000000018
0.4447315000000013 0.47027260000000165 0.4964797000000018
0.4453975000000013 0.47223730000000164 0.4969126000000018
0.4473289000000013 0.4738024000000016 0.49897720000000184
0.4470958000000013 0.47480140000000165 0.49901050000000186
0.44862760000000135 0.47570050000000164 0.5009752000000018
0.44995960000000135 0.47543410000000164 0.5027401000000018
0.4520242000000014 0.4751344000000016 0.5025070000000018
0.4533562000000014 0.47516770000000164 0.5052376000000018
0.45222400000000135 0.47573380000000165 0.5064031000000019
0.45478810000000136 0.47440180000000165 0.5071690000000019
0.45422200000000135 0.4764664000000017 0.5073688000000018
0.45502120000000135 0.4778650000000017 0.5106322000000019
0.45578710000000133 0.47806480000000173 0.5117311000000019
0.45485470000000133 0.48066220000000176 0.5115979000000018
0.45528760000000135 0.4813948000000018 0.5110984000000018
0.45638650000000136 0.4835260000000018 0.5105656000000018
0.45512110000000133 0.4850578000000018 0.5118310000000018
0.45685270000000133 0.4872889000000018 0.5143618000000019
0.4570858000000013 0.48882070000000183 0.5134960000000018
0.4592170000000013 0.49085200000000184 0.5130964000000018
0.4594501000000013 0.49338280000000184 0.5144617000000018
0.4596832000000013 0.49468150000000183 0.5162932000000018
0.4589839000000013 0.49574710000000183 0.5195233000000018
0.45851770000000125 0.49561390000000183 0.5217211000000018
0.45728560000000124 0.49548070000000183 0.5231530000000019
0.45861760000000124 0.4977451000000018 0.5254840000000018
0.45865090000000125 0.4970125000000018 0.5268493000000019
0.46011610000000125 0.4991437000000018 0.5300794000000019
0.46034920000000124 0.5007088000000018 0.5321773000000019
0.46078210000000125 0.5037724000000019 0.5324437000000019
0.46168120000000124 0.5061367000000019 0.5344417000000019
0.46278010000000125 0.5065696000000018 0.535906900000002
0.46254700000000126 0.5078683000000018 0.537505300000002
0.46397890000000125 0.5098330000000019 0.539403400000002
0.4647115000000013 0.5115646000000019 0.540302500000002
0.46494460000000126 0.5118643000000019 0.541434700000002
0.4662100000000013 0.511398100000002 0.5402026000000021
0.4665763000000013 0.512830000000002 0.5420008000000021
0.4680748000000013 0.513962200000002 0.5414680000000021
0.4703725000000013 0.514927900000002 0.541701100000002
0.4722706000000013 0.515926900000002 0.5422672000000021
0.4719709000000013 0.516026800000002 0.542433700000002
0.4722373000000013 0.516093400000002 0.543432700000002
0.47243710000000133 0.5175586000000021 0.545330800000002
0.47140480000000134 0.5183911000000021 0.546229900000002
0.47313640000000134 0.5206888000000021 0.546163300000002
0.47500120000000134 0.522453700000002 0.5462632000000021
0.4756006000000014 0.5238856000000021 0.5489938000000021
0.47543410000000136 0.5249512000000021 0.5499262000000021
0.47626660000000137 0.5263165000000021 0.5495599000000021
0.47593360000000134 0.5277151000000021 0.5502592000000021
0.47570050000000136 0.5266495000000021 0.5521906000000021
0.4769659000000014 0.5261833000000021 0.5522239000000021
0.4779316000000014 0.5275153000000021 0.5526901000000021
0.4790305000000014 0.5285476000000021 0.5533228000000021
0.4798630000000014 0.5285809000000021 0.5545882000000021
0.47949670000000144 0.5280814000000021 0.5554207000000021
0.47956330000000147 0.5306455000000021 0.5558869000000021
0.4813615000000015 0.5313448000000021 0.5562199000000021
0.4826269000000015 0.5327101000000021 0.5554873000000021
0.4825936000000015 0.532310500000002 0.5575186000000021
0.4846915000000015 0.5329432000000021 0.5580514000000021
0.48315970000000147 0.5325103000000021 0.5573521000000021
0.48192760000000145 0.5312116000000021 0.5577184000000022
0.4839922000000015 0.5309119000000021 0.5594500000000022
0.4861567000000015 0.5318776000000021 0.5618476000000022
0.4868560000000015 0.5310784000000021 0.5623804000000022
0.4863232000000015 0.5325436000000021 0.5612149000000022
0.4889539000000015 0.5337757000000021 0.5620474000000022
0.4875886000000015 0.5354074000000021 0.5618143000000022
0.4888207000000015 0.5357737000000021 0.5634127000000022
0.4900528000000015 0.5353741000000021 0.5629465000000022
0.4898530000000015 0.5373721000000021 0.5661433000000022
0.4895866000000015 0.5388373000000022 0.5683078000000023
0.4916512000000015 0.5404024000000022 0.5695399000000022
0.4942819000000015 0.5401027000000022 0.5715712000000022
0.4947814000000015 0.5397364000000021 0.5714713000000021
0.4978450000000015 0.5398030000000021 0.5735026000000021
0.49874410000000147 0.5409352000000022 0.5759668000000021
0.5001760000000015 0.5429665000000021 0.5774986000000021
0.5027068000000016 0.5430664000000022 0.5786974000000021
0.5037391000000015 0.5421673000000021 0.5787640000000022
0.5038723000000016 0.5433328000000022 0.5808286000000021
0.5035393000000016 0.5438989000000022 0.5799295000000021
0.5058370000000015 0.5446315000000022 0.5801626000000021
0.5048713000000016 0.5466295000000022 0.579030400000002
0.5063698000000015 0.5454640000000022 0.580895200000002
0.5066362000000015 0.5480947000000022 0.5812948000000021
0.5085676000000016 0.5481946000000022 0.5824603000000022
0.5075686000000016 0.5496265000000022 0.5850244000000021
0.5101327000000015 0.5504257000000022 0.5870224000000022
0.5090671000000015 0.5522239000000022 0.5890204000000022
0.5090005000000015 0.5517577000000022 0.5900860000000022
0.5094334000000015 0.5506588000000022 0.5917177000000022
0.5105323000000015 0.5508253000000022 0.5906188000000022
0.5122972000000015 0.5524237000000022 0.5934493000000022
0.5127967000000014 0.5533228000000022 0.5943817000000022
0.5153275000000015 0.5535892000000022 0.5954140000000022
0.5181580000000015 0.5529898000000022 0.5944150000000022
0.5181913000000015 0.5548879000000022 0.5961799000000022
0.5187241000000015 0.5542552000000022 0.5993101000000022
0.5204557000000015 0.5544550000000021 0.6009085000000022
0.5212216000000015 0.5561866000000022 0.6039388000000022
0.5232529000000015 0.5565862000000023 0.6069358000000022
0.5244850000000014 0.5575186000000023 0.6061366000000022
0.5243518000000014 0.5582845000000023 0.6066028000000022
0.5231197000000014 0.5590504000000023 0.6097663000000022
0.5233528000000014 0.5577184000000023 0.6118642000000022
0.5258170000000014 0.5586841000000022 0.6142618000000022
0.5289139000000014 0.5582845000000022 0.6154273000000022
0.5315113000000014 0.5604157000000022 0.6172255000000022
0.5327434000000013 0.5600161000000021 0.6175252000000022
0.5344750000000014 0.5599495000000021 0.6174586000000022
0.5344084000000013 0.5626468000000021 0.6191569000000022
0.5336425000000014 0.5626135000000021 0.6208552000000023
0.5340088000000014 0.5627800000000021 0.6219208000000023
0.5361400000000014 0.564311800000002 0.6215212000000022
0.5393701000000014 0.566909200000002 0.6237523000000023
0.5417677000000014 0.568074700000002 0.6254173000000023
0.5427334000000014 0.5702725000000021 0.6272155000000023
0.5433328000000014 0.5716045000000021 0.6287473000000022
0.5435659000000014 0.573369400000002 0.6294466000000022
0.5463964000000013 0.572237200000002 0.6320107000000021
0.5472289000000014 0.573236200000002 0.6321106000000022
0.5498596000000013 0.573735700000002 0.6327100000000022
0.5508253000000013 0.5733694000000019 0.6333427000000023
0.5523904000000013 0.5728033000000019 0.6339421000000023
0.5530231000000013 0.5711716000000019 0.6357403000000023
0.5533228000000013 0.5717710000000019 0.6360400000000023
0.5529898000000013 0.5723038000000019 0.6387373000000023
0.5552542000000014 0.5714713000000019 0.6397363000000023
0.5561866000000014 0.5708719000000019 0.6408352000000023
0.5581180000000014 0.5697730000000019 0.6410017000000022
0.5581180000000014 0.5722372000000019 0.6427999000000022
0.5600827000000015 0.5732362000000019 0.6442984000000022
0.5622805000000015 0.5730697000000019 0.6438988000000021
0.5621473000000015 0.5736691000000019 0.6442651000000021
0.5640454000000015 0.576166600000002 0.6445981000000022
0.5647114000000015 0.579063700000002 0.6463963000000021
0.5657104000000015 0.577831600000002 0.6459634000000022
0.5651443000000015 0.578331100000002 0.6465295000000022
0.5677750000000015 0.579063700000002 0.6464296000000022
0.5702392000000015 0.579629800000002 0.6469957000000022
0.5705722000000015 0.5789638000000019 0.6476284000000022
0.5705389000000015 0.578797300000002 0.6478615000000022
0.5704723000000015 0.579130300000002 0.6502924000000022
0.5722039000000015 0.581894200000002 0.6522238000000022
0.5750011000000016 0.581361400000002 0.6521572000000022
0.5753674000000016 0.5830930000000021 0.6542884000000022
0.5780980000000017 0.5818609000000021 0.6573520000000023
0.5776318000000017 0.5830930000000021 0.6587173000000023
0.5780647000000017 0.5819941000000021 0.6594166000000022
0.5776651000000016 0.5809285000000021 0.6606487000000022
0.5790304000000016 0.581161600000002 0.6603157000000022
0.5805622000000016 0.582993100000002 0.6622471000000022
0.5822605000000016 0.5822605000000021 0.6628132000000022
0.5830264000000016 0.5843917000000021 0.6632794000000022
0.5823937000000016 0.5845249000000021 0.6642451000000021
0.5821939000000016 0.5850577000000021 0.6646447000000022
0.5832595000000016 0.5858569000000021 0.6649777000000022
0.5837257000000016 0.5851243000000022 0.6648778000000022
0.5855239000000015 0.5860567000000022 0.6644449000000022
0.5857570000000015 0.5875885000000022 0.6655771000000023
0.5859235000000015 0.5896198000000021 0.6662098000000023
0.5865895000000015 0.5911183000000021 0.6646447000000023
0.5870557000000015 0.5938489000000021 0.6675085000000023
0.5876884000000016 0.5941153000000021 0.6691402000000023
0.5890870000000016 0.5950477000000022 0.6699061000000023
0.5913514000000016 0.5961466000000022 0.6716044000000023
0.5918509000000016 0.5980780000000022 0.6727033000000023
0.5915179000000016 0.5979781000000022 0.6727366000000023
0.5917177000000016 0.5999095000000022 0.6723370000000023
0.5913514000000015 0.6022405000000022 0.6730030000000023
0.5924170000000015 0.6032728000000022 0.6725035000000024
0.5934160000000015 0.6031063000000022 0.6744016000000024
0.5944816000000015 0.6031063000000022 0.6729697000000023
0.5946481000000015 0.6050377000000022 0.6743683000000024
0.5960467000000015 0.6051376000000023 0.6758002000000024
0.5964130000000015 0.6065362000000023 0.6776317000000024
0.5988106000000015 0.6065029000000023 0.6804955000000024
0.5996431000000015 0.6086008000000023 0.6804289000000023
0.6002758000000016 0.6081013000000023 0.6816610000000023
0.6001759000000015 0.6081013000000023 0.6813613000000023
0.6029398000000016 0.6088672000000023 0.6819274000000023
0.6043051000000016 0.6089005000000023 0.6819274000000023
0.6046714000000016 0.6083344000000023 0.6810283000000023
0.6066361000000017 0.6084676000000023 0.6815278000000022
0.6083677000000017 0.6078349000000023 0.6817942000000022
0.6096664000000017 0.6095665000000023 0.6824269000000023
0.6113314000000017 0.6100660000000023 0.6837589000000023
0.6130963000000017 0.6094666000000023 0.6829597000000023
0.6144949000000017 0.6100660000000023 0.6850243000000023
0.6167926000000017 0.6133294000000024 0.6845248000000023
0.6165928000000017 0.6141286000000024 0.6837922000000023
0.6156271000000018 0.6167593000000023 0.6835258000000023
0.6159268000000018 0.6172255000000023 0.6830263000000023
0.6157603000000018 0.6165262000000024 0.6850909000000023
0.6152608000000018 0.6182245000000024 0.6852907000000023
0.6153940000000019 0.6200893000000024 0.6853240000000023
0.6141286000000019 0.6221206000000024 0.6868225000000022
0.6135958000000019 0.6219874000000023 0.6872221000000023
0.6155272000000019 0.6225868000000023 0.6879547000000023
0.615294100000002 0.6241852000000023 0.6885541000000023
0.615660400000002 0.6259834000000023 0.6896197000000023
0.617125600000002 0.6259168000000023 0.6903190000000022
0.617924800000002 0.6267826000000023 0.6936157000000023
0.619223500000002 0.6271156000000023 0.6947146000000023
0.6201226000000021 0.6262165000000023 0.6950476000000023
0.618990400000002 0.6286474000000023 0.6967126000000023
0.6177250000000021 0.6282145000000023 0.6979780000000023
0.6206887000000021 0.6277150000000024 0.6991102000000023
0.6198562000000021 0.6300460000000023 0.7008751000000023
0.6214213000000021 0.6308119000000023 0.7036057000000023
0.6206221000000021 0.6310450000000023 0.7036390000000023
0.6220540000000021 0.6335758000000024 0.7033393000000023
0.6234526000000021 0.6340087000000023 0.7056037000000024
0.6254839000000021 0.6363397000000023 0.7075351000000024
0.6257836000000021 0.6362065000000022 0.7081345000000024
0.6264496000000022 0.6381046000000022 0.7099993000000024
0.6288472000000022 0.6405355000000023 0.7104655000000024
0.6294466000000022 0.6431995000000023 0.7110316000000024
0.6306121000000022 0.6435658000000023 0.7103323000000025
0.6304123000000023 0.6431329000000023 0.7119307000000025
0.6298795000000023 0.6431329000000023 0.7113313000000024
0.6294466000000023 0.6439321000000023 0.7125301000000025
0.6280813000000023 0.6461632000000024 0.7152940000000025
0.6303790000000022 0.6455305000000023 0.7171588000000025
0.6322438000000022 0.6453640000000024 0.7166926000000026
0.6341752000000023 0.6450310000000024 0.7189903000000025
0.6359068000000023 0.6462631000000023 0.7211548000000025
0.6359068000000023 0.6463297000000023 0.7203889000000026
0.6356404000000023 0.6472621000000024 0.7220206000000026
0.6347080000000023 0.6465628000000024 0.7225201000000026
0.6355738000000023 0.6464296000000024 0.7246180000000025
0.6363397000000023 0.6460633000000023 0.7239520000000025
0.6389704000000023 0.6466960000000024 0.7261498000000025
0.6410017000000022 0.6463630000000024 0.7279813000000025
0.6407353000000022 0.6481612000000023 0.7289470000000025
0.6407020000000022 0.6496264000000024 0.7279813000000025
0.6406687000000022 0.6507919000000024 0.7309783000000025
0.6420673000000022 0.6521572000000024 0.7308118000000026
0.6422005000000023 0.6516910000000025 0.7314778000000026
0.6432994000000023 0.6525235000000025 0.7315777000000027
0.6428665000000023 0.6535225000000024 0.7313113000000027
0.6446647000000023 0.6522571000000025 0.7342750000000027
0.6441985000000023 0.6539887000000025 0.7359067000000027
0.6457969000000023 0.6555205000000025 0.7365061000000027
0.6452308000000023 0.6571855000000025 0.7356736000000027
0.6458968000000024 0.6584842000000025 0.7366393000000027
0.6468958000000024 0.6585841000000026 0.7376050000000026
0.6473953000000023 0.6576517000000025 0.7393699000000026
0.6495931000000024 0.6579847000000025 0.7400692000000025
0.6513247000000024 0.6589504000000025 0.7430662000000026
0.6518908000000024 0.6598828000000025 0.7454305000000025
0.6523237000000024 0.6597829000000025 0.7456969000000025
0.6539554000000024 0.6587839000000025 0.7464295000000025
0.6552541000000024 0.6589837000000025 0.7458967000000025
0.6548212000000024 0.6606820000000025 0.7481278000000026
0.6551542000000025 0.6601492000000025 0.7507585000000025
0.6538222000000025 0.6604822000000026 0.7522237000000026
0.6566860000000024 0.6624469000000026 0.7550875000000026
0.6570523000000025 0.6619474000000026 0.7560865000000025
0.6568858000000025 0.6611815000000026 0.7556203000000026
0.6579514000000025 0.6619807000000026 0.7558534000000026
0.6573520000000025 0.6632128000000026 0.7585174000000026
0.6561199000000025 0.6644449000000026 0.7592500000000025
0.6580513000000026 0.6644449000000026 0.7589503000000025
0.6582844000000025 0.6651775000000025 0.7589170000000025
0.6588838000000026 0.6663097000000026 0.7610149000000025
0.6595498000000026 0.6692068000000025 0.7608484000000025
0.6588505000000027 0.6714046000000026 0.7612480000000026
0.6605155000000027 0.6733360000000026 0.7608151000000026
0.6621805000000027 0.6739021000000026 0.7615144000000026
0.6610816000000027 0.6754006000000026 0.7614811000000026
0.6617143000000028 0.6780646000000026 0.7623136000000026
0.6632461000000027 0.6788305000000026 0.7641118000000026
0.6646114000000027 0.6783976000000026 0.7653772000000025
0.6649111000000028 0.6775984000000026 0.7679413000000025
0.6660766000000028 0.6784642000000026 0.7679080000000025
0.6659434000000027 0.6782311000000026 0.7694731000000025
0.6655771000000027 0.6802624000000026 0.7689403000000025
0.6664429000000027 0.6813946000000026 0.7711048000000025
0.6676417000000028 0.6839920000000026 0.7698061000000025
0.6696397000000028 0.6837589000000026 0.7710715000000025
0.6698395000000028 0.6860233000000027 0.7737022000000024
0.6702058000000028 0.6877882000000026 0.7750342000000024
0.6705388000000029 0.6871222000000026 0.7757002000000025
0.6725701000000028 0.6898861000000026 0.7761997000000025
0.6741685000000028 0.6900526000000026 0.7780978000000025
0.6760666000000028 0.6913846000000026 0.7776649000000025
0.6761332000000029 0.6914845000000026 0.7786639000000025
0.6786973000000028 0.6915844000000027 0.7795630000000026
0.6792634000000028 0.6931162000000026 0.7797628000000025
0.6786307000000028 0.6945481000000027 0.7785307000000026
0.6813280000000028 0.6949477000000027 0.7786972000000025
0.6820939000000028 0.6971122000000027 0.7792633000000025
0.6846247000000029 0.6980113000000028 0.7805620000000025
0.6859567000000029 0.6993100000000028 0.7820938000000025
0.6858235000000028 0.6989437000000027 0.7807618000000025
0.6881212000000028 0.6988105000000027 0.7825600000000025
0.6895531000000028 0.6989770000000026 0.7839253000000025
0.6886207000000028 0.6999427000000026 0.7841584000000025
0.6897862000000028 0.6986440000000026 0.7831594000000025
0.6907852000000028 0.7009417000000026 0.7854904000000025
0.6926833000000028 0.7012414000000026 0.7848910000000024
0.6944149000000028 0.7030396000000025 0.7857901000000025
0.6964462000000028 0.7029397000000025 0.7871887000000025
0.6983110000000028 0.7027066000000025 0.7866892000000025
0.6985774000000028 0.7031062000000026 0.7880878000000026
0.6982444000000028 0.7038388000000025 0.7887205000000026
0.7004422000000028 0.7057369000000026 0.7905187000000026
0.7007752000000028 0.7053040000000026 0.7910515000000026
0.7020073000000028 0.7058701000000026 0.7917175000000026
0.7048711000000027 0.7047379000000026 0.7917175000000026
0.7047712000000027 0.7058035000000026 0.7924168000000026
0.7072021000000027 0.7079680000000026 0.7928830000000026
0.7081345000000028 0.7071688000000026 0.7944481000000025
0.7093000000000028 0.7089004000000027 0.7959799000000025
0.7104988000000029 0.7099327000000026 0.7975783000000025
0.7111648000000029 0.7116976000000026 0.7993765000000025
0.7105321000000029 0.7123303000000026 0.8008750000000024
0.7117642000000028 0.7130629000000026 0.8018407000000024
0.7109983000000029 0.7155937000000027 0.8044048000000024
0.7123303000000029 0.7161598000000027 0.8056369000000023
0.7139953000000029 0.7157269000000027 0.8063362000000023
0.7150276000000029 0.7167925000000027 0.8076349000000023
0.7173919000000029 0.7170922000000027 0.8084341000000023
0.7177915000000029 0.7191901000000027 0.8079013000000023
0.7174252000000029 0.7197895000000027 0.8093665000000023
0.7196563000000029 0.7209550000000028 0.8105320000000024
0.7209883000000029 0.7205221000000028 0.8100325000000024
0.7209217000000029 0.7206220000000029 0.8123968000000024
0.7225201000000029 0.7226533000000028 0.8151607000000024
0.7219873000000029 0.7238188000000029 0.8164261000000024
0.7238188000000029 0.7239520000000029 0.8182576000000024
0.7238854000000029 0.725084200000003 0.8185906000000024
0.7234858000000028 0.726682600000003 0.8200558000000024
0.7259833000000029 0.726449500000003 0.8219206000000024
0.7260832000000029 0.7255171000000029 0.8222203000000025
0.7263163000000029 0.7265161000000029 0.8214877000000025
0.7261165000000029 0.7282144000000029 0.8208217000000024
0.7252840000000029 0.729379900000003 0.8210548000000024
0.724051900000003 0.7306120000000029 0.8229196000000024
0.726749200000003 0.7316776000000029 0.8231860000000024
0.728614000000003 0.730978300000003 0.8245846000000024
0.730445500000003 0.732310300000003 0.8251840000000025
0.7295797000000029 0.732376900000003 0.8266825000000024
0.729879400000003 0.733842100000003 0.8280811000000025
0.732043900000003 0.7355404000000031 0.8306452000000024
0.732110500000003 0.735407200000003 0.8324101000000024
0.734208400000003 0.737438500000003 0.8333425000000024
0.733742200000003 0.740135800000003 0.8326432000000025
0.733309300000003 0.740968300000003 0.8333425000000024
0.7358068000000031 0.742067200000003 0.8327764000000024
0.7371388000000031 0.7429663000000031 0.8334424000000025
0.7396030000000031 0.744498100000003 0.8332093000000025
0.7420006000000031 0.742899700000003 0.8345080000000025
0.7439986000000032 0.743132800000003 0.8362396000000025
0.7432327000000032 0.742566700000003 0.8368390000000026
0.7453972000000032 0.743698900000003 0.8374051000000026
0.7458301000000032 0.745996600000003 0.8375383000000026
0.7458967000000032 0.748227700000003 0.8392366000000027
0.7473286000000032 0.749559700000003 0.8401357000000027
0.7496596000000032 0.751124800000003 0.8393032000000027
0.7485940000000032 0.751424500000003 0.8385040000000027
0.7477615000000032 0.752390200000003 0.8405353000000026
0.7508251000000032 0.753355900000003 0.8400691000000027
0.7519573000000033 0.755720200000003 0.8429995000000027
0.7533226000000033 0.758683900000003 0.8425000000000027
0.7555204000000033 0.7599493000000029 0.8439652000000027
0.7569856000000034 0.7609816000000029 0.8462962000000027
0.7579513000000033 0.7616809000000029 0.8461297000000028
0.7592833000000033 0.7641451000000029 0.8475283000000028
0.7617142000000033 0.7651108000000029 0.8487937000000028
0.7630462000000033 0.7656436000000029 0.8491600000000028
0.7643116000000033 0.7663762000000028 0.8520571000000028
0.7669090000000033 0.7666426000000028 0.8543881000000028
0.7674085000000033 0.7670422000000029 0.8539885000000027
0.7686739000000032 0.7694065000000029 0.8556202000000027
0.7708384000000033 0.7709383000000029 0.8573518000000028
0.7731361000000032 0.7719040000000028 0.8595829000000028
0.7734358000000032 0.7729030000000028 0.8616808000000028
0.7750342000000032 0.7745014000000028 0.8608150000000028
0.7763662000000032 0.7754671000000027 0.8598826000000027
0.7783975000000032 0.7745680000000027 0.8601823000000027
0.7778314000000032 0.7776649000000027 0.8595496000000027
0.7797295000000032 0.7794631000000026 0.8591833000000026
0.7792966000000032 0.7808617000000027 0.8608816000000027
0.7803955000000032 0.7820272000000027 0.8633791000000027
0.7804288000000033 0.7821937000000027 0.8659432000000027
0.7824934000000032 0.7831261000000027 0.8668090000000027
0.7832593000000032 0.7844914000000027 0.8673418000000027
0.7838254000000032 0.7849576000000027 0.8664094000000027
0.7861897000000032 0.7863229000000027 0.8687071000000026
0.7861231000000032 0.7870888000000027 0.8683408000000026
0.7866226000000032 0.7881544000000027 0.8684740000000026
0.7873885000000032 0.7888537000000027 0.8695396000000026
0.7889536000000031 0.7897528000000027 0.8719039000000026
0.7880212000000031 0.7897195000000027 0.8710048000000026
0.7894198000000031 0.7916509000000027 0.8704054000000025
0.7898860000000031 0.7938487000000027 0.8714044000000025
0.7913179000000031 0.7955137000000028 0.8722369000000025
0.7928164000000031 0.7961797000000028 0.8720038000000025
0.7918507000000031 0.7949809000000028 0.8736688000000026
0.7945813000000032 0.7975117000000028 0.8747677000000026
0.7963462000000031 0.7989769000000029 0.8741017000000025
0.7951474000000031 0.8003755000000029 0.8753005000000026
0.796712500000003 0.7992766000000029 0.8761663000000026
0.795247300000003 0.8000758000000029 0.8760997000000026
0.796879000000003 0.7998427000000029 0.8756668000000026
0.7970122000000031 0.8017075000000029 0.8751340000000026
0.8000758000000031 0.8028397000000029 0.8775649000000026
0.8012413000000032 0.8025733000000029 0.8767324000000026
0.8007751000000032 0.8049043000000029 0.8787970000000026
0.8015410000000032 0.8076349000000029 0.8792632000000026
0.8025400000000031 0.8084341000000029 0.8805952000000026
0.8038720000000031 0.8101990000000029 0.8817274000000026
0.8041717000000032 0.8109316000000029 0.8800957000000026
0.8063029000000032 0.8102989000000028 0.8808616000000026
