0.0091675 0.0106993 0.0115651
0.0113986 0.0101665 0.0131968
0.012997 0.0105328 0.0134632
0.0154945 0.0106993 0.0142957
0.0168265 0.0135298 0.0145954
0.0175258 0.0162271 0.0136297
0.0177256 0.0159607 0.0135298
0.0177589 0.0178588 0.0130636
0.0172927 0.0190243 0.0158941
0.0187246 0.0198901 0.0174259
0.0214552 0.0225874 0.0174592
0.0234865 0.0242857 0.0183583
0.0242524 0.0247519 0.0186247
0.0235864 0.0265501 0.0188245
0.0249184 0.0273826 0.0179587
0.0238528 0.0289477 0.0186913
0.0246187 0.0302797 0.0178255
0.0262171 0.028981 0.0178921
0.0275158 0.0300133 0.0197569
0.0291808 0.0315118 0.0193906
0.0308791 0.0327772 0.0210889
0.0311122 0.0346753 0.0224209
0.0313453 0.0350749 0.0233866
0.0328105 0.0358741 0.0257842
0.0337762 0.0388378 0.0285814
0.035974 0.0387379 0.0286147
0.0364402 0.0394372 0.0280486
0.0387046 0.040969 0.0275824
0.0414019 0.0413353 0.0292141
0.0411688 0.0430003 0.030979
0.0424009 0.0443989 0.0332101
0.042634 0.0463969 0.0352081
0.0445654 0.0472294 0.0372394
0.0436996 0.0484948 0.0380053
0.044632 0.0483616 0.037639
0.0471295 0.0480619 0.038305
0.0480619 0.0496936 0.0378721
0.0471628 0.0518248 0.0368398
0.0479287 0.0524575 0.0364402
0.0490276 0.0521911 0.0372727
0.0516916 0.0518914 0.0387712
0.0517915 0.0515251 0.0401698
0.0524242 0.0507259 0.0402364
0.054955 0.0522244 0.0433999
0.0558541 0.0554878 0.0448984
0.0568198 0.0561538 0.0449983
0.0576523 0.0562204 0.0448318
0.0573193 0.0581518 0.0465301
0.058551399999999997 0.058917699999999996 0.0465967
0.060449499999999996 0.058285 0.0493273
0.060249699999999996 0.059550399999999996 0.0488278
0.059517099999999996 0.059317299999999996 0.050626
0.059117499999999996 0.059517099999999996 0.0495937
0.059616999999999996 0.060815799999999996 0.0518248
0.061015599999999996 0.0635797 0.0536896
0.061748199999999996 0.0645454 0.0544888
0.061548399999999996 0.0662104 0.0550549
0.0635131 0.0679753 0.0540226
0.065944 0.0691408 0.0570862
0.0660106 0.0697069 0.0562537
0.0676756 0.0697735 0.0565201
0.0692407 0.0697735 0.059550399999999996
0.0708391 0.0697402 0.059883399999999996
0.0720379 0.0717049 0.061315299999999996
0.0739027 0.0718381 0.062147799999999996
0.0738361 0.0721711 0.0634132
0.0748684 0.0728038 0.0657775
0.0752014 0.0721711 0.0651448
0.075268 0.0735697 0.0645787
0.0777988 0.0728704 0.0668098
0.0800965 0.0737695 0.0675757
0.0820612 0.0732367 0.0691075
0.0820612 0.0726373 0.0695071
0.08326 0.074602 0.0704728
0.0833266 0.0753346 0.0705061
0.0838927 0.0775657 0.0707392
0.0860572 0.0774658 0.0702064
0.0846919 0.0765334 0.069274
0.0848251 0.0755677 0.0692074
0.0850249 0.0758341 0.06994
0.0851581 0.0766 0.0700732
0.0862237 0.0770662 0.069274
0.0864901 0.0794638 0.0694072
0.0893539 0.0798301 0.070939
0.0910855 0.0803962 0.0716716
0.0922843 0.0803962 0.0739693
0.0941824 0.079597 0.0751348
0.0941824 0.0827605 0.0749683
0.094249 0.0842257 0.0764335
0.0954811 0.0864568 0.0781651
0.0978454 0.0884548 0.0769996
0.0985114 0.0890542 0.077266
0.0984781 0.0906193 0.0798967
0.1003096 0.092251 0.0799633
0.0995104 0.0942157 0.0801964
0.1016083 0.0946153 0.0824608
0.1023742 0.0948151 0.0840592
0.1037728 0.0969796 0.0832267
0.1031068 0.0996436 0.0847585
0.1032733 0.0988444 0.0845587
0.1051714 0.0985114 0.0847585
0.1063369 0.1001764 0.0869563
0.1083349 0.100909 0.0870562
0.1101331 0.1017082 0.0868564
0.1120312 0.1024408 0.0878887
0.1118314 0.1021744 0.0897535
0.1134631 0.1039726 0.0904861
0.1153279 0.1039726 0.0909523
0.1170262 0.1040059 0.0920512
0.1171594 0.105571 0.0918514
0.1169263 0.1065367 0.092584
0.1179919 0.1088344 0.094582
0.117226 0.1111321 0.0932167
0.1188244 0.1136629 0.0943822
0.1199233 0.1164268 0.093583
0.1224541 0.1170262 0.0949816
0.1216882 0.1179919 0.0963469
0.1231534 0.1194238 0.0961471
0.1245187 0.1219879 0.0978121
0.1258174 0.1210555 0.098245
0.1270828 0.1220212 0.0981451
0.1257508 0.1223875 0.09991
0.1251514 0.1243189 0.1008091
0.1250848 0.1259839 0.103573
0.1254511 0.1278487 0.1059706
0.12548440000000002 0.12894760000000002 0.1078354
0.12771550000000004 0.13127860000000002 0.1093006
0.12818170000000004 0.13257730000000004 0.1111321
0.12918070000000004 0.13404250000000004 0.1105993
0.13077910000000004 0.13337650000000004 0.1102996
0.13074580000000002 0.13534120000000005 0.1098667
0.13237750000000004 0.13710610000000006 0.1099
0.13377610000000004 0.13614040000000005 0.1092673
0.13444210000000004 0.13680640000000005 0.1108657
0.13534120000000005 0.13564090000000004 0.1124641
0.13504150000000004 0.13650670000000004 0.1125307
0.13470850000000004 0.13820500000000005 0.1133299
0.13727260000000005 0.13913740000000005 0.1136962
0.13967020000000005 0.13897090000000004 0.1154278
0.13843810000000004 0.13960360000000005 0.1156276
0.13990330000000004 0.14083570000000006 0.1161271
0.14190130000000004 0.14033620000000005 0.1174258
0.14176810000000004 0.13990330000000004 0.1175257
0.14326660000000005 0.13960360000000002 0.1168597
0.14433220000000005 0.1390375 0.1183249
0.14446540000000005 0.1397701 0.1181584
0.14386600000000005 0.14000320000000002 0.1186912
0.14556430000000006 0.1397035 0.1195903
0.14476510000000006 0.1413019 0.119557
0.14623030000000006 0.14293360000000002 0.1197235
0.14603050000000006 0.14459860000000002 0.121555
0.14886100000000008 0.1433665 0.1229203
0.1499599000000001 0.1438327 0.124885
0.14946040000000008 0.1433332 0.1236196
0.15119200000000008 0.1447651 0.1261504
0.1526239000000001 0.1456309 0.1265167
0.1552546000000001 0.1472959 0.1281151
0.1551547000000001 0.1468963 0.1272826
0.1572193000000001 0.14932720000000002 0.1293805
0.1591840000000001 0.15259060000000002 0.12988000000000002
0.1587178000000001 0.15368950000000003 0.13037950000000004
0.16114870000000012 0.15585400000000005 0.13217770000000004
0.16264720000000013 0.15548770000000003 0.13360960000000005
0.16208110000000012 0.15661990000000003 0.13437550000000006
0.16301350000000012 0.15741910000000003 0.13450870000000006
0.16554430000000012 0.15908410000000003 0.13434220000000005
0.16720930000000012 0.16141510000000003 0.13667320000000005
0.16824160000000013 0.16278040000000005 0.13630690000000004
0.16984000000000013 0.16188130000000003 0.13800520000000005
0.16934050000000012 0.16427890000000003 0.13863790000000006
0.17163820000000013 0.16374610000000003 0.13970350000000006
0.17363620000000013 0.16507810000000003 0.14196790000000006
0.17250400000000013 0.16667650000000003 0.14236750000000006
0.17500150000000014 0.16700950000000003 0.14386600000000008
0.17496820000000013 0.16724260000000005 0.14539780000000008
0.17779870000000014 0.16880770000000006 0.1454311000000001
0.17749900000000013 0.17080570000000006 0.14473180000000008
0.17806510000000014 0.17267050000000006 0.14666320000000008
0.17913070000000014 0.17220430000000006 0.14686300000000008
0.17979670000000014 0.17160490000000006 0.14563090000000006
0.18046270000000014 0.17197120000000007 0.14606380000000008
0.18226090000000014 0.17153830000000006 0.1461637000000001
0.18392590000000014 0.17217100000000007 0.1473958000000001
0.18382600000000013 0.17190460000000007 0.14742910000000012
0.18405910000000014 0.17257060000000007 0.14792860000000013
0.18439210000000014 0.1740691000000001 0.14686300000000013
0.18425890000000014 0.1748350000000001 0.14846140000000013
0.18389260000000013 0.17753230000000012 0.14789530000000012
0.18512470000000014 0.17846470000000011 0.14989330000000012
0.18599050000000014 0.1782316000000001 0.14956030000000012
0.18622360000000016 0.17973010000000011 0.15102550000000012
0.18772210000000017 0.1794970000000001 0.15299020000000013
0.18895420000000018 0.1801630000000001 0.15508810000000015
0.19008640000000018 0.1812286000000001 0.15731920000000016
0.19175140000000018 0.18199450000000011 0.15905080000000016
0.19105210000000017 0.1819612000000001 0.16044940000000016
0.19051930000000017 0.18325990000000011 0.15955030000000014
0.19011970000000017 0.1828270000000001 0.16178140000000016
0.19085230000000017 0.1835596000000001 0.16181470000000017
0.19295020000000018 0.1838260000000001 0.16244740000000019
0.1951813000000002 0.1828936000000001 0.1628803000000002
0.1952479000000002 0.1830268000000001 0.16271380000000019
0.1956808000000002 0.1840924000000001 0.16451200000000019
0.1952812000000002 0.18639010000000011 0.1673425000000002
0.1942489000000002 0.18768880000000013 0.1687411000000002
0.1940491000000002 0.18855460000000013 0.1693405000000002
0.1962136000000002 0.18942040000000013 0.16837480000000019
0.1954810000000002 0.19225090000000014 0.1684747000000002
0.1962136000000002 0.19551430000000014 0.1688743000000002
0.1960804000000002 0.19771210000000014 0.1688077000000002
0.1959139000000002 0.19921060000000015 0.1690075000000002
0.1962802000000002 0.20124190000000017 0.1690408000000002
0.19857790000000022 0.20267380000000018 0.1708390000000002
0.19924390000000022 0.20440540000000018 0.1728370000000002
0.20147500000000024 0.20367280000000018 0.1729702000000002
0.20074240000000024 0.20433880000000018 0.1727038000000002
0.20160820000000024 0.20357290000000017 0.17346970000000023
0.20327320000000024 0.20440540000000018 0.1731034000000002
0.20350630000000025 0.2053711000000002 0.1739692000000002
0.20520460000000026 0.2072026000000002 0.1757008000000002
0.20803510000000028 0.2065699000000002 0.1763668000000002
0.20896750000000028 0.2077354000000002 0.1774324000000002
0.20983330000000028 0.2069362000000002 0.17846470000000023
0.21036610000000028 0.20803510000000022 0.1783648000000002
0.2115982000000003 0.20910070000000022 0.1770661000000002
0.2127304000000003 0.20996650000000022 0.1760671000000002
0.2129635000000003 0.21269710000000022 0.1766665000000002
0.2118979000000003 0.21489490000000022 0.1795636000000002
0.2150947000000003 0.2143288000000002 0.18012970000000023
0.21699280000000032 0.2153944000000002 0.18306010000000023
0.21685960000000032 0.21755890000000022 0.18349300000000024
0.21812500000000032 0.21669310000000022 0.18365950000000025
0.22028950000000033 0.21722590000000022 0.18612370000000025
0.22112200000000035 0.21752560000000024 0.18609040000000024
0.22118860000000035 0.21755890000000025 0.18805510000000025
0.22065580000000035 0.21762550000000025 0.18825490000000025
0.22075570000000036 0.21899080000000026 0.18782200000000024
0.22232080000000037 0.22025620000000026 0.18882100000000024
0.22545100000000037 0.22058920000000026 0.19148500000000024
0.22625020000000037 0.21969010000000025 0.19205110000000025
0.22771540000000037 0.21929050000000025 0.19341640000000027
0.23031280000000037 0.22152160000000026 0.19211770000000025
0.23084560000000037 0.22215430000000028 0.19118530000000025
0.23231080000000037 0.22268710000000028 0.19085230000000025
0.2332765000000004 0.22395250000000028 0.19265050000000025
0.2341756000000004 0.22298680000000026 0.19491490000000025
0.23420890000000041 0.22288690000000025 0.19604710000000025
0.2339092000000004 0.22318660000000026 0.19751230000000025
0.2348416000000004 0.22535110000000028 0.19964350000000025
0.2369395000000004 0.22681630000000028 0.19964350000000025
0.2371393000000004 0.2281150000000003 0.20007640000000027
0.23770540000000043 0.2283481000000003 0.20070910000000028
0.23883760000000043 0.2307457000000003 0.19997650000000028
0.24006970000000044 0.23297680000000032 0.20310670000000028
0.24070240000000045 0.23291020000000032 0.2054710000000003
0.23996980000000045 0.23204440000000032 0.2057707000000003
0.24143500000000045 0.23131180000000032 0.2055709000000003
0.24160150000000047 0.23320990000000033 0.2081017000000003
0.24270040000000048 0.23470840000000034 0.20813500000000032
0.2443321000000005 0.23587390000000036 0.20740240000000032
0.2454976000000005 0.23757220000000037 0.20793520000000032
0.2463634000000005 0.23890420000000037 0.20913400000000032
0.2456641000000005 0.23943700000000037 0.21059920000000032
0.2477953000000005 0.23963680000000037 0.21066580000000032
0.2488276000000005 0.24000310000000039 0.20999980000000032
0.2487943000000005 0.23923720000000037 0.21143170000000033
0.2489941000000005 0.24060250000000039 0.21226420000000035
0.2496934000000005 0.24113530000000039 0.21439540000000035
0.2510587000000005 0.2418346000000004 0.21432880000000035
0.2510587000000005 0.2437660000000004 0.21599380000000035
0.2541223000000005 0.2442988000000004 0.21839140000000035
0.2535229000000005 0.2449315000000004 0.22028950000000036
0.2552212000000005 0.2469961000000004 0.22128850000000036
0.2572858000000005 0.24889420000000043 0.22292020000000037
0.2577187000000005 0.24929380000000043 0.22431880000000037
0.2598166000000005 0.24979330000000044 0.2250847000000004
0.2617813000000005 0.25235740000000045 0.22485160000000037
0.26118190000000047 0.25332310000000047 0.2276155000000004
0.26367940000000045 0.25465510000000047 0.22724920000000037
0.26457850000000044 0.25378930000000044 0.22605040000000037
0.26564410000000044 0.25622020000000045 0.2267497000000004
0.2654776000000004 0.2573524000000005 0.2271826000000004
0.2645119000000004 0.2577853000000005 0.2266165000000004
0.2661103000000004 0.2578852000000005 0.2292472000000004
0.2661103000000004 0.2569528000000005 0.2288809000000004
0.2667430000000004 0.25865110000000047 0.2307124000000004
0.2660437000000004 0.2603161000000005 0.23261050000000041
0.2678419000000004 0.2597500000000005 0.23287690000000041
0.2680084000000004 0.2612818000000005 0.23477500000000043
0.26777530000000044 0.2621809000000005 0.23663980000000043
0.26830810000000044 0.2632465000000005 0.23760550000000044
0.26750890000000044 0.2639125000000005 0.23810500000000046
0.2704060000000004 0.2654110000000005 0.24023620000000045
0.2717380000000004 0.2669761000000005 0.24000310000000044
0.27243730000000044 0.2677087000000005 0.24110200000000045
0.27380260000000045 0.2692738000000005 0.24283360000000045
0.27530110000000046 0.2691073000000005 0.24256720000000045
0.2741356000000005 0.2719045000000005 0.24183460000000045
0.2745685000000005 0.2730367000000005 0.24133510000000044
0.2766331000000005 0.27346960000000053 0.24316660000000045
0.2785978000000005 0.27496810000000055 0.24186790000000044
0.27919720000000053 0.27633340000000056 0.24140170000000044
0.28152820000000056 0.2784979000000006 0.24240070000000044
0.28375930000000055 0.27776530000000055 0.24526450000000044
0.28439200000000053 0.27816490000000055 0.24456520000000043
0.28372600000000053 0.27766540000000056 0.24679630000000044
0.28672300000000056 0.2771659000000006 0.24856120000000045
0.2878219000000006 0.27739900000000056 0.2508256000000005
0.2898199000000006 0.27816490000000055 0.2521909000000005
0.28908730000000055 0.2792971000000006 0.2523241000000005
0.29001970000000055 0.2787643000000006 0.2542888000000005
0.29121850000000055 0.2812285000000006 0.2556874000000005
0.2910187000000005 0.2838592000000006 0.2585179000000005
0.2927503000000005 0.2849248000000006 0.2578519000000005
0.2921509000000005 0.2842588000000006 0.25775200000000054
0.2923174000000005 0.2841589000000006 0.25994980000000056
0.2931166000000005 0.2844253000000006 0.25875100000000056
0.2960803000000005 0.2849914000000006 0.2605159000000006
0.2958139000000005 0.2848582000000006 0.2617813000000006
0.2955475000000005 0.28715590000000063 0.2613151000000006
0.2972458000000005 0.2881882000000006 0.2611819000000006
0.2980117000000005 0.2884213000000006 0.2612152000000006
0.2970460000000005 0.28942030000000063 0.2624473000000006
0.2973457000000005 0.28985320000000064 0.2648782000000006
0.2991106000000005 0.29078560000000064 0.26544430000000063
0.2994103000000005 0.29155150000000063 0.2652445000000006
0.2996434000000005 0.2911186000000006 0.2673757000000006
0.3004426000000005 0.2916514000000006 0.2684080000000006
0.3025405000000005 0.29208430000000063 0.2700397000000006
0.3032065000000005 0.29261710000000063 0.2708389000000006
0.3029401000000005 0.29421550000000063 0.27183790000000063
0.3053377000000005 0.29554750000000063 0.27190450000000066
0.3063700000000005 0.2946817000000006 0.27213760000000065
0.30793510000000046 0.2960470000000006 0.27466840000000065
0.3090673000000005 0.29638000000000064 0.27496810000000066
0.3100330000000005 0.29807830000000063 0.27590050000000066
0.3127303000000005 0.29714590000000063 0.27490150000000063
0.31409560000000053 0.29904400000000064 0.27523450000000066
0.31422880000000053 0.30120850000000066 0.27510130000000066
0.31489480000000053 0.30244060000000067 0.2754343000000007
0.3143287000000005 0.30150820000000067 0.2771659000000007
0.3141955000000005 0.3038392000000007 0.2784313000000007
0.3130966000000005 0.3059371000000007 0.27996310000000074
0.3138625000000005 0.3061036000000007 0.28122850000000077
0.31326310000000046 0.3074689000000007 0.28132840000000076
0.31189780000000045 0.3073357000000007 0.2831266000000008
0.31233070000000046 0.3066697000000007 0.2840923000000008
0.31139830000000046 0.3088009000000007 0.2859904000000008
0.3115981000000005 0.31046590000000074 0.2865565000000008
0.3106324000000005 0.3093670000000007 0.28845460000000084
0.3113317000000005 0.31023280000000075 0.2889541000000008
0.3114316000000005 0.31129840000000075 0.28938700000000084
0.3121309000000005 0.3118978000000008 0.29051920000000087
0.3117646000000005 0.3124972000000008 0.2890873000000009
0.3126970000000005 0.3151279000000008 0.2908189000000009
0.3116647000000005 0.3157606000000008 0.2909854000000009
0.31183120000000053 0.3183247000000008 0.2921842000000009
0.31479490000000054 0.3175588000000008 0.2933830000000009
0.31559410000000054 0.3180916000000008 0.2946817000000009
0.31725910000000057 0.3191572000000008 0.2946817000000009
0.3172924000000006 0.3185578000000008 0.29624680000000086
0.31912390000000057 0.3180250000000008 0.2952145000000009
0.3182248000000006 0.3177586000000008 0.2964133000000009
0.3190240000000006 0.3179584000000008 0.29544760000000087
0.32005630000000057 0.31802500000000083 0.2952145000000009
0.3222208000000006 0.32075560000000086 0.29624680000000086
0.3228868000000006 0.32178790000000085 0.29744560000000086
0.32391910000000057 0.32441860000000083 0.2983114000000009
0.3259837000000006 0.3254509000000008 0.3002428000000009
0.3282814000000006 0.32788180000000083 0.3020743000000009
0.3292471000000006 0.3297133000000008 0.3015082000000009
0.3282481000000006 0.3310120000000008 0.3012085000000009
0.3302794000000006 0.3323773000000008 0.3010753000000009
0.3311119000000006 0.33244390000000085 0.3004426000000009
0.3317779000000006 0.3345085000000009 0.29984320000000086
0.3340423000000006 0.3361069000000009 0.29901070000000085
0.33437530000000065 0.3359737000000009 0.29931040000000086
0.33480820000000067 0.33767200000000086 0.2989441000000009
0.33477490000000065 0.33843790000000085 0.3015415000000009
0.33767200000000064 0.33723910000000085 0.3033064000000009
0.3376054000000006 0.3386377000000009 0.3027736000000009
0.3396367000000006 0.34153480000000086 0.30267370000000093
0.34086880000000064 0.3421009000000009 0.30204100000000095
0.3420343000000006 0.34326640000000086 0.30267370000000093
0.34313320000000064 0.34309990000000085 0.3025072000000009
0.3424339000000006 0.34376590000000085 0.3017746000000009
0.34409890000000065 0.3431665000000008 0.3018412000000009
0.3456307000000007 0.34363270000000085 0.30054250000000093
0.34706260000000067 0.34433200000000086 0.3023740000000009
0.3492271000000007 0.3439657000000009 0.3031399000000009
0.3500596000000007 0.34606360000000086 0.3053044000000009
0.3500929000000007 0.34549750000000085 0.3057040000000009
0.3514249000000007 0.3452977000000008 0.30803500000000095
0.35388910000000073 0.3448648000000008 0.31056580000000095
0.35442190000000073 0.3455308000000008 0.31136500000000095
0.3558538000000007 0.3450646000000008 0.31259710000000096
0.35858440000000075 0.3460636000000008 0.312796900000001
0.36004960000000075 0.3461968000000008 0.312763600000001
0.36284680000000075 0.3461968000000008 0.313862500000001
0.3633130000000008 0.3478951000000008 0.315960400000001
0.3657439000000008 0.3467962000000008 0.318224800000001
0.36541090000000076 0.3487942000000008 0.32018950000000096
0.36764200000000075 0.34819480000000075 0.32058910000000096
0.36747550000000073 0.34886080000000075 0.32175460000000095
0.36894070000000073 0.34966000000000075 0.323286400000001
0.36924040000000075 0.3506590000000008 0.32365270000000096
0.36927370000000076 0.35355610000000076 0.325184500000001
0.37020610000000076 0.35472160000000075 0.327315700000001
0.3709387000000008 0.35402230000000073 0.328381300000001
0.3728035000000008 0.35698600000000075 0.329846500000001
0.3721708000000008 0.35671960000000075 0.329613400000001
0.3732364000000008 0.35735230000000073 0.330778900000001
0.3732031000000008 0.35618680000000075 0.332310700000001
0.3726370000000008 0.3557206000000007 0.334275400000001
0.3729034000000008 0.35602030000000073 0.336007000000001
0.3741688000000008 0.3570526000000007 0.338504500000001
0.3740356000000008 0.3566197000000007 0.338704300000001
0.3735694000000008 0.3569194000000007 0.339769900000001
0.3752011000000008 0.3560536000000007 0.338837500000001
0.3771658000000008 0.3560869000000007 0.339270400000001
0.3772990000000008 0.35668630000000073 0.34210090000000104
0.37753210000000076 0.35805160000000075 0.34210090000000104
0.37713250000000076 0.3574522000000007 0.34306660000000105
0.37586710000000073 0.3571525000000007 0.34436530000000104
0.3746017000000007 0.3560869000000007 0.344465200000001
0.37679950000000073 0.3586510000000007 0.34506460000000105
0.37936360000000074 0.3592837000000007 0.34573060000000105
0.38152810000000076 0.3608488000000007 0.3484612000000011
0.38429200000000074 0.3626137000000007 0.3488941000000011
0.3842254000000007 0.3652777000000007 0.3507589000000011
0.38495800000000074 0.3639790000000007 0.34975990000000107
0.38615680000000074 0.3646117000000007 0.35269030000000107
0.3855574000000007 0.36614350000000073 0.35468830000000107
0.3856573000000007 0.3651778000000007 0.3560869000000011
0.3888208000000007 0.3663433000000007 0.3553876000000011
0.3882547000000007 0.3666097000000007 0.35735230000000107
0.3873223000000007 0.3651778000000007 0.3596833000000011
0.3876220000000007 0.36551080000000075 0.3608488000000011
0.3895867000000007 0.3683746000000008 0.36001630000000107
0.3897865000000007 0.36900730000000076 0.3612484000000011
0.39011950000000073 0.3709054000000008 0.3625804000000011
0.39211750000000073 0.3708055000000008 0.3645784000000011
0.3936826000000007 0.3708055000000008 0.3636460000000011
0.3939490000000007 0.3714382000000008 0.3639790000000011
0.3936493000000007 0.3733363000000008 0.3635128000000011
0.3955141000000007 0.3740356000000008 0.3628801000000011
0.3974788000000007 0.3764665000000008 0.3625804000000011
0.3987775000000007 0.37903060000000083 0.3624472000000011
0.39914380000000066 0.3788308000000008 0.36387910000000107
0.39894400000000063 0.3809287000000008 0.36557740000000105
0.39927700000000066 0.3817279000000008 0.3657772000000011
0.39937690000000065 0.3834595000000008 0.3675754000000011
0.39887740000000066 0.38339290000000076 0.3676753000000011
0.3989107000000007 0.38635660000000077 0.3671758000000011
0.39874420000000066 0.38609020000000077 0.3667096000000011
0.40154140000000066 0.3865231000000008 0.3663433000000011
0.4034728000000007 0.3875221000000008 0.3683746000000011
0.4042720000000007 0.3881881000000008 0.3674422000000011
0.4054375000000007 0.3904858000000008 0.3692071000000011
0.4084012000000007 0.39105190000000084 0.3702727000000011
0.4081348000000007 0.3919510000000008 0.3719710000000011
0.41049910000000067 0.39238390000000084 0.3708721000000011
0.40913380000000066 0.39418210000000087 0.3714715000000011
0.41009950000000067 0.39361600000000085 0.37233730000000115
0.41113180000000066 0.3947482000000009 0.37430200000000113
0.4114648000000007 0.3969127000000009 0.37376920000000113
0.4131964000000007 0.3967795000000009 0.37423540000000116
0.4148614000000007 0.3975454000000009 0.3745351000000012
0.4145950000000007 0.39751210000000087 0.3748015000000012
0.4157605000000007 0.3966130000000009 0.3765331000000012
0.4178917000000007 0.3991438000000009 0.37580050000000115
0.4192237000000007 0.4004092000000009 0.3770659000000012
0.4193236000000007 0.4022407000000009 0.37729900000000116
0.41915710000000067 0.4038391000000009 0.3777319000000012
0.42088870000000067 0.40337290000000087 0.3780316000000012
0.42008950000000067 0.40547080000000085 0.3779317000000012
0.41995630000000067 0.40796830000000084 0.3770326000000012
0.42155470000000067 0.40690270000000084 0.37829800000000124
0.42075550000000067 0.4065697000000008 0.37876420000000127
0.4226536000000007 0.4055374000000008 0.3803959000000013
0.4225537000000007 0.40600360000000085 0.3805624000000013
0.42195430000000067 0.40470490000000087 0.3831931000000013
0.42431860000000066 0.40463830000000084 0.3847249000000013
0.42674950000000067 0.40543750000000084 0.3853909000000013
0.4293136000000007 0.4056706000000008 0.38705590000000134
0.4308121000000007 0.4074022000000008 0.3876886000000013
0.4327102000000007 0.4091005000000008 0.3879217000000013
0.43277680000000074 0.4111318000000008 0.3903526000000013
0.43477480000000074 0.41266360000000085 0.3907189000000013
0.43690600000000074 0.41382910000000084 0.3909853000000013
0.43800490000000075 0.41422870000000084 0.3902860000000013
0.4382047000000008 0.41479480000000085 0.3911851000000013
0.4386043000000008 0.41469490000000087 0.39368260000000127
0.4398364000000008 0.4156606000000009 0.39554740000000127
0.43976980000000077 0.4167262000000009 0.3970459000000013
0.4403692000000008 0.4189906000000009 0.3995101000000013
0.4425670000000008 0.4196566000000009 0.3992104000000013
0.4441654000000008 0.4225204000000009 0.3986443000000013
0.44459830000000083 0.4240855000000009 0.3997432000000013
0.44583040000000085 0.4241521000000009 0.3985444000000013
0.44506450000000086 0.4230865000000009 0.4000429000000013
0.4452643000000009 0.42458500000000093 0.3991105000000013
0.4473622000000009 0.42568390000000095 0.3990772000000013
0.4471291000000009 0.42541750000000095 0.4002760000000013
0.4472956000000009 0.42568390000000095 0.4024072000000013
0.4474621000000009 0.42661630000000095 0.4014415000000013
0.44802820000000093 0.428414500000001 0.4024405000000013
0.44829460000000093 0.42958000000000096 0.4022074000000013
0.45049240000000096 0.431644600000001 0.4027069000000013
0.45029260000000093 0.433243000000001 0.4024405000000013
0.4510585000000009 0.433709200000001 0.4025404000000013
0.4514248000000009 0.43534090000000103 0.4035394000000013
0.4502260000000009 0.43510780000000104 0.4036726000000013
0.4502260000000009 0.43607350000000106 0.40530430000000134
0.45109180000000093 0.43753870000000106 0.4066030000000013
0.45169120000000096 0.43743880000000107 0.40783510000000134
0.453755800000001 0.4370725000000011 0.40866760000000135
0.455021200000001 0.4380382000000011 0.40976650000000137
0.45668620000000104 0.4394035000000011 0.4115647000000014
0.45818470000000106 0.4389040000000011 0.4119310000000014
0.46018270000000105 0.4379716000000011 0.4118311000000014
0.46124830000000105 0.43773850000000114 0.4125970000000014
0.46108180000000104 0.44020270000000117 0.4151944000000014
0.46241380000000104 0.4409020000000012 0.4153609000000014
0.46214740000000104 0.4417678000000012 0.41552740000000143
0.46444510000000105 0.4415347000000012 0.4144285000000014
0.46541080000000107 0.4437991000000012 0.41606020000000143
0.46581040000000107 0.4438990000000012 0.4156273000000014
0.46547740000000104 0.44476480000000124 0.4177585000000014
0.46697590000000105 0.44599690000000125 0.4195900000000014
0.46870750000000105 0.44599690000000125 0.4226203000000014
0.47120500000000104 0.44603020000000126 0.4232197000000014
0.472237300000001 0.44559730000000125 0.4242853000000014
0.474202000000001 0.44722900000000126 0.4250845000000014
0.474768100000001 0.44816140000000126 0.42608350000000145
0.474468400000001 0.4497931000000013 0.42714910000000145
0.47719900000000104 0.4522240000000013 0.42691600000000146
0.478630900000001 0.4546882000000013 0.42824800000000146
0.480096100000001 0.4557538000000013 0.42984640000000146
0.48052900000000104 0.4552876000000013 0.4305790000000015
0.479829700000001 0.4562200000000013 0.4314448000000015
0.48149470000000105 0.45508780000000126 0.4331764000000015
0.4835593000000011 0.45668620000000126 0.4328767000000015
0.4825270000000011 0.45595360000000124 0.4333096000000015
0.4846249000000011 0.45585370000000125 0.4335760000000015
0.4849579000000011 0.45595360000000124 0.43560730000000153
0.4862899000000011 0.4553875000000012 0.4354075000000015
0.48768850000000113 0.45528760000000124 0.4376386000000015
0.48958660000000115 0.45651970000000125 0.4385377000000015
0.4916512000000012 0.45635320000000124 0.4397698000000015
0.49175110000000116 0.45775180000000126 0.4415014000000015
0.4943152000000012 0.4589839000000013 0.4416679000000015
0.49454830000000116 0.45801820000000126 0.4411018000000015
0.49571380000000115 0.4579183000000013 0.4424338000000015
0.49854430000000116 0.4602160000000013 0.4437991000000015
0.4987108000000012 0.4600828000000013 0.4448647000000015
0.4988773000000012 0.4602160000000013 0.44533090000000153
0.4984444000000012 0.4622473000000013 0.4456972000000015
0.49734550000000116 0.4618477000000013 0.44669620000000154
0.49727890000000113 0.4646449000000013 0.4463632000000015
0.49761190000000116 0.4675420000000013 0.4478284000000015
0.4984444000000012 0.46667620000000126 0.4488940000000015
0.5005423000000012 0.4680748000000013 0.45015940000000154
0.5011750000000013 0.4673755000000013 0.45015940000000154
0.5032063000000012 0.4685743000000013 0.44985970000000153
0.5048047000000012 0.4693735000000013 0.4506589000000015
0.5060035000000013 0.47000620000000126 0.4497931000000015
0.5053708000000012 0.46987300000000126 0.4510585000000015
0.5076685000000012 0.47117170000000125 0.45325630000000156
0.5067361000000011 0.47193760000000123 0.45448840000000157
0.5058703000000011 0.47207080000000123 0.45618670000000155
0.5066695000000011 0.47333620000000126 0.4575853000000016
0.5080681000000011 0.4740688000000013 0.45861760000000157
0.5075686000000011 0.4744351000000013 0.45875080000000157
0.5084677000000012 0.47373580000000126 0.46071550000000155
0.5097664000000012 0.4727035000000013 0.46098190000000155
0.5106655000000012 0.4731364000000013 0.4598497000000015
0.5092669000000012 0.4728367000000013 0.46161460000000154
0.5091670000000011 0.47346940000000126 0.46354600000000157
0.5118976000000012 0.47227060000000126 0.4661434000000016
0.5136292000000012 0.4724371000000013 0.4656439000000016
0.5130964000000012 0.47170450000000125 0.4647448000000016
0.5148946000000012 0.47273680000000123 0.4665763000000016
0.5143285000000012 0.47263690000000125 0.4653775000000016
0.5134294000000011 0.47400220000000126 0.46704250000000164
0.5138623000000011 0.47440180000000126 0.4686076000000016
0.5156272000000011 0.4755007000000013 0.47027260000000165
0.5162599000000011 0.47586700000000126 0.4711384000000017
0.5176252000000011 0.47546740000000126 0.4730698000000017
0.5193235000000012 0.4773988000000013 0.4748347000000017
0.5197231000000012 0.4791970000000013 0.4742686000000017
0.5204557000000012 0.4813282000000013 0.4737691000000017
0.5235859000000012 0.4823938000000013 0.4743019000000017
0.5238856000000012 0.4814281000000013 0.4754674000000017
0.5260501000000012 0.4816612000000013 0.4757671000000017
0.5286475000000012 0.4815613000000013 0.47623330000000175
0.5288473000000011 0.4814281000000013 0.47653300000000176
0.5301793000000011 0.4809952000000013 0.47863090000000175
0.5316778000000011 0.4817278000000013 0.4792303000000018
0.5328100000000011 0.4808620000000013 0.47866420000000176
0.5334760000000012 0.4827268000000013 0.4804624000000018
0.5340754000000012 0.4836592000000013 0.4813948000000018
0.5327434000000012 0.4836592000000013 0.4821940000000018
0.5322106000000012 0.4862899000000013 0.4843918000000018
0.5340754000000012 0.4887541000000013 0.4846582000000018
0.5348413000000012 0.4900861000000013 0.4852909000000018
0.5354740000000012 0.4916845000000013 0.4872556000000018
0.5364397000000012 0.4927501000000013 0.4885876000000018
0.5377051000000012 0.49388230000000133 0.4884544000000018
0.5396365000000012 0.49568050000000136 0.4892203000000018
0.5398696000000012 0.49521430000000133 0.4911184000000018
0.5403691000000012 0.49528090000000136 0.4913848000000018
0.5414347000000012 0.49568050000000136 0.4930165000000018
0.5415013000000012 0.49611340000000137 0.4924504000000018
0.5438323000000012 0.4964464000000014 0.4916845000000018
0.5442985000000011 0.4963465000000014 0.4923172000000018
0.5454307000000012 0.4967128000000014 0.4940155000000018
0.5462299000000012 0.49584700000000137 0.4940821000000018
0.5480947000000012 0.4959136000000014 0.4962133000000018
0.5471956000000011 0.4974787000000014 0.4965130000000018
0.5477284000000011 0.49624660000000137 0.49657960000000184
0.5468959000000011 0.49511440000000134 0.49767850000000186
0.5472289000000011 0.49621330000000136 0.4982779000000019
0.5488606000000011 0.49874410000000136 0.4986775000000019
0.5503258000000012 0.49957660000000137 0.4985443000000019
0.5505589000000012 0.5015080000000014 0.4981447000000019
0.5525236000000012 0.5009752000000014 0.4993435000000019
0.5525236000000012 0.4996099000000014 0.4998097000000019
0.5523238000000013 0.49811140000000137 0.5014414000000019
0.5522239000000012 0.5003425000000014 0.5022073000000019
0.5517244000000012 0.5006089000000014 0.5032729000000019
0.5503591000000012 0.5031397000000014 0.5046715000000019
0.5517910000000013 0.5029399000000014 0.503938900000002
0.5528566000000013 0.5042719000000014 0.505370800000002
0.5550544000000013 0.5038390000000015 0.505270900000002
0.5573521000000012 0.5032729000000015 0.507235600000002
0.5588839000000012 0.5025403000000015 0.507768400000002
0.5612149000000012 0.5047714000000015 0.507601900000002
0.5631130000000012 0.5043718000000015 0.5085010000000021
0.5641453000000012 0.5045383000000014 0.5088673000000021
0.5665762000000012 0.5058703000000014 0.5109652000000021
0.5668759000000012 0.5061034000000014 0.5124970000000021
0.5687740000000012 0.5071357000000014 0.5109985000000021
0.5716378000000012 0.5074354000000014 0.5117977000000021
0.5733694000000013 0.5094334000000015 0.5142952000000022
0.5727700000000012 0.5106988000000015 0.5141287000000022
0.5724370000000012 0.5133295000000014 0.5128300000000022
0.5743351000000012 0.5130298000000014 0.5119309000000022
0.5748679000000012 0.5131297000000015 0.5136958000000021
0.5746015000000012 0.5155606000000015 0.5138623000000021
0.5748013000000012 0.5151943000000014 0.5155939000000022
0.5769991000000012 0.5178916000000015 0.5186575000000022
0.5784643000000013 0.5196565000000014 0.5207887000000022
0.5799628000000012 0.5224537000000015 0.5193901000000022
0.5813281000000012 0.5230531000000015 0.5205223000000022
0.5829598000000012 0.5239855000000015 0.5229865000000022
0.5828932000000012 0.5251177000000016 0.5238523000000023
0.5836924000000012 0.5268160000000016 0.5235526000000023
0.5835925000000012 0.5275486000000016 0.5258170000000023
0.5863897000000012 0.5298130000000016 0.5266495000000023
0.5878549000000013 0.5318776000000016 0.5275819000000024
0.5864896000000013 0.5336425000000016 0.5283811000000024
0.5891203000000013 0.5330098000000015 0.5282479000000023
0.5915845000000013 0.5330098000000015 0.5286142000000024
0.5930830000000012 0.5341087000000015 0.5294800000000024
0.5935492000000012 0.5341753000000016 0.5303125000000024
0.5938822000000012 0.5358736000000016 0.5313781000000024
0.5928832000000013 0.5372722000000016 0.5327434000000024
0.5940820000000013 0.5377051000000016 0.5325769000000025
0.5951476000000013 0.5386375000000017 0.5324437000000024
0.5956138000000013 0.5398363000000017 0.5331097000000025
0.5974786000000013 0.5401027000000017 0.5326102000000025
0.5991103000000013 0.5412682000000018 0.5317777000000025
0.6013414000000014 0.5416345000000018 0.5316778000000024
0.6042385000000013 0.5422006000000018 0.5345416000000024
0.6056704000000014 0.5448646000000018 0.5339755000000024
0.6061699000000014 0.5447980000000018 0.5353408000000024
0.6049045000000014 0.5465629000000017 0.5365063000000024
0.6065695000000014 0.5469958000000017 0.5379382000000025
0.6069358000000015 0.5492602000000018 0.5389372000000024
0.6094666000000015 0.5493601000000018 0.5403025000000025
0.6098329000000016 0.5484277000000017 0.5414014000000025
0.6097663000000015 0.5511250000000018 0.5404690000000024
0.6104989000000015 0.5533228000000018 0.5397364000000024
0.6103657000000015 0.5534227000000018 0.5406688000000025
0.6129631000000014 0.5541553000000018 0.5430997000000025
0.6125968000000014 0.5556538000000018 0.5434660000000026
0.6132961000000013 0.5573854000000018 0.5440321000000026
0.6153274000000013 0.5566195000000018 0.5437657000000026
0.6158602000000013 0.5569192000000018 0.5447647000000025
0.6189904000000013 0.5563531000000018 0.5464630000000026
0.6182911000000013 0.5572522000000019 0.5458969000000026
0.6184576000000013 0.5572522000000019 0.5460634000000025
0.6205555000000013 0.5567860000000019 0.5464630000000026
0.6213880000000013 0.5581513000000019 0.5465296000000026
0.6222538000000013 0.559350100000002 0.5484610000000026
0.6249178000000013 0.561081700000002 0.5482945000000027
0.6242185000000013 0.560782000000002 0.5484943000000027
0.6241519000000013 0.560715400000002 0.5485609000000027
0.6268492000000013 0.563379400000002 0.5493268000000027
0.6285808000000014 0.5619475000000019 0.5503591000000027
0.6285142000000014 0.5624470000000019 0.5522239000000027
0.6299794000000014 0.5637124000000019 0.5518909000000026
0.6292135000000014 0.5628133000000018 0.5532895000000027
0.6291136000000014 0.5636791000000019 0.5551876000000027
0.6301126000000014 0.5649445000000018 0.5537890000000026
0.6311449000000013 0.5666428000000019 0.5529232000000026
0.6320773000000014 0.567042400000002 0.5553208000000026
0.6340420000000014 0.568207900000002 0.5554207000000027
0.6347413000000014 0.569706400000002 0.5546215000000027
0.6362065000000015 0.5707720000000019 0.5547214000000027
0.6380047000000014 0.5717710000000019 0.5564197000000027
0.6373054000000015 0.5720374000000019 0.5571523000000027
0.6374719000000014 0.5722039000000019 0.5584843000000027
0.6386707000000015 0.5732695000000019 0.5594167000000028
0.6406687000000015 0.5745349000000018 0.5606155000000028
0.6402691000000015 0.5765662000000018 0.5603491000000028
0.6403690000000015 0.5786974000000018 0.5591836000000028
0.6423004000000015 0.5784643000000018 0.5586175000000028
0.6415012000000015 0.5791303000000019 0.5589505000000028
0.6430330000000015 0.5781646000000019 0.5597164000000028
0.6420673000000016 0.5791303000000019 0.5588173000000027
0.6424336000000016 0.5805955000000019 0.5587840000000027
0.6428998000000016 0.5815945000000019 0.5591836000000028
0.6447313000000016 0.5836258000000019 0.5598496000000028
0.6458302000000016 0.5831263000000019 0.5611150000000028
0.6453307000000016 0.5833927000000019 0.5613814000000028
0.6468625000000016 0.5840587000000019 0.5607154000000028
0.6477283000000016 0.5863897000000019 0.5620474000000028
0.6465295000000015 0.5856238000000019 0.5635792000000027
0.6475618000000015 0.5867560000000019 0.5661100000000028
0.6496930000000015 0.5862232000000019 0.5661766000000028
0.6490270000000015 0.588121300000002 0.5680081000000028
0.6490603000000015 0.588953800000002 0.5708386000000027
0.6498595000000015 0.589553200000002 0.5704390000000027
0.6507253000000015 0.590019400000002 0.5713714000000027
0.6507253000000015 0.5910184000000019 0.5727700000000028
0.6525235000000015 0.5898862000000019 0.5734360000000028
0.6535891000000015 0.5898196000000019 0.5753341000000028
0.6546880000000015 0.5916844000000019 0.5765662000000028
0.6567193000000014 0.5905522000000019 0.5775985000000028
0.6570856000000015 0.5913181000000018 0.5789305000000028
0.6585841000000014 0.5928499000000018 0.5795632000000028
0.6614146000000014 0.5941819000000018 0.5796964000000029
0.6631462000000015 0.5948146000000019 0.5810617000000029
0.6624469000000015 0.5954806000000019 0.5826601000000029
0.6635791000000015 0.5954473000000019 0.5822272000000029
0.6657436000000015 0.5967793000000019 0.5846248000000029
0.6664429000000015 0.598244500000002 0.585290800000003
0.6671089000000016 0.598910500000002 0.584658100000003
0.6696064000000016 0.599743000000002 0.585190900000003
0.6688072000000016 0.598843900000002 0.587355400000003
0.6699394000000016 0.6014080000000019 0.590152600000003
0.6719707000000016 0.603339400000002 0.592017400000003
0.6734359000000016 0.6048379000000019 0.591551200000003
0.6738688000000016 0.604105300000002 0.592849900000003
0.6730363000000016 0.605270800000002 0.591384700000003
0.6754672000000016 0.605737000000002 0.592017400000003
0.6778315000000016 0.604504900000002 0.594648100000003
0.6784975000000016 0.607069000000002 0.597545200000003
0.6776650000000016 0.608267800000002 0.599876200000003
0.6784309000000016 0.608534200000002 0.601241500000003
0.6774652000000017 0.607535200000002 0.601174900000003
0.6786640000000017 0.610698700000002 0.602040700000003
0.6803623000000018 0.610698700000002 0.603838900000003
0.6821938000000017 0.611231500000002 0.603039700000003
0.6850576000000017 0.612330400000002 0.6048712000000029
0.6858235000000017 0.614428300000002 0.606869200000003
0.6876550000000017 0.613762300000002 0.607735000000003
0.6892201000000017 0.6141952000000019 0.6078349000000031
0.6884542000000017 0.614295100000002 0.607468600000003
0.6909517000000017 0.613063000000002 0.608600800000003
0.6933160000000017 0.614428300000002 0.610465600000003
0.6937822000000017 0.614295100000002 0.6096997000000031
0.6952807000000016 0.6144616000000019 0.609366700000003
0.6957136000000016 0.6154273000000019 0.612330400000003
0.6959467000000016 0.6151276000000019 0.6121306000000031
0.6948145000000016 0.6166594000000019 0.612064000000003
0.6954472000000016 0.6176917000000018 0.613629100000003
0.6971455000000016 0.6204556000000019 0.6145615000000031
0.6997762000000016 0.6201892000000019 0.6151609000000031
0.7020406000000017 0.6216544000000019 0.6141286000000031
0.7044715000000017 0.623086300000002 0.6161266000000032
0.7058368000000017 0.622120600000002 0.6174919000000032
0.7071688000000017 0.623386000000002 0.6176917000000032
0.7086007000000017 0.6232528000000019 0.6169924000000032
0.7078681000000018 0.6244849000000019 0.6186907000000033
0.7090336000000018 0.6272488000000019 0.6209551000000033
0.7085008000000018 0.627914800000002 0.6224203000000034
0.7102990000000018 0.629613100000002 0.6234859000000034
0.7100659000000018 0.630612100000002 0.6258835000000034
0.7118308000000018 0.630945100000002 0.6284476000000033
0.7122970000000017 0.6312781000000021 0.6297463000000033
0.7126966000000018 0.6302791000000021 0.6296131000000033
0.7129297000000018 0.6299794000000021 0.6307453000000033
0.7122970000000017 0.6308452000000021 0.6313114000000033
0.7143283000000017 0.6309118000000021 0.6330763000000033
0.7155937000000017 0.6325435000000021 0.6349078000000032
0.7181578000000016 0.6325102000000021 0.6351076000000032
0.7172254000000016 0.6346414000000021 0.6338422000000032
0.7190569000000016 0.6347413000000022 0.6352741000000033
0.7190569000000016 0.6337423000000022 0.6360400000000033
0.7203556000000015 0.6342418000000022 0.6370057000000032
0.7233526000000016 0.6356071000000022 0.6376051000000033
0.7247179000000016 0.6364063000000022 0.6381046000000032
0.7253173000000016 0.6355405000000022 0.6389371000000033
0.7275484000000016 0.6349744000000022 0.6402358000000032
0.7303456000000017 0.6359068000000022 0.6418675000000033
0.7299460000000016 0.6352408000000022 0.6437989000000033
0.7302790000000017 0.6353407000000022 0.6460300000000033
0.7304788000000016 0.6364729000000022 0.6446980000000033
0.7318441000000017 0.6370390000000022 0.6451309000000033
0.7348744000000017 0.6368059000000023 0.6474286000000032
0.7362064000000017 0.6364396000000022 0.6502924000000032
0.7360066000000017 0.6358069000000022 0.6498262000000032
0.7351075000000017 0.6371056000000022 0.6509584000000033
0.7371388000000016 0.6389704000000022 0.6519241000000032
0.7389037000000016 0.6413014000000021 0.6536890000000032
0.7406020000000016 0.6413347000000021 0.6534226000000032
0.7417675000000017 0.6435658000000022 0.6557536000000032
0.7428664000000017 0.6456637000000022 0.6564196000000032
0.7428664000000017 0.6475618000000022 0.6592168000000033
0.7452640000000017 0.6486940000000022 0.6608818000000033
0.7458301000000017 0.6509584000000023 0.6630463000000033
0.7480945000000018 0.6525901000000023 0.6624469000000033
0.7497595000000018 0.6526900000000023 0.6617143000000033
0.7500925000000018 0.6545881000000023 0.6621472000000033
0.7498927000000019 0.6554206000000024 0.6632794000000033
0.7530229000000018 0.6570523000000024 0.6655438000000033
0.7547212000000019 0.6568525000000024 0.6646780000000033
0.7568191000000019 0.6568192000000024 0.6635458000000033
0.7562530000000018 0.6571189000000024 0.6648445000000033
0.7578514000000018 0.6583510000000024 0.6645781000000033
0.7582177000000019 0.6609151000000023 0.6667759000000033
0.7596829000000019 0.6630130000000023 0.6697396000000033
0.7618141000000019 0.6650443000000023 0.6700726000000033
0.7630795000000019 0.6657769000000022 0.6687073000000033
0.7636456000000019 0.6677416000000023 0.6684409000000033
0.7647445000000019 0.6681412000000023 0.6684409000000033
0.7651774000000019 0.6704389000000023 0.6705721000000033
0.7641451000000019 0.6697729000000022 0.6723037000000034
0.7650109000000019 0.6712048000000023 0.6725701000000034
0.767541700000002 0.6726700000000023 0.6740020000000034
0.767441800000002 0.6746347000000024 0.6757669000000034
0.7668091000000019 0.6741019000000024 0.6782977000000034
0.7689403000000019 0.6758002000000024 0.6774985000000034
0.7677415000000019 0.6776983000000024 0.6792301000000035
0.7695064000000018 0.6784975000000024 0.6809950000000035
0.7695730000000018 0.6789637000000024 0.6822604000000034
0.7728031000000019 0.6790636000000024 0.6838921000000034
0.7734358000000019 0.6808951000000024 0.6845581000000035
0.7750009000000019 0.6831262000000025 0.6834592000000035
0.7763995000000019 0.6836590000000025 0.6836590000000035
0.7762663000000019 0.6856237000000025 0.6836590000000035
0.7752340000000019 0.6864229000000025 0.6840253000000035
0.7776982000000019 0.6859234000000025 0.6847912000000035
0.7785307000000019 0.6881545000000026 0.6845914000000035
0.7776982000000019 0.6892534000000026 0.6873553000000036
0.7790968000000019 0.6890869000000026 0.6902857000000036
0.779429800000002 0.6920839000000026 0.6907852000000035
0.780595300000002 0.6924835000000027 0.6906853000000035
0.781228000000002 0.6925168000000027 0.6924835000000035
0.7831927000000021 0.6946480000000027 0.6920506000000035
0.783925300000002 0.6958135000000027 0.6942484000000035
0.785157400000002 0.6979447000000027 0.6937822000000036
0.786223000000002 0.6979114000000027 0.6958135000000035
0.784990900000002 0.6969790000000027 0.6972121000000036
0.783559000000002 0.6986107000000027 0.6969790000000036
0.784191700000002 0.7005088000000027 0.6986773000000036
0.783925300000002 0.7020739000000027 0.7015078000000036
0.784657900000002 0.7034725000000027 0.7010083000000036
0.783292600000002 0.7033393000000027 0.7026067000000036
0.784891000000002 0.7048378000000026 0.7030729000000036
0.787188700000002 0.7042384000000026 0.7016743000000035
0.789952600000002 0.7026733000000026 0.7023070000000036
0.790385500000002 0.7053706000000026 0.7033393000000036
0.792083800000002 0.7061698000000026 0.7055038000000036
0.7930162000000021 0.7074019000000026 0.7064695000000035
0.7955137000000021 0.7097662000000026 0.7054705000000036
0.7947478000000021 0.7093000000000026 0.7057369000000036
0.7960132000000021 0.7093000000000026 0.7054705000000036
0.7966792000000021 0.7110316000000027 0.7076350000000036
0.7972786000000022 0.7112314000000026 0.7089004000000035
0.7985440000000021 0.7119640000000026 0.7096996000000035
0.7994431000000022 0.7133959000000026 0.7099327000000035
0.7991101000000022 0.7142617000000027 0.7102990000000036
0.7991767000000022 0.7150276000000026 0.7108984000000036
0.8009083000000022 0.7175917000000026 0.7099660000000035
0.8016076000000022 0.7176583000000026 0.7102324000000035
0.8045380000000022 0.7190902000000027 0.7109317000000035
0.8041384000000021 0.7202890000000027 0.7099993000000034
0.8060698000000022 0.7208884000000028 0.7094665000000034
0.8071021000000022 0.7228198000000028 0.7096663000000034
0.8092999000000022 0.7230862000000028 0.7100992000000034
0.8116975000000022 0.7228864000000028 0.7109650000000034
0.8142616000000021 0.7240186000000028 0.7126300000000034
0.8147278000000021 0.7228864000000028 0.7112647000000034
0.8148943000000021 0.7246180000000029 0.7120639000000034
0.8159932000000021 0.7242850000000028 0.7137955000000035
0.8169922000000021 0.7242517000000028 0.7146613000000035
0.8194897000000021 0.7259500000000029 0.7157269000000035
0.8189236000000021 0.7270156000000029 0.7170256000000035
0.8200558000000021 0.7277815000000029 0.7173919000000035
0.8222536000000021 0.7301458000000028 0.7191901000000035
0.8237854000000021 0.7297129000000029 0.7199893000000035
0.8256835000000021 0.7288804000000029 0.7215544000000035
0.8262163000000021 0.7295797000000028 0.7218541000000035
0.8274817000000021 0.7322770000000028 0.7233859000000035
0.8274817000000021 0.7319440000000028 0.7233859000000035
0.8281477000000022 0.7322770000000028 0.7225534000000035
0.8276149000000022 0.7316110000000028 0.7235857000000034
0.8285806000000021 0.7321438000000028 0.7253173000000035
0.8291134000000021 0.7319107000000028 0.7277815000000035
0.8292799000000021 0.7319773000000028 0.7292134000000036
0.8307451000000021 0.7327765000000028 0.7302790000000036
0.8320771000000021 0.7341751000000029 0.7325101000000036
0.8333758000000021 0.7343749000000028 0.7333093000000036
0.8334091000000021 0.7368058000000028 0.7320106000000036
0.8354404000000021 0.7369390000000029 0.7327432000000036
0.8363062000000021 0.7383043000000029 0.7341418000000036
0.8378047000000021 0.7377715000000029 0.7355071000000036
0.8394031000000021 0.738404200000003 0.7378381000000036
0.841201300000002 0.740002600000003 0.7366060000000036
0.843299200000002 0.7409683000000029 0.7369057000000037
0.844398100000002 0.742699900000003 0.7360066000000036
0.8466625000000021 0.7421005000000029 0.7383043000000036
0.8463295000000021 0.742133800000003 0.7385041000000035
0.8466292000000021 0.742233700000003 0.7380046000000036
0.8485606000000021 0.741667600000003 0.7373386000000035
0.8505919000000021 0.741867400000003 0.7357735000000035
0.8504254000000021 0.7417342000000029 0.7349077000000035
0.8516242000000022 0.7430662000000029 0.7355071000000035
0.8518906000000022 0.7448644000000029 0.7364062000000036
0.8515243000000021 0.7449310000000029 0.7389703000000035
0.8520238000000021 0.7465960000000029 0.7381711000000035
0.8531227000000021 0.7482277000000029 0.7380046000000036
0.8536888000000021 0.7473286000000029 0.7392367000000035
0.8537221000000021 0.7493932000000029 0.7393366000000036
0.8548543000000022 0.7510915000000029 0.7412014000000036
0.8556535000000022 0.7513912000000029 0.7413346000000036
0.8567524000000022 0.751724200000003 0.7440652000000036
0.8588170000000022 0.751258000000003 0.7429663000000036
0.8605486000000022 0.752956300000003 0.7429330000000036
0.8611480000000022 0.7541218000000031 0.7434991000000036
0.8620804000000023 0.7552873000000031 0.7422004000000036
0.8626132000000023 0.7571854000000031 0.7443316000000036
0.8623135000000023 0.7592167000000031 0.7452640000000037
0.8609815000000023 0.7603489000000031 0.7446979000000037
0.8640451000000023 0.7619140000000031 0.7464628000000036
0.8650441000000023 0.7616809000000031 0.7470955000000037
0.8657101000000024 0.7633792000000031 0.7481611000000037
0.8656102000000023 0.7633126000000031 0.7480612000000036
0.8660431000000023 0.7619806000000031 0.7486606000000037
0.8681077000000023 0.7611148000000031 0.7477948000000036
0.8686405000000023 0.7640785000000031 0.7479280000000037
0.8691733000000023 0.7633792000000031 0.7497262000000037
0.8691733000000023 0.7636456000000031 0.7491268000000036
0.8701057000000023 0.7657435000000031 0.7500259000000037
0.8702056000000024 0.7654771000000031 0.7509916000000036
0.8716042000000024 0.7668091000000031 0.7510249000000037
0.8716708000000024 0.7675417000000031 0.7525900000000036
0.8736355000000025 0.7676749000000032 0.7547878000000037
0.8736688000000025 0.7676416000000031 0.7544215000000036
0.8730028000000024 0.7706053000000032 0.7561864000000036
0.8745346000000024 0.7728364000000032 0.7582843000000036
0.8749675000000023 0.7715710000000032 0.7585507000000036
0.8779312000000024 0.7712713000000032 0.7603822000000036
0.8801623000000024 0.7734025000000032 0.7598494000000036
0.8809948000000024 0.7755337000000032 0.7601824000000036
0.8803954000000024 0.7753006000000032 0.7612813000000036
0.8814610000000024 0.7761664000000033 0.7613812000000036
0.8830927000000024 0.7753672000000033 0.7610482000000036
0.8832259000000025 0.7766659000000032 0.7613479000000036
0.8859232000000025 0.7786639000000033 0.7628464000000036
0.8867224000000025 0.7789636000000033 0.7638787000000036
0.8882875000000025 0.7802290000000033 0.7661431000000036
0.8874883000000025 0.7811947000000032 0.7656769000000037
0.8895862000000024 0.7823602000000033 0.7659100000000036
0.8905519000000024 0.7839919000000033 0.7677415000000036
0.8901190000000024 0.7826599000000033 0.7689736000000036
0.8906185000000024 0.7848244000000033 0.7697728000000036
0.8899192000000025 0.7861897000000033 0.7708717000000036
0.8902855000000025 0.7874218000000033 0.7729363000000036
0.8902189000000025 0.7881211000000032 0.7742350000000036
0.8905519000000025 0.7882543000000033 0.7756336000000036
0.8934823000000025 0.7891534000000033 0.7768324000000036
0.8960464000000025 0.7894198000000033 0.7785973000000036
0.8954470000000024 0.7917508000000033 0.7789303000000036
0.8954803000000024 0.7930495000000033 0.7786639000000036
0.8956801000000024 0.7949476000000033 0.7813612000000036
0.8967124000000024 0.7974451000000033 0.7832260000000036
0.8986105000000024 0.7983442000000034 0.7829929000000037
0.8978113000000024 0.8004754000000034 0.7859566000000037
0.8993764000000024 0.7992100000000034 0.7887205000000037
0.9007417000000024 0.7977448000000034 0.7885540000000038
0.9030727000000024 0.7991434000000034 0.7885873000000038
0.9060364000000024 0.7991434000000034 0.7908850000000037
0.9061030000000024 0.8010082000000034 0.7905187000000037
0.9062029000000025 0.8014744000000034 0.7902856000000037
0.9084673000000025 0.8027398000000033 0.7916176000000037
0.9108649000000025 0.8034391000000033 0.7911514000000037
0.9112978000000025 0.8057701000000033 0.7920172000000038
