0.0119314 0.0104329 0.0115651
0.0117982 0.0100666 0.0133633
0.0144622 0.0112987 0.0162604
0.0134965 0.0135298 0.0160606
0.015994 0.0142624 0.0171262
0.0169264 0.0164269 0.0174925
0.019324 0.015527800000000001 0.0202897
0.0180253 0.0163936 0.0218215
0.0185914 0.015561100000000001 0.0209557
0.0201232 0.0157609 0.0234865
0.0229537 0.014961700000000001 0.024985
0.0217882 0.0165268 0.0242524
0.0220213 0.0176923 0.0259507
0.0237862 0.0174592 0.0284815
0.0242857 0.0175591 0.0294139
0.0251182 0.0168265 0.0297802
0.0242524 0.0185248 0.0309124
0.0241525 0.0204895 0.0307792
0.0257176 0.0231868 0.0324775
0.0270829 0.0224209 0.0322444
0.0288145 0.0226873 0.0343756
0.0297802 0.0237862 0.0362071
0.029647 0.0247852 0.036973
0.0303796 0.0256843 0.0390709
0.0313786 0.0257509 0.042301
0.0339427 0.0268831 0.0430336
0.0341758 0.0298135 0.0453646
0.0361738 0.02998 0.0456643
0.0385714 0.0296137 0.0470962
0.0393373 0.0314119 0.047962
0.0416683 0.0328438 0.0485614
0.0429337 0.0344089 0.0473293
0.0427006 0.0342091 0.0474292
0.0424675 0.0339427 0.0472627
0.0437995 0.034975 0.0484282
0.0438994 0.0364735 0.048628
0.0430669 0.0384049 0.0487612
0.0424675 0.0395704 0.0489943
0.0424342 0.0397702 0.0512254
0.0435997 0.040636 0.0535231
0.0457975 0.0420346 0.0526906
0.0450649 0.0430669 0.0528904
0.0471628 0.044632 0.0539227
0.0475291 0.0453313 0.0553213
0.0471295 0.0467299 0.055954
0.0466633 0.0476623 0.0549217
0.0490942 0.0500932 0.0561205
0.0487612 0.0507592 0.058617999999999996
0.0490942 0.0535897 0.058285
0.050959 0.0535564 0.058351599999999997
0.0502597 0.0543223 0.059483799999999996
0.0520912 0.0531235 0.060749199999999996
0.0541558 0.0548218 0.059716899999999996
0.0560206 0.0561205 0.059250699999999996
0.0575524 0.0578521 0.061515099999999996
0.0580186 0.059750199999999996 0.062414199999999996
0.058451499999999997 0.0627805 0.0630802
0.059483799999999996 0.0631468 0.0628471
0.058984299999999996 0.0647785 0.06328
0.059350599999999996 0.0670762 0.0647119
0.059050899999999996 0.0668431 0.0641125
0.060549399999999996 0.0687079 0.0654445
0.060915699999999996 0.0697069 0.0670762
0.062081199999999996 0.0720046 0.0680086
0.062214399999999996 0.070939 0.0693073
0.064279 0.0724375 0.0693406
0.0653113 0.0718048 0.071938
0.0649117 0.0727039 0.0708724
0.0663436 0.0740359 0.0709723
0.0663436 0.0744022 0.072271
0.067609 0.0749017 0.0723709
0.0685414 0.0774991 0.0734365
0.0709057 0.0771994 0.0735031
0.0724708 0.0787645 0.0752347
0.071272 0.078265 0.0743356
0.0732367 0.0787312 0.0747019
0.0740692 0.0787312 0.0765001
0.0764002 0.0798301 0.0772327
0.077266 0.0813286 0.0778654
0.0786979 0.0836596 0.0777322
0.0804628 0.0858241 0.0802297
0.0794305 0.0863236 0.0812287
0.0812287 0.0873559 0.0809956
0.0826939 0.0870895 0.0827272
0.081928 0.0868897 0.0825607
0.0847918 0.0895537 0.0854578
0.0872227 0.0894871 0.0856909
0.0888544 0.0900532 0.0867232
0.0908524 0.0901198 0.0875224
0.0920512 0.0901864 0.0876889
0.0910855 0.0897202 0.0881218
0.0907192 0.0886879 0.0896536
0.090253 0.0906193 0.0898534
0.0900532 0.0932833 0.0895537
0.0903529 0.0941824 0.0890875
0.0908191 0.0946153 0.089587
0.0928837 0.0960139 0.0917848
0.0948817 0.0976789 0.0919846
0.0958807 0.1003762 0.0920512
0.0973792 0.1018081 0.091252
0.0987445 0.1035064 0.0933499
0.1000099 0.1031401 0.0950815
0.1004428 0.1037728 0.0952813
0.0997435 0.1046053 0.094249
0.1010089 0.1033066 0.094582
0.1007758 0.1048051 0.0973126
0.1008424 0.1060705 0.0963136
0.1012753 0.1051048 0.0952813
0.1027738 0.1039726 0.0972793
0.1038727 0.1062703 0.099577
0.1057042 0.1067032 0.1018414
0.1087345 0.1075357 0.1020079
0.1103329 0.1091674 0.1020079
0.1089343 0.1104328 0.1021411
0.1081351 0.1121644 0.1021411
0.1088011 0.1126639 0.102574
0.1098334 0.112897 0.1045054
0.1116316 0.1161604 0.1050049
0.1113319 0.1166599 0.1077355
0.1124974 0.1183582 0.107902
0.1131967 0.1177255 0.1097335
0.116227 0.1175257 0.1102996
0.117226 0.1193905 0.1101331
0.1185913 0.1184248 0.1101331
0.1190575 0.1175257 0.1116982
0.1197235 0.1179586 0.1145287
0.119557 0.1186246 0.1159939
0.1190575 0.1181251 0.1169263
0.1191574 0.1208224 0.1191907
0.1190242 0.1193905 0.1211887
0.1196902 0.1199233 0.1212553
0.1196236 0.1210555 0.1229536
0.1211887 0.1220545 0.1245853
0.1224208 0.1241857 0.1246852
0.1246519 0.1268164 0.1247185
0.1264501 0.1266166 0.1235197
0.12848140000000002 0.1283815 0.1236862
0.13051270000000004 0.1289143 0.1235863
0.13184470000000004 0.1311787 0.1240525
0.13151170000000004 0.13214440000000002 0.1256842
0.13440880000000005 0.13201120000000002 0.1277155
0.13610710000000006 0.13254400000000002 0.1268497
0.13677310000000006 0.13527460000000002 0.1282483
0.13870450000000006 0.13767220000000002 0.1299133
0.14040280000000008 0.13920400000000002 0.1309789
0.1409023000000001 0.14113540000000002 0.1309789
0.1426006000000001 0.14116870000000004 0.1319113
0.1435996000000001 0.14313340000000005 0.1314118
0.1432000000000001 0.14456530000000006 0.1326439
0.14396590000000012 0.14426560000000005 0.1341757
0.14476510000000012 0.14636350000000006 0.1349083
0.14556430000000012 0.14686300000000008 0.13614040000000002
0.1453978000000001 0.1473625000000001 0.13727260000000002
0.1462636000000001 0.1480951000000001 0.14023630000000004
0.1471294000000001 0.1500265000000001 0.14000320000000002
0.14842810000000012 0.1529236000000001 0.14153500000000002
0.1469962000000001 0.1552546000000001 0.14200120000000002
0.1466299000000001 0.15721930000000012 0.14429890000000004
0.14613040000000008 0.15788530000000012 0.14533120000000005
0.14646340000000008 0.1569196000000001 0.14659660000000005
0.14549770000000006 0.1556875000000001 0.14792860000000005
0.14629690000000006 0.1576855000000001 0.15022630000000006
0.14762890000000006 0.1590508000000001 0.15005980000000005
0.14922730000000006 0.1584847000000001 0.15055930000000006
0.15022630000000006 0.1577521000000001 0.15029290000000006
0.15175810000000006 0.1602829000000001 0.15159160000000008
0.15202450000000006 0.1619479000000001 0.15069250000000006
0.15179140000000005 0.1645120000000001 0.15285700000000008
0.15245740000000005 0.16601050000000012 0.1537561000000001
0.15395590000000006 0.16657660000000013 0.1558540000000001
0.15462190000000006 0.16844140000000013 0.1575856000000001
0.15671980000000008 0.16974010000000014 0.1568197000000001
0.15745240000000008 0.16910740000000013 0.1591174000000001
0.15791860000000008 0.16987330000000014 0.1617148000000001
0.15655330000000006 0.17103880000000016 0.1626472000000001
0.15705280000000008 0.17103880000000016 0.1646452000000001
0.1592173000000001 0.17197120000000016 0.1671094000000001
0.1615483000000001 0.17193790000000014 0.1666432000000001
0.1619812000000001 0.17267050000000014 0.1681084000000001
0.16334650000000012 0.17177140000000013 0.1687078000000001
0.16501150000000012 0.17333650000000014 0.1696402000000001
0.16517800000000013 0.17490160000000016 0.1707724000000001
0.16431220000000013 0.17776540000000016 0.17100550000000012
0.16534450000000014 0.18016300000000016 0.17067250000000012
0.16571080000000016 0.18149500000000016 0.17123860000000013
0.16664320000000016 0.18382600000000016 0.17426890000000014
0.16897420000000016 0.18359290000000014 0.17373610000000014
0.17060590000000017 0.18379270000000014 0.17446870000000014
0.17303680000000018 0.18525790000000014 0.17520130000000014
0.1738027000000002 0.18435880000000013 0.17450200000000013
0.1742023000000002 0.18555760000000013 0.17533450000000014
0.1747018000000002 0.18549100000000013 0.17526790000000014
0.1759006000000002 0.18722260000000013 0.17823160000000016
0.1770994000000002 0.18892090000000014 0.17973010000000017
0.1782316000000002 0.18822160000000013 0.18026290000000017
0.1786978000000002 0.18842140000000013 0.18019630000000017
0.1816282000000002 0.18802180000000013 0.18086230000000017
0.1816282000000002 0.19008640000000013 0.18159490000000017
0.1807291000000002 0.1885213000000001 0.18032950000000017
0.1815949000000002 0.1897867000000001 0.18029620000000016
0.1841257000000002 0.19068580000000013 0.18256060000000016
0.1834597000000002 0.19001980000000013 0.18199450000000014
0.1847251000000002 0.19278370000000014 0.18129520000000013
0.1859905000000002 0.19484830000000014 0.18092890000000011
0.18562420000000018 0.19461520000000013 0.18306010000000011
0.1861237000000002 0.19548100000000013 0.18292690000000011
0.1876888000000002 0.1951147000000001 0.18522460000000013
0.1898200000000002 0.1951813000000001 0.18639010000000014
0.19018630000000022 0.1957807000000001 0.18565750000000014
0.19101880000000024 0.1974457000000001 0.18705610000000014
0.19265050000000025 0.19974340000000013 0.18652330000000014
0.19181800000000024 0.19901080000000013 0.18748900000000016
0.19451530000000025 0.19821160000000013 0.18875440000000016
0.19381600000000024 0.19821160000000013 0.19055260000000016
0.19554760000000024 0.19924390000000014 0.19048600000000016
0.19717930000000025 0.19907740000000013 0.18975340000000016
0.19734580000000027 0.19867780000000013 0.18898750000000014
0.19811170000000028 0.20074240000000013 0.19098550000000014
0.19964350000000028 0.20144170000000014 0.19291690000000014
0.20077570000000028 0.20274040000000015 0.19564750000000014
0.20363950000000028 0.20370610000000017 0.19624690000000014
0.20360620000000026 0.20264050000000017 0.19837810000000014
0.20307340000000026 0.20237410000000017 0.19867780000000015
0.20407240000000026 0.20230750000000017 0.19997650000000017
0.20550430000000028 0.20427220000000018 0.19917730000000017
0.20563750000000028 0.20410570000000017 0.20200780000000018
0.2064700000000003 0.20367280000000015 0.20393920000000018
0.2065366000000003 0.20350630000000014 0.20540440000000018
0.20623690000000028 0.20553760000000015 0.20513800000000018
0.20723590000000028 0.20656990000000017 0.2067031000000002
0.20676970000000028 0.20953360000000018 0.20580400000000018
0.2070028000000003 0.21206440000000018 0.2085679000000002
0.20650330000000028 0.21123190000000017 0.2115982000000002
0.2079352000000003 0.21146500000000018 0.21276370000000022
0.20783530000000028 0.21016630000000017 0.21279700000000024
0.20693620000000026 0.20970010000000017 0.21336310000000025
0.20600380000000026 0.21036610000000017 0.21532780000000026
0.20906740000000026 0.20883430000000017 0.21712600000000026
0.21073240000000026 0.21059920000000018 0.21602710000000025
0.20993320000000026 0.20993320000000018 0.21802510000000025
0.21073240000000026 0.21259720000000018 0.21765880000000024
0.21196450000000028 0.2136295000000002 0.21892420000000024
0.2145286000000003 0.2141290000000002 0.22072240000000024
0.2167597000000003 0.2147284000000002 0.22165480000000023
0.2168929000000003 0.2140624000000002 0.22335310000000025
0.2173591000000003 0.2135296000000002 0.22395250000000025
0.2168929000000003 0.2141290000000002 0.22338640000000023
0.2158273000000003 0.2164600000000002 0.22461850000000025
0.2166265000000003 0.21795850000000022 0.22558420000000026
0.2159272000000003 0.21882430000000022 0.22831480000000026
0.2187244000000003 0.2185246000000002 0.22738240000000026
0.2185912000000003 0.2175922000000002 0.22754890000000028
0.2206891000000003 0.2163268000000002 0.22731580000000026
0.22331980000000032 0.2160271000000002 0.22741570000000028
0.22341970000000033 0.2174923000000002 0.22914730000000028
0.22495150000000033 0.2190907000000002 0.2322442000000003
0.22481830000000033 0.2191240000000002 0.2336428000000003
0.22385260000000032 0.22075570000000022 0.2343088000000003
0.2233531000000003 0.22112200000000024 0.2335762000000003
0.2236861000000003 0.22088890000000022 0.2361070000000003
0.2246185000000003 0.22365280000000023 0.23580730000000028
0.2249515000000003 0.22471840000000023 0.2373724000000003
0.2258173000000003 0.22348630000000022 0.2375722000000003
0.22824820000000032 0.22538440000000023 0.2385046000000003
0.22984660000000032 0.22631680000000023 0.23807170000000027
0.23051260000000032 0.22754890000000025 0.2389042000000003
0.2298799000000003 0.22918060000000026 0.2411686000000003
0.23231080000000032 0.23064580000000026 0.2419012000000003
0.23484160000000032 0.23231080000000026 0.24086890000000027
0.23624020000000032 0.23174470000000025 0.2428336000000003
0.23853790000000033 0.23231080000000026 0.2454976000000003
0.23907070000000033 0.23430880000000026 0.2459305000000003
0.24070240000000034 0.23410900000000026 0.2455642000000003
0.24103540000000034 0.23440870000000028 0.2487610000000003
0.24140170000000036 0.23540770000000028 0.2476288000000003
0.24286690000000036 0.23713930000000027 0.2491939000000003
0.24230080000000034 0.23673970000000027 0.25045930000000033
0.24290020000000034 0.23713930000000027 0.24989320000000032
0.24326650000000036 0.2392372000000003 0.2493271000000003
0.24336640000000037 0.2386378000000003 0.2512918000000003
0.24533110000000038 0.2391373000000003 0.2511253000000003
0.24726250000000038 0.2389375000000003 0.2522242000000003
0.24786190000000038 0.2387710000000003 0.2524573000000003
0.2494936000000004 0.23873770000000027 0.2550547000000003
0.2510920000000004 0.23973670000000027 0.2562535000000003
0.25142500000000045 0.2427004000000003 0.2570527000000003
0.25119190000000047 0.2447983000000003 0.2598832000000003
0.25085890000000044 0.2453977000000003 0.26004970000000033
0.25232410000000044 0.2442322000000003 0.25925050000000033
0.25299010000000044 0.2456641000000003 0.26078230000000036
0.25518790000000047 0.24789520000000032 0.26081560000000037
0.2563201000000005 0.25049260000000034 0.26331310000000036
0.2563201000000005 0.25045930000000033 0.2631133000000003
0.2588509000000005 0.25338970000000033 0.26421220000000034
0.2607157000000005 0.25552090000000033 0.26607700000000034
0.2615815000000005 0.25658650000000033 0.2677753000000003
0.2623807000000005 0.2566864000000003 0.2693737000000003
0.26294680000000054 0.25578730000000033 0.27170470000000035
0.26381260000000056 0.25861780000000034 0.27107200000000037
0.2669095000000006 0.25831810000000033 0.2718046000000004
0.26767540000000056 0.25875100000000034 0.2744353000000004
0.2686411000000006 0.25781860000000034 0.2762002000000004
0.26820820000000056 0.26014960000000037 0.2766664000000004
0.2682748000000006 0.25988320000000037 0.2755342000000004
0.2682748000000006 0.25968340000000034 0.2757007000000004
0.2681416000000006 0.26241400000000037 0.27789850000000044
0.26780860000000056 0.2631466000000004 0.27829810000000044
0.2680084000000006 0.2642788000000004 0.28006300000000045
0.2689408000000006 0.26391250000000044 0.2819944000000005
0.26874100000000056 0.26551090000000044 0.2848582000000005
0.2694736000000006 0.2688076000000004 0.2867230000000005
0.2711719000000006 0.2706724000000004 0.2898199000000005
0.2718712000000006 0.27150490000000044 0.29011960000000053
0.2728369000000006 0.27277030000000047 0.28958680000000053
0.2731033000000006 0.2729701000000005 0.2896867000000005
0.2731033000000006 0.2736028000000005 0.2890873000000005
0.2742688000000006 0.27516790000000046 0.2898532000000005
0.2757340000000006 0.27610030000000046 0.2914516000000005
0.2770660000000006 0.27716590000000046 0.2934829000000005
0.2776654000000006 0.27903070000000046 0.29261710000000046
0.2781982000000006 0.27856450000000044 0.29431540000000045
0.2797966000000006 0.27829810000000044 0.29368270000000046
0.2808622000000006 0.28016290000000044 0.29245060000000045
0.2805625000000006 0.27926380000000045 0.29245060000000045
0.2822608000000006 0.27916390000000046 0.2917180000000004
0.2831266000000006 0.27913060000000045 0.2910520000000004
0.28382590000000063 0.2818612000000005 0.29321650000000044
0.2841922000000006 0.2809621000000005 0.29428210000000044
0.28489150000000063 0.2822275000000005 0.29458180000000045
0.2838925000000006 0.2810287000000005 0.29441530000000043
0.28435870000000063 0.2816947000000005 0.29674630000000046
0.28629010000000066 0.28269370000000055 0.2984113000000005
0.28692280000000064 0.28442530000000055 0.2995102000000005
0.2860570000000006 0.28519120000000053 0.3022075000000005
0.28742230000000063 0.2856907000000005 0.30317320000000053
0.28788850000000066 0.2871226000000005 0.30483820000000056
0.28792180000000067 0.2896867000000005 0.30533770000000054
0.2886544000000007 0.2898199000000005 0.30776860000000056
0.2881549000000007 0.2901862000000005 0.30960010000000054
0.2912185000000007 0.2917846000000005 0.30996640000000053
0.2915182000000007 0.29438200000000053 0.31009960000000053
0.2910853000000007 0.29518120000000053 0.31309660000000056
0.2900530000000007 0.29468170000000055 0.31266370000000054
0.29225080000000075 0.29734570000000055 0.31283020000000056
0.29235070000000074 0.29904400000000053 0.31239730000000054
0.29388250000000077 0.3012751000000005 0.31239730000000054
0.29574730000000077 0.30077560000000053 0.31366270000000057
0.2977786000000008 0.30170800000000053 0.31576060000000056
0.2993770000000008 0.30190780000000056 0.31642660000000056
0.30120850000000077 0.30160810000000055 0.3176920000000006
0.30060910000000074 0.3020743000000006 0.31765870000000057
0.30160810000000077 0.3009088000000006 0.3174256000000006
0.30200770000000077 0.3031066000000006 0.3176254000000006
0.3039391000000008 0.3029401000000006 0.3197899000000006
0.3052711000000008 0.3026071000000006 0.32208760000000064
0.3075022000000008 0.30417220000000056 0.32355280000000064
0.3090340000000008 0.3055708000000006 0.3240523000000006
0.3090007000000008 0.3043720000000006 0.3237193000000006
0.3118978000000008 0.3066031000000006 0.3246850000000006
0.31346290000000077 0.30627010000000054 0.3245185000000006
0.31372930000000077 0.3056707000000005 0.3262168000000006
0.3134962000000008 0.30490480000000053 0.3289141000000006
0.3125971000000008 0.3063367000000005 0.32818150000000057
0.3126304000000008 0.30760210000000054 0.3285145000000006
0.31442860000000084 0.30906730000000054 0.3278152000000006
0.31685950000000085 0.30993310000000057 0.32964670000000057
0.3166597000000008 0.3119644000000006 0.33187780000000056
0.3158272000000008 0.3134296000000006 0.33201100000000056
0.3185245000000008 0.3137293000000006 0.3335428000000006
0.32162140000000083 0.3139291000000006 0.3342088000000006
0.32085550000000085 0.3156274000000006 0.3350080000000006
0.3213217000000009 0.3181915000000006 0.3372724000000006
0.3217879000000009 0.3184579000000006 0.3397033000000006
0.3214549000000009 0.31865770000000065 0.3386377000000006
0.3238858000000009 0.32148820000000067 0.3393037000000006
0.3241855000000009 0.3209887000000007 0.3386377000000006
0.3257506000000009 0.3218545000000007 0.3386377000000006
0.3262501000000009 0.3239524000000007 0.3393037000000006
0.3251845000000009 0.3259504000000007 0.3395035000000006
0.32435200000000086 0.3252844000000007 0.34166800000000064
0.32311990000000085 0.3254842000000007 0.3436327000000006
0.32175460000000083 0.32794840000000075 0.34446520000000064
0.32375260000000083 0.33034600000000075 0.34619680000000064
0.3251845000000008 0.32954680000000075 0.34662970000000065
0.3276820000000008 0.3296134000000008 0.34689610000000065
0.3291805000000008 0.32997970000000076 0.34759540000000066
0.3310120000000008 0.32931370000000076 0.3496600000000007
0.3309787000000008 0.3306790000000008 0.3518911000000007
0.3303127000000008 0.3305791000000008 0.3536227000000007
0.3320110000000008 0.3310120000000008 0.35532100000000066
0.3340090000000008 0.3319111000000008 0.35492140000000066
0.3356407000000008 0.33184450000000076 0.3573523000000007
0.3370060000000008 0.33247720000000075 0.3597499000000007
0.3365065000000008 0.3318778000000007 0.3603493000000007
0.3391372000000008 0.3312784000000007 0.3607822000000007
0.3390373000000008 0.3303127000000007 0.36271360000000075
0.3409021000000008 0.33024610000000065 0.36367930000000076
0.34000300000000083 0.3291139000000006 0.36361270000000073
0.3398365000000008 0.3289474000000006 0.3658438000000007
0.3392704000000008 0.3306790000000006 0.36670960000000075
0.3392371000000008 0.33074560000000064 0.3682414000000008
0.3385711000000008 0.33104530000000065 0.3704392000000008
0.3398365000000008 0.33134500000000067 0.3704059000000008
0.34013620000000083 0.33144490000000065 0.3700063000000008
0.33973660000000083 0.33277690000000065 0.3721708000000008
0.34110190000000085 0.33274360000000064 0.3729700000000008
0.3401029000000008 0.3318778000000006 0.3727702000000008
0.3430333000000008 0.3324106000000006 0.37380250000000076
0.34336630000000085 0.3332098000000006 0.37346950000000073
0.34479820000000083 0.3332098000000006 0.37283680000000075
0.34426540000000083 0.33607360000000064 0.37466830000000073
0.34546420000000083 0.33720580000000067 0.3738358000000007
0.34629670000000085 0.3400363000000007 0.3751678000000007
0.3478285000000009 0.34146820000000067 0.3756673000000007
0.34819480000000086 0.3426004000000007 0.3775654000000007
0.34952680000000086 0.3425671000000007 0.37959670000000073
0.35015950000000085 0.3437992000000007 0.38132830000000073
0.3514249000000009 0.3440323000000007 0.38219410000000076
0.3509254000000009 0.34426540000000067 0.3831931000000008
0.3494935000000009 0.34466500000000067 0.38236060000000077
0.35182450000000093 0.3451312000000007 0.38102860000000077
0.3523240000000009 0.3467962000000007 0.38312650000000076
0.3526903000000009 0.3465298000000007 0.38309320000000074
0.3528235000000009 0.3449314000000007 0.38462500000000077
0.3522241000000009 0.34566400000000075 0.3850912000000008
0.3518578000000009 0.34682950000000073 0.3858238000000008
0.3538225000000009 0.3455641000000007 0.38708920000000085
0.3534229000000009 0.3445318000000007 0.3878218000000009
0.3542887000000009 0.3468961000000007 0.3907855000000009
0.3567862000000009 0.3487276000000007 0.3932830000000009
0.35675290000000087 0.3491272000000007 0.3938158000000009
0.35858440000000086 0.3507922000000007 0.3946816000000009
0.35948350000000084 0.35259040000000075 0.3965797000000009
0.35978320000000086 0.35542090000000076 0.3973456000000009
0.36058240000000086 0.3566863000000008 0.39994300000000094
0.36138160000000086 0.35608690000000076 0.40240720000000096
0.36041590000000084 0.35915050000000076 0.40210750000000095
0.36064900000000083 0.36004960000000075 0.402573700000001
0.36258040000000086 0.36041590000000073 0.404571700000001
0.36294670000000084 0.36248050000000076 0.405970300000001
0.36431200000000086 0.3645451000000008 0.405570700000001
0.36587710000000084 0.3655774000000008 0.408367900000001
0.36734230000000084 0.3664432000000008 0.410499100000001
0.36617680000000086 0.36704260000000083 0.411964300000001
0.36870760000000086 0.36814150000000084 0.410932000000001
0.36730900000000083 0.37067230000000084 0.41136490000000103
0.36750880000000086 0.37117180000000083 0.41096530000000103
0.36740890000000087 0.3711052000000008 0.410898700000001
0.36950680000000086 0.3726703000000008 0.411065200000001
0.36927370000000087 0.3745351000000008 0.413029900000001
0.3712051000000009 0.3756340000000008 0.41442850000000103
0.3713383000000009 0.3759337000000008 0.41476150000000106
0.3731698000000009 0.3767329000000008 0.4143952000000011
0.3740356000000009 0.3760336000000008 0.4146949000000011
0.3753676000000009 0.3767329000000008 0.4164598000000011
0.3742687000000009 0.3780316000000008 0.4161934000000011
0.3762334000000009 0.37929700000000083 0.4184578000000011
0.3776986000000009 0.37933030000000084 0.4184911000000011
0.3774655000000009 0.37946350000000084 0.4178251000000011
0.3793303000000009 0.38002960000000086 0.41829130000000114
0.3792970000000009 0.38159470000000084 0.41892400000000113
0.3802294000000009 0.3822274000000008 0.42042250000000114
0.3798298000000009 0.38495800000000086 0.42198760000000113
0.3801628000000009 0.3859570000000009 0.42401890000000114
0.3821608000000009 0.38765530000000087 0.42471820000000116
0.3817945000000009 0.3903526000000009 0.42448510000000117
0.3834928000000009 0.38885410000000087 0.42658300000000116
0.3829267000000009 0.39005290000000087 0.4281148000000012
0.3846250000000009 0.3922174000000009 0.4308121000000012
0.3842254000000009 0.39444850000000087 0.4327102000000012
0.3854908000000009 0.39604690000000087 0.4314448000000012
0.38675620000000094 0.3962134000000009 0.43274350000000117
0.3866896000000009 0.3986776000000009 0.43310980000000115
0.3866896000000009 0.39994300000000094 0.43300990000000117
0.3872224000000009 0.40047580000000094 0.4333429000000012
0.3887209000000009 0.40194100000000094 0.4347748000000012
0.3878551000000009 0.4014748000000009 0.4369060000000012
0.3905191000000009 0.4013749000000009 0.4370725000000012
0.3912850000000009 0.4001761000000009 0.4386376000000012
0.39111850000000087 0.4000429000000009 0.4391704000000012
0.39295000000000085 0.3998431000000009 0.4390705000000012
0.39318310000000084 0.3995434000000009 0.4409686000000012
0.39508120000000085 0.3998098000000009 0.4424005000000012
0.39681280000000085 0.4022407000000009 0.4436992000000012
0.3991438000000009 0.4036060000000009 0.4434328000000012
0.3995767000000009 0.4032397000000009 0.4448980000000012
0.39844450000000087 0.4057372000000009 0.4468960000000012
0.39811150000000084 0.4057372000000009 0.4493602000000012
0.39964330000000087 0.4051711000000009 0.4513915000000012
0.40067560000000085 0.4046383000000009 0.45265690000000125
0.40040920000000085 0.4073356000000009 0.45382240000000124
0.4000762000000008 0.40740220000000094 0.45492130000000125
0.3998764000000008 0.4077685000000009 0.45582040000000124
0.3999430000000008 0.4072024000000009 0.45595360000000124
0.40117510000000084 0.4072024000000009 0.45518770000000125
0.4012750000000008 0.4080349000000009 0.45442180000000126
0.4015081000000008 0.4092337000000009 0.45668620000000126
0.4028401000000008 0.4079017000000009 0.4574188000000013
0.4019743000000008 0.4098997000000009 0.45641980000000126
0.40340620000000077 0.4084012000000009 0.45868420000000126
0.4037392000000008 0.4070359000000009 0.4602160000000013
0.4056373000000008 0.40590370000000087 0.4617478000000013
0.4055374000000008 0.40760200000000085 0.4628134000000013
0.40720240000000085 0.40706920000000085 0.4629466000000013
0.40969990000000084 0.40826800000000085 0.4645117000000013
0.41096530000000087 0.40850110000000084 0.46537750000000133
0.4127302000000009 0.40896730000000087 0.46660960000000135
0.41239720000000085 0.40870090000000087 0.46764190000000133
0.41209750000000084 0.40973320000000085 0.46790830000000133
0.41322970000000087 0.4104658000000009 0.46750870000000133
0.4160935000000009 0.4136626000000009 0.47017270000000133
0.4148947000000009 0.4155940000000009 0.47260360000000134
0.4153609000000009 0.4148614000000009 0.47310310000000133
0.4176253000000009 0.4161268000000009 0.4732030000000013
0.41832460000000093 0.41699260000000093 0.47416870000000133
0.41792500000000093 0.41885740000000093 0.47456830000000133
0.41852440000000096 0.41859100000000093 0.4750678000000013
0.419390200000001 0.41912380000000093 0.4742353000000013
0.419923000000001 0.41985640000000096 0.4758670000000013
0.419556700000001 0.421488100000001 0.4747681000000013
0.42148810000000103 0.422287300000001 0.4754341000000013
0.42421870000000106 0.42088870000000095 0.4745350000000013
0.4261501000000011 0.42172120000000096 0.4746682000000013
0.4272823000000011 0.424318600000001 0.4754341000000013
0.42788170000000114 0.424951300000001 0.4762000000000013
0.42898060000000116 0.42435190000000095 0.4759003000000013
0.42974650000000114 0.42418540000000093 0.4777984000000013
0.43087870000000117 0.4237192000000009 0.47759860000000126
0.43207750000000117 0.4253176000000009 0.4780648000000013
0.43300990000000117 0.4267828000000009 0.4799629000000013
0.4327768000000012 0.4271491000000009 0.4787641000000013
0.4354408000000012 0.4269826000000009 0.4805290000000013
0.4374721000000012 0.42615010000000086 0.48232720000000134
0.4378384000000012 0.42798160000000085 0.48345940000000137
0.4373056000000012 0.42901390000000084 0.48302650000000136
0.4362400000000012 0.43147810000000086 0.48379240000000134
0.4362733000000012 0.43157800000000085 0.48532420000000137
0.4366729000000012 0.43161130000000086 0.4849579000000014
0.4391371000000012 0.4338091000000009 0.48425860000000137
0.43917040000000124 0.4370392000000009 0.4849579000000014
0.43960330000000125 0.4383379000000009 0.4852909000000014
0.44023600000000124 0.4398031000000009 0.4869226000000014
0.44030260000000127 0.4417012000000009 0.48845440000000145
0.4398031000000013 0.4422673000000009 0.48955330000000147
0.44016940000000127 0.44339950000000095 0.48965320000000145
0.43970320000000124 0.44243380000000093 0.48928690000000147
0.44176780000000127 0.44123500000000093 0.4902526000000015
0.44226730000000125 0.4424005000000009 0.4932163000000015
0.44383240000000124 0.4415680000000009 0.4960801000000015
0.44383240000000124 0.4418011000000009 0.4976452000000015
0.4441987000000012 0.44080210000000086 0.4986775000000015
0.4439989000000012 0.4407022000000009 0.4998430000000015
0.4442653000000012 0.4401694000000009 0.49871080000000145
0.4447648000000012 0.43970320000000085 0.5008420000000015
0.44526430000000117 0.43947010000000086 0.5033728000000015
0.4459969000000012 0.44213410000000086 0.5056039000000015
0.4478950000000012 0.4433662000000009 0.5065363000000016
0.4469959000000012 0.4434328000000009 0.5069359000000017
0.45025930000000125 0.4432996000000009 0.5079682000000016
0.45199090000000125 0.4426669000000009 0.5075686000000016
0.4532563000000013 0.4434328000000009 0.5100661000000016
0.45322300000000126 0.4453975000000009 0.5103991000000017
0.45345610000000125 0.4466629000000009 0.5099995000000016
0.45355600000000124 0.4471957000000009 0.5095333000000016
0.45495460000000126 0.44872750000000095 0.5111650000000016
0.45575380000000126 0.44936020000000093 0.5121973000000016
0.4560535000000013 0.4484944000000009 0.5109652000000017
0.45655300000000126 0.4475953000000009 0.5108320000000016
0.4564531000000013 0.44939350000000094 0.5115979000000016
0.4567195000000013 0.45055900000000093 0.5137624000000016
0.4555540000000013 0.4522573000000009 0.5143285000000016
0.4564198000000013 0.45229060000000093 0.5159602000000016
0.45901720000000135 0.45342280000000096 0.5148946000000016
0.45991630000000133 0.453489400000001 0.5151277000000016
0.4620142000000013 0.45425530000000097 0.5176585000000017
0.46271350000000133 0.45582040000000096 0.5177251000000017
0.4625137000000013 0.45485470000000094 0.5188906000000018
0.46497790000000133 0.45612010000000097 0.5185909000000017
0.46604350000000133 0.45811810000000097 0.5206555000000017
0.46541080000000135 0.460315900000001 0.5225536000000017
0.46597690000000136 0.460981900000001 0.5247514000000018
0.46794160000000135 0.461348200000001 0.5250844000000018
0.47043910000000133 0.461215000000001 0.5266828000000018
0.47277010000000136 0.461781100000001 0.5276485000000017
0.4735027000000014 0.463412800000001 0.5283478000000017
0.4737025000000014 0.46521100000000104 0.5308786000000018
0.4762000000000014 0.46727560000000107 0.5305789000000017
0.4776319000000014 0.4674421000000011 0.5321773000000017
0.47853100000000137 0.4674421000000011 0.5324437000000017
0.47839780000000137 0.4666762000000011 0.5317444000000018
0.4784644000000014 0.4681414000000011 0.5337424000000018
0.4789972000000014 0.4702060000000011 0.5347747000000018
0.4800628000000014 0.46957330000000114 0.5347081000000018
0.4799296000000014 0.47057230000000116 0.5366395000000018
0.4792303000000014 0.4711717000000012 0.5379715000000018
0.48052900000000137 0.4707721000000012 0.5397697000000018
0.48186100000000137 0.4720042000000012 0.5411350000000018
0.48226060000000137 0.4717711000000012 0.5421007000000018
0.48355930000000136 0.4728367000000012 0.5451310000000018
0.48485800000000134 0.4751011000000012 0.5456305000000018
0.48579040000000134 0.4749346000000012 0.5455639000000018
0.48632320000000134 0.4745017000000012 0.5481946000000018
0.48775510000000133 0.4761667000000012 0.5490937000000018
0.48818800000000134 0.4757338000000012 0.5504257000000018
0.48872080000000134 0.47673280000000123 0.5503591000000018
0.49038580000000137 0.47570050000000125 0.5507254000000018
0.48998620000000137 0.47739880000000123 0.5521573000000018
0.4904191000000014 0.4778983000000012 0.5509252000000019
0.4901860000000014 0.47876410000000125 0.551857600000002
0.4915180000000014 0.47753200000000123 0.552423700000002
0.4925836000000014 0.47879740000000126 0.5525902000000019
0.4930831000000014 0.4791304000000013 0.5530231000000019
0.49411540000000137 0.4806289000000013 0.5523238000000019
0.49544740000000137 0.4802626000000013 0.5519908000000019
0.4969459000000014 0.4803958000000013 0.5520241000000019
0.49608010000000136 0.4819609000000013 0.5505589000000018
0.49824460000000137 0.4846249000000013 0.5511583000000019
0.4984111000000014 0.48509110000000133 0.5540554000000019
0.49784500000000137 0.4873222000000013 0.5535559000000019
0.49731220000000137 0.4860901000000013 0.5548879000000019
0.49731220000000137 0.48642310000000133 0.5550211000000019
0.5004424000000014 0.48672280000000134 0.5576185000000019
0.5008753000000014 0.48622330000000136 0.5605822000000019
0.5020741000000014 0.48602350000000133 0.560682100000002
0.5022073000000015 0.48682270000000133 0.5608819000000019
0.5032396000000015 0.4863898000000013 0.562047400000002
0.5055706000000014 0.48672280000000134 0.564378400000002
0.5073022000000015 0.48569050000000136 0.566076700000002
0.5069692000000015 0.48652300000000137 0.564844600000002
0.5078683000000015 0.4880548000000014 0.5662432000000021
0.5091670000000015 0.4873555000000014 0.565310800000002
0.5106655000000014 0.48728890000000136 0.564877900000002
0.5093335000000014 0.4880215000000014 0.564877900000002
0.5093668000000015 0.4885876000000014 0.5663431000000021
0.5115646000000015 0.4906855000000014 0.5675752000000021
0.5114647000000014 0.4897531000000014 0.5674087000000021
0.5133961000000015 0.4920841000000014 0.5672422000000021
0.5152942000000015 0.4910185000000014 0.5685076000000021
0.5160268000000015 0.4911850000000014 0.5690404000000021
0.5182579000000015 0.49121830000000144 0.5711383000000021
0.5182912000000015 0.49321630000000144 0.5723038000000021
0.5174920000000015 0.49488130000000147 0.5712382000000021
0.5189239000000015 0.49448170000000147 0.5727034000000022
0.5183911000000015 0.49621330000000147 0.5753341000000022
0.5183911000000015 0.49924360000000145 0.5744017000000021
0.5187574000000016 0.5013748000000015 0.5763997000000022
0.5179915000000016 0.5023405000000014 0.5767993000000022
0.5197564000000016 0.5028400000000014 0.5783644000000022
0.5209552000000016 0.5029399000000014 0.5775985000000022
0.5214880000000016 0.5061367000000014 0.5779981000000023
0.5223205000000016 0.5077684000000015 0.5784643000000023
0.5238856000000016 0.5102326000000015 0.5772655000000022
0.5225536000000016 0.5099995000000015 0.5790637000000022
0.5237857000000016 0.5122306000000015 0.5779315000000022
0.5252509000000016 0.5145616000000015 0.5787973000000022
0.5275819000000016 0.5156938000000015 0.5785642000000022
0.5297131000000016 0.5143951000000015 0.5786974000000022
0.5314447000000017 0.5147947000000016 0.5814613000000023
0.5312782000000017 0.5172922000000016 0.5825935000000023
0.5311783000000017 0.5172589000000016 0.5827267000000024
0.5310451000000016 0.5173588000000017 0.5827600000000024
0.5305789000000016 0.5202559000000017 0.5836258000000024
0.5310118000000016 0.5193235000000016 0.5848912000000024
0.5326102000000016 0.5212549000000016 0.5861899000000024
0.5352409000000016 0.5202559000000017 0.5866894000000024
0.5362399000000015 0.5192236000000017 0.5884543000000023
0.5358736000000015 0.5209885000000016 0.5915179000000024
0.5355073000000015 0.5236192000000016 0.5920840000000024
0.5349079000000014 0.5237857000000016 0.5934160000000024
0.5351743000000014 0.5226535000000015 0.5927167000000024
0.5355406000000015 0.5230531000000016 0.5943151000000024
0.5352076000000014 0.5225536000000016 0.5972455000000024
0.5378383000000014 0.5232529000000016 0.5983111000000024
0.5400694000000015 0.5250844000000016 0.5996764000000024
0.5406355000000015 0.5272489000000016 0.6009085000000024
0.5405023000000014 0.5289472000000016 0.6012748000000024
0.5425003000000015 0.5303791000000017 0.6009085000000024
0.5429332000000014 0.5295466000000016 0.6017743000000024
0.5438656000000015 0.5302792000000016 0.6030064000000024
0.5448646000000015 0.5324770000000016 0.6046048000000024
0.5461633000000015 0.5335426000000016 0.6065029000000024
0.5480947000000015 0.5340088000000016 0.6080347000000024
0.5492602000000015 0.5350744000000016 0.6084676000000023
0.5512915000000015 0.5357737000000016 0.6075352000000023
0.5519575000000015 0.5348080000000016 0.6081346000000023
0.5531896000000015 0.5366728000000016 0.6094666000000023
0.5549212000000016 0.5372389000000016 0.6103657000000023
0.5559535000000015 0.5377717000000016 0.6109318000000024
0.5586508000000016 0.5379382000000016 0.6131962000000024
0.5597497000000016 0.5407687000000015 0.6159934000000025
0.5604157000000016 0.5431330000000015 0.6185908000000024
0.5603491000000016 0.5431330000000015 0.6200560000000025
0.5611150000000016 0.5452309000000015 0.6196231000000025
0.5636125000000016 0.5453641000000016 0.6211549000000025
0.5646448000000016 0.5458303000000015 0.6237190000000025
0.5649445000000016 0.5475619000000016 0.6240853000000025
0.5660101000000016 0.5497930000000016 0.6263497000000026
0.5687740000000017 0.5504257000000017 0.6265495000000025
0.5705056000000017 0.5522905000000017 0.6281812000000025
0.5699062000000017 0.5520241000000017 0.6283144000000026
0.5694733000000017 0.5542885000000017 0.6292468000000027
0.5693068000000018 0.5528899000000017 0.6304789000000026
0.5709718000000018 0.5537890000000018 0.6312448000000026
0.5708386000000018 0.5556871000000018 0.6320440000000026
0.5694400000000017 0.5560867000000018 0.6313114000000026
0.5711383000000018 0.5560867000000018 0.6336757000000026
0.5735692000000018 0.5571523000000018 0.6338755000000026
0.5758003000000018 0.5585176000000018 0.6346081000000026
0.5778649000000018 0.5580847000000019 0.6346081000000026
0.5801626000000017 0.5602159000000019 0.6347746000000025
0.5807287000000018 0.5622472000000018 0.6378382000000026
0.5811616000000017 0.5629798000000018 0.6383710000000026
0.5817277000000017 0.5636458000000019 0.6369724000000025
0.5829265000000018 0.5654773000000018 0.6387706000000025
0.5827600000000018 0.5647114000000019 0.6392701000000025
0.5818609000000018 0.5658769000000019 0.6400027000000025
0.5823937000000018 0.567841600000002 0.6399361000000025
0.5812615000000018 0.5693734000000019 0.6397696000000025
0.5809285000000017 0.5698729000000019 0.6387040000000025
0.5834926000000017 0.5707387000000019 0.6389704000000025
0.5841586000000017 0.5710384000000019 0.6415678000000025
0.5838589000000017 0.5723371000000019 0.6417343000000024
0.5854240000000017 0.5742352000000019 0.6437656000000024
0.5882212000000018 0.5749678000000019 0.6437323000000024
0.5883877000000017 0.575334100000002 0.6447646000000024
0.5897530000000017 0.576433000000002 0.6434326000000024
0.5924836000000018 0.5787640000000019 0.6429664000000024
0.5917177000000018 0.578064700000002 0.6430330000000024
0.5933161000000018 0.577798300000002 0.6446980000000024
0.5959801000000018 0.5795632000000019 0.6457636000000024
0.5958469000000017 0.5805289000000019 0.6453973000000024
0.5979781000000017 0.5794966000000019 0.6471622000000024
0.6001426000000017 0.5795299000000019 0.6479614000000024
0.5993434000000017 0.580728700000002 0.6480946000000024
0.6009751000000018 0.582593500000002 0.6482278000000025
0.6028399000000018 0.583925500000002 0.6495598000000025
0.6027400000000017 0.585057700000002 0.6519241000000024
0.6024403000000017 0.586356400000002 0.6508918000000025
0.6043717000000017 0.584957800000002 0.6513913000000024
0.6065029000000017 0.586123300000002 0.6500260000000024
0.6063031000000018 0.587821600000002 0.6514912000000025
0.6075019000000018 0.588088000000002 0.6521905000000024
0.6081346000000019 0.5902525000000021 0.6531895000000024
0.6081679000000019 0.5902858000000021 0.6530230000000025
0.6102325000000018 0.5914180000000021 0.6538888000000025
0.6117976000000018 0.5940154000000021 0.6535891000000025
0.6127633000000018 0.5966794000000021 0.6548545000000024
0.6133960000000018 0.5983111000000021 0.6554539000000025
0.6158935000000019 0.5989105000000021 0.6561532000000024
0.6180580000000019 0.5981779000000021 0.6571522000000024
0.6185908000000019 0.5999428000000021 0.6576850000000024
0.6175252000000019 0.6000760000000022 0.6601159000000024
0.6192901000000018 0.6018742000000021 0.6615145000000024
0.6202891000000018 0.6021406000000021 0.6607153000000024
0.6222871000000019 0.6032062000000021 0.6621139000000025
0.6242518000000019 0.6026734000000021 0.6607486000000025
0.6237190000000019 0.6024403000000021 0.6629797000000025
0.6244849000000019 0.6011416000000022 0.6642118000000025
0.6245515000000019 0.6032395000000021 0.6658768000000025
0.624618100000002 0.6040720000000022 0.6658435000000025
0.627648400000002 0.6047380000000022 0.6670756000000024
0.629779600000002 0.6036391000000022 0.6685741000000024
0.630878500000002 0.6032728000000022 0.6688072000000024
0.633509200000002 0.6027400000000022 0.6696064000000024
0.633875500000002 0.6037057000000021 0.6693400000000024
0.634042000000002 0.6059701000000022 0.6684076000000023
0.635740300000002 0.6060700000000022 0.6709384000000024
0.636706000000002 0.6076018000000022 0.6729364000000024
0.636772600000002 0.6100993000000022 0.6756670000000025
0.6382378000000021 0.6102325000000023 0.6760000000000025
0.6393367000000021 0.6094000000000023 0.6782311000000025
0.6402691000000021 0.6119974000000022 0.6781645000000025
0.6412015000000022 0.6131962000000023 0.6800626000000025
0.6408685000000022 0.6128632000000023 0.6801958000000026
0.6420673000000022 0.6151276000000023 0.6817942000000026
0.6417343000000022 0.6181579000000024 0.6831595000000026
0.6435325000000022 0.6203557000000024 0.6846913000000026
0.6434992000000022 0.6202558000000024 0.6857902000000026
0.6449311000000022 0.6202891000000024 0.6872554000000026
0.6449977000000022 0.6229864000000024 0.6884875000000026
0.6452308000000022 0.6232195000000024 0.6879880000000026
0.6451309000000022 0.6229531000000024 0.6872554000000026
0.6452308000000022 0.6225868000000023 0.6888538000000026
0.6447646000000022 0.6238855000000023 0.6894199000000026
0.6440653000000023 0.6249178000000023 0.6899527000000026
0.6429331000000023 0.6261832000000023 0.6896863000000026
0.6432661000000023 0.6271489000000022 0.6903190000000027
0.6446980000000023 0.6282478000000022 0.6908851000000027
0.6467293000000023 0.6302791000000022 0.6931828000000027
0.6463630000000022 0.6309784000000022 0.6946147000000027
0.6474619000000023 0.6329098000000022 0.6955471000000027
0.6474952000000023 0.6359734000000022 0.6971122000000027
0.6478615000000023 0.6351742000000022 0.6979447000000027
0.6482278000000024 0.6368059000000023 0.6966793000000028
0.6479614000000024 0.6362731000000023 0.6971122000000027
0.6486607000000023 0.6369058000000023 0.6976117000000027
0.6490270000000024 0.6384376000000023 0.6982111000000027
0.6486607000000023 0.6385042000000023 0.6995098000000027
0.6484609000000023 0.6378049000000023 0.6994432000000027
0.6493933000000024 0.6394033000000023 0.7008751000000027
0.6479614000000024 0.6419008000000024 0.7032394000000027
0.6496930000000024 0.6414346000000024 0.7048045000000027
0.6503923000000024 0.6410017000000025 0.7045381000000027
0.6518242000000024 0.6409351000000024 0.7057369000000028
0.6502924000000024 0.6414679000000024 0.7074019000000028
0.6513580000000024 0.6422005000000024 0.7065694000000028
0.6520240000000025 0.6433993000000024 0.7088338000000028
0.6543217000000024 0.6453973000000025 0.7087672000000028
0.6544882000000024 0.6454306000000025 0.7088005000000028
0.6549877000000024 0.6445981000000025 0.7094332000000029
0.6556204000000024 0.6464296000000025 0.7087339000000029
0.6581512000000025 0.6475951000000025 0.7080013000000029
0.6577516000000024 0.6489604000000025 0.7084675000000029
0.6569857000000024 0.6492934000000026 0.7089004000000029
0.6587839000000024 0.6512248000000026 0.7084009000000029
0.6611482000000024 0.6522571000000026 0.7087339000000029
0.6604822000000024 0.6524569000000026 0.7095997000000029
0.6597829000000024 0.6533227000000026 0.7109317000000029
0.6620806000000024 0.6527566000000026 0.7113646000000029
0.6634459000000024 0.6558868000000025 0.7127299000000029
0.6639121000000023 0.6582844000000025 0.7127965000000029
0.6665761000000023 0.6602491000000026 0.715327300000003
0.6671755000000024 0.6588838000000026 0.718091200000003
0.6696397000000024 0.6580513000000026 0.7205554000000031
0.6690403000000024 0.6601159000000025 0.719456500000003
0.6697729000000023 0.6614479000000025 0.7189570000000031
0.6704722000000023 0.6639787000000026 0.7209550000000031
0.6706054000000023 0.6646114000000026 0.7208884000000031
0.6693733000000024 0.6654439000000026 0.7219540000000031
0.6688405000000024 0.6667426000000026 0.7233526000000031
0.6691735000000024 0.6685075000000026 0.7233859000000031
0.6698062000000025 0.6711715000000026 0.7248511000000032
0.6696064000000025 0.6723037000000026 0.7262830000000032
0.6700726000000025 0.6753340000000027 0.7278148000000032
0.6687406000000025 0.6777316000000027 0.7286806000000032
0.6690403000000025 0.6797629000000026 0.7296796000000032
0.6707719000000025 0.6819274000000026 0.7315444000000032
0.6717043000000026 0.6828931000000026 0.7323103000000032
0.6735691000000026 0.6834592000000026 0.7344415000000032
0.6744016000000026 0.6847579000000026 0.7349743000000032
0.6749344000000026 0.6845248000000026 0.7361065000000032
0.6745348000000025 0.6856237000000026 0.7381045000000033
0.6759001000000026 0.6852574000000026 0.7377715000000032
0.6754006000000026 0.6872887000000025 0.7384375000000033
0.6744682000000025 0.6893200000000025 0.7395031000000033
0.6742018000000025 0.6907852000000025 0.7401025000000033
0.6755671000000025 0.6906520000000025 0.7427332000000033
0.6781645000000025 0.6911848000000025 0.7446313000000033
0.6790636000000025 0.6927832000000025 0.7452307000000034
0.6805954000000025 0.6917176000000025 0.7460965000000034
0.6803290000000025 0.6911848000000025 0.7481278000000033
0.6794299000000025 0.6933493000000025 0.7487272000000034
0.6790303000000024 0.6943483000000025 0.7507585000000033
0.6792967000000024 0.6967792000000025 0.7530229000000034
0.6798961000000024 0.6965794000000025 0.7547545000000034
0.6817276000000024 0.6984775000000025 0.7556869000000035
0.6836923000000025 0.6998761000000026 0.7574518000000035
0.6846580000000024 0.7026733000000026 0.7569190000000035
0.6870556000000024 0.7035391000000026 0.7558867000000035
0.6879547000000025 0.7052707000000027 0.7559200000000035
0.6871555000000025 0.7070689000000027 0.7575184000000035
0.6885208000000025 0.7071022000000027 0.7574851000000035
0.6892534000000025 0.7073686000000027 0.7596496000000035
0.6892201000000024 0.7078681000000027 0.7594831000000035
0.6901192000000025 0.7078348000000027 0.7595830000000036
0.6890203000000025 0.7081678000000027 0.7617142000000036
0.6906187000000025 0.7109650000000027 0.7624801000000035
0.6924502000000025 0.7126633000000028 0.7647112000000036
0.6936157000000025 0.7134625000000028 0.7669423000000036
0.6945814000000025 0.7141951000000027 0.7664095000000036
0.6954805000000025 0.7162597000000027 0.7676416000000036
0.6959134000000025 0.7159267000000027 0.7687072000000036
0.6973120000000025 0.7150276000000026 0.7716376000000036
0.6967792000000025 0.7147945000000027 0.7735357000000036
0.6981778000000025 0.7144948000000027 0.7727365000000036
0.6975451000000025 0.7132294000000027 0.7745347000000036
0.6992101000000025 0.7137622000000027 0.7736689000000035
0.7012747000000025 0.7167925000000027 0.7735357000000035
0.7005088000000025 0.7169590000000027 0.7734691000000035
0.7007086000000025 0.7189570000000027 0.7754338000000035
0.7035724000000024 0.7197895000000027 0.7783309000000035
0.7056037000000024 0.7215544000000027 0.7787638000000034
0.7056370000000024 0.7232527000000027 0.7785973000000035
0.7044382000000023 0.7225201000000028 0.7786639000000035
0.7049044000000023 0.7225867000000028 0.7802956000000035
0.7070356000000023 0.7216210000000028 0.7786639000000035
0.7059700000000023 0.7237855000000029 0.7782310000000036
0.7072687000000023 0.7249510000000029 0.7799959000000035
0.7066693000000023 0.7252840000000029 0.7816609000000035
0.7087339000000022 0.7252174000000029 0.7841917000000036
0.7077016000000023 0.7244515000000029 0.7868890000000036
0.7088338000000023 0.725617000000003 0.7880212000000036
0.7097662000000023 0.727581700000003 0.7898527000000036
0.7108651000000024 0.728647300000003 0.7900858000000036
0.7131961000000023 0.728214400000003 0.7923835000000036
0.7136623000000023 0.729013600000003 0.7925167000000036
0.7145614000000023 0.7296796000000031 0.7923502000000037
0.7144615000000023 0.7301458000000031 0.7914178000000036
0.7154272000000023 0.729546400000003 0.7929829000000036
0.7163596000000023 0.729746200000003 0.7952473000000037
0.7167925000000023 0.729579700000003 0.7959466000000036
0.7184242000000023 0.7307452000000031 0.7983775000000036
0.7198561000000023 0.731710900000003 0.7992100000000036
0.7208218000000023 0.732776500000003 0.7990768000000036
0.7220539000000022 0.7352407000000031 0.8005087000000036
0.7240186000000023 0.7366060000000031 0.8024734000000037
0.7238188000000023 0.7379713000000031 0.8043049000000037
0.7254505000000023 0.7381378000000031 0.8053039000000036
0.7267825000000023 0.737738200000003 0.8053705000000037
0.7273486000000023 0.7378714000000031 0.8048044000000036
0.7264162000000023 0.7390369000000031 0.8062696000000037
0.7266160000000023 0.7416343000000031 0.8082676000000037
0.7278148000000023 0.7435324000000031 0.8073685000000037
0.7279813000000023 0.7455304000000031 0.8079679000000037
0.7281145000000023 0.7464628000000032 0.8086672000000037
0.7280146000000023 0.7471288000000033 0.8077348000000036
0.7279813000000023 0.7478281000000032 0.8094331000000037
0.7284808000000023 0.7473952000000033 0.8103655000000037
0.7296130000000023 0.7492600000000033 0.8116309000000037
0.7305787000000022 0.7501924000000033 0.8139286000000037
0.7334425000000022 0.7502257000000033 0.8129962000000036
0.7343083000000022 0.7501924000000033 0.8138953000000037
0.7346413000000023 0.7515910000000033 0.8160598000000037
0.7369057000000023 0.7539886000000033 0.8158267000000037
0.7382044000000023 0.7561864000000034 0.8149942000000037
0.7406686000000023 0.7562863000000034 0.8167591000000036
0.7398694000000023 0.7570855000000034 0.8196229000000036
0.7398028000000023 0.7566526000000035 0.8186239000000036
0.7416343000000023 0.7589503000000034 0.8192899000000037
0.7436656000000023 0.7586173000000034 0.8190235000000037
0.7445314000000023 0.7584508000000034 0.8205886000000037
0.7476949000000023 0.7577515000000035 0.8203222000000037
0.7478281000000023 0.7598494000000034 0.8222869000000037
0.7485274000000023 0.7605487000000034 0.8234524000000037
0.7479280000000023 0.7596829000000034 0.8222869000000037
0.7475284000000022 0.7607152000000034 0.8239852000000037
0.7502257000000022 0.7601491000000034 0.8245180000000037
0.7501924000000022 0.7628797000000034 0.8256169000000038
0.7508251000000022 0.7621804000000034 0.8272819000000038
0.7522570000000023 0.7640119000000034 0.8280811000000038
0.7545547000000022 0.7658101000000034 0.8291467000000038
0.7559533000000023 0.7655104000000034 0.8292466000000038
0.7565194000000023 0.7660765000000034 0.8314111000000038
0.7570189000000023 0.7671088000000034 0.8311780000000039
0.7576849000000023 0.7676749000000034 0.8309782000000039
0.7593166000000023 0.7690069000000034 0.8313112000000039
0.7602490000000024 0.7708717000000034 0.8313445000000039
0.7624468000000024 0.7724368000000034 0.831677500000004
0.7627132000000024 0.7748344000000034 0.833309200000004
0.7622470000000025 0.7738354000000034 0.835240600000004
0.7645780000000024 0.7754005000000034 0.837138700000004
0.7637122000000024 0.7773985000000034 0.838670500000004
0.7659766000000024 0.7799959000000034 0.839469700000004
0.7662097000000024 0.7813612000000034 0.838903600000004
0.7679080000000025 0.7826266000000034 0.8388370000000039
0.7689403000000025 0.7816942000000033 0.838370800000004
0.7711048000000025 0.7807951000000033 0.837804700000004
0.7711714000000025 0.7816609000000033 0.838437400000004
0.7729696000000025 0.7822270000000033 0.839702800000004
0.7725700000000024 0.7850242000000034 0.8391034000000039
0.7735024000000025 0.7857235000000033 0.839236600000004
0.7730362000000025 0.7849576000000034 0.840302200000004
0.7753006000000026 0.7850242000000034 0.840601900000004
0.7755004000000025 0.7867558000000034 0.841567600000004
0.7772320000000026 0.7879546000000035 0.8406352000000039
0.7778980000000026 0.7901524000000035 0.841534300000004
0.7790968000000027 0.7905853000000035 0.8428330000000039
0.7818607000000027 0.7922170000000035 0.845064100000004
0.7826932000000028 0.7936822000000036 0.846329500000004
0.7852240000000028 0.7947811000000036 0.8462296000000039
0.7865893000000028 0.7957468000000035 0.8487937000000039
0.7884208000000028 0.7966126000000036 0.8503921000000039
0.7878547000000028 0.7968124000000035 0.8505919000000038
0.7873552000000028 0.7976116000000035 0.8504587000000038
0.7876216000000028 0.7970788000000035 0.8505919000000038
0.7889869000000028 0.7965793000000035 0.8529229000000038
0.7909183000000028 0.7977115000000036 0.8526565000000038
0.7922836000000029 0.7981777000000035 0.8527231000000038
0.7916842000000028 0.7993099000000036 0.8548210000000038
0.7909516000000029 0.8014744000000036 0.8568190000000039
0.7925167000000028 0.8017075000000036 0.8570521000000039
0.7942150000000029 0.8020738000000036 0.8582509000000039
0.7959799000000028 0.8033059000000036 0.860981500000004
0.7978780000000029 0.8056369000000035 0.8616808000000039
0.7982443000000029 0.8047711000000035 0.8627131000000039
0.7995763000000029 0.8050375000000035 0.8640784000000039
0.7987105000000029 0.8060032000000035 0.8664427000000039
0.8003089000000029 0.8068690000000035 0.8672086000000039
0.8029063000000028 0.8061364000000035 0.8675749000000039
0.8028064000000028 0.8073685000000035 0.8673085000000039
0.8058367000000028 0.8087671000000035 0.867142000000004
0.8070688000000028 0.8096329000000035 0.8670754000000039
0.8071354000000028 0.8104987000000036 0.868274200000004
0.8085673000000029 0.8121637000000036 0.868673800000004
0.8096329000000029 0.8123635000000036 0.8684407000000041
0.8117641000000029 0.8139952000000036 0.8701390000000041
0.8126965000000029 0.8140285000000036 0.8714710000000041
0.8115976000000029 0.8131960000000036 0.8703055000000041
0.8127298000000029 0.8151607000000036 0.8706718000000041
0.8148610000000029 0.8170255000000036 0.8718706000000042
0.8153605000000029 0.8191234000000036 0.8715376000000041
0.815493700000003 0.8223535000000036 0.8708716000000041
